Open
Open

The Associated Press

CHICAGO




CHICAGO (AP) — Early trading on the Chicago Board of Trade Thu.:
Open  High  Low   Last   Chg. WHEAT                                   5,000 bu minimum; cents per bushel    Mar      447¾  450¾  444¾  447¼        May      460¼  463½  457    462¼   +2¾Jul      474¾  478    471    477     +2¼Sep      490½  494½  488½  493¼   +2  Dec      512    515½  509½  514½   +2  Mar      527    530¾  525¼  530¾   +2½Jul      530    534½  529¼  534½   +2½Dec      553¼  553¼  553¼  553¼   + ¼Est. sales 60,478.  Wed.'s sales 172,815Wed.'s open int 486,770                CORN                                     5,000 bu minimum; cents per bushel    Mar      365½  366½  364¼  365¾        May      373¾  374¾  372½  374          Jul      382    382½  380¼  381¾        Sep      388¾  389¼  387¼  388½   — ¼Dec      396    397¼  395¼  396½        Mar      404    405    403    404¼        May      408    409    407¾  409     + ¼Jul      412½  413¼  412½  413          Sep      409    409    409    409     +1  Dec      410    411¼  409¾  410¾   + ¼Mar      417    417    416¾  416¾        Jul      425    425    425    425     + ¼Est. sales 188,320.  Wed.'s sales 495,774Wed.'s open int 1,684,295,  up 2,372   OATS                                      5,000 bu minimum; cents per bushel    Mar      258    264½  257¼  264     +5¾May      258¼  264¾  258    264     +4½Jul      258½  262    256½  262     +3½Sep      256¾  256¾  256¾  256¾   +2  Dec      256½  257¼  256½  257¼   +2½Est. sales 544.  Wed.'s sales 997      Wed.'s open int 5,743                  SOYBEANS                               5,000 bu minimum; cents per bushel    Mar     1034   1035¾ 1027¼ 1034¼        May     1045   1047   1038¼ 1046½   +1  Jul     1054¾ 1056¼ 1047¾ 1056     +1  Aug     1054¾ 1056¾ 1048½ 1056¾   +1¼Sep     1036¼ 1040¼ 1035½ 1040          Nov     1027   1029   1022   1028¼   + ¼Jan     1030   1032   1026¼ 1031¾   + ¼Mar     1028   1028¼ 1023¾ 1027     —1  May     1026½ 1028¾ 1024½ 1026¾   —1½Jul     1032   1032   1028½ 1029     —3  Nov     1001   1001    996½ 1000¼   + ¼Est. sales 123,779.  Wed.'s sales 364,298Wed.'s open int 812,422,  up 8,052     SOYBEAN OIL                            60,000 lbs; cents per lb                 Mar      32.09  32.09  31.90  32.03   —.04May      32.28  32.29  32.10  32.23   —.05Jul      32.45  32.45  32.26  32.41   —.04Aug      32.54  32.54  32.35  32.48   —.06Sep      32.64  32.64  32.47  32.58   —.06Oct      32.67  32.70  32.55  32.67   —.06Dec      32.89  32.93  32.76  32.88   —.05Jan      33.09  33.09  32.96  33.05   —.04Mar      33.18  33.24  33.08  33.18   —.03May      33.29  33.29  33.17  33.29   —.04Jul      33.37  33.37  33.37  33.37   —.11Dec      33.37  33.37  33.33  33.33   —.06Est. sales 37,348.  Wed.'s sales 207,771Wed.'s open int 500,910                SOYBEAN MEAL                         100 tons; dollars per ton                Mar     378.00 378.40 375.10 378.20   +.20May     381.50 381.50 378.00 380.70   —.30Jul     379.80 380.40 377.40 380.20   +.40Aug     374.50 375.70 372.50 375.40   +.60Sep     368.20 371.40 368.10 370.50   +.10Oct     363.90 364.80 363.20 364.50   +.20Dec     361.90 363.30 360.30 363.00   +.20Jan     359.90 360.20 359.00 359.90        Mar     356.40 356.40 354.90 355.90   —.30May     354.80 355.80 354.00 354.80   —.80Oct     339.30 339.30 339.30 339.30  —8.20Dec     346.00 346.10 345.60 346.10   —.70Est. sales 54,750.  Wed.'s sales 173,534Wed.'s open int 480,402