BC-Merc Early
BC-Merc Early

The Associated Press

CHICAGO




CHICAGO (AP) — Early trading on the Chicago Mercantile Exchange Thu:
OpenHighLowLastChg.CATTLE40,000 lbs.; cents per lb.Feb129.00129.15128.50128.55—1.10Apr125.82126.12125.35125.55—.67Jun116.72116.90116.32116.52—.53Aug113.47113.67113.20113.35—.42Oct115.30115.52114.97115.20—.37Dec117.10117.40116.77117.22—.13Feb117.57117.90117.35117.70—.10Apr117.42117.55117.32117.50—.02Jun111.25111.25111.25111.25Est. sales 14,849.  Wed.'s sales 77,208Wed.'s open int 371,031FEEDER CATTLE50,000 lbs.; cents per lb.Mar146.37146.85145.75146.12—.53Apr148.82148.90147.90148.25—.85May149.60149.80148.87149.12—.93Aug152.97153.00152.00152.42—.60Sep152.27152.55151.77152.22—.40Oct151.65151.65151.50151.50—.95Nov150.80151.37150.80151.22—.38Jan146.25146.25146.15146.15—.42Est. sales 4,718.  Wed.'s sales 19,414Wed.'s open int 57,076HOGS,LEAN40,000 lbs.; cents per lb.Apr69.8270.1569.4769.92+.02May76.1576.3076.1076.22+.07Jun81.4081.9081.0081.67+.37Jul82.4282.9782.1582.77+.40Aug82.3282.8082.0782.62+.30Oct69.7570.3069.6770.22+.45Dec63.7564.2263.7564.02+.25Feb67.5767.7067.5067.50+.20Apr70.6770.6770.6770.67Est. sales 10,375.  Wed.'s sales 35,900Wed.'s open int 229,454,  up 2,289PORK BELLIES40,000 lbs.; cents per lb.No open contracts.