BC-USDA-Portland Grain
BC-USDA-Portland Grain

The Associated Press



JO—GR110Portland, OR    Thu Feb 22, 2018    USDA Market NewsPortland Daily Grain ReportBids as of 9:30 a.m. Pacific time; Subject to changeAll Bids in dollars per bushel.  Bids are limited and not fullyestablished in early trading.Bids for grains delivered to Portland, Oregon in dollars per bushel.In early trading March wheat futures trended 0.25 of a cent to 3.50cents per bushel higher than Wednesday?s closes.Bids for US 1 Soft White Wheat delivered to Portland in unit trains andbarges for February delivery for ordinary protein were not well tested inearly trading, but bids were indicated as steady compared to Wednesday?snoon bids for the same delivery period.  Some exporters were not issuingbids for nearby delivery.  Bids for guaranteed maximum 10.5 percent proteinwere well tested in early trading, but bids were indicated as highercompared to Wednesday?s noon bids for the same delivery period.  Someexporters were not issuing bids for nearby delivery.Bids for 11.5 percent protein US 1 Hard Red Winter Wheat for Februarydelivery were not well tested in early trading but bids were indicated ashigher compared to Wednesday?s bids for the same delivery period.  Someexporters were not issuing bids for nearby delivery.Bids for 14 percent protein US 1 Dark Northern Spring Wheat for Februarydelivery were not well tested in early trading but bids were indicated ashigher compared to Wednesday?s noon bids for the same delivery period.Some exporters are not issuing bids for nearby delivery.Bids for US 2 Yellow Corn delivered full coast in 110 car shuttle trainsduring February were not well tested in early trading, but bids wereindicated as higher compared to Wednesday?s noon bids for the same deliveryperiod.  Some exporters were not issuing bids for nearby delivery.Bids for US 1 Yellow Soybeans delivered full coast in 110 car shuttletrains during February were not well tested in early trading, but bids wereindicated as higher compared to Wednesday?s noon bids for the same deliveryperiod.  Some exporters were not issuing bids for nearby delivery.All wheat bids in dollars per bushelUS 1 Soft White Wheat - delivered by Unit Trains and BargesOrdinary proteinFeb                                       5.3000-5.6200Mar                                       5.3000-5.6200Apr                                       5.4600-5.6200May                                       5.4600-5.6200Aug NC                                    5.4450-5.5800Guaranteed maximum 10.5 pct proteinFeb                                       5.3000-5.4275Mar                                       5.3000-5.4600Apr                                       5.4600-5.4875May                                       5.4600-5.5175Aug NC                                    5.4450-5.4500—US 1 White Club Wheat - delivered by Unit Trains and BargesOrdinary proteinFeb                                       5.3500-5.6200Guaranteed maximum 10.5 pct proteinFeb                                       5.3500-5.4275—US 1 Hard Red Winter Wheat - (Exporter bids-falling numbers of 300 orbetter)Ordinary protein                            5.2325-5.432511 pct protein                              5.8325-6.182511.5 pct proteinFeb                                       6.1325-6.3825Mar                                       6.1825-6.3825Apr                                       6.3375-6.3875May                                       6.3375-6.387512 pct protein                              6.2825-6.532513 pct protein                              6.5825-6.8325—US 1 Dark Northern Spring Wheat (with a minimum of 300 falling numbers, a maximumof 0.5 part per million vomitoxin, and a maximum of one percent total damage)13 pct protein                              6.6850-6.835014 pct proteinFeb                                       7.1650-7.3150Mar                                       7.1650-7.3650Apr                                       7.3350-7.4850May                                       7.3350-7.535015 pct protein                              7.4850-7.635016 pct protein                              7.8050-7.9550—US 2 Yellow CornShuttle trains-Delivered full coast Pacific Northwest-BNFeb                                       4.8150-5.0150Mar                                       4.6150-4.7450Apr                                       4.6000-4.6700May                                       4.5500-4.6100Jun                                       4.5550-4.5750Jul                                       4.5550-4.5750—US 1 Yellow SoybeansShuttle trains-Delivered full coast Pacific Northwest-BNFeb                                       11.1675-11.2175Mar                                       11.1475-11.1675Apr                                       NAMay                                       NAJun                                       NAJul                                       NA—US 2 Heavy White Oats **                      3.1925** Not well tested.Exporter Bids Portland Rail/Barge             Jan 2018Averages in Dollars per bushelUS 1 Soft White by Unit Trains and Barges   5.3000US 1 Hard Red Winter (Ordinary protein)     5.0300US 1 Hard Red Winter (11.5% protein)        5.9200US 1 Dark Northern Spring (14% protein)     7.4100Source:    USDA Market News Service, Portland, ORNiki Davila 503-535-5001  Portland.LPGMN@ams.usda.gov24 Hour Market Report  503-535-5005www.ams.usda.gov/mnreports/jo—gr110.txtwww.ams.usda.gov/lpsmarketnewspage8:43 P nd