Close
Close

The Associated Press

CHICAGO




CHICAGO (AP) — Futures trading on the Chicago Board of Trade Thu.:
OpenHighLowSettleChg.WHEAT5,000 bu minimum; cents per bushelMar447¾452444¾451¼+4May460¼465457464¼+4¾Jul474¾479½471479+4¼Sep490½495½488½495¼+4Dec512517509½516¼+3¾Mar527532½525¼531¾+3½May535¼536¾535¼536¾+3¾Jul530537¼529¼536+4Sep542¼+4Dec553¼556¾553¼556¾+3¾Mar566+3¾May562+3¾Jul542¼+3¾Est. sales 132,660.  Wed.'s sales 184,172Wed.'s open int 486,770CORN5,000 bu minimum; cents per bushelMar365½367364¼366¾+1May373¾375¼372½374¾+¾Jul382382¾380¼382½+¾Sep388¾389½387¼389½+¾Dec396397½395¼397¼+¾Mar404405403405+¾May408409½407¾409½+¾Jul412½414412½413¾+¾Sep409409¼408½408½+½Dec410411¼409¾411¼+¾Mar417417¼416¾417¼+½May421¼+½Jul425425¾425425¾+1Sep422½+1Dec413¾414¾413¾414¾+½Jul423+½Dec419+½Est. sales 485,627.  Wed.'s sales 564,001Wed.'s open int 1,684,295,  up 2,372OATS5,000 bu minimum; cents per bushelMar258264½256¾257¾—½May258¼264¾258260¾+1¼Jul258½263256½260¾+2¼Sep256¾257256¾257+2¼Dec256½258256½258+3¼Mar258¼+3¼May258¼+3¼Jul263¼+3¼Sep264½+3¼Dec264½+3¼Jul263+3¼Sep263+3¼Est. sales 1,035.  Wed.'s sales 997Wed.'s open int 5,743SOYBEANS5,000 bu minimum; cents per bushelMar103410371027¼1032—2¼May10451048¼1038¼1043¼—2¼Jul1054¾1057½1047¾1052½—2½Aug1054¾10581048½1053—2½Sep1036¼1041½1035½1038½—1½Nov10271029½10221027¾—¼Jan10301032¾1026¼1031—½Mar10281028¾1023¾1026¾—1¼May1026½1029½1024½1025¾—2½Jul10321032¾1028½1030¾—1¼Aug1027½1027½10261026—1½Sep1012½—1½Nov10011001996½999¼—¾Jan1004¼—1Mar1004¾—1May1012¼—1Jul1015¼—¾Aug1007¾—¾Sep1004¾—1Nov983¼—1Jul983¼—1Nov983¼—1Est. sales 274,699.  Wed.'s sales 384,880Wed.'s open int 812,420,  up 8,050SOYBEAN OIL60,000 lbs; cents per lbMar32.0932.1831.9032.04—.03May32.2832.3932.1032.25—.03Jul32.4532.5532.2632.41—.04Aug32.5432.6332.3532.49—.05Sep32.6432.7232.4732.58—.06Oct32.6732.8132.5532.67—.06Dec32.8933.0332.7632.87—.06Jan33.0933.1732.9633.04—.05Mar33.1833.3133.0833.18—.03May33.2933.4233.1733.29—.04Jul33.3733.5533.3733.43—.05Aug33.41—.05Sep33.39—.06Oct33.3933.3933.3233.32—.01Dec33.3733.5033.3333.37—.02Jan33.45—.04Mar33.67—.03May33.66—.06Jul33.80—.06Aug33.79—.06Sep33.79—.06Oct33.79—.06Dec33.70—.06Jul33.70—.06Oct33.70—.06Dec33.70—.06Est. sales 125,677.  Wed.'s sales 393,377Wed.'s open int 500,910SOYBEAN MEAL100 tons; dollars per tonMar378.00378.60375.10376.90—1.10May381.50381.50378.00379.60—1.40Jul379.80380.80377.40379.10—.70Aug374.50376.10372.50374.60—.20Sep368.20371.80368.10370.60+.20Oct363.90365.40363.20364.40+.10Dec361.90363.90360.30362.70—.10Jan359.90360.70359.00359.60—.30Mar356.40357.10354.80354.90—1.30May354.80356.10354.00354.00—1.60Jul355.90356.10354.80354.80—1.60Aug353.40—1.70Sep350.90—1.60Oct339.30346.20339.30346.20—1.30Dec346.00346.30345.60345.90—.90Jan346.60—.90Mar347.60—.90May347.60—.90Jul349.10—.90Aug349.10—.90Sep349.10—.90Oct349.10—.90Dec345.90—.90Jul345.90—.90Oct345.90—.90Dec345.90—.90Est. sales 112,051.  Wed.'s sales 179,985Wed.'s open int 480,402