BC-USDA-Natl Sheep
BC-USDA-Natl Sheep

The Associated Press



SA—LS850San Angelo, TX    Thu Feb 22, 2018    USDA Market NewsNational Sheep Summary for Thursday, February 22, 2018Compared to last week at Ft. Collins, CO and Kalona, IA slaughterlambs and slaughter ewes steady; feeder lambs not well tested.  No salesin Equity Electronic Auction.Slaughter Lambs:  Choice and Prime 2-3 90-150 lbs:Ft. Collins:    wooled 100-125 lbs 200.00-227.50; 135-150 lbs 145.00-175.00.Kalona, IA:     wooled 123 lbs 158.00; 150-160 lbs 122.50-133.00.Virginia:       no test.Equity Elec:    no sales.Slaughter Lambs:  Choice and Prime 1-2:Ft. Collins:    50-80 lbs 220.00-232.50; 90-100 lbs 215.00-225.00.Kalona, IA:     42 lbs 277.50; 50-60 lbs 245.00-275.00; 60-80 lbs227.00-245.00; 80-90 lbs 185.00-190.00; 90-100 lbs190.00-200.00.Virginia:       no test.Slaughter Ewes:Ft. Collins:    Good 3-5 (very fleshy) 81.00-90.00; Good 2-3 (fleshy)72.50-82.50; Utility 1-2 (thin) 48.00; Cull 1(extremely thin) no test.Kalona, IA:     Good 3-4 (very fleshy) no test; Good 2-3 (fleshy)77.00-90.00; Utility and Good 1-3 (medium flesh) 70.00-80.00; Utility 1-2 (thin) 65.00-72.50; Cull 1 no test.Virginia:       Good 2-4 no test.Feeder Lambs:     Medium and Large 1-2:Ft. Collins:    no test.Kalona, IA:     no test.Replacement Ewes:  Medium and Large 1-2:Ft. Collins:    no test.Kalona:         no test.Sheep and lamb slaughter under federal inspection for the week to datetotaled 30,000 compared with 30,000 last week and 29,000 for last year.Source:  USDA Market News Service, San Angelo, TexasRebecca Sauder 325-653-1778www.ams.usda.gov/mnreports/SA—LS850.txtwww.ams.usda.gov/LSMarketNews1405c  rs