BC-USDA-Opening Bids KY Grain Elevs
BC-USDA-Opening Bids KY Grain Elevs

The Associated Press



SV—GR110Frankfort, KY     Thu, Feb 22, 2018     USDA-KY Dept of Ag Market NewsKentucky Daily Grain Elevators Bids:Bids as of 4:00 est, cash prices by elevators/mills to producers:US NO 2 YELLOW CORNBids           Change          Basis           ChangePurchase        3.6375-3.6975  UP 1.25-DN 0.75    -3H to 3H       UNCH-DN 2Green River         3.6975         UP 1.25            3H             UNCHPennyrile       3.6675-3.7875      UP 1.25       OptH to 12H         UNCHLouisville          3.6375     UP 5.25-UP 1.25       -3H          UP 4-UNCHBluegrass       3.4900-3.5675    UP 1-UP 1.25  -17.75H to -10H   DN 0.25-UNCHUS NO 2 WHITE CORNBids           ChangePennyrile             NA              NAUS NO 1 YELLOW SOYBEANSBids           Change          Basis           ChangePurchase       10.0500-10.0900  UP 3.5-UP 4.5    -27H to -23H     DN 2-DN 1Green River        10.1000          UP 5.5           -22H            UNCHPennyrile           9.9200          UP 5.5           -40H            UNCHLouisville          9.5500          UP 6.5           -77H            UP 1Bluegrass       9.5000-9.8200    UNCH-DN 4.5     -82H to -50H    DN 5.5-DN 10US NO 2 SOFT RED WINTER WHEATBids           Change          Basis           ChangePurchase            4.4125           UP 7            -10H            UP 5Green River           NA              NA              NA              NAPennyrile       4.2125-4.3625        UP 2        -30H to -15H        UNCH (Milling Qlty)     4.5625           UP 2             5H             UNCHLouisville          4.1325           UNCH            -38H            DN 2Bluegrass           4.1600           UP 1          -35.25H           DN 1US NO 2 MILO EXTRA HEAVYBids           Change          Basis           ChangePurchase              NA              NA              NA              NALouisville     NA              NA              NA              NAPennyrile      NA              NA              NA              NAUS NO 2 FEED BARLEYBids            ChangePennyrile      NA              NA------------------------------------------------------------------------------Opening Contract Prices for Fall (Jul Wheat) deliveryUS NO 2 YELLOW CORNBids           Change          Basis           ChangePurchase        3.7225-3.7725      UP 1.25       -25Z to -20Z        UNCHGreen River         3.7225         UP 1.25           -25Z            UNCHPennyrile       3.7225-3.8725      UP 1.25       -25Z to -10Z        UNCHLouisville     NA              NA              NA              NABluegrass      3.6725          UP 1.25         -30Z            UNCHUS NO 2 WHITE CORNBids            ChangePennyrile      4.2700          UP 1US NO 1 YELLOW SOYBEANSBids           Change          Basis           ChangePurchase       10.0275-10.0975     UP 2.75       -25X to -18X        UNCHGreen River         9.9275         UP 2.75           -35X            UNCHPennyrile       9.7775-9.9275  UP 7.75-UP 2.75   -50X to -35X     UP 5-UNCHLouisville     NA              NA              NA              NABluegrass      9.7275          UP 2.75         -55X            UNCHUS NO 2 SOFT RED WINTER WHEATBids           Change          Basis           ChangePurchase        4.6900-4.8600       DN 16         -10N to 7N         UNCHGreen River         4.6400          DN 16            -15N            UNCHPennyrile       4.4900-4.5900       DN 16        -30N to -20N        UNCH (Milling Qlty)     4.8400          DN 16             5N             UNCHLouisville     4.7900          DN 16           OptN            UNCHBluegrass      4.5400          DN 16           -25N            UNCHUS NO 2 MILO EXTRA HEAVYBids            Change          Basis           ChangePurchase       NA              NA              NA              NALouisville     4.0725          No Comp         10Z             No CompPennyrile      NA              NA              NA              NAUS NO 2 FEED BARLEYBids            ChangePennyrile      NA              NAPurchase- Inland elevators west of Tennesse RiverGreen River- Inland elevators near the Green RiverPennyrile- South west KY East of Tennessee River, west of I-65Louisville-Elevators near the Louisville areaBluegrass- Central Kentucky/Lexington areaSource: USDA-KY Dept of Ag Market News Service, Frankfort, KYJodee Inman  502-782-4138??????? www.ams.usda.gov/mnreports/SV—GR110.txt??????? www.ams.usda.gov/LPSMarketNewsPage1552Ekdb