Preclosing
Preclosing

The Associated Press

CHICAGO




CHICAGO (AP) — Futures trading on the Chicago Board of Trade Thu:
OpenHighLowLastChg.WHEAT5,000 bu minimum; cents per bushelMar447¾452444¾447¼May460¼465457463¾+4¼Jul474¾479¼471478½+3¾Sep490½495¼488½494½+3¼Dec512516¼509½515¾+3¼Mar527532¼525¼530½+2¼May535¼535¼535¼535¼+2¼Jul530535529¼534¾+2¾Dec553¼555½553¼555+2Est. sales 107,267.  Wed.'s sales 184,172Wed.'s open int 486,770CORN5,000 bu minimum; cents per bushelMar365½367364¼365¾May373¾375¼372½374½+½Jul382382¾380¼382¼+½Sep388¾389½387¼389¼+½Dec396397½395¼397+½Mar404405403404¾+½May408409½407¾409¼+½Jul412½414412½413¼+¼Sep409409¼409409+1Dec410411¼409¾411+½Mar417417416¾416¾Jul425425425425+¼Dec413¾413¾413¾413¾—½Est. sales 453,220.  Wed.'s sales 564,001Wed.'s open int 1,684,295,  up 2,372OATS5,000 bu minimum; cents per bushelMar258264½256¾258—¼May258¼264¾258261+1½Jul258½263256½261+2½Sep256¾256¾256¾256¾+2Dec256½257¼256½257+2¼Est. sales 1,017.  Wed.'s sales 997Wed.'s open int 5,743SOYBEANS5,000 bu minimum; cents per bushelMar103410371027¼1034¼May10451048¼1038¼1045—½Jul1054¾1057½1047¾1054¼—¾Aug1054¾10581048½1055—½Sep1036¼1041½1035½1040Nov10271029½10221028Jan10301032¾1026¼1031½Mar10281028¾1023¾1027½—½May1026½1029½1024½1028—¼Jul10321032¾1028½1031¾—¼Aug1027½1027½1027½1027½Nov10011001996½999¾—¼Est. sales 229,420.  Wed.'s sales 384,880Wed.'s open int 812,420,  up 8,050