BC-USDA-Opening Bids KY Grain Elevs
BC-USDA-Opening Bids KY Grain Elevs

The Associated Press



SV—GR110Frankfort, KY     Fri, Feb 23, 2018     USDA-KY Dept of Ag Market NewsKentucky Daily Grain Elevators Bids:Bids as of 4:00 est, cash prices by elevators/mills to producers:US NO 2 YELLOW CORNBids           Change          Basis           ChangePurchase        3.6325-3.7025   DN 0.5-UP 0.5     -3H to 4H       UNCH-UP 1Green River         3.6925          DN 0.5            3H             UNCHPennyrile           3.6625      DN 0.5-DN 12.5       OptH         UNCH-DN 12Louisville          3.6325          DN 0.5           -3H             UNCHBluegrass       3.4900-3.5625    UNCH-DN 0.5   -17.25H to -10H   UP 0.5-UNCHUS NO 2 WHITE CORNBids           ChangePennyrile             NA              NAUS NO 1 YELLOW SOYBEANSBids           Change          Basis           ChangePurchase       10.0925-10.1325     UP 4.25       -27H to -23H        UNCHGreen River        10.1425         UP 4.25           -22H            UNCHPennyrile           9.9625         UP 4.25           -40H            UNCHLouisville          9.5925         UP 4.25           -77H            UNCHBluegrass       9.8400-9.8625   UP 34-UP 4.25  -52.25H to -50H  UP 29.75-UNCHUS NO 2 SOFT RED WINTER WHEATBids           Change          Basis           ChangePurchase            4.4225           UP 1            -10H            UNCHGreen River           NA              NA              NA              NAPennyrile           4.3725        UP 16-UP 1         -15H         UP 15-UNCH (Milling Qlty)     4.5725           UP 1             5H             UNCHLouisville          4.1425           UP 1            -38H            UNCHBluegrass           4.1700           UP 1          -35.25H           UNCHUS NO 2 MILO EXTRA HEAVYBids           Change          Basis           ChangePurchase              NA              NA              NA              NALouisville     NA              NA              NA              NAPennyrile      NA              NA              NA              NAUS NO 2 FEED BARLEYBids            ChangePennyrile      NA              NA------------------------------------------------------------------------------Opening Contract Prices for Fall (Jul Wheat) deliveryUS NO 2 YELLOW CORNBids           Change          Basis           ChangePurchase        3.7225-3.7725        UNCH        -25Z to -20Z        UNCHGreen River         3.7525           UP 3            -22Z            UP 3Pennyrile       3.7225-3.8725        UNCH        -25Z to -10Z        UNCHLouisville     NA              NA              NA              NABluegrass      3.6725          UNCH            -30Z            UNCHUS NO 2 WHITE CORNBids            ChangePennyrile      4.2700          UNCHUS NO 1 YELLOW SOYBEANSBids           Change          Basis           ChangePurchase       10.0300-10.1000     UP 0.25       -25X to -18X        UNCHGreen River         9.9600         UP 3.25           -32X            UP 3Pennyrile       9.8800-9.9300  UP 10.25-UP 0.25  -40X to -35X     UP 10-UNCHLouisville     NA              NA              NA              NABluegrass      9.7300          UP 0.25         -55X            UNCHUS NO 2 SOFT RED WINTER WHEATBids           Change          Basis           ChangePurchase        4.6900-4.8600        UNCH         -10N to 7N         UNCHGreen River         4.6400           UNCH            -15N            UNCHPennyrile       4.5400-4.5900     UP 5-UNCH      -25N to -20N     UP 5-UNCH (Milling Qlty)     4.8400           UNCH             5N             UNCHLouisville     4.7900          UNCH            OptN            UNCHBluegrass      4.5400          UNCH            -25N            UNCHUS NO 2 MILO EXTRA HEAVYBids            Change          Basis           ChangePurchase       NA              NA              NA              NALouisville     4.0725          UNCH            10Z             UNCHPennyrile      NA              NA              NA              NAUS NO 2 FEED BARLEYBids            ChangePennyrile      NA              NAPurchase- Inland elevators west of Tennesse RiverGreen River- Inland elevators near the Green RiverPennyrile- South west KY East of Tennessee River, west of I-65Louisville-Elevators near the Louisville areaBluegrass- Central Kentucky/Lexington areaSource: USDA-KY Dept of Ag Market News Service, Frankfort, KYJodee Inman  502-782-4138??????? www.ams.usda.gov/mnreports/SV—GR110.txt??????? www.ams.usda.gov/LPSMarketNewsPage1554Ekdb