BC-Merc Table
BC-Merc Table

The Associated Press

CHICAGO




CHICAGO (AP) — Futures trading on the Chicago Mercantile Exchange Fri:
OpenHighLowSettleChg.CATTLE40,000 lbs.; cents per lb.Feb128.45128.57127.32128.00—.35Apr125.35125.45124.27124.85—.52Jun116.77116.97116.15116.80Aug113.50113.72113.10113.70+.20Oct115.40115.65114.95115.62+.22Dec117.47117.82117.02117.60+.10Feb117.90118.10117.40117.97+.02Apr117.62117.85117.07117.60—.15Jun111.37111.42110.00110.85—.55Est. sales 45,440.  Thu.'s sales 51,744Thu.'s open int 372,001,  up 970FEEDER CATTLE50,000 lbs.; cents per lb.Mar146.30146.62145.15146.00Apr148.30148.80147.52148.50+.43May149.17149.65148.35149.37+.25Aug152.40152.92151.60152.42—.13Sep152.07152.75151.45152.27—.08Oct152.17152.20151.00151.90—.17Nov151.22151.50150.25150.92—.23Jan146.60146.60145.37145.97—.53Est. sales 16,285.  Thu.'s sales 14,534Thu.'s open int 57,108,  up 32HOGS,LEAN40,000 lbs.; cents per lb.Apr71.3071.7770.8771.37+.10May77.7277.8077.1577.60+.18Jun82.9583.2782.5083.02+.07Jul83.9284.2583.5584.00+.08Aug83.7583.9283.2583.67—.03Oct71.1271.4070.6771.05—.02Dec64.9065.0764.5564.92—.03Feb68.3568.4568.0268.30+.03Apr70.9771.3770.9771.37May77.00Jun79.0279.0279.0279.02+.25Jul79.95Est. sales 31,154.  Thu.'s sales 51,164Thu.'s open int 230,705,  up 1,251PORK BELLIES40,000 lbs.; cents per lb.No open contracts.