Close
Close

The Associated Press

CHICAGO




CHICAGO (AP) — Futures trading on the Chicago Board of Trade Fri.:
Open  High  Low  Settle   Chg.WHEAT                                   5,000 bu minimum; cents per bushel    Mar      452    456¼  451½  452¼   +1  May      466    469¼  463¾  464¼        Jul      480    484    478½  479          Sep      495½  499¾  495    495½   + ¼Dec      516¼  520½  516¼  517     + ¾Mar      531¾  535½  531¾  533     +1¼May      538¾  538¾  538¼  538¼   +1½Jul      539½  540    536    537¼   +1¼Sep      543½  543¾  543¼  543¾   +1½Dec      556½  558¼  556½  558¼   +1½Mar                           567½   +1½May                           563½   +1½Jul                           543¾   +1½Est. sales 132,651.  Thu.'s sales 140,623Thu.'s open int 481,261                CORN                                     5,000 bu minimum; cents per bushel    Mar      366¼  367¾  365¼  366¼   — ½May      374¾  376¼  373½  374½   — ¼Jul      382½  383¾  381¼  382¼   — ¼Sep      389    390½  388¼  389¼   — ¼Dec      397    398¼  396¼  397¼        Mar      404¼  406    404    404¾   — ¼May      409½  410¼  408¾  409½        Jul      414    415    413½  413¾        Sep      409¼  409¼  408    408½        Dec      411¼  412½  411    411¼        Mar      418¼  418¾  417    417     — ¼May                           421¼        Jul                           425¾        Sep                           422½        Dec      415    415    415    415     + ¼Jul                           423¼   + ¼Dec                           419¼   + ¼Est. sales 480,566.  Thu.'s sales 532,449Thu.'s open int 1,676,463               OATS                                      5,000 bu minimum; cents per bushel    Mar      257    261¼  255¼  260     +2¼May      260    264    259    263½   +2¾Jul      260    260¼  260    260¼   — ½Sep                           256½   — ½Dec      257¾  257¾  256    257     —1  Mar                           257¼   —1  May                           257¼   —1  Jul                           262¼   —1  Sep                           263½   —1  Dec                           263½   —1  Jul                           262     —1  Sep                           262     —1  Est. sales 669.  Thu.'s sales 1,035     Thu.'s open int 5,868,  up 125         SOYBEANS                               5,000 bu minimum; cents per bushel    Mar     1031   1039½ 1028   1036¼   +4¼May     1042¼ 1050¾ 1039¼ 1047½   +4¼Jul     1051¼ 1059¼ 1048½ 1056     +3½Aug     1052¼ 1059   1049¼ 1056     +3  Sep     1039¼ 1043   1035¼ 1040¼   +1¾Nov     1026¼ 1031¼ 1024¾ 1028     + ¼Jan     1029¼ 1035   1029   1032¼   +1¼Mar     1025½ 1031   1025   1029     +2¼May     1027¾ 1031¼ 1024¼ 1029     +3¼Jul     1031½ 1035   1030½ 1032½   +1¾Aug                          1027½   +1½Sep     1009   1022   1009   1014     +1½Nov      999¼ 1005    996¾ 1001¾   +2½Jan                          1006¾   +2½Mar                          1007¼   +2½May                          1014¾   +2½Jul                          1017¾   +2½Aug                          1010¼   +2½Sep                          1007¼   +2½Nov      984    985¾  984    985¾   +2½Jul                           985¾   +2½Nov                           985¾   +2½Est. sales 380,669.  Thu.'s sales 306,930Thu.'s open int 813,879,  up 1,459     SOYBEAN OIL                            60,000 lbs; cents per lb                 Mar      32.10  32.55  32.05  32.36   +.32May      32.32  32.75  32.25  32.56   +.31Jul      32.50  32.92  32.43  32.73   +.32Aug      32.55  32.99  32.55  32.81   +.32Sep      32.81  33.06  32.70  32.89   +.31Oct      32.88  33.15  32.77  32.96   +.29Dec      32.94  33.36  32.94  33.17   +.30Jan      33.24  33.47  33.14  33.34   +.30Mar      33.37  33.64  33.27  33.47   +.29May      33.46  33.65  33.38  33.57   +.28Jul      33.59  33.70  33.49  33.70   +.27Aug                           33.68   +.27Sep                           33.65   +.26Oct                           33.53   +.21Dec      33.45  33.70  33.42  33.56   +.19Jan                           33.65   +.20Mar                           33.86   +.19May                           33.89   +.23Jul                           34.03   +.23Aug                           34.02   +.23Sep                           34.02   +.23Oct                           34.02   +.23Dec                           33.93   +.23Jul                           33.93   +.23Oct                           33.93   +.23Dec                           33.93   +.23Est. sales 148,236.  Thu.'s sales 132,433Thu.'s open int 499,700                SOYBEAN MEAL                         100 tons; dollars per ton                Mar     376.20 379.60 374.80 375.50  —1.40May     379.00 382.40 377.60 378.30  —1.30Jul     378.60 381.40 377.20 377.80  —1.30Aug     374.00 376.50 372.90 373.60  —1.00Sep     370.30 372.20 369.20 369.80   —.80Oct     364.30 365.50 363.00 364.20   —.20Dec     362.20 363.90 361.00 362.30   —.40Jan     359.50 360.10 359.10 359.40   —.20Mar     356.00 356.60 354.60 355.30   +.40May     354.50 355.90 353.80 354.30   +.30Jul     355.20 356.90 354.60 355.10   +.30Aug                          353.80   +.40Sep                          351.50   +.60Oct                          346.70   +.50Dec     346.40 346.40 345.00 346.00   +.10Jan                          346.70   +.10Mar                          347.50   —.10May                          347.50   —.10Jul                          349.00   —.10Aug                          349.00   —.10Sep                          349.00   —.10Oct                          349.00   —.10Dec                          345.80   —.10Jul                          345.80   —.10Oct                          345.80   —.10Dec                          345.80   —.10Est. sales 121,731.  Thu.'s sales 123,837Thu.'s open int 480,938,  up 536