BC-USDA-Okla City Catl Actn
BC-USDA-Okla City Catl Actn

The Associated Press



KO—LS150 Oklahoma City, OK    Mon  Feb  26,  2018    USDA-OK Dept of Ag Market NewsOklahoma National Stockyards - Oklahoma City, OKLivestock Auction Report for 2/26/2018 AUCTION                          Receipts           Week Ago             Year Ago--------------------------------------------------------------------------------- Total Receipts:                  2,500                10,151              7,529------------------------------------------------------------------------------ Feeder Cattle:                   2,500(100          10,151(100%)        7,529(100%)---------------------------------------------------------------------------------*** Open ***Compared to last week:   All classes of feeder cattle and calves are lightly tested in early rounds, therefore no trend available.  Demand remains moderate to good.  A winter storm came across most of the Midwest and Southeast hampering livestock movement.  Quality plain to attractive.Feeder cattle supply included 64 percent Steers, 30 percent Heifers, and  6 percent Bulls. Feeder cattle supply over 600 lbs was 71 percent.--------------------------------------------------------------------------------FEEDER CATTLE--------------------------------------------------------------------------------Feeder Steers(Per CWT):  Medium and Large 1 300-400 lbs 203.00-209.00; 400-500 lbs 188.00-195.00; 500-600 lbs 176.00-188.00, 598 lbs Fleshy 168.00; 691 lbs153.00, Calves 146.00-164.00; 700-800 lbs 145.00-153.50, 772 lbs Calves 144.50;800-900 lbs 141.00-145.50, 883 lbs Calves 137.00; 936 lbs 136.00. Medium andLarge 1-2 295 lbs 190.00; 432 lbs 178.00; 598 lbs 160.00, 522 lbs Fleshy 152.00;766 lbs 149.00, 758 lbs Calves 143.00; 800-900 lbs 135.00-142.25; 968 lbs 134.00. Medium and Large 2 475 lbs 154.00.Feeder Heifers(Per CWT):  Medium and Large 1 400-500 lbs 166.50-167.00; 500-600 lbs 149.00-162.00, 547 lbs Fleshy 125.00; 600-700 lbs 143.00-152.00; 700-800lbs 133.00-137.00. Medium and Large 1-2 468 lbs 157.00; 603 lbs 137.00, Calves139.00-145.00; 700-800 lbs 130.00-135.50. Medium and Large 2 474 lbs 148.00.Feeder Bulls(Per CWT):  Medium and Large 1 400-500 lbs 184.00-185.00; 513lbs 180.00. Medium and Large 1-2 598 lbs Fleshy 133.00; 796 lbs Calves 132.50.Please Note:The above USDA LPGMN price report is reflective of the majority of classes and grades of livestock offered for sale.  There may be instances where some salesdo not fit within reporting guidelines and therefore will not be included in the report.  Prices are reported on an FOB basis, unless otherwise noted. Source:  USDA-OK Dept of Ag Market News ServiceTina Colby, Market Reporter, N/A24 Hour Market Report 1-573-522-9244www.ams.usda.gov/mnreports/KO—LS150.txtwww.ams.usda.gov/market-news/livestock-poultry-grain