BC-USDA-Slghtr Catl
BC-USDA-Slghtr Catl

The Associated Press



SJ—LS110 St Joseph, MO    Mon  Feb  26,  2018    USDA-MO Dept of Ag Market NewsSt Joseph Stockyards - St Joseph, MOLivestock Weighted Average Report for 2/26/2018 AUCTION                         Receipts          Last Reported          Year Ago(2/14/2018)-------------------------------------------------------------------------------- Total Receipts:                    101                     0                 0-------------------------------------------------------------------------------- Slaughter Cattle:                   90(89                0(0%)             0(0%) Replacement Cattle:                 11(11                0(0%)             0(0%)-------------------------------------------------------------------------------- ***CLOSE***  Compared to two weeks ago, slaughter cows sold steady to 2.00 higher,while slaughter bulls sold steady.Slaughter Cows:Breaker 75-80% (Per Cwt) 1760 lbs 56.00 Average Dressing.Boner 80-85% (Per Cwt) 1010-1755 lbs 55.00-62.50 Average Dressing; High Dressing 1215-1435 lbs 63.50-68.50; Low Dressing 1420 lbs 50.00.Lean 85-90% (Per Cwt) 915-1515 lbs 46.00-55.00 Average Dressing; High Dressing 975-1285 lbs 57.00-60.00; Low Dressing 995-1380 lbs 35.00-42.00.Slaughter Bulls: Yield Grade 1-2 1165-2170 lbs 78.00-87.50 Average Dressing; HighDressing 1815-1955 lbs 93.00-99.00; Low Dressing 2140-2425 lbs 74.00-75.00.Replacement Cattle:Stock Cows:  Medium and Large 1 (Per Cwt / Actual Wt) 2-4 years old 1037-1165 lbs86.00-97.50.  Medium and Large 1-2 2-4 years old 1035-1390 lbs 69.00-73.00.--------------------------------------------------------------------------------SLAUGHTER CATTLE-------------------------------------------------------------------------------- COWS - Breaker 75-80%  (Per Cwt / Actual Wt) Head      Wt Range    Avg Wt     Price Range   Avg Price Dressing1         1760       1760         56.00         56.00    Average COWS - Boner 80-85%  (Per Cwt / Actual Wt) Head      Wt Range    Avg Wt     Price Range   Avg Price Dressing18      1040-1755     1363      55.00-62.50      58.50    Average12      1215-1435     1318      63.50-68.50      66.28       High1         1420       1420         50.00         50.00        Low COWS - Lean 85-90%  (Per Cwt / Actual Wt) Head      Wt Range    Avg Wt     Price Range   Avg Price Dressing13       915-1515     1195      46.00-55.00      52.25    Average4       975-1285     1166      57.00-60.00      58.34       High12       995-1380     1161      35.00-42.00      38.28        Low BULLS -  1-2 (Per Cwt / Actual Wt) Head      Wt Range    Avg Wt     Price Range   Avg Price Dressing10      1165-2170     1725      78.00-87.50      82.45    Average2      1815-1955     1885      93.00-99.00      96.11       High2      2140-2425     2282      74.00-75.00      74.53        Low--------------------------------------------------------------------------------REPLACEMENT CATTLE--------------------------------------------------------------------------------STOCK COWS - Medium and Large 1 (Per Cwt / Actual Wt)Age    Stage  Head     Wt Range     Avg Wt    Price Range    Avg Price2-4      O      5      1037-1165     1077     86.00-97.50       94.81STOCK COWS - Medium and Large 1-2 (Per Cwt / Actual Wt)Age    Stage  Head     Wt Range     Avg Wt    Price Range    Avg Price2-4      O      6      1035-1390     1233     69.00-73.00       70.75Please Note:The above USDA LPGMN price report is reflective of the majority of classes and grades of livestock offered for sale.  There may be instances where some salesdo not fit within reporting guidelines and therefore will not be included in the report.  Prices are reported on an FOB basis, unless otherwise noted.Explanatory Notes:Stage (Cattle) - Represents pregnancy stage (O = open; T1 = 1st Trimester, 1to 3 months; T1-2 = 1st/2nd trimester, 1 to 6 months; T2 = 2nd Trimester, 4 to6 months; T2-3 = 2nd/3rd Trimester, 4 to 9 months; T3 = 3rd Trimester, 7 to 9months; T1-3 = all trimesters, 1 to 9 months; E = Exposed; B = Bred)Age - Numerical representation of age in years. Source:  USDA-MO Dept of Ag Market News ServiceLINDSAY BRUNET, Market Reporter, (816) 676-700024 Hour Market Report 1-573-522-9244www.ams.usda.gov/mnreports/SJ—LS110.txtwww.ams.usda.gov/market-news/livestock-poultry-grain