BC-US--Grain Prices, US
BC-US--Grain Prices, US

The Associated Press

CHICAGO




CHICAGO (AP) — Futures trading on the Chicago Board of Trade Monday.:
SettleWHEAT (5,000 bu ; cents per bushel)Mar             459 1-2May             472 3-4Jul             487 1-2Sep             504    Dec             525 3-4Mar             541 3-4May             546 3-4Jul             544 3-4Sep             550 1-2Dec             564 1-2Mar             573 3-4May             569 3-4Jul             553 3-4CORN (5,000 bu ; cents per bushel)Mar             368 1-2May             377 1-4Jul             385    Sep             391 1-2Dec             399    Mar             406 1-2May             410 3-4Jul             414 3-4Sep             409 1-2Dec             412 1-4Mar             418    May             422    Jul             426 3-4Sep             423 1-2Dec             416 1-2Jul             424 3-4Dec             419 1-2OATS (5,000 bu ; cents per bushel)Mar             262 1-2May             267 1-2Jul             266 3-4Sep             260 3-4Dec             257 1-2Mar             257 3-4May             257 3-4Jul             262 3-4Sep             264    Dec             264    Jul             262 1-2Sep             262 1-2SOYBEANS (5,000 bu ; cents per bushel)Mar            1034 1-4May            1046    Jul            1055 1-4Aug            1055 1-4Sep            1041 1-4Nov            1030 1-2Jan            1034 1-2Mar            1029 1-2May            1029 1-4Jul            1032 3-4Aug            1027 1-2Sep            1014    Nov            1002    Jan            1007 1-4Mar            1007 3-4May            1015 1-4Jul            1018    Aug            1010 1-2Sep            1007 1-2Nov             986    Jul             986    Nov             986    SOYBEAN OIL (60,000 lbs; cents per lb)Mar             32.62May             32.86Jul             33.03Aug             33.10Sep             33.19Oct             33.26Dec             33.44Jan             33.61Mar             33.74May             33.85Jul             33.98Aug             33.96Sep             33.93Oct             33.89Dec             33.94Jan             34.03Mar             34.24May             34.27Jul             34.41Aug             34.40Sep             34.40Oct             34.40Dec             34.31Jul             34.31Oct             34.31Dec             34.31SOYBEAN MEAL (100 tons; dollars per ton)Mar            377.20May            380.30Jul            378.80Aug            374.20Sep            370.00Oct            364.10Dec            361.80Jan            358.60Mar            353.90May            352.70Jul            353.30Aug            351.90Sep            349.40Oct            344.30Dec            343.90Jan            344.60Mar            345.40May            345.40Jul            346.90Aug            346.90Sep            346.90Oct            346.90Dec            343.70Jul            343.70Oct            343.70Dec            343.70