BC-Cotton
BC-Cotton

The Associated Press

NEW YORK




NEW YORK (AP) — Cotton No. 2 Futures on the IntercontinentalExchange (ICE) Monday:
OpenHighLowSettleChg.COTTON 250,000 lbs.; cents per lb.Mar81.7581.7580.5581.70+.25May81.3482.5281.0082.15+.81Jul81.7783.1481.6982.75+.68Sep76.87+.27Oct77.3578.2877.3578.28+.24Nov76.87+.27Dec76.7176.9576.5276.87+.27Jan77.05+.25Mar76.8077.1276.8077.05+.25May76.6576.8076.6076.73+.14Jul76.4076.5076.4076.43+.05Sep71.45—.05Oct74.10—.03Nov71.45—.05Dec71.5071.5071.4571.45—.05Jan71.90—.05Mar71.90—.05May72.75—.05Jul73.08—.05Sep73.01—.05Oct73.04—.05Nov73.01—.05Dec73.01—.05Est. sales 31,521.  Fri.'s sales 27,976Fri.'s open int 258,409,  up 1,709