BC-Merc Table
BC-Merc Table

The Associated Press

CHICAGO




CHICAGO (AP) — Futures trading on the Chicago Mercantile Exchange Mon:
OpenHighLowSettleChg.CATTLE40,000 lbs.; cents per lb.Feb127.77127.92126.65127.40—.60Apr124.00124.75123.55124.00—.85Jun115.82116.52115.52116.20—.60Aug112.75113.62112.70113.47—.23Oct114.77115.70114.65115.50—.12Dec116.97117.95116.80117.80+.20Feb117.25118.37117.25118.37+.40Apr117.12117.80117.02117.80+.20Jun110.45110.87110.45110.87+.02Est. sales 62,075.  Fri.'s sales 46,238Fri.'s open int 374,403,  up 2,402FEEDER CATTLE50,000 lbs.; cents per lb.Mar145.47146.60144.75145.55—.45Apr147.72148.92147.10147.95—.55May148.32149.52147.77148.95—.42Aug151.50152.47150.72152.25—.17Sep151.12152.27150.55152.10—.17Oct150.62151.62150.47151.45—.45Nov150.00150.60149.25150.52—.40Jan145.50145.70144.60145.57—.40Est. sales 14,491.  Fri.'s sales 16,329Fri.'s open int 57,035HOGS,LEAN40,000 lbs.; cents per lb.Apr71.1571.9569.9069.95—1.42May77.2777.9076.4576.45—1.15Jun82.7083.8782.1582.30—.72Jul83.7284.6783.1583.17—.83Aug83.2084.1782.9582.97—.70Oct70.8071.5070.3070.35—.70Dec64.9565.2764.0064.02—.90Feb68.3068.7267.7067.70—.60Apr71.7771.7770.9770.97—.40May76.75—.25Jun78.77—.25Jul79.70—.25Est. sales 42,722.  Fri.'s sales 31,911Fri.'s open int 229,499PORK BELLIES40,000 lbs.; cents per lb.No open contracts.