BC-BOT Table,1st Ld
BC-BOT Table,1st Ld

The Associated Press

CHICAGO




CHICAGO (AP) — Noon trading on the Chicago Board of Trade Mon.:
OpenHighLowNoonChg.WHEAT5,000 bu minimum; cents per bushelMar458½464452¼452¼May469¾476¾467¾473½+9¼Jul484½491482¾488¼+9¼Sep500507498¾504¼+8¾Dec518½528½518½525¾+8¾Mar537544535¾541½+8½Jul539½547539½545+7¾Sep551¾552550¼551½+7¾Dec565567564564¼+6Mar570570570570+2½Jul550550550550+6¼Est. sales 148,701.  Fri.'s sales 143,632Fri.'s open int 461,757CORN5,000 bu minimum; cents per bushelMar366½370366¼366¼May374¾378¾374¾377½+3Jul382¼386382¼385¼+3Sep389392½389391¾+2½Dec397400397399¼+2Mar404½407¾404½406¾+2May409¼412409¼411+1½Jul413½416413½415½+1¾Sep410¼410¼410410+1½Dec411414411412¾+1½Mar420420¼418½418½+1½Dec415¾417415¾417+2Est. sales 581,160.  Fri.'s sales 525,916Fri.'s open int 1,637,130OATS5,000 bu minimum; cents per bushelMar261½263260¼262+2May262268262267+3½Jul263267263266+5¾Dec258258258258+1Est. sales 653.  Fri.'s sales 669Fri.'s open int 5,780SOYBEANS5,000 bu minimum; cents per bushelMar1039½1047¾1036¼1036¼May10541059½1049¼1050+2½Jul10601067¾1058¼1059+3Aug1059¾1066¾10581058¾+2¾Sep1043¾1048¾1043½1044+3¾Nov10301034¾10301032¾+4¾Jan10351038¼1034½1036¾+4½Mar1029½10341029½1032+3May1032¼10341030½1031+2Jul103610381034¾1034¾+2¼Nov1001½1005¼1001½1004+2¼Mar1005¾1005¾1005¾1005¾—1½Est. sales 361,692.  Fri.'s sales 417,020Fri.'s open int 799,809SOYBEAN OIL60,000 lbs; cents per lbMar32.3632.7232.3632.66+.30May32.5632.9632.5632.90+.34Jul32.7333.1332.7333.06+.33Aug32.8133.1932.8033.13+.32Sep32.9333.2832.9233.22+.33Oct33.1533.3233.0833.28+.32Dec33.2133.5633.2133.48+.31Jan33.4933.6933.4033.66+.32Mar33.6633.8233.6633.73+.26May33.9033.9333.8333.83+.26Jul33.8234.0533.7833.95+.25Dec33.7333.9833.7333.90+.34Est. sales 159,761.  Fri.'s sales 150,196Fri.'s open int 494,672SOYBEAN MEAL100 tons; dollars per tonMar377.10382.80377.00378.60+3.10May380.30385.70379.80381.70+3.40Jul379.20383.60379.20379.80+2.00Aug375.40378.50374.90375.20+1.60Sep371.90374.00370.90371.10+1.30Oct366.00368.00365.10365.10+.90Dec363.10365.90362.60363.00+.70Jan361.90362.10361.20361.40+2.00Mar357.40357.60355.40355.40+.10May355.80356.60355.30355.30+1.00Jul356.70357.20353.80353.80—1.30Oct347.40347.40347.40347.40+.70Dec347.60347.60345.50345.50—.50Est. sales 117,301.  Fri.'s sales 141,203Fri.'s open int 466,874