BC-USDA-Opening Bids KY Grain Elevs
BC-USDA-Opening Bids KY Grain Elevs

The Associated Press



SV—GR110Frankfort, KY     Mon, Feb 26, 2018     USDA-KY Dept of Ag Market NewsKentucky Daily Grain Elevators Bids:Bids as of 4:00 est, cash prices by elevators/mills to producers:US NO 2 YELLOW CORNBids           Change          Basis           ChangePurchase        3.6550-3.7150  UP 2.25-UP 1.25    -3H to 3H       UNCH-DN 1Green River         3.7150         UP 2.25            3H             UNCHPennyrile           3.6850         UP 2.25           OptH            UNCHLouisville          3.6550         UP 2.25           -3H             UNCHBluegrass       3.5200-3.7000   UP 3-UP 13.75   -16.5H to 1.5H UP 0.75-UP 11.5US NO 2 WHITE CORNBids           ChangePennyrile             NA              NAUS NO 1 YELLOW SOYBEANSBids           Change          Basis           ChangePurchase       10.1125-10.1225    UP 2-DN 1      -23H to -22H     UP 4-UP 1Green River        10.1225           DN 2            -22H            UNCHPennyrile           9.9425           DN 2            -40H            UNCHLouisville          9.5725           DN 2            -77H            UNCHBluegrass       8.7000-9.8425    DN 114-DN 2   -164.25H to -50H  DN 112-UNCHUS NO 2 SOFT RED WINTER WHEATBids           Change          Basis           ChangePurchase            4.4950         UP 7.25           -10H            UNCHGreen River           NA              NA              NA              NAPennyrile           4.4450         UP 7.25           -15H            UNCH (Milling Qlty)     4.6450         UP 7.25            5H             UNCHLouisville          4.2150         UP 7.25           -38H            UNCHBluegrass           4.2400           UP 7           -35.5H         DN 0.25US NO 2 MILO EXTRA HEAVYBids           Change          Basis           ChangePurchase              NA              NA              NA              NALouisville     NA              NA              NA              NAPennyrile      NA              NA              NA              NAUS NO 2 FEED BARLEYBids            ChangePennyrile      NA              NA------------------------------------------------------------------------------Opening Contract Prices for Fall (Jul Wheat) deliveryUS NO 2 YELLOW CORNBids           Change          Basis           ChangePurchase        3.7400-3.7700  UP 1.75-DN 0.25   -25Z to -22Z     UNCH-DN 2Green River         3.7700         UP 1.75           -22Z            UNCHPennyrile       3.7400-3.8900      UP 1.75       -25Z to -10Z        UNCHLouisville     NA              NA              NA              NABluegrass      3.6900          UP 1.75         -30Z            UNCHUS NO 2 WHITE CORNBids            ChangePennyrile      4.2900          UP 2US NO 1 YELLOW SOYBEANSBids           Change          Basis           ChangePurchase       10.0550-10.1050  UP 2.5-UP 0.5    -25X to -20X     UNCH-DN 2Green River         9.9850          UP 2.5           -32X            UNCHPennyrile       9.9050-9.9550       UP 2.5       -40X to -35X        UNCHLouisville     NA              NA              NA              NABluegrass      9.7550          UP 2.5          -55X            UNCHUS NO 2 SOFT RED WINTER WHEATBids           Change          Basis           ChangePurchase        4.7750-4.9250   UP 8.5-UP 6.5     -10N to 5N      UNCH-DN 2Green River         4.7250          UP 8.5           -15N            UNCHPennyrile       4.6250-4.6750       UP 8.5       -25N to -20N        UNCH (Milling Qlty)     4.9250          UP 8.5            5N             UNCHLouisville     4.8750          UP 8.5          OptN            UNCHBluegrass      4.6250          UP 8.5          -25N            UNCHUS NO 2 MILO EXTRA HEAVYBids            Change          Basis           ChangePurchase       NA              NA              NA              NALouisville     4.0900          UP 1.75         10Z             UNCHPennyrile      NA              NA              NA              NAUS NO 2 FEED BARLEYBids            ChangePennyrile      NA              NAPurchase- Inland elevators west of Tennesse RiverGreen River- Inland elevators near the Green RiverPennyrile- South west KY East of Tennessee River, west of I-65Louisville-Elevators near the Louisville areaBluegrass- Central Kentucky/Lexington areaSource: USDA-KY Dept of Ag Market News Service, Frankfort, KYJodee Inman  502-782-4138??????? www.ams.usda.gov/mnreports/SV—GR110.txt??????? www.ams.usda.gov/LPSMarketNewsPage1550Ekdb