Close
Close

The Associated Press

CHICAGO




CHICAGO (AP) — Futures trading on the Chicago Board of Trade Mon.:
OpenHighLowSettleChg.WHEAT5,000 bu minimum; cents per bushelMar458½464455¾459½+7¼May469¾476¾467¾472¾+8½Jul484½491482¾487½+8½Sep500507498¾504+8½Dec518½528½518½525¾+8¾Mar537544535¾541¾+8¾May546¾+8½Jul539½547539½544¾+7½Sep551¾552548¾550½+6¾Dec565567564564½+6¼Mar570573¾570573¾+6¼May569¾+6¼Jul550553¾550553¾+10Est. sales 187,474.  Fri.'s sales 143,632Fri.'s open int 461,757CORN5,000 bu minimum; cents per bushelMar366½370366½368½+2¼May374¾378¾374¾377¼+2¾Jul382¼386382¼385+2¾Sep389392½389391½+2¼Dec397400397399+1¾Mar404½407¾404½406½+1¾May409¼412409¼410¾+1¼Jul413½416413½414¾+1Sep410¼410¼409½409½+1Dec411414411412¼+1Mar420420¼418418+1May422+¾Jul426¾+1Sep423½+1Dec415¾417415¾416½+1½Jul424¾+1½Dec419½+¼Est. sales 754,285.  Fri.'s sales 525,916Fri.'s open int 1,637,130OATS5,000 bu minimum; cents per bushelMar261½263260¼262½+2½May262268262267½+4Jul263267263266¾+6½Sep260¾+4¼Dec258258257½257½+½Mar257¾+½May257¾+½Jul262¾+½Sep264+½Dec264+½Jul262½+½Sep262½+½Est. sales 733.  Fri.'s sales 669Fri.'s open int 5,780SOYBEANS5,000 bu minimum; cents per bushelMar1039½1047¾10341034¼—2May10541059½1045¾1046—1½Jul10601067¾10551055¼—¾Aug1059¾1066¾10551055¼—¾Sep1043¾1048¾10411041¼+1Nov10301034¾10301030½+2½Jan10351038¼1033¾1034½+2¼Mar1029½103410291029½+½May1032¼10341029¼1029¼+¼Jul103610381032¾1032¾+¼Aug1027½Sep1014Nov1001½1005¼1001½1002+¼Jan1007¼+½Mar1005¾1007¾1005¾1007¾+½May1015¼+½Jul1018+¼Aug1010½+¼Sep1007½+¼Nov986+¼Jul986+¼Nov986+¼Est. sales 427,872.  Fri.'s sales 417,020Fri.'s open int 799,809SOYBEAN OIL60,000 lbs; cents per lbMar32.3632.7232.3632.62+.26May32.5632.9632.5632.86+.30Jul32.7333.1332.7333.03+.30Aug32.8133.1932.8033.10+.29Sep32.9333.2832.9233.19+.30Oct33.1533.3233.0833.26+.30Dec33.2133.5633.2133.44+.27Jan33.4933.6933.4033.61+.27Mar33.6633.8233.6633.74+.27May33.9033.9333.8333.85+.28Jul33.8234.0533.7833.98+.28Aug33.96+.28Sep33.93+.28Oct33.89+.36Dec33.7333.9833.7333.94+.38Jan34.03+.38Mar34.24+.38May34.27+.38Jul34.41+.38Aug34.40+.38Sep34.40+.38Oct34.40+.38Dec34.31+.38Jul34.31+.38Oct34.31+.38Dec34.31+.38Est. sales 197,681.  Fri.'s sales 150,196Fri.'s open int 494,672SOYBEAN MEAL100 tons; dollars per tonMar377.10382.80377.00377.20+1.70May380.30385.70379.80380.30+2.00Jul379.20383.60378.40378.80+1.00Aug375.40378.50373.90374.20+.60Sep371.90374.00369.70370.00+.20Oct366.00368.00363.80364.10—.10Dec363.10365.90361.50361.80—.50Jan361.90362.10358.60358.60—.80Mar357.40357.60353.90353.90—1.40May355.80356.60352.70352.70—1.60Jul356.70357.20353.30353.30—1.80Aug351.90—1.90Sep349.40—2.10Oct347.40347.40344.30344.30—2.40Dec347.60347.60343.90343.90—2.10Jan344.60—2.10Mar345.40—2.10May345.40—2.10Jul346.90—2.10Aug346.90—2.10Sep346.90—2.10Oct346.90—2.10Dec343.70—2.10Jul343.70—2.10Oct343.70—2.10Dec343.70—2.10Est. sales 147,424.  Fri.'s sales 141,203Fri.'s open int 466,874