BC-Cash Prices, 1st Ld-Writethru,0342
BC-Cash Prices, 1st Ld-Writethru,0342

The Associated Press

NEW YORK




NEW YORK (AP) — Wholesale cash prices Monday
?                                      ??Mon.???????Fri.
F
Foods

?Broilers national comp wtd av           ??.9100??????.9124
?Eggs large white NY Doz.                ???1.64???????1.60
?Flour hard winter KC cwt                ??15.05??????15.10
?Cheddar Cheese Chi. 40 block per lb.    ?2.1150?????2.1150
?Coffee parana ex-dock NY per lb.        ?1.1900?????1.1745
?Coffee medlin ex-dock NY per lb.        ?1.3974?????1.3786
?Cocoa beans Ivory Coast $ metric ton    ???2405???????2405
?Cocoa butter African styl $ met ton     ???6383???????6383
?Hogs Iowa/Minn barrows & gilts wtd av   ??62.77??????62.67
?Feeder cattle 500-550 lb Okl av cwt     ?181.00?????181.00
?Pork loins 13-19 lb FOB Omaha av cwt    ??92.39??????92.20
Grains
?Corn No. 2 yellow Chi processor bid     ?3.61½???????3.54¼
?Soybeans No. 1 yellow                   10.14¼??????10.16¼
?Soybean Meal Cen Ill 48pct protein-ton  378.00??????380.40
?Wheat No. 2  Chi soft                   ?4.61½???????4.54¼
?Wheat N. 1 dk  14pc-pro Mpls.           ?7.44¾???????7.45¾
?Oats No. 2 heavy or Better              ?2.79½???????2.77?
Fats & Oils
?Corn oil crude wet/dry mill Chi. lb.    ?.28??????????.31¼
?Soybean oil crude Decatur lb.           ?.30¾?????????.30½
Metals
?Aluminum per lb LME                     1.0024??????0.9951
?Antimony in warehouse per ton           ??8550????????8550
?Copper Cathode full plate               3.2083??????3.1895
?Gold Handy & Harman                     1333.50????1327.95
?Silver Handy & Harman                   ?16.570?????16.540
?Lead per metric ton LME                 2533.00????2524.00
?Molybdenum per metric ton LME           ?15,500?????15,500
?Platinum per troy oz. Handy & Harman    ?997.00?????990.00
?Platinum Merc spot per troy oz.         1001.80?????998.80
?Zinc (HG) delivered per lb.             ?1.6188??????1.5984
Textiles, Fibers and Miscellaneous
?Cotton 1-1-16 in. strict low middling   ??78.54??????77.81
Raw Products
?Coal Central Appalachia $ per short ton ??63.10??????60.10
?Natural Gas  Henry Hub, $ per mmbtu     ???2.55???????2.60
b-bid a-asked
n-Nominal
r-revised
n.q.-not quoted<29
n.a.-not available