BC-USDA-Okla City Catl Actn
BC-USDA-Okla City Catl Actn

The Associated Press



KO—LS150 Oklahoma City, OK    Mon  Feb  26,  2018    USDA-OK Dept of Ag Market NewsOklahoma National Stockyards - Oklahoma City, OKLivestock Auction Report for 2/26/2018 AUCTION                          Receipts           Week Ago             Year Ago--------------------------------------------------------------------------------- Total Receipts:                  2,500                10,151              7,529------------------------------------------------------------------------------ Feeder Cattle:                   2,500(100          10,151(100%)        7,529(100%)---------------------------------------------------------------------------------*** Close ***Compared to last week:   Feeder steers over 700 lbs traded 3.00-4.00 lower, grazing cattle under 700 mostly steady.  All classes of feeder andheifer calves were to lightly tested for an accurate test.Demand remains moderate to good.  A winter storm came across most of the Midwest and Southeast hampering livestock movement.  Quality plain to attractive.  Feeder cattle supply included 65 percent Steers, 32 percent Heifers, and  2 percent Bulls. Feeder cattle supply over 600 lbs was 78percent.--------------------------------------------------------------------------------FEEDER CATTLE--------------------------------------------------------------------------------Feeder Steers(Per CWT):  Medium and Large 1 300-400 lbs 203.00-209.00; 400-500 lbs 188.00-200.00; 500-600 lbs 176.00-188.00, 598 lbs Fleshy 168.00; 600-700lbs 153.00-171.50, Calves 146.00-153.00, 678 lbs Fancy 167.00; 700-800 lbs144.25-159.00; 800-900 lbs 137.00-145.50, Fleshy 137.00-138.00; 936 lbs 136.00,936 lbs Fleshy 132.50. Medium and Large 1-2 295 lbs 190.00; 384 lbs 190.00; 400-500 lbs 178.00-188.00; 500-600 lbs 160.00-175.50, 522 lbs Fleshy 152.00; 700-800lbs 130.00-149.00, 758 lbs Calves 143.00; 800-900 lbs 135.00-142.25, 871 lbsFleshy 130.00; 968 lbs 134.00; 1034 lbs 125.00. Medium and Large 2 475 lbs154.00; 743 lbs 111.00; 828 lbs 134.00.Feeder Heifers(Per CWT):  Medium and Large 1 400-500 lbs 166.00-167.00; 500-600 lbs 149.00-162.00, 547 lbs Fleshy 125.00; 600-700 lbs 138.00-154.00, Calves135.25-147.00; 700-800 lbs 132.00-137.50, 744 lbs Fleshy 128.00. Medium andLarge 1-2 468 lbs 157.00; 500-600 lbs 153.00-158.00, 518 lbs Mexican Origin124.00; 600-700 lbs 137.00-148.00, Calves 139.00-145.00; 700-800 lbs 130.00-135.50. Medium and Large 2 474 lbs 148.00.Feeder Bulls(Per CWT):  Medium and Large 1 400-500 lbs 184.00-185.00; 513lbs 180.00. Medium and Large 1-2 598 lbs Fleshy 133.00; 796 lbs Calves 132.50.Please Note:The above USDA LPGMN price report is reflective of the majority of classes and grades of livestock offered for sale.  There may be instances where some salesdo not fit within reporting guidelines and therefore will not be included in the report.  Prices are reported on an FOB basis, unless otherwise noted. Source:  USDA-OK Dept of Ag Market News ServiceTina Colby, Market Reporter, N/A24 Hour Market Report 1-573-522-9244www.ams.usda.gov/mnreports/KO—LS150.txtwww.ams.usda.gov/market-news/livestock-poultry-grain