Open
Open

The Associated Press

CHICAGO




CHICAGO (AP) — Early trading on the Chicago Board of Trade Tue.:
Open  High  Low   Last   Chg. WHEAT                                   5,000 bu minimum; cents per bushel    Mar      462    465¾  459½  459½        May      475¼  479    473½  477¾   +5  Jul      490½  493    488¼  491¾   +4¼Sep      505    509¼  504½  508     +4  Dec      527    530¼  526    529½   +3¾Mar      542    545¼  542    544¾   +3  May      549½  550½  549    549     +2¼Jul      544½  546    544½  546     +1¼Dec      563    565    563    565     + ½Est. sales 72,002.  Mon.'s sales 187,521Mon.'s open int 452,778                CORN                                     5,000 bu minimum; cents per bushel    Mar      368¼  370    367¾  368½        May      377    379    376½  379     +1¾Jul      385    386½  384¼  386½   +1½Sep      391    392½  390½  392½   +1  Dec      398¼  399¾  397¾  399¾   + ¾Mar      405¾  407½  405¼  407¼   + ¾May      410    412    410    411¾   +1  Jul      414¼  416    414    415½   + ¾Sep      411    411    410¾  410¾   +1¼Dec      411¾  413½  411½  413¼   +1  Mar      418    420    418    420     +2  Dec      416½  416½  416½  416½        Est. sales 209,297.  Mon.'s sales 754,285Mon.'s open int 1,633,174              OATS                                      5,000 bu minimum; cents per bushel    Mar      261    265¼  261    265¼   +2¾May      266½  270¾  266½  270¼   +2¾Jul      268    269¾  268    269¾   +3  Dec      258    258    258    258     + ½Est. sales 188.  Mon.'s sales 743      Mon.'s open int 5,640                  SOYBEANS                               5,000 bu minimum; cents per bushel    Mar     1034   1041½ 1031¾ 1034¼        May     1046¼ 1053¾ 1043¾ 1053     +7  Jul     1055¼ 1062¾ 1052¾ 1062     +6¾Aug     1055   1062¼ 1053¼ 1061¾   +6½Sep     1040¾ 1045½ 1039½ 1045¼   +4  Nov     1030   1033½ 1027¼ 1032¾   +2¼Jan     1033½ 1037   1032   1036¼   +1¾Mar     1028¼ 1032½ 1027¾ 1030¼   + ¾May     1029½ 1030   1026¾ 1030     + ¾Jul     1034   1034   1031   1033¾   +1  Nov     1002¾ 1004¼ 1000½ 1003     +1  Jan     1008   1008   1008   1008     + ¾Est. sales 124,470.  Mon.'s sales 427,872Mon.'s open int 792,093                SOYBEAN OIL                            60,000 lbs; cents per lb                 Mar      32.62  32.65  32.17  32.30   —.32May      32.86  32.88  32.39  32.54   —.32Jul      33.05  33.05  32.58  32.72   —.31Aug      33.07  33.10  32.65  32.78   —.32Sep      33.18  33.18  32.76  32.90   —.29Oct      33.24  33.24  32.80  32.96   —.30Dec      33.42  33.45  33.00  33.14   —.30Jan      33.60  33.60  33.19  33.24   —.37Mar      33.71  33.71  33.33  33.40   —.34May      33.43  33.43  33.43  33.43   —.42Jul      33.70  33.70  33.70  33.70   —.28Dec      33.71  33.71  33.64  33.64   —.30Est. sales 54,956.  Mon.'s sales 197,681Mon.'s open int 490,215                SOYBEAN MEAL                         100 tons; dollars per ton                Mar     377.50 383.60 376.20 383.60  +6.40May     380.90 387.20 379.30 387.10  +6.80Jul     379.00 384.90 377.70 384.90  +6.10Aug     374.30 379.40 373.50 379.30  +5.10Sep     369.70 374.30 369.10 373.80  +3.80Oct     364.90 367.80 363.90 367.70  +3.60Dec     361.80 365.70 360.60 364.80  +3.00Jan     359.80 362.10 359.80 361.00  +2.40Mar     356.20 357.00 355.30 357.00  +3.10May     355.80 355.90 355.20 355.20  +2.50Jul     355.00 356.70 355.00 356.30  +3.00Dec     348.00 348.00 347.90 347.90  +4.00Est. sales 77,844.  Mon.'s sales 147,424Mon.'s open int 464,337