BC-BOT Table,1st Ld
BC-BOT Table,1st Ld

The Associated Press

CHICAGO




CHICAGO (AP) — Noon trading on the Chicago Board of Trade Tue.:
OpenHighLowNoonChg.WHEAT5,000 bu minimum; cents per bushelMar462465¾459½459½May475¼479473½476½+3¾Jul490½493488¼491+3½Sep505509¼504½507¼+3¼Dec527530¼526528+2¼Mar542545¼542543¾+2May549½550½548¾549+2¼Jul544½546½544½545¼+½Dec563565563565+½Est. sales 116,332.  Mon.'s sales 196,643Mon.'s open int 452,778CORN5,000 bu minimum; cents per bushelMar368¼370¼367¾368½May377379¼376½378½+1¼Jul385386¾384¼386¼+1¼Sep391392¾390½392¼+¾Dec398¼400397¾399¼+¼Mar405¾407½405¼406¾+¼May410412410411+¼Jul414¼416414415¼+½Sep411411410¾410¾+1¼Dec411¾413½411½413+¾Mar418420418418¾+¾Dec416½416½416½416½Est. sales 506,804.  Mon.'s sales 809,503Mon.'s open int 1,633,174OATS5,000 bu minimum; cents per bushelMar261266½261261—1½May266½271266½269¾+2¼Jul268270268270+3¼Dec258260258260+2½Est. sales 450.  Mon.'s sales 743Mon.'s open int 5,640SOYBEANS5,000 bu minimum; cents per bushelMar10341044¼1031¾1034¼May1046¼10561043¾1053¼+7¼Jul1055¼1064¾1052¾1062¼+7Aug105510641053¼1062+6¾Sep1040¾1047¼1039½1045¾+4½Nov103010341027¼1032¾+2¼Jan1033½1037¾10321036½+2Mar1028¼1032½1027¾1030½+1May1029½10301026¾1028½—¾Jul10341034½10311032½—¼Nov1002¾1004¼1000½1002Jan1008100810081008+¾Est. sales 250,425.  Mon.'s sales 463,198Mon.'s open int 792,091SOYBEAN OIL60,000 lbs; cents per lbMar32.6232.6532.1732.52—.10May32.8632.8832.3932.73—.13Jul33.0533.0532.5832.92—.11Aug33.0733.1032.6533.00—.10Sep33.1833.1832.7633.03—.16Oct33.2433.2432.8033.13—.13Dec33.4233.4533.0033.34—.10Jan33.6033.6033.1933.36—.25Mar33.7133.7133.3333.53—.21May33.4333.6533.4333.58—.27Jul33.7033.7033.6833.69—.29Dec33.7133.7133.6133.61—.33Est. sales 143,206.  Mon.'s sales 2,006,467Mon.'s open int 490,215SOYBEAN MEAL100 tons; dollars per tonMar377.50387.40376.20386.90+9.70May380.90391.10379.30390.00+9.70Jul379.00388.30377.70387.30+8.50Aug374.30382.80373.50381.70+7.50Sep369.70377.50369.10376.20+6.20Oct364.90370.50363.90369.20+5.10Dec361.80367.50360.60366.30+4.50Jan359.80363.50359.80362.50+3.90Mar356.20357.20355.30356.40+2.50May355.80356.10354.80354.80+2.10Jul355.00357.20355.00356.70+3.40Dec348.00348.00345.90346.00+2.10Est. sales 147,842.  Mon.'s sales 160,346Mon.'s open int 464,337