Preclosing
Preclosing

The Associated Press

CHICAGO




CHICAGO (AP) — Futures trading on the Chicago Board of Trade Tue:
OpenHighLowLastChg.WHEAT5,000 bu minimum; cents per bushelMar462465¾459½459½May475¼479473½477¼+4½Jul490½493488¼491½+4Sep505509¼504½507½+3½Dec527530¼526528¾+3Mar542545¼542543¼+1½May549½550½548548¼+1½Jul544½546½544½544¾Dec563565563565+½Est. sales 124,976.  Mon.'s sales 196,643Mon.'s open int 452,778CORN5,000 bu minimum; cents per bushelMar368¼370¾367¾368½May377379½376½379½+2¼Jul385387384¼387+2Sep391392¾390½392¾+1¼Dec398¼400397¾399½+½Mar405¾407½405¼407+½May410412410411½+¾Jul414¼416414415¾+1Sep411411410¾410¾+1¼Dec411¾413½411½413¼+1Mar418420418418¾+¾Dec416½416½416½416½Est. sales 566,602.  Mon.'s sales 809,503Mon.'s open int 1,633,174OATS5,000 bu minimum; cents per bushelMar261266½259¼259¼—3¼May266½271266½270+2½Jul268270268270+3¼Dec258260258260+2½Est. sales 531.  Mon.'s sales 743Mon.'s open int 5,640SOYBEANS5,000 bu minimum; cents per bushelMar10341044¼1031¾1034¼May1046¼10561043¾1052+6Jul1055¼1064¾1052¾1060¾+5½Aug105510641053¼1060¼+5Sep1040¾1047¼1039½1044½+3¼Nov103010341027¼1032½+2Jan1033½1037¾10321036¼+1¾Mar1028¼1032½1027¾1030¼+¾May1029½10301026¾1028¾—½Jul10341034½10311033¼+½Nov1002¾1004¼1000½1001½—½Jan1008100810081008+¾Est. sales 291,245.  Mon.'s sales 463,198Mon.'s open int 792,091