BC-USDA-Portland Grain
BC-USDA-Portland Grain

The Associated Press



JO—GR110Portland, OR    Tue Feb 27, 2018    USDA Market NewsPortland Daily Grain ReportBids as of 12:00 p.m. Pacific time; Subject to changeMarch wheat futures trended 0.50 of a cent to 11.25 cents per bushelhigher compared to Monday?s noon closes.  May wheat futures trended mixed,from 0.75 of a cent lower to 11.25 cents per bushel higher.Bids for US 1 Soft White Wheat delivered to Portland in unit trains andbarges for February delivery ordinary protein trended steady compared toMonday?s noon bids for the same delivery period.  Some exporters were notissuing bids for nearby delivery.  Bids for guaranteed maximum 10.5 percentprotein trended steady to 4.25 cents per bushel higher compared to Monday?snoon bids for nearby delivery.  Some exporters are not issuing bids fornearby delivery.Bids for 11.5 percent US 1 Hard Red Winter Wheat for February deliverytrended 11.25 cents per bushel higher than Monday?s noon bids for the samedelivery period.  Some exporters were not issuing bids for nearby delivery.Bids for 14 percent protein US 1 Dark Northern Spring Wheat for Februarydelivery trended mixed, from 0.50 of a cent lower to 0.50 of a cent perbushel higher than Monday?s noon bids for the same delivery period.  Someexporters were not issuing bids for nearby delivery.Bids for US 2 Yellow Corn delivered full coast in 110 car shuttle trainsfor February delivery were not available as most exporters were not issuingbids for nearby delivery.Bids for US 1 Yellow Soybeans delivered full coast in 110 car shuttletrains for February delivery were 3.75 cents per bushel higher thanMonday?s noon bids for the same delivery period.  Some exporters were notissuing bids for nearby delivery.All bids in dollars per bushelUS 1 Soft White Wheat - delivered by Unit Trains and BargesOrdinary proteinFeb                                       5.4000-5.6700    unchMar                                       5.4000-5.6700    unchApr                                       5.4000-5.6700    unchMay                                       5.4600-5.6700    unchAug NC                                    5.4500-5.5900    unchGuaranteed maximum 10.5 pct proteinFeb                                       5.2500-5.5700    unch-up 4.25Mar                                       5.4000-5.5900    unchApr                                       5.4000-5.6000    unchMay                                       5.6000-5.6100    up 3.25-1.00Aug NC                                    5.5750-5.5900    up 3.50-unch—US 1 White Club Wheat - delivered by Unit Trains and BargesOrdinary proteinFeb                                       5.4500-5.6200    unchGuaranteed maximum 10.5 pct proteinFeb                                       5.2500-5.5700    unch-up 12.00—US 1 Hard Red Winter Wheat - (Exporter bids-falling numbers of 300 orbetter)Ordinary protein                            5.6000-5.6400    up 11.2511 pct protein                              6.2000-6.3900    up 11.2511.5 pct proteinFeb                                       6.4900-6.5900    up 11.25Mar                                       6.4000-6.5900    up 11.25Apr                                       6.5475-6.5975    up 11.25May                                       6.5475-6.5975    up 11.2512 pct protein                              6.6500-6.7400    up 11.2513 pct protein                              6.8500-7.0400    up 11.25—US 1 Dark Northern Spring Wheat (with a minimum of 300 falling numbers, a maximumof 0.5 part per million vomitoxin, and a maximum of one percent total damage)13 pct protein                              6.7650-6.8350    dn 0.50-up 0.5014 pct proteinFeb                                       7.2450-7.2650    dn 0.50-up 0.50Mar                                       7.2450-7.3150    dn 0.50-up 0.50Apr                                       7.2400-7.4400    dn 0.75May                                       7.2900-7.4900    dn 0.75 15 pct protein                               7.5650-7.5950    dn 0.50-up 0.50 16 pct protein                               7.8750-7.9050    up 0.50—US 2 Yellow CornShuttle trains-Delivered full coast Pacific Northwest-BNFeb                                       NAMar                                       4.6550-4.8050    up 2.00-8.00Apr                                       4.6425-4.7725    up 2.00May                                       4.5925-4.7425    up 2.00Jun                                       4.6700           up 4.00-2.00Jul                                       4.6200-4.6700    up 4.00-2.00—US 1 Yellow SoybeansShuttle trains-Delivered full coast Pacific Northwest-BNFeb                                       11.1800-11.2300  up 3.75Mar                                       11.1600-11.1800  up 3.75Apr                                       11.1950          up 3.50May                                       11.2950          up 3.50Jun                                       11.3650          up 3.25Jul                                       11.3650          up 3.25—US 2 Heavy White Oats **                      3.1925           unch** Not well tested.Exporter Bids Portland Rail/Barge             Jan 2018Averages in Dollars per bushelUS 1 Soft White by Unit Trains and Barges   5.3000US 1 Hard Red Winter (Ordinary protein)     5.0300US 1 Hard Red Winter (11.5% protein)        5.9200US 1 Dark Northern Spring (14% protein)     7.4100Source:    USDA Market News Service, Portland, ORNiki Davila 503-535-5001  Portland.LPGMN@ams.usda.gov24 Hour Market Report  503-535-5005www.ams.usda.gov/mnreports/jo—gr110.txtwww.ams.usda.gov/lpsmarketnewspage11:32P nd