BC-USDA-Eastern Cornbelt Hog Report
BC-USDA-Eastern Cornbelt Hog Report

The Associated Press



LM—HG209Des Moines, Iowa                Wed, Feb 28, 2018               USDA Market NewsEASTERN CORNBELT DAILY DIRECT MORNING HOG REPORT BASED ON STATE OF ORIGINPLANT DELIVERED PURCHASE DATA FOR Wednesday, February 28, 2018(Includes information from 1:30 PM to 9:30 AM.)CURRENT VOLUME BY PURCHASE TYPEBARROWS & GILTS LIVE AND CARCASS BASISEstimated     Actual     Actual     ActualToday      Today   Week Ago   Year AgoProducer SoldNegotiated                                3,203      3,021      3,503      5,829Other Market Formula (Futures/Options)    9,235      8,544      4,847      4,738Swine or Pork Market Formula             32,683     26,286     23,064     25,665Other Purchase Arrangement               27,248     23,878     21,638     18,349Negotiated Formula                        1,546      1,546        834        165Packer Sold (all purchase types)          1,957      1,957      2,407      1,296--------------------------------------------------------------------------------NEGOTIATED PURCHASE (Including Packer Sold)Barrows & Gilts (carcass basis): 2,385*Price not reported due to confidentiality* 5 Day Rolling Avg $63.07---------------------------------------------------------------------------------NEGOTIATED FORMULA PURCHASE (Including Packer Sold)Barrows & Gilts (carcass basis): 160*Price not reported due to confidentiality* 5 Day Rolling Avg $-----------------------------------------------------------------------------------COMBINED NEGOTIATED & NEGOTIATED FORMULA PURCHASE (Including Packer Sold)Barrows & Gilts (carcass basis): 2,545*Price not reported due to confidentiality* 5 Day Rolling Avg $-----------------------------------------------------------------------------------EASTERN CORNBELT DAILY DIRECT NEGOTIATED HOG PURCHASE MATRIXREPRESENTING INDIVIDUAL PACKER CARCASS MERIT BUYING PROGRAMSbased on both Fat and Muscle Measurements for a 200 lb Carcass Basis*Price not reported due to confidentiality*--------------------------------------------------------------------------------CARCASS WEIGHT DIFFERENTIALS*Price not reported due to confidentiality*--------------------------------------------------------------------------------MEASUREMENTS BASED ON SLAUGHTER DATA SUBMITTED*Price not reported due to confidentiality*--------------------------------------------------------------------------------SWINE OR PORK MARKET FORMULA PURCHASE (Including Packer Sold)Barrows & Gilts (carcass basis): 22,292Base Price Range $61.69 - $73.17, Weighted Average $67.68--------------------------------------------------------------------------------NEGOTIATED PURCHASE (Including Packer Sold)Barrows & Gilts (live basis, 240-320 lbs): 452Compared to Prior Day's closing weighted average (LM—HG207),  0.77 higherPrice Rng $43.63 - $53.50, Wtd Avg $50.64, 5 Day Rolling Avg $50.25--------------------------------------------------------------------------------NEGOTIATED FORMULA PURCHASE (Including Packer Sold)Barrows & Gilts (live basis, 240-320 lbs): 472*Price not reported due to confidentiality* 5 Day Rolling Avg $----------------------------------------------------------------------------------COMBINED NEGOTIATED & NEGOTIATED FORMULA PURCHASE (Including Packer Sold)Barrows & Gilts (live basis, 240-320 lbs): 924*Price not reported due to confidentiality* 5 Day Rolling Avg $----------------------------------------------------------------------------------BARROWS & GILTS PURCHASE BY STATE OF ORIGINGeorgia                 540               Illinois              17,589Indiana              10,181               Kentucky                 740Maryland                167               Michigan               6,030Mississippi             420               North Carolina        14,779New York                171               Ohio                   6,270Pennsylvania          2,315               Wisconsin                180--------------------------------------------------------------------------------*Price not reported due to confidentiality, for more information visit:www.ams.usda.gov/sites/default/files/media/ConfidentialityGuidelines.pdf*Base Price is the price from which no discounts are subtracted and no premiumsare added.Source:    USDA Livestock, Poultry & Grain Market News Division, Des Moines, IA515-284-4460      email:  desm.lpgmn@ams.usda.gov24 Hour recorded market information 515-284-4830www.ams.usda.gov/market-news/livestock-poultry-grain1100C.