BC-USDA-Kingsport Catl Actn
BC-USDA-Kingsport Catl Actn

The Associated Press



NV—LS140Nashville, TN      Wed Feb 28, 2018     USDA-TN Dept of Ag Market News**Revised report below for February 27, 2018.**Athens Stockyard, Athens, TNWeighted Average Report for Tuesday Feb 27, 2018Cattle Receipts:  1071          Last week: 1068          Last year: not reportedCompared to last week, feeder steers and heifers remaining mostly steady overallwith feeder bulls measuring 3.00 to 4.00 lower.  Regarding slaughter classes:breaker cows 1.00 to 3.00 higher with boning and lean cows mostly steady, andslaughter bulls gauging 7.00 to 8.00 higher.Feeder: 863				Slaughter: 168			Replacement: 40Slaughter cows made up 16 percent of the offering, slaughter bulls 2 percent,replacement cows 1 percent, and feeders 81 percent.  The feeder supply included26 percent steers, 52 percent heifers, and 22 percent bulls. Near 23 percent ofthe run weighed over 600 lbs.Please Note:The below USDA LPGMN price report is reflective of the majority of classes andgrades of livestock offered for sale.  There may be instances where some salesdo not fit within reporting guidelines and therefore will not be included in thereport.  Prices are reported on a per cwt. basis, unless otherwise noted.Feeder Steers                Medium and Large 1 - 2 Head   Wt Range   Avg Wt    Price Range   Avg Price2    290-295    293    180.00-202.00     191.094    320-335    329    187.00-191.00     189.497    350-385    363    172.00-181.00     177.987    377-377    377       202.00         202.00   Value Added16    405-445    424    166.00-181.00     174.755    400-415    403    184.00-187.00     184.62   Fancy12    438-439    438    196.00-198.00     197.17   Value Added19    460-498    482    168.00-187.00     176.6914    500-545    518    160.00-172.00     166.704    508-508    508       184.00         184.00   Value Added13    565-595    586    150.00-160.00     154.911    565-565    565       171.00         171.00   Fancy5    555-565    561    165.00-170.00     166.98   Value Added19    608-646    628    141.00-151.00     146.896    613-623    618    153.50-154.00     153.75   Value Added8    650-695    675    140.00-150.00     145.686    700-740    717    135.00-138.50     136.154    753-753    753       139.00         139.004    825-825    825    126.00-128.00     127.501   1030-1030  1030       110.00         110.001   1090-1090  1090       104.00         104.001   1165-1165  1165       102.00         102.002   1205-1245  1225     97.00-101.00      98.97Small and Medium 1 - 21    315-315    315       170.00         170.001    360-360    360       155.00         155.001    460-460    460       163.00         163.00Medium and Large 2 - 31    295-295    295       170.00         170.002    305-325    315    165.00-170.00     167.581    360-360    360       162.50         162.501    505-505    505       155.00         155.003    560-580    570    129.00-141.00     134.93Feeder Heifers                Medium and Large 1 - 2 Head   Wt Range   Avg Wt    Price Range   Avg Price1    240-240    240       185.00         185.005    255-295    281    158.00-175.00     167.041    290-290    290       182.50         182.50   Fancy17    300-345    319    157.50-176.00     167.061    345-345    345       179.00         179.00   Fancy7    300-326    319    182.50-187.00     185.79   Value Added18    355-395    378    158.00-175.00     164.531    360-360    360       178.00         178.00   Fancy1    360-360    360       177.00         177.00   Value Added26    410-440    426    151.00-167.00     159.6516    400-428    420    172.00-177.00     174.85   Value Added48    450-499    473    140.00-159.00     149.442    460-465    463    164.00-165.00     164.50   Fancy4    456-456    456       160.00         160.00   Value Added65    500-548    527    134.00-149.00     141.224    514-514    514       155.00         155.00   Value Added29    550-595    570    130.00-143.00     135.9918    579-593    583    145.00-146.00     145.64   Value Added21    600-645    623    127.00-136.00     132.023    602-602    602       142.00         142.00   Value Added6    660-695    678    120.00-131.00     126.527    650-690    673    134.50-138.00     135.73   Value Added18    705-737    724    120.00-134.00     130.837    750-758    753       128.00         128.002    880-880    880       108.00         108.00Small and Medium 1 - 21    260-260    260       150.00         150.001    335-335    335       140.00         140.003    360-375    367    137.00-150.00     141.43Medium and Large 2 - 32    310-320    315    140.00-143.00     141.521    350-350    350       141.00         141.002    455-475    465    130.00-135.00     132.451    545-545    545       125.00         125.001    550-550    550       125.00         125.002    700-730    715    107.00-111.00     109.04Feeder Bulls                Medium and Large 1 - 2 Head   Wt Range   Avg Wt    Price Range   Avg Price3    225-235    232    181.00-201.00     190.818    258-295    272    185.00-199.00     193.287    300-340    322    170.00-183.00     176.628    350-395    372    165.00-180.00     174.4813    400-445    422    165.00-180.00     174.0019    450-485    468    160.00-179.00     168.431    470-470    470       183.00         183.00   Fancy6    459-459    459       180.00         180.00   Value Added20    500-545    518    153.00-169.50     163.0911    550-590    572    142.00-154.00     148.702    565-565    565       161.00         161.00   Fancy12    559-574    568    159.00-161.00     160.18   Value Added12    605-635    621    129.00-141.00     134.311    600-600    600       155.00         155.00   Fancy11    655-695    675    118.00-130.00     125.213    700-740    723    115.00-127.00     120.243    750-785    770    117.00-121.00     118.98Small and Medium 1 - 21    320-320    320       165.00         165.001    485-485    485       150.00         150.001    595-595    595       135.00         135.00Medium and Large 2 - 31    285-285    285       162.00         162.001    345-345    345       155.00         155.002    510-525    518    133.00-141.00     137.061    625-625    625       124.00         124.00Bred Cows                  Medium and Large 1 - 2 Young Head   Wt Range   Avg Wt    Price Range   Avg Price2    800-800    800    750.00-770.00     760.00   Per Head  1-3 Months Bred1    900-900    900       825.00         825.00   Per Head  1-3 Months Bred1   1300-1300  1300       875.00         875.00   Per Head  1-3 Months Bred2   1000-1050  1025    875.00-975.00     923.78   Per Head  4-6 Months Bred1    900-900    900       825.00         825.00   Per Head  7-9 Months BredMedium and Large 1 - 2 Middle Aged1   1500-1500  1500       900.00         900.00   Per Head  4-6 Months BredMedium and Large 1 - 2 Aged1   1100-1100  1100       750.00         750.00   Per Head  4-6 Months Bred1   1300-1300  1300       700.00         700.00   Per Head  4-6 Months BredCow/Calf Pairs: Mid-Aged medium and large frame #1 and 2 cow with calf weighing100 lbs. 1200.00, Aged medium and large frame #1 and 2 cow with calf weighing100 lbs. 975.00.Slaughter Cows                Breaker 70-80% Lean Head   Wt Range   Avg Wt    Price Range   Avg Price3   1250-1320  1292     60.00-67.00       63.654   1535-1730  1621     60.00-63.00       61.79Boner 80-85% Lean2    855-870    863        60.00          60.0062    985-1395  1222     57.00-68.50       63.309   1030-1310  1184     69.00-80.00       72.39   High Dressing3    925-1355  1168     54.00-55.50       54.84   Low Dressing27   1400-1730  1539     58.00-68.00       63.501   1745-1745  1745        75.50          75.50   High Dressing1   1600-1600  1600        55.00          55.00   Low DressingLean 85-90% Lean2    695-705    700     50.00-52.00       50.991    640-640    640        40.50          40.50   Low Dressing12    850-1385  1025     49.00-56.50       53.721   1200-1200  1200        42.00          42.00   Low DressingSlaughter Bulls                Yield Grade 1 Head   Wt Range   Avg Wt    Price Range   Avg Price2   1315-1380  1348     85.00-86.00       85.492   1195-1290  1243     98.50-100.00      99.22   High Dressing7   1510-2165  1729     85.00-94.00       89.753   1820-1930  1883     96.00-105.00     101.76   High DressingSource: TN Dept of Ag-USDA Market News Service, Nashville, TNKristy Tippins, Market Reporter  502-782-4139www.ams.usda.gov/lsmnpubsNV—LS140.txt