BC-Merc Early
BC-Merc Early

The Associated Press

CHICAGO




CHICAGO (AP) — Early trading on the Chicago Mercantile Exchange Wed:
OpenHighLowLastChg.CATTLE40,000 lbs.; cents per lb.Feb128.35128.42127.55127.87—.15Apr124.25124.65123.10123.17—1.08Jun116.25116.50115.27115.40—.95Aug113.45113.60112.65112.77—.80Oct115.75115.97115.30115.37—.65Dec118.00118.20117.50117.67—.60Feb118.45118.52117.92117.92—.68Apr117.92117.92117.50117.60—.55Est. sales 21,244.  Tue.'s sales 55,026Tue.'s open int 376,912FEEDER CATTLE50,000 lbs.; cents per lb.Mar146.25146.55144.90145.07—1.48Apr148.90149.20147.17147.40—1.80May149.92150.15148.42148.60—1.65Aug153.00153.17151.85152.05—1.37Sep152.57152.82151.72151.72—1.33Oct151.75152.00151.05151.05—1.50Nov150.95150.95150.02150.02—1.45Est. sales 5,114.  Tue.'s sales 17,407Tue.'s open int 57,960,  up 387HOGS,LEAN40,000 lbs.; cents per lb.Apr69.4069.5068.2568.25—1.70May76.0076.2275.0575.05—1.35Jun81.4781.8080.7280.80—1.22Jul83.2083.2082.1582.25—.97Aug83.2083.2082.3782.50—.77Oct70.6070.6069.8769.92—.75Dec64.3564.3563.6063.70—.72Feb67.8267.8267.4067.42—.58Apr70.7770.7770.7770.77—.40Est. sales 23,069.  Tue.'s sales 43,474Tue.'s open int 230,704,  up 2,009PORK BELLIES40,000 lbs.; cents per lb.No open contracts.