BC-USDA-Portland Grain
BC-USDA-Portland Grain

The Associated Press



JO—GR110Portland, OR    Wed Feb 28, 2018    USDA Market NewsPortland Daily Grain ReportBids as of 9:30 a.m. Pacific time; Subject to changeAll Bids in dollars per bushel.  Bids are limited and not fullyestablished in early trading.Bids for grains delivered to Portland, Oregon in dollars per bushel.In early trading March wheat futures trended 4.50 to 16.75 cents perbushel higher than Tuesday?s closes. May wheat futures trended 6.25 to 16cents per bushel higher than Tuesday?s closes.Bids for US 1 Soft White Wheat delivered to Portland in unit trains andbarges for February delivery for ordinary protein were not well tested inearly trading, but bids were indicated as steady to higher compared toTuesday?s noon bids for the same delivery period.  Some exporters were notissuing bids for nearby delivery.  Bids for guaranteed maximum 10.5 percentprotein were well tested in early trading, but bids were indicated ashigher compared to Tuesday?s noon bids for the same delivery period.  Someexporters were not issuing bids for nearby delivery.Bids for 11.5 percent protein US 1 Hard Red Winter Wheat for Februarydelivery were not well tested in early trading but bids were indicated ashigher compared to Tuesday?s bids for the same delivery period.  Someexporters were not issuing bids for nearby delivery.Bids for 14 percent protein US 1 Dark Northern Spring Wheat for Februarydelivery were not well tested in early trading but bids were indicated ashigher compared to Tuesday?s noon bids for the same delivery period.  Someexporters are not issuing bids for nearby delivery.Bids for US 2 Yellow Corn delivered full coast in 110 car shuttle trainsduring February were not available in early trading as most exporters werenot issuing bids for nearby delivery.Bids for US 1 Yellow Soybeans delivered full coast in 110 car shuttletrains during February were not well tested in early trading, but bids wereindicated as higher compared to Tuesday?s noon bids for the same deliveryperiod.  Some exporters were not issuing bids for nearby delivery.All wheat bids in dollars per bushelUS 1 Soft White Wheat - delivered by Unit Trains and BargesOrdinary proteinFeb                                       5.4000-5.7300Mar                                       5.4000-5.7300Apr                                       5.4000-5.7300May                                       5.4600-5.7700Aug NC                                    5.4500-5.7025Guaranteed maximum 10.5 pct proteinFeb                                       5.4000-5.7300Mar                                       5.4000-5.7300Apr                                       5.4000-5.7300May                                       5.6000-5.7700Aug NC                                    5.5900-5.7025—US 1 White Club Wheat - delivered by Unit Trains and BargesOrdinary proteinFeb                                       5.4500-5.7300Guaranteed maximum 10.5 pct proteinFeb                                       5.4500-5.7300—US 1 Hard Red Winter Wheat - (Exporter bids-falling numbers of 300 orbetter)Ordinary protein                            5.7600-5.800011 pct protein                              6.3600-6.550011.5 pct proteinFeb                                       6.6500-6.7500Mar                                       6.5600-6.7500Apr                                       6.7050-6.7550May                                       6.7050-6.755012 pct protein                              6.8100-6.900013 pct protein                              7.0100-7.2000—US 1 Dark Northern Spring Wheat (with a minimum of 300 falling numbers, a maximumof 0.5 part per million vomitoxin, and a maximum of one percent total damage)13 pct protein                              6.8100-6.880014 pct proteinFeb                                       7.2900-7.3100Mar                                       7.2900-7.3600Apr                                       7.3025-7.5025May                                       7.3525-7.552515 pct protein                              7.6100-7.640016 pct protein                              7.9200-7.9500—US 2 Yellow CornShuttle trains-Delivered full coast Pacific Northwest-BNFeb                                       NAMar                                       4.6925-4.7925Apr                                       4.6725-4.8025May                                       4.6225-4.7825Jun                                       4.6975-4.7575Jul                                       4.5975-4.6975—US 1 Yellow SoybeansShuttle trains-Delivered full coast Pacific Northwest-BNFeb                                       11.2325-11.2825Mar                                       11.2125-11.2325Apr                                       11.2425-11.3425May                                       11.3425-11.3725Jun                                       11.4100-11.4300Jul                                       11.4100-11.4600—US 2 Heavy White Oats **                      3.1925** Not well tested.Exporter Bids Portland Rail/Barge             Jan 2018Averages in Dollars per bushelUS 1 Soft White by Unit Trains and Barges   5.3000US 1 Hard Red Winter (Ordinary protein)     5.0300US 1 Hard Red Winter (11.5% protein)        5.9200US 1 Dark Northern Spring (14% protein)     7.4100Source:    USDA Market News Service, Portland, ORNiki Davila 503-535-5001  Portland.LPGMN@ams.usda.gov24 Hour Market Report  503-535-5005www.ams.usda.gov/mnreports/jo—gr110.txtwww.ams.usda.gov/lpsmarketnewspage8:48 P nd