BC-USDA-Memphis Cotton
BC-USDA-Memphis Cotton

The Associated Press



MP—CN001                            0MEMPHIS, TN                 2/28/2018        USDA Cotton and Tobacco Program, MNDMARKET        41-4/34 31-3/35  BALES    FUTURES     TODAYMar-18     81.65SOUTHEAST             83.43   85.68    617      May-18     82.93NORTH DELTA           81.93   83.68    545      Jul-18     83.29SOUTH DELTA           81.93   83.68     0       Oct-18     78.30EAST TX-OK            76.00   77.75    5978     Dec-18     77.11WEST TEXAS            75.50   77.50    5417     Mar-19     77.26DESERT SW             78.18   82.18    5000     May-19     77.01SJ VALLEY             78.68   87.58     0       Jul-19     76.70Oct-19     74.53AVERAGE               79.38   82.58   17557     Dec-19     71.82COTTON QUOTATIONS FOR SELECTED QUALITIES                   MIKE             STRENGTH24 & Belo -1500   19.0 - 19.9   -250EAST TX-OK            31-3    41-4     32-3      42-4      25-26   -1375   20.0 - 20.9   -250STAPLE 32       -300    -375     -450      -525      27-29   -1075   21.0 - 21.9   -225STAPLE 33       -100    -275     -300      -450      30-32    -775   22.0 - 22.9   -200STAPLE 34        50       0      -25       -100      33-34    -600   23.0 - 23.9   -175STAPLE 35        175      0      -25       -100    Base 35-3   0     24.0 - 24.9   -175STAPLE 36        300     100     125       -25       37-42     0     25.0 - 25.9   -150STAPLE 37        350     125     125       -25     Base 43-4   0     26.0 - 26.9   -10050-52    -225  Base 27.0 - 2   0Prep            1        -200                    53 & Abov  -350   29.0 - 29.9    02        -500                                      30.0 - 30.9    25Bark            1        -350                                      31.0 - 32.9    252        -525                                     33.0 & above    25Other           1        -5502        -600WEST TEXAS            31-3    41-4     32-3      42-4    24 & Belo -1825   19.0 - 19.9   -250STAPLE 32       -250    -400     -325      -500      25-26   -1650   20.0 - 20.9   -250STAPLE 33        -50    -325     -150      -400      27-29   -1275   21.0 - 21.9   -225STAPLE 34        25       0      -75       -200      30-32    -925   22.0 - 22.9   -200STAPLE 35        200      0       0        -125      33-34    -700   23.0 - 23.9   -175STAPLE 36        300     100     125        50     Base 35-3   0     24.0 - 24.9   -175STAPLE 37        350     125     125        50       37-42     0     25.0 - 25.9   -150Base 43-4   0     26.0 - 26.9   -100Prep            1        -200                      50-52    -225  Base 27.0 - 2   02        -500                    53 & Abov  -350   29.0 - 29.9    0Bark            1        -350                                      30.0 - 30.9    252        -525                                      31.0 - 32.9    25Other           1        -550                                     33.0 & above    252        -600Feb 23 - Mar 01AWP   69.69CC ADJ.    0.00FC ADJ. - 2016   0.51FC ADJ. - 2017   0.66LDP    0.00Cotton and Tobacco Program, Market News Division3275 Appling RdMemphis, TN  38133(901) 384-3016www.ams.usda.gov/mnreports/mp—cn001.txt