BC-USDA-Iowa Elev Grain Prcs
BC-USDA-Iowa Elev Grain Prcs

The Associated Press



NW—GR110Des Moines, IA    Wed. Feb. 28, 2018    IA Dept of Ag-USDA Market NewsIA Dept. of Ag-USDA Market News Interior Iowa Daily Grain PricesClosing cash grain bids offered to producers as of 1:30 p.m.Dollars per bushel, delivered to Interior Iowa Country Elevators.US 2 Yellow Corn Prices were mostly 4 cents higher for a state average of 3.39.US 1 Yellow Soybean Prices were mostly 6 cents higher for a state average of 9.68.Iowa Regions       #2 Yellow Corn          #1 Yellow SoybeansRange       Avg        Range          AvgNorthwest        3.32 ? 3.43   3.36       9.55 ? 9.72    9.64North Central    3.33 ? 3.44   3.37       9.62 ? 9.70    9.67Northeast        3.33 ? 3.48   3.41       9.53 ? 9.90    9.70Southwest        3.34 ? 3.44   3.39       9.64 ? 9.75    9.69South Central    3.29 ? 3.46   3.37       9.60 ? 9.72    9.66Southeast        3.35 ? 3.64   3.43       9.64 ? 9.94    9.79Corn basis to STATE AVERAGE PRICE for the CBOT MAR contract is -.36Soybean basis to STATE AVERAGE PRICE for the CBOT MAR contract is -.77This report was prepared by the Marketing Bureau, Iowa Department ofAgriculture and Land Stewardship.Source:  USDA Market News Des Moines, Iowa515-284-4460www.ams.usda.gov/mnreports/nw—gr110.txtIowa Dept. of Agriculture and Land Stewardship515-281-8604www.iowaagriculture.gov/agMarketing/dailyGrainPrices.asp16:18 ja