Preclosing
Preclosing

The Associated Press

CHICAGO




CHICAGO (AP) — Futures trading on the Chicago Board of Trade Wed:
OpenHighLowLastChg.WHEAT5,000 bu minimum; cents per bushelMar464½487½463¼463¼May478499½476½496¼+19¼Jul491¾512¼490½508¾+17½Sep508526¼507523¼+15¾Dec529545¼528½543+14Mar544559543¾556½+12½May556561¾556558+9½Jul544¼557¾544¼555+10Sep552560¾552558½+8Dec565572564570+6¼Mar573579¾573574¼+1¼Jul555555555555+2Est. sales 206,488.  Tue.'s sales 151,720Tue.'s open int 442,255CORN5,000 bu minimum; cents per bushelMar370½376¾369¾370½May379384¾378¼382¾+3½Jul386¾391¾386390+3Sep392½396¾392395¼+2¼Dec399½403¼399401¾+1¾Mar407410½406½409¼+1¾May411½414¾411413¼+1½Jul415½419415¼417½+1½Sep410410410410—¾Dec412¾415412¾413¼—¼Mar420½420¾418¼419—½May424424424424+1Dec418418418418+¾Est. sales 452,263.  Tue.'s sales 725,650Tue.'s open int 1,636,559,  up 3,385OATS5,000 bu minimum; cents per bushelMar264267¼262267¼+7¼May270¼273267272¼+2½Jul273274270¾274+2Est. sales 371.  Tue.'s sales 573Tue.'s open int 5,687,  up 47SOYBEANS5,000 bu minimum; cents per bushelMar1037¾104810351038May104910591045¾1056½+7Jul105810681055¼1065+6½Aug10551066½1054¾1064¼+6¼Sep1042¼1048¼1042¼1046¾+3¼Nov10311036¼10291033¼+1¼Jan1034½10401034½1036¾+1¼Mar1027½1034¼10271031+1¼May103010311029¾1029¾+1Jul1030103510301032½+¼Nov10001003½999½1000¼—¾Est. sales 193,007.  Tue.'s sales 342,643Tue.'s open int 772,367