BC-US--Grain Prices, US
BC-US--Grain Prices, US

The Associated Press

CHICAGO




CHICAGO (AP) — Futures trading on the Chicago Board of Trade Wednesday.:
SettleWHEAT (5,000 bu ; cents per bushel)Mar             484 1-2May             495    Jul             507 1-4Sep             521 1-4Dec             540 3-4Mar             554 1-2May             557 1-4Jul             553 3-4Sep             558 1-4Dec             569 1-4Mar             578 1-4May             575    Jul             555    CORN (5,000 bu ; cents per bushel)Mar             374 1-2May             382    Jul             389 1-2Sep             395    Dec             401 1-2Mar             408 3-4May             413 1-2Jul             417 3-4Sep             410 1-2Dec             412 3-4Mar             418 3-4May             422 3-4Jul             427 1-4Sep             423 1-2Dec             417    Jul             425 1-4Dec             419 1-2OATS (5,000 bu ; cents per bushel)Mar             263    May             270 1-4Jul             272 3-4Sep             268 1-4Dec             265 3-4Mar             266    May             266    Jul             271    Sep             272 1-4Dec             272 1-4Jul             270 3-4Sep             270 3-4SOYBEANS (5,000 bu ; cents per bushel)Mar            1045    May            1055 1-2Jul            1064 1-4Aug            1063 1-4Sep            1045 1-2Nov            1032 1-4Jan            1035 3-4Mar            1030 1-4May            1028 3-4Jul            1032 1-2Aug            1025 1-2Sep            1012    Nov            1000    Jan            1005    Mar            1005 1-2May            1013    Jul            1015 3-4Aug            1008 1-4Sep            1005 1-4Nov             983 3-4Jul             983 3-4Nov             983 3-4SOYBEAN OIL (60,000 lbs; cents per lb)Mar             31.96May             32.23Jul             32.43Aug             32.52Sep             32.62Oct             32.68Dec             32.88Jan             33.05Mar             33.19May             33.32Jul             33.47Aug             33.45Sep             33.43Oct             33.31Dec             33.34Jan             33.44Mar             33.66May             33.67Jul             33.81Aug             33.80Sep             33.80Oct             33.80Dec             33.71Jul             33.71Oct             33.71Dec             33.71SOYBEAN MEAL (100 tons; dollars per ton)Mar            394.20May            394.70Jul            392.10Aug            386.10Sep            379.60Oct            372.00Dec            368.60Jan            364.80Mar            358.60May            356.60Jul            357.00Aug            355.30Sep            352.70Oct            346.80Dec            345.40Jan            346.10Mar            346.90May            346.90Jul            348.40Aug            348.40Sep            348.40Oct            348.40Dec            345.20Jul            345.20Oct            345.20Dec            345.20