BC-SC--Commodities, SC
BC-SC--Commodities, SC

The Associated Press



COLUMBIA, SC  Thursday, March 01, 2018South Carolina State Farmers Market - Prices to GrowersProvided by: Specialty Crops Market NewsFederal State Market News Office Columbia, SCCA—FV001Columbia Farmers Market - Wholesale prices paid to Growers until 9:00a.m. for South Carolina grown produce unless otherwise stated.  Standardcartons/crates. Farmers' pack not necessarily USDA grades.  Pricessubject to change without notice.Recorder number: (803)737-5900 Office:(803)737-4497Internet http://www.ams.usda.gov/mnreports/CA—FV001.TXTSIZES: jbo=jumbo, xlge=extra large, lge=large, med=medium sml=smallVOLUME SYMBOLS: TFQ = Supplies insufficient to quote prices,VL=very light, F=few, L=light, M=moderate, H=heavy, VH=very heavyCOMMODITY         VOL   CONTAINERS         VARIETY                 PRICESCILANTRO:         VL    ctns bnchd         30s                      12.00GREENS:           VL    dz bnchs           Collards/Mustard/Turnips 20.001.35 buctns bnchd  Kale 24s Green           13.001 1/9 buctns lse   Turnip Tops              13.00Creasy type              13.00ONIONS,GREEN:     VL    crts bnchd         24s                       9.00ctns bnchd         48s                      14.00PARSLEY:          VL    ctns bnchd         Flat type 30s            15.00RUTABAGAS:        VL    dz bnchs                                    20.00SPINACH:          VL    1.35 bucrts        Savoy type               18.00TURNIPS:          VL    25 lb sks          Topped Lge               12.00*****OUT OF STATE PRODUCE SOLD UNDER SHEDS (Buying Wholesale)************APPLES:           VL    Buctns lse         Red/Golden               20.00Granny Smith             20.00Gala/Fuji                22.00Rome                     20.00Cameo                    20.00Pinklady                 20.00BANANAS:          VL    40 lb ctns         #1                       18.00BEANS:            VL    1 1/9 bucrts       Snap type FL             15.00Pole/KY type             25.00BEETS:            VL    25 lb sks          Red Topped Sml           14.00CABBAGE:          VL    50 lb ctns         Green type Med FL        16.0050 lb sks          Green type Lge FL        10.00CARROTS:          VL    50 lb sks          Jumbo MX                 21.00CORN,SWEET:       VL    4 dz crts          Bi-Color/Yellow/White    12.00CUCUMBERS:        VL    1 1/9 buctns       Long Greens Sel MX 10.00-12.00Small                    16.001 1/9 bucrts       Pickles Sml-Med MX       33.00EGGPLANT:         VL    buctns             MX 18s                   16.00GRAPES:           VL    18 lb ctns bgd     White Seedless           20.00Red Seedless             20.00GREENS:           VL    1 1/9 buctns lse   Mustard Curly type       13.00MANGOES:          VL    1 layer ctns       Kent PE 9s                8.00OKRA:             VL    1/2 bucrts         Sml-Med GU               25.00ONIONS,DRY:       VL    50 lb sks          Yellow Jumbo             17.0025 lb sks          Red Jumbo                15.0016 3-lb sks        Yellow Med-Lge           15.0040 lb ctns         Sweet type Jbo PE        24.0050 lb sks          Sweet type Jbo PE        18.0016 3-lb sks        Sweet type Med PE        28.0010 5-lb sks        Sweet type Jbo PE        30.0032 lb sks          Sets Yellow/Red/White    22.00PEARS:            VL    2 layer ctns       Asian type 32s           20.00PEPPERS,BELL:     VL    1 1/9 buctns       Green Xlge         14.00-15.00Green Choice             12.00Red Choice               20.00PEPPERS,OTHER:    VL    1 1/9 buctns       Jalapeno MX              22.001/2 buctns         Jalapeno                 12.00PINEAPPLE:        VL    1 layer ctns       Golden Ripe MX 7s        14.00PLUMS:            VL    2 layer ctns       Pluot 52s                20.00POTATOES:         VL    50 lb sks          Red A type FL #2         17.00Seed type Red/White      20.00SQUASH:           VL    3/4 buctns         Crookneck Sml            20.00Medium                   14.001/2 buctns         Zucchini Small     18.00-20.00Medium                   16.00VL    buctns             Acorn/Butternut/Spaghetti20.00STRAWBERRIES:     VL    8 1-lb cntrs       FL                  8.00-10.00FL Organic Fair Cond.    10.004 2-lb cntrs       FL                  8.00-10.00SWEET POTATOES:   VL    40 lb ctns         Orange typeU.S. NO 1 MS             23.00U.S. NO 1 NC       16.00-18.00US #2 NC/MS        12.00-13.00Jumbo NC/MS              13.00Purple MS/NC             25.00TOMATOES:         VL    25 lb ctns         Vine Ripes Turning Red5x6 sz/xlge/Jbo    12.00-14.006x6 sz             10.00-11.00Red type All Sizes 10.00-12.00Green 5x6 sz             15.00Yellow 5x6 sz            20.00TOMATOES,GRAPE:   VL    12 1-pt cntrs      Red type FL        10.00-12.00TOMATOES,PLUM:    VL    25 lb ctns         Roma Xlge MX/FL     9.00-12.00WATERMELONS:      VL    per melon          Red Flesh Seedless MX15-17 lbs                 3.0024 inch bins       Red Flesh Seedless 45s  120.00CITRUS:CLEMENTINES:      VL    4 5-lb crts        CA 18sz                  20.00GRAPEFRUIT:       VL    7/10 buctns        Red type CA 23s          25.00LEMONS:           VL    7/10 buctns        CA 115s/140s Choice      30.00MISC CITRUS:      VL    25 lb ctns         Satsuma FL Xlge          15.00ORANGES:          VL    7/10 buctns        Navel CA 56/72/88  25.00-28.00Cara Cara 88s            30.00TANGELOS:         VL    7/10 buctns        Minneola 100s            25.0080s                      28.00NUTS:WALNUTS:          VL    50 lb sks          English type CA         150.00Remarks: These items also available Rice, Cheese, Eggs, Honey, SlicedMeats, Butter, Flowers, Jams, Ciders, Plants, Trees, etc.Web site www.ams.usda.gov/mnreports/CA—FV001.TXT09:45 ts