Open
Open

The Associated Press

CHICAGO




CHICAGO (AP) — Early trading on the Chicago Board of Trade Thu.:
OpenHighLowLastChg.WHEAT5,000 bu minimum; cents per bushelMar491¼494482¾484½May495½503½489½502¾+7¾Jul508516½503515½+8¼Sep521½530517¼529¼+8Dec541548½536¼547¾+7Mar551¾562550¼562+7½May555562¾555562¾+5½Jul551560¾550560¾+7Sep558565558565+6¾Dec568576¼565574¼+5Mar580580580580+1¾Jul555¼555¼555¼555¼+¼Est. sales 101,772.  Wed.'s sales 237,022Wed.'s open int 444,656,  up 2,401CORN5,000 bu minimum; cents per bushelMar374374¾372374½May381½382½379½382¼+¼Jul389¼390¼387389¾+¼Sep394395½392½395¼+¼Dec400¾402398¾401¾+¼Mar407½409406¼408¾May411413½411413—½Jul416¾418415¼417¾Sep410410¾409409—1½Dec412412¾411412½—¼Mar418¾419¼418¾419¼+½Dec416416416416—1Est. sales 160,292.  Wed.'s sales 544,749Wed.'s open int 1,660,475,  up 23,916OATS5,000 bu minimum; cents per bushelMar261½261½260260—3May270¼270¾258269—1¼Jul272¼272¼262¾269—3¾Dec262¾262¾262¾262¾—3Est. sales 393.  Wed.'s sales 415Wed.'s open int 5,691,  up 4SOYBEANS5,000 bu minimum; cents per bushelMar1043¾105210411045May1053¾1063¼1050¾1057½+2Jul1062½1071¾1059½1066+1¾Aug1061¼1070¼1058¾1065¼+2Sep1044½1050½10421047+1½Nov1031½103710271032½+¼Jan1033½10401031¼1035¾Mar1027¾1034¼1026½1031+¾May1029¾1033¼1026¼1030½+1¾Jul1036½1036¾10301034+1½Nov10001003998999¼—¾Jan1006½1006½1006½1006½+1½Est. sales 126,775.  Wed.'s sales 235,076Wed.'s open int 777,682,  up 5,315SOYBEAN OIL60,000 lbs; cents per lbMar32.0432.1431.6631.91—.05May32.2932.4031.9332.17—.06Jul32.4832.6032.1432.37—.06Aug32.5232.6832.2332.45—.07Sep32.6832.7532.3232.54—.08Oct32.7032.8032.3932.54—.14Dec32.9033.0432.5832.80—.08Jan33.0633.1432.7632.91—.14Mar33.2533.2532.9633.06—.13May33.0533.1233.0533.12—.20Oct33.1233.1433.1233.14—.17Dec33.4733.4733.2533.33—.01Est. sales 42,216.  Wed.'s sales 152,290Wed.'s open int 475,230,  up 4,228SOYBEAN MEAL100 tons; dollars per tonMar392.00392.50384.50389.90—4.30May392.20395.00384.10392.20—2.50Jul390.00392.60381.00389.60—2.50Aug384.30386.90379.30384.00—2.10Sep373.90380.70373.90378.50—1.10Oct368.40373.50367.60371.70—.30Dec367.50370.60360.50368.60Jan361.10366.30361.10364.60—.20Mar359.40361.00357.10359.30+.70May357.40357.50355.10356.60Jul355.40357.20355.40357.20+.20Aug353.10353.10353.10353.10—2.20Oct344.40344.40344.10344.20—2.60Dec345.80346.80343.70345.00—.40Est. sales 73,052.  Wed.'s sales 145,418Wed.'s open int 449,658