BC-Wheat KX
BC-Wheat KX

The Associated Press

CHICAGO




CHICAGO (AP) — Winter Wheat futures on the Chicago Board of Trade Thu:
OpenHighLowSettleChg.WHEAT5,000 bu minimum; cents per bushelMar506¾531506¾531+22¾May519¾545518½543½+21¼Jul536¼561½535½560+21Sep552½577551575¾+21½Dec570595569¾593¾+20¾Mar579603¼579602½+20½May586½601¾586¼601¾+18¼Jul582597582596+17Sep596602594602+17Dec599¾610¼599¾610¼+11½Mar612+13¼May612+13¼Jul593¼+14¼Est. sales 103,316.  Wed.'s sales 119,152Wed.'s open int 301,693,  up 343