BC-BOT Table,1st Ld
BC-BOT Table,1st Ld

The Associated Press

CHICAGO




CHICAGO (AP) — Noon trading on the Chicago Board of Trade Thu.:
OpenHighLowNoonChg.WHEAT5,000 bu minimum; cents per bushelMar491¼500482¾484½May495½510489½505¾+10¾Jul508523503518½+11¼Sep521½536517¼532¼+11Dec541554536¼550½+9¾Mar551¾567¼550¼564½+10May555568¾555567½+10¼Jul551566¾550564½+10¾Sep558570558569¼+11Dec568580½565580½+11¼Mar580585580585+6¾Jul555¼555¼555¼555¼+¼Est. sales 189,101.  Wed.'s sales 247,339Wed.'s open int 444,656,  up 2,401CORN5,000 bu minimum; cents per bushelMar374377½372374½May381½385379½384¾+2¾Jul389¼392½387392½+3Sep394397¾392½397½+2½Dec400¾404398¾403¾+2¼Mar407½411406¼410½+1¾May411415¼411414¾+1¼Jul416¾419¾415¼419+1¼Sep410410¾409410¾+¼Dec412414¼411413¾+1Mar418¾419¾418¾419½+¾Dec416417416417Est. sales 426,710.  Wed.'s sales 566,573Wed.'s open int 1,660,475,  up 23,916OATS5,000 bu minimum; cents per bushelMar261½268260268+5May270¼276258273¾+3½Jul272¼276262¾276+3¼Dec262¾262¾262262¾—3Est. sales 643.  Wed.'s sales 415Wed.'s open int 5,691,  up 4SOYBEANS5,000 bu minimum; cents per bushelMar1043¾1055½10411045May1053¾1066¼1050¾1062½+7Jul1062½1074½1059½1071¼+7Aug1061¼1072¾1058¾1069+5¾Sep1044½1052½10421049½+4Nov1031½1037¾10271036+3¾Jan1033½10411031¼1039+3¼Mar1027¾10361026½1033½+3¼May1029¾1035¼1026¼1032½+3¾Jul1036½103810301036¼+3¾Nov10001003997¾1001+1Jan1006½1006½1006½1006½+1½Est. sales 221,544.  Wed.'s sales 251,394Wed.'s open int 777,680,  up 5,313SOYBEAN OIL60,000 lbs; cents per lbMar32.0432.1531.6632.13+.17May32.2932.4431.9332.35+.12Jul32.4832.6332.1432.55+.12Aug32.5232.7132.2332.65+.13Sep32.6832.7832.3232.73+.11Oct32.7032.8532.3932.80+.12Dec32.9033.0732.5833.01+.13Jan33.0633.1932.7633.16+.11Mar33.2533.3132.9633.31+.12May33.0533.3633.0533.36+.04Jul33.3433.4833.3433.48+.01Oct33.1233.5633.1233.56+.25Dec33.4733.6233.2533.61+.27Est. sales 75,882.  Wed.'s sales 155,195Wed.'s open int 475,230,  up 4,228SOYBEAN MEAL100 tons; dollars per tonMar392.00393.90384.50390.40—3.80May392.20396.70384.10393.40—1.30Jul390.00393.80381.00390.90—1.20Aug384.30388.20379.30385.60—.50Sep373.90382.50373.90380.30+.70Oct368.40375.00367.60373.30+1.30Dec367.50372.20360.50370.40+1.80Jan361.10367.60361.10366.60+1.80Mar359.40361.20357.10360.10+1.50May357.40358.00355.10357.40+.80Jul355.40358.60355.40358.30+1.30Aug353.10353.10353.10353.10—2.20Oct344.40347.50344.10346.20—.60Dec345.80346.80343.70345.50+.10Est. sales 109,939.  Wed.'s sales 151,084Wed.'s open int 449,658