Open
Open

The Associated Press

CHICAGO




CHICAGO (AP) — Early trading on the Chicago Board of Trade Fri.:
OpenHighLowLastChg.WHEAT5,000 bu minimum; cents per bushelMar506¼506¼492505½May514¼518½497500½—15Jul529531¾510½514¼—14¼Sep540544¼524½528¾—13Dec557562543547—12¾Mar570575557561—11½May572¾574568570¼—5Jul567575562¼565½—8Sep577577¼571½571½—6¼Dec586½589578½580¼—9¼Mar596596596596—1Est. sales 107,504.  Thu.'s sales 251,682Thu.'s open int 453,586,  up 8,930CORN5,000 bu minimum; cents per bushelMar377¾380¼376378¾May385¾388383½384½—1¾Jul393¼394¾390¾391¾—1¾Sep398¼399½396¼397—1¾Dec404¼405402¾403½—1¼Mar411411¾409¾410½—1¼May415416¼414½414¾—1¼Jul419½420¾418¾419—1¼Sep411¼411¼411¼411¼—1Dec414¼414½413414—¾Mar419420¾419420¾+¼Dec416½416½416½416½—1½Est. sales 275,166.  Thu.'s sales 529,910Thu.'s open int 1,687,819,  up 27,344OATS5,000 bu minimum; cents per bushelMar268¾269½264264—5May273275265¼266¾—6¾Jul275¾276¼271¾271¾—2Est. sales 296.  Thu.'s sales 730Thu.'s open int 5,677SOYBEANS5,000 bu minimum; cents per bushelMar105710711053½1057½May1067¾1082½1063¾1068½+½Jul10761090¼1071¾1076½Aug1073½10861069¾1073½—¼Sep1053¼106010491051¼—1½Nov1036¾1042¾10331035¾—2¼Jan1038¾10451035¾1038¾—2¼Mar103710401030½1034¾—2¼May1036¼10401031¾1032½—3¾Jul10401042½1036¾1036¾—2½Nov10001003½996½1000¾—¼Jan1006½1006½1006½1006½+1¼Est. sales 197,961.  Thu.'s sales 281,186Thu.'s open int 783,362,  up 5,682SOYBEAN OIL60,000 lbs; cents per lbMar32.0932.6332.0532.18+.06May32.3532.8932.2832.59+.20Jul32.5833.0932.4832.78+.19Aug32.6933.1632.5732.88+.20Sep32.7233.1932.7032.91+.16Oct32.8533.3032.7632.96+.15Dec33.0333.5232.9433.16+.15Jan33.2033.6533.1433.30+.11Mar33.3833.8733.3533.48+.10May33.5233.9933.5033.61+.09Jul33.6533.9833.6533.70+.04Aug33.7333.7333.7333.73+.08Sep33.7233.7233.7233.72+.08Oct33.8033.8033.6033.60+.07Dec33.6634.0333.6233.62+.08Est. sales 69,182.  Thu.'s sales 103,173Thu.'s open int 480,567,  up 5,337SOYBEAN MEAL100 tons; dollars per tonMar393.90399.70390.50391.10—2.90May396.50404.00393.20394.10—3.10Jul393.60400.60391.10391.70—2.40Aug388.00394.40385.60386.40—2.00Sep382.30387.60380.40381.30—1.00Oct376.00378.80372.90373.90—.70Dec370.00375.60369.00370.10—.20Jan368.50369.90365.20366.80+.90Mar361.60363.30358.60360.60+1.10May358.00360.40357.20358.10+1.10Jul360.50360.50359.60359.60+1.90Oct346.80346.80346.20346.20—.20Dec345.60346.70345.30345.50+.70Est. sales 54,208.  Thu.'s sales 133,511Thu.'s open int 452,021,  up 2,363