BC-USDA-Portland Grain
BC-USDA-Portland Grain

The Associated Press



JO—GR110Portland, OR    Fri Mar 02, 2018    USDA Market NewsPortland Daily Grain ReportBids as of 9:30 a.m. Pacific time; Subject to changeAll Bids in dollars per bushel.  Bids are limited and not fullyestablished in early trading.Bids for grains delivered to Portland, Oregon in dollars per bushel.In early trading March wheat futures trended steady to 13.50 cents perbushel lower than Thursday?s closes. May wheat futures trended 9.75 to14.25 cents per bushel lower than Thursday?s closes.Bids for US 1 Soft White Wheat delivered to Portland in unit trains andbarges for March delivery for ordinary protein were not well tested inearly trading, but bids were indicated as steady to lower compared toThursday?s noon bids for the same delivery period.  Some exporters were notissuing bids for nearby delivery.  Bids for guaranteed maximum 10.5 percentprotein were well tested in early trading, but bids were indicated assteady to mixed compared to Thursday?s noon bids for the same deliveryperiod.  Some exporters were not issuing bids for nearby delivery.Bids for 11.5 percent protein US 1 Hard Red Winter Wheat for Marchdelivery were not well tested in early trading but bids were indicated aslower compared to Thursday?s bids for the same delivery period.  Someexporters were not issuing bids for nearby delivery.Bids for 14 percent protein US 1 Dark Northern Spring Wheat for Marchdelivery were not well tested in early trading but bids were indicated assteady compared to Thursday?s noon bids for the same delivery period.Some exporters are not issuing bids for nearby delivery.Bids for US 2 Yellow Corn delivered full coast in 110 car shuttle trainsduring March were not well tested in early trading, but bids were indicatedas mixed compared to Thursday?s noon bids for the same delivery period.Some exporters were not issuing bids for nearby delivery.Bids for US 1 Yellow Soybeans delivered full coast in 110 car shuttletrains during March were not well tested in early trading, but bids wereindicated as steady to higher compared to Thursday?s noon bids for the samedelivery period.  Some exporters were not issuing bids for nearby delivery.All wheat bids in dollars per bushelUS 1 Soft White Wheat - delivered by Unit Trains and BargesOrdinary proteinMar                                       5.4000-5.8125Apr                                       5.4000-5.8125May                                       5.6400-5.8525Jun                                       5.6400-5.8400Aug NC                                    5.5900-5.7875Guaranteed maximum 10.5 pct proteinMar                                       5.4000-5.8125Apr                                       5.4000-5.8125May                                       5.6400-5.8525Jun                                       5.6400-5.8400Aug NC                                    5.5900-5.7875—US 1 White Club Wheat - delivered by Unit Trains and BargesOrdinary proteinMar                                       5.4500-5.8125Guaranteed maximum 10.5 pct proteinMar                                       5.4500-5.8125—US 1 Hard Red Winter Wheat - (Exporter bids-falling numbers of 300 orbetter)Ordinary protein                            5.8300-6.000011 pct protein                              6.4300-6.600011.5 pct proteinMar                                       6.7300-6.9500Apr                                       6.6875-6.8875May                                       6.6875-6.8875Jun                                       6.8500-6.950012 pct protein                              6.8800-7.100013 pct protein                              7.1800-7.4000—US 1 Dark Northern Spring Wheat (with a minimum of 300 falling numbers, a maximumof 0.5 part per million vomitoxin, and a maximum of one percent total damage)13 pct protein                              7.0200-7.070014 pct proteinMar                                       7.5000-7.5500Apr                                       7.3800-7.5800May                                       7.4300-7.6300Jun                                       7.4975-7.647515 pct protein                              7.8200-7.830016 pct protein                              8.1100-8.1400—US 2 Yellow CornShuttle trains-Delivered full coast Pacific Northwest-BNMar                                       4.7950-4.9450Apr                                       4.6950-4.8250May                                       4.6450-4.7950Jun                                       4.7500-4.7800Jul                                       4.6300-4.7500Aug                                       NA—US 1 Yellow SoybeansShuttle trains-Delivered full coast Pacific Northwest-BNMar                                       11.4600-11.5100Apr                                       11.3800-11.5600May                                       11.4800-11.5600Jun                                       11.5400-11.6100Jul                                       11.5400-11.6100Oct                                       11.2550—US 2 Heavy White Oats **                      3.1925** Not well tested.Exporter Bids Portland Rail/Barge             Feb 2018Averages in Dollars per bushelUS 1 Soft White by Unit Trains and Barges   5.4300US 1 Hard Red Winter (Ordinary protein)     5.4100US 1 Hard Red Winter (11.5% protein)        6.3200US 1 Dark Northern Spring (14% protein)     7.2900Source:    USDA Market News Service, Portland, ORNiki Davila 503-535-5001  Portland.LPGMN@ams.usda.gov24 Hour Market Report  503-535-5005www.ams.usda.gov/mnreports/jo—gr110.txtwww.ams.usda.gov/lpsmarketnewspage8:44 P nd