Preclosing
Preclosing

The Associated Press

CHICAGO




CHICAGO (AP) — Futures trading on the Chicago Board of Trade Fri:
OpenHighLowLastChg.WHEAT5,000 bu minimum; cents per bushelMar506¼506¼489505½May514¼518½493¼499—16½Jul529531¾507½513¼—15¼Sep540544¼522¼527¾—14Dec557562541546½—13¼Mar570575554¾560—12½May572¾574561¼563¾—11½Jul567575559563½—10Sep577577¼563¼569½—8¼Dec586½589578½581½—8Mar596596590590—7Est. sales 189,224.  Thu.'s sales 247,339Thu.'s open int 444,656CORN5,000 bu minimum; cents per bushelMar377¾380¼376378¾May385¾388383½385¾—½Jul393¼394¾390¾393—½Sep398¼399½396¼398—¾Dec404¼405402¾404¼—½Mar411411¾409¾411—¾May415416¼414½415¾—¼Jul419½420¾418¾419¾—½Sep411¼411½410¾411¼—1Dec414¼414½412½413½—1¼Mar419420¾419419—1½Dec416½416½416½416½—1½Est. sales 459,274.  Thu.'s sales 566,573Thu.'s open int 1,660,475OATS5,000 bu minimum; cents per bushelMar268¾269½264264—5May273275265¼269½—4Jul275¾276¼270¼270¼—3½Est. sales 454.  Thu.'s sales 415Thu.'s open int 5,691SOYBEANS5,000 bu minimum; cents per bushelMar105710711053½1057½May1067¾1082½1063¾1069¾+1¾Jul10761090¼1071¾1077¾+1¼Aug1073½10861069¾1075¼+1½Sep1053¼106010491052¼—½Nov1036¾1042¾10331036½—1½Jan1038¾10451035¾1039¼—1¾Mar103710401030½1035¼—1¾May1036¼10401031¾1035—1¼Jul10401042½10361037¼—2Nov10001003½996½997¼—3¾Jan1006½1006½1006½1006½+1¼Est. sales 288,742.  Thu.'s sales 251,394Thu.'s open int 777,680