BC-Wheat KX
BC-Wheat KX

The Associated Press

CHICAGO




CHICAGO (AP) — Winter Wheat futures on the Chicago Board of Trade Fri:
OpenHighLowSettleChg.WHEAT5,000 bu minimum; cents per bushelMar531531517½522—9May543548½525½533¾—9¾Jul560565542550¼—9¾Sep575580557¾566—9¾Dec592597575½584½—9¼Mar600604585593¾—8¾May597¼597¼583¼591¾—10Jul591595576584¼—11¾Sep589589583½588¼—13¾Dec599599594½598¾—11½Mar602¾—9¼May602¾—9¼Jul584—9¼Est. sales 67,022.  Thu.'s sales 103,316Thu.'s open int 298,433