Close
Close

The Associated Press

CHICAGO




CHICAGO (AP) — Futures trading on the Chicago Board of Trade Fri.:
OpenHighLowSettleChg.WHEAT5,000 bu minimum; cents per bushelMar506¼506¼489492—13½May514¼518½493¼500—15½Jul529531¾507½514½—14Sep540544¼522¼528¾—13Dec557562541547—12¾Mar570575554¾560¾—11¾May572¾574561¼565—10¼Jul567575559566—7½Sep577577¼563¼571¼—6½Dec586½589578½582¾—6¾Mar596596590590—7May589¾—4½Jul560¼562½555¼562½—8¾Est. sales 219,775.  Thu.'s sales 247,339Thu.'s open int 444,656CORN5,000 bu minimum; cents per bushelMar377¾380¼376377¼—1½May385¾388383½385¼—1Jul393¼394¾390¾392½—1Sep398¼399½396¼397¾—1Dec404¼405402¾404¼—½Mar411411¾409¾411¼—½May415416¼414½415¾—¼Jul419½420¾418¾419¾—½Sep411¼411½410½411½—¾Dec414¼414½412½413¾—1Mar419420¾419419¼—1¼May423¼—1¼Jul428¼—1Sep423½—1Dec416½417¼416½417¼—¾Jul425½—¾Dec418¾—¼Est. sales 522,132.  Thu.'s sales 566,573Thu.'s open int 1,660,475OATS5,000 bu minimum; cents per bushelMar268¾269½264265—4May273275265¼268½—5Jul275¾276¼270270—3¾Sep265¾—3½Dec263¼—3½Mar263½—3½May263½—3½Jul268½—3½Sep269¾—3½Dec269¾—3½Jul268¼—3½Sep268¼—3½Est. sales 476.  Thu.'s sales 415Thu.'s open int 5,691SOYBEANS5,000 bu minimum; cents per bushelMar105710711053½1060¾+3¼May1067¾1082½1063¾1071+3Jul10761090¼1071¾1079¼+2¾Aug1073½10861069¾1076½+2¾Sep1053¼106010491053¾+1Nov1036¾1042¾10331037¼—¾Jan1038¾10451035¾1039¾—1¼Mar103710401030½1037¼+¼May1036¼10401031¾1036½+¼Jul10401042½10361038¾—½Aug1030¼—1½Sep1013¼—1½Nov10001003½994995¼—5¾Jan1006½1006½1000¼1000¼—5Mar1000¾—5May1008¼—5Jul1010¾—3¼Aug1003¼—3¼Sep1000—3¼Nov978½—3¼Jul978½—3¼Nov978½—3¼Est. sales 316,704.  Thu.'s sales 251,394Thu.'s open int 777,680SOYBEAN OIL60,000 lbs; cents per lbMar32.0932.6332.0532.06—.06May32.3532.8932.2532.30—.09Jul32.5833.0932.4332.49—.10Aug32.6933.1632.5132.57—.11Sep32.7233.1932.6132.65—.10Oct32.8533.3032.6632.72—.09Dec33.0333.5232.8532.92—.09Jan33.2033.6533.0633.10—.09Mar33.3833.8733.2533.30—.08May33.5233.9933.4333.43—.09Jul33.6533.9833.5733.57—.09Aug33.7333.7333.5633.56—.09Sep33.7233.7233.5533.55—.09Oct33.8033.8033.4433.44—.09Dec33.6634.0333.4633.50—.04Jan33.62—.02Mar33.83—.03May33.86—.01Jul33.99—.02Aug33.98—.02Sep33.98—.02Oct33.98—.02Dec33.89—.02Jul33.89—.02Oct33.89—.02Dec33.89—.02Est. sales 130,596.  Thu.'s sales 155,195Thu.'s open int 475,230SOYBEAN MEAL100 tons; dollars per tonMar393.90399.70388.50390.20—3.80May396.50404.00390.60392.90—4.30Jul393.60400.60388.50390.40—3.70Aug388.00394.40383.60385.00—3.40Sep382.30387.60378.60379.80—2.50Oct376.00378.80372.10373.00—1.60Dec370.00375.60368.80370.10—.20Jan368.50369.90365.20366.30+.40Mar361.60363.30358.60360.00+.50May358.00360.40356.70357.40+.40Jul360.50360.50356.90357.70Aug356.00—.10Sep352.20—.70Oct346.80346.80344.50344.70—1.70Dec345.60346.70343.00343.30—1.50Jan344.00—1.50Mar344.80—1.50May344.80—1.50Jul346.30—1.50Aug346.30—1.50Sep346.30—1.50Oct346.30—1.50Dec343.10—1.50Jul343.10—1.50Oct343.10—1.50Dec343.10—1.50Est. sales 103,191.  Thu.'s sales 151,084Thu.'s open int 449,658