BC-USDA-Onion and Pots
BC-USDA-Onion and Pots

The Associated Press



IDAHO FALLS Shipping Point Prices as of 02-MAR-2018Provided by:  Specialty Crops Market NewsFederal - State Market News Service, USDA.Phone:  (208) 525-0166     Fax:  (208) 525-5546Prices represent open (spot) market sales by first handlers on product ofgenerally good quality and condition unless otherwise stated and may includepromotional allowances or other incentives.  No consideration is given toafter-sale adjustments unless otherwise stated.  Brokerage fees paid by theshipper are included in the price reported. Delivered Sales, Shipping PointBasis excludes all charges for freight.IF—FV130The Following Terms when used by Market News will be interpreted as meaning:Occasional-1 to 5%, Few-6 to 10%, Some-11 to 25%, Many-26 to 50%,Mostly-51 to 90%, Generally-91 to 100%Moses Lake, WA Mostly Cloudy 35/44Pasco, WA Partly Cloudy 33/50Mount Vernon, WA Overcast 37/45Ontario, OR Partly Cloudy 37/46Twin Falls, Partly Cloudy 31/38 WindyIdaho Falls, ID Overcast 39/30 Light Snow/FogMonte Vista, CO Clear 19/52Stevens Point, WI Clear 16/43Antigo, WI Clear 6/40North Platte, NE Clear 32/58Grand Forks, ND Mostly Cloudy 6/32 Areas of Fog/MistIca, Peru Mostly Cloudy 67/90Lima, Peru Partly Cloudy 69/79Fort Myers, FL Partly Cloudy 71/84Tampico, Mexico  Cloudy 72/76CENTRAL WISCONSINSales F.O.B. Shipping Point and/or Delivered Sales, Shipping Point Basis2017 Season---ONIONS DRY: DEMAND MODERATE. MARKET STEADY.Yellow Globe Type master container 16 3-lb mesh sacksmed 9.00-12.50 mostly 10.00-12.50 occas higherCENTRAL WISCONSINSales F.O.B. Shipping Point and/or Delivered Sales, Shipping Point Basis2017 Season---POTATOES: SUPPLY ROUND RED FAIRLY LIGHT. DEMAND MODERATE. MARKET STEADY.Russet Norkotah U.S. Onebaled 5 10-lb film bags sz A 7.00-8.50 mostly 7.50-8.00baled 10 5-lb film bags sz A 8.00-9.50 mostly 8.50-9.0050 lb cartons40s 12.50-16.00 mostly 13.00-15.0050s 12.50-16.00 mostly 13.00-15.0060s 12.50-16.00 mostly 13.00-15.0070s 12.50-16.00 mostly 13.00-15.0080s 11.50-15.50 mostly 12.50-13.0090s 10.00-13.00 mostly 11.00100s 10.00-12.50 mostly 10.00-11.00Round Red U.S. Onebaled 10 5-lb film bags sz A 11.00-15.00 mostly 12.50-14.00 occas higher50 lb cartonssz A 10.25-14.00 mostly 11.00-13.00sz B 17.00-19.00 mostly 18.00-19.0050 lb sackssz A 9.25-13.00 mostly 10.00-12.00sz B 16.00-18.00 mostly 17.00-18.00COLUMBIA BASIN WASHINGTON & UMATILLA BASIN OREGONSales F.O.B. Shipping Point and/or Delivered Sales, Shipping Point Basis2017 Season---ONIONS DRY: DEMAND FAIRLY LIGHT. MARKET YELLOW JUMBO LOWER, OTHERS ABOUTSTEADY.Yellow Hybrid 50 lb sackscol 9.00-10.00jbo 7.00-8.00med 4.00-5.00 mostly 4.25-4.50 occas lowerWhite 50 lb sacksjbo 14.00-16.00 mostly 14.00-15.00 occas highermed 12.00-13.00Red Globe Type 25 lb sacksjbo 5.50-6.50 mostly 5.50-6.00 occas highermed 5.00-6.00 mostly 5.50 occas lowerCOLUMBIA BASIN WASHINGTON & UMATILLA BASIN OREGONSales F.O.B. Shipping Point and/or Delivered Sales, Shipping Point Basis2017 Season---POTATOES: DEMAND CARTON 50S-80S MODERATE, OTHERS FAIRLY LIGHT. MARKET ABOUTSTEADY.Russet Norkotah U.S. One 2" or 4-oz Minbaled 5 10-lb film bags non sz A 6.00-6.50 mostly 6.00 occas lowerbaled 10 5-lb film bags non sz A 7.00-7.50 mostly 7.00 occas lower50 lb cartons40s 8.00-9.0050s 10.00-12.00 mostly 10.50-11.0060s 10.00-12.00 mostly 11.50-12.0070s 10.00-12.00 mostly 11.00-12.0080s 9.00-10.00 few high as 12.0090s 8.00-9.50 mostly 8.50-9.50100s 8.00-9.00 mostly 8.00-8.75U.S. Two 50 lb sacks10 oz min 5.50-6.50 mostly 6.00FLORIDASales F.O.B. Shipping Point and/or Delivered Sales, Shipping Point Basis2018 Season---POTATOES: DEMAND FAIRLY GOOD. MARKET STEADY.Round Red U.S. One50 lb cartonssz A 14.25-15.00 mostly 14.50sz B 22.00-24.50 mostly 22.00-22.50Creamers 3/4-1 5/8" 36.75-40.75 mostly 38.75-40.7550 lb sackssz A 12.50-13.50 mostly 12.75sz B 20.50-22.75 mostly 20.50-20.75tote bags approx 2000 lbs per cwtsz A 18.00-26.00 mostly 22.50-24.50sz B 40.00-44.50 mostly 41.50-44.50U.S. Two 50 lb sackssz A 10.50-10.75sz B 14.50-16.75Round White U.S. One50 lb cartonssz A 18.50-26.50 mostly 18.50-20.00sz B 18.50-22.50 mostly 18.50-20.0050 lb sackssz A 16.75-24.75 mostly 16.75-18.50sz B 16.75-20.75 mostly 16.75-18.50tote bags approx 2000 lbs per cwtsz A 32.50 few higher and lowerU.S. Two 50 lb sackssz A 10.75-18.50 mostly 10.75-12.75Yellow Type U.S. One50 lb cartonssz A 16.50-20.00 mostly 16.50-18.50sz B 12.50-18.00 mostly 12.50Creamers 3/4-1 5/8" 46.75-50.75 mostly 50.50-50.7550 lb sackssz A 14.75-18.50 mostly 14.75-16.75sz B 10.75-16.50 mostly 10.75tote bags approx 2000 lbs per cwtsz A 28.50-40.00 mostly 28.50-32.50 few lowersz B 20.50U.S. Two 50 lb sackssz A 10.75-12.75 mostly 10.75sz B 6.75-10.50 mostly 6.75-8.75IDAHO AND MALHEUR COUNTY, OREGONSales F.O.B. Shipping Point and/or Delivered Sales, Shipping Point Basis2017 Season---ONIONS DRY: DEMAND FAIRLY LIGHT. MARKET YELLOW COLOSSAL AND JUMBO, RED JUBMOAND WHITES LOWER, OTHERS ABOUT STEADY.Yellow Spanish Hybrid U.S. One 50 lb sacksSuper Col 10.00-11.00 occas lowercol 9.00-10.00 mostly 9.00 few lowerjbo 7.00-8.00 few lowermed 4.00-5.00White U.S. One 50 lb sacksjbo 16.00-17.00 mostly 16.00med 13.00-15.00 mostly 14.00Red Globe Type U.S. One 25 lb sacksjbo 7.00-8.00med 5.00-6.00 mostly 6.00MEXICO CROSSINGS THROUGH SOUTH TEXASSales F.O.B. Shipping Point and/or Delivered Sales, Shipping Point Basis2018 Season---ONIONS DRY: DEMAND MODERATE. MARKET ABOUT STEADY.Yellow Grano 50 lb sackscol 9.00-10.00jbo 8.00-9.00 mostly 8.00 occas lowermed 7.00-9.00 mostly 8.00Grano - Marked Sweet 40 lb cartonsjbo 11.00-14.00 mostly 12.00White 50 lb sacksjbo 9.00-12.00 mostly 10.00-12.00 occas lowermed 11.00-14.00 mostly 12.00Red Globe Type 25 lb sacksjbo 8.00-9.00 mostly 9.00 occas lowermed 8.00-9.00 occas lowerMINNESOTA-NORTH DAKOTA (RED RIVER VALLEY)Sales F.O.B. Shipping Point and/or Delivered Sales, Shipping Point Basis2017 Season---POTATOES: DEMAND FAIRLY LIGHT. MARKET ABOUT STEADY.Round Red U.S. Onebaled 10 5-lb film bags sz A 9.00-11.00 mostly 10.00-10.50 occas lower50 lb cartonssz A 9.00-11.00 mostly 10.00-10.50 occas lowersz B 18.00-19.50 mostly 18.50-19.00Creamers 3/4-1 5/8" 30.00 occas lower & higher50 lb sackssz A 7.50-9.50 mostly 8.50-9.00 occas lowersz B 16.50-18.00 mostly 17.00-17.50tote bags approx 2000 lbs per cwtsz A 12.00-16.00 mostly 14.00-15.00sz B 30.00-33.00 mostly 31.00-32.00U.S. Two 50 lb sackssz A 5.00-5.50 occas higher & lowersz B 9.00-11.00 mostly 9.00-10.50 occas lowerYellow Type U.S. Onebaled 10 5-lb film bags sz A 10.50-11.50 mostly 11.00-11.50 occas higher50 lb cartonssz A 10.50-11.50 mostly 11.00-11.50 occas highersz B 7.00-8.00Creamers 3/4-1 5/8" 25.00-32.00 mostly 30.00 occas highertote bags approx 2000 lbs per cwtsz A 15.00-18.00 mostly 16.00-17.00sz B 8.00-10.00 occas lower & higherRusset U.S. One ORGANICbaled 16 3-lb film bags sz A 18.00-20.00 occas higherRound Red U.S. One ORGANICbaled 16 3-lb film bags sz A 21.00-22.00Yellow Type U.S. One ORGANICbaled 16 3-lb film bags sz A 22.00NEBRASKASales F.O.B. Shipping Point and/or Delivered Sales, Shipping Point Basis2017 Season---POTATOES: DEMAND FAIRLY LIGHT. MARKET STEADY.Russet Norkotah U.S. Onebaled 5 10-lb film bags sz A 8.00-8.50baled 10 5-lb film bags sz A 9.00-9.5050 lb cartons40s 10.00-14.5050s 12.00-14.5060s 12.00-14.5070s 12.00-14.5080s 11.00-13.5090s 11.00-13.50 mostly 11.00-12.00100s 11.00-13.50 mostly 11.00-12.00U.S. Twobaled 5 10-lb film bags 6.00-6.5050 lb sacks 10 oz min 7.00-9.00NORTHWESTERN WASHINGTONSales F.O.B. Shipping Point and/or Delivered Sales, Shipping Point Basis2017 Season---POTATOES: DEMAND FAIRLY LIGHT. MARKET STEADY.Round Red U.S. One50 lb cartonssz A 14.00-18.00 mostly 15.00-16.00 fair appearance 9.00-13.00 occas lowersz B 16.00-18.00 fair appearance 12.00-16.00Creamers 3/4-1 5/8" 34.00-38.00 mostly 35.00 occas higherU.S. Two 50 lb sacks 5.00-8.00 mostly 6.00Yellow Type U.S. One50 lb cartonssz A 16.00-20.00 mostly 18.00-20.00 fair appearance 9.00-14.00sz B 8.00-14.00 mostly 10.00-12.00Creamers 3/4-1 5/8" 34.00-40.00 mostly 35.00U.S. Two 50 lb sacks 6.00-8.00 occas higherPERU IMPORTS - REPACKED AT VARIOUS EAST COAST SHIPPING POINTSSales F.O.B. Shipping Point and/or Delivered Sales, Shipping Point Basis2017 Season---ONIONS DRY: DEMAND MODERATE. MARKET STEADY.Yellow Granex - Marked Sweet 40 lb cartonsjbo 15.00-18.00 mostly 17.00-18.00SAN LUIS VALLEY COLORADOSales F.O.B. Shipping Point and/or Delivered Sales, Shipping Point Basis2017 Season---POTATOES: DEMAND FAIRLY LIGHT. MARKET STEADY.Russet Norkotah/Other Varieties U.S. Onebaled 5 10-lb film bags sz A 7.50-8.50 mostly 8.00baled 10 5-lb film bags sz A 8.50-9.50 mostly 9.0050 lb cartons40s 10.00-13.00 mostly 12.0050s 12.00-13.50 mostly 13.00-13.5060s 12.00-13.50 mostly 13.00-13.5070s 12.00-13.50 mostly 13.00-13.5080s 11.00-12.00 mostly 12.0090s 11.00-12.00 mostly 11.00100s 11.00-12.00 mostly 11.00U.S. Twobaled 5 10-lb film bags 6.00-7.00 mostly 6.50 occas lower50 lb sacks 10 oz min 8.00-10.00 occas lowerU.S. Coml bulk per cwt 9.00-10.50Round Red U.S. Onebaled 10 5-lb film bags sz A 12.50-14.00Yellow Type U.S. Onebaled 10 5-lb film bags sz A 10.00-11.00UPPER VALLEY, TWIN FALLS-BURLEY DISTRICT IDAHOSales F.O.B. Shipping Point and/or Delivered Sales, Shipping Point Basis2017 Season---POTATOES: DEMAND LIGHT. MARKET STEADY.Russet Burbank U.S. One 2" or 4-oz Minbaled 5 10-lb mesh sacks non sz A 5.00-6.50 mostly 5.50-6.00baled 5 10-lb film bags non sz A 4.50-6.25 mostly 5.00-5.50baled 10 5-lb mesh sacks non sz A 6.00-7.50 mostly 6.50-7.00baled 10 5-lb film bags non sz A 5.50-7.00 mostly 6.00-6.5050 lb cartons40s 9.00-9.50 mostly 9.0050s 9.00-9.50 mostly 9.0060s 10.00-12.00 mostly 10.0070s 10.00-14.00 mostly 10.0080s 10.00-14.00 mostly 10.0090s 9.00-13.00 mostly 9.50100s 9.00-11.00 mostly 9.00-9.50U.S. Two 50 lb sacks6 oz min 5.50-7.00 mostly 6.00-6.5010 oz min 7.00-8.00Norkotah U.S. One 2" or 4-oz Minbaled 5 10-lb mesh sacks non sz A 5.00-6.50 mostly 5.50-6.00baled 5 10-lb film bags non sz A 4.50-6.00 mostly 5.00-5.50baled 10 5-lb mesh sacks non sz A 6.00-7.50 mostly 6.50-7.00baled 10 5-lb film bags non sz A 5.50-7.00 mostly 6.00-6.5050 lb cartons40s 8.50-10.00 mostly 8.5050s 8.50-10.00 mostly 8.5060s 9.50-10.50 mostly 9.5070s 9.50-10.50 mostly 9.5080s 9.50-10.00 mostly 9.50 occas higher90s 8.00-9.00 mostly 8.00-8.50100s 7.00-9.00 mostly 8.00U.S. Two 50 lb sacks6 oz min 4.00-6.50 mostly 5.0010 oz min 5.00-8.00 mostly 7.00