BC-USDA-Eastern Cornbelt Hog Report
BC-USDA-Eastern Cornbelt Hog Report

The Associated Press



LM—HG209Des Moines, Iowa                Mon, Mar 05, 2018               USDA Market NewsEASTERN CORNBELT DAILY DIRECT MORNING HOG REPORT BASED ON STATE OF ORIGINPLANT DELIVERED PURCHASE DATA FOR Monday, March 5, 2018(Includes information from 1:30 PM to 9:30 AM.)CURRENT VOLUME BY PURCHASE TYPEBARROWS & GILTS LIVE AND CARCASS BASISEstimated     Actual     Actual     ActualToday      Today   Week Ago   Year AgoProducer SoldNegotiated                                3,137      3,119      3,732      2,393Other Market Formula (Futures/Options)   10,958     10,010      9,464      7,215Swine or Pork Market Formula             39,116     32,731     33,531     33,691Other Purchase Arrangement               28,415     19,905     23,976     21,128Negotiated Formula                        2,057      2,057      2,208          0Packer Sold (all purchase types)          3,286      3,286      4,409      3,831--------------------------------------------------------------------------------NEGOTIATED PURCHASE (Including Packer Sold)Barrows & Gilts (carcass basis): 2,630*Price not reported due to confidentiality* 5 Day Rolling Avg $62.78---------------------------------------------------------------------------------NEGOTIATED FORMULA PURCHASE (Including Packer Sold)Barrows & Gilts (carcass basis): 0                     5 Day Rolling Avg $-----------------------------------------------------------------------------------COMBINED NEGOTIATED & NEGOTIATED FORMULA PURCHASE (Including Packer Sold)Barrows & Gilts (carcass basis): 2,630*Price not reported due to confidentiality* 5 Day Rolling Avg $-----------------------------------------------------------------------------------EASTERN CORNBELT DAILY DIRECT NEGOTIATED HOG PURCHASE MATRIXREPRESENTING INDIVIDUAL PACKER CARCASS MERIT BUYING PROGRAMSbased on both Fat and Muscle Measurements for a 200 lb Carcass Basis*Price not reported due to confidentiality*--------------------------------------------------------------------------------CARCASS WEIGHT DIFFERENTIALS*Price not reported due to confidentiality*--------------------------------------------------------------------------------MEASUREMENTS BASED ON SLAUGHTER DATA SUBMITTED*Price not reported due to confidentiality*--------------------------------------------------------------------------------SWINE OR PORK MARKET FORMULA PURCHASE (Including Packer Sold)Barrows & Gilts (carcass basis): 23,619Base Price Range $61.31 - $70.68, Weighted Average $65.73--------------------------------------------------------------------------------NEGOTIATED PURCHASE (Including Packer Sold)Barrows & Gilts (live basis, 240-320 lbs): 341*Price not reported due to confidentiality* 5 Day Rolling Avg $49.67--------------------------------------------------------------------------------NEGOTIATED FORMULA PURCHASE (Including Packer Sold)Barrows & Gilts (live basis, 240-320 lbs): 871*Price not reported due to confidentiality* 5 Day Rolling Avg $----------------------------------------------------------------------------------COMBINED NEGOTIATED & NEGOTIATED FORMULA PURCHASE (Including Packer Sold)Barrows & Gilts (live basis, 240-320 lbs): 1,212*Price not reported due to confidentiality* 5 Day Rolling Avg $----------------------------------------------------------------------------------BARROWS & GILTS PURCHASE BY STATE OF ORIGINGeorgia                 180               Illinois              15,236Indiana              12,364               Kentucky               2,127Michigan              4,515               Mississippi              411North Carolina       13,590               Ohio                   7,380Pennsylvania          1,445--------------------------------------------------------------------------------*Price not reported due to confidentiality, for more information visit:www.ams.usda.gov/sites/default/files/media/ConfidentialityGuidelines.pdf*Base Price is the price from which no discounts are subtracted and no premiumsare added.Source:    USDA Livestock, Poultry & Grain Market News Division, Des Moines, IA515-284-4460      email:  desm.lpgmn@ams.usda.gov24 Hour recorded market information 515-284-4830www.ams.usda.gov/market-news/livestock-poultry-grain1100C.