BC-USDA-Slghtr Catl
BC-USDA-Slghtr Catl

The Associated Press



SJ—LS110 St Joseph, MO    Mon  Mar  5,  2018    USDA-MO Dept of Ag Market NewsSt Joseph Stockyards - St Joseph, MOLivestock Weighted Average Report for 3/5/2018 AUCTION                         Receipts           Week Ago              Year Ago-------------------------------------------------------------------------------- Total Receipts:                    450                   101                 0-------------------------------------------------------------------------------- Slaughter Cattle:                  450(100              90(89%)            0(0%) Replacement Cattle:                  0(0                11(11%)            0(0%)-------------------------------------------------------------------------------- ***OPEN***  Compared to last week,  slaughter cows are selling mostly steady, while slaughter bulls are selling 4.00 higher.  There will be a bred cowspecial beginning at noon.--------------------------------------------------------------------------------SLAUGHTER CATTLE-------------------------------------------------------------------------------- COWS - Breaker 75-80%  (Per Cwt / Actual Wt) Head      Wt Range    Avg Wt     Price Range   Avg Price Dressing3      1525-1840     1636      55.00-58.00      56.25    Average COWS - Boner 80-85%  (Per Cwt / Actual Wt) Head      Wt Range    Avg Wt     Price Range   Avg Price Dressing29      1255-1820     1399      55.00-64.00      59.65    Average19      1000-1585     1328      64.00-67.50      65.29       High3      1230-1625     1418         50.00         50.00        Low COWS - Lean 85-90%  (Per Cwt / Actual Wt) Head      Wt Range    Avg Wt     Price Range   Avg Price Dressing20      1060-1535     1202      45.00-57.00      51.40    Average2      1405-1410     1407      62.00-63.00      62.50       High10       815-1200     1086      31.00-45.00      39.05        Low BULLS -  1-2 (Per Cwt / Actual Wt) Head      Wt Range    Avg Wt     Price Range   Avg Price Dressing7      1785-2235     1957      78.00-92.50      86.89    Average2      1645-2425     2035      65.00-75.00      70.96        LowPlease Note:The above USDA LPGMN price report is reflective of the majority of classes and grades of livestock offered for sale.  There may be instances where some salesdo not fit within reporting guidelines and therefore will not be included in the report.  Prices are reported on an FOB basis, unless otherwise noted.Explanatory Notes: Source:  USDA-MO Dept of Ag Market News ServiceLINDSAY BRUNET, Market Reporter, (816) 676-700024 Hour Market Report 1-573-522-9244www.ams.usda.gov/mnreports/SJ—LS110.txtwww.ams.usda.gov/market-news/livestock-poultry-grain