BC-Merc Early
BC-Merc Early

The Associated Press

CHICAGO




CHICAGO (AP) — Early trading on the Chicago Mercantile Exchange Mon:
OpenHighLowLastChg.CATTLE40,000 lbs.; cents per lb.Apr122.35122.77122.10122.37+.20Jun114.50114.87114.15114.75+.35Aug112.10112.57111.72112.55+.45Oct114.62115.10114.12115.10+.45Dec116.80117.32116.25117.27+.35Feb117.25117.97116.97117.97+.42Apr116.90117.60116.90117.52+.15Est. sales 17,903.  Fri.'s sales 67,380Fri.'s open int 375,409FEEDER CATTLE50,000 lbs.; cents per lb.Mar143.67144.65142.75144.60+.93Apr145.35146.37144.35146.30+1.03May146.60147.37145.52147.30+.78Aug150.42151.67149.77151.67+.90Sep150.82151.70150.20151.70+.53Oct150.50151.32149.92151.32+.42Nov149.20150.30149.20150.15+.08Est. sales 4,595.  Fri.'s sales 14,157Fri.'s open int 56,678HOGS,LEAN40,000 lbs.; cents per lb.Apr67.9268.1067.6567.75+.18May74.8075.0774.7774.85+.20Jun80.0580.1779.7280.12+.37Jul80.6580.8780.5080.72+.22Aug80.6781.0780.4780.75+.20Oct68.9069.2268.7069.00+.28Dec62.9763.2262.9263.10+.25Feb66.6766.8266.6766.67+.15Apr70.0070.1570.0070.00Est. sales 8,762.  Fri.'s sales 46,858Fri.'s open int 227,859PORK BELLIES40,000 lbs.; cents per lb.No open contracts.