Preclosing
Preclosing

The Associated Press

CHICAGO




CHICAGO (AP) — Futures trading on the Chicago Board of Trade Mon:
OpenHighLowLastChg.WHEAT5,000 bu minimum; cents per bushelMar497497¼492492May506½508½495¼507¾+7¾Jul520½523509½522+7½Sep534¾536¾524536¼+7½Dec553½554¾542¼554¾+7¾Mar565¼568½556568¼+7½May563¾571563¾570¾+5¾Jul567573½564573½+7½Sep575578½575577+5¾Dec587¾590585590+7¼Mar595595591591+1Est. sales 93,682.  Fri.'s sales 226,931Fri.'s open int 461,059,  up 16,403CORN5,000 bu minimum; cents per bushelMar376¼378¼374¾377¼May385387¼384387¼+2Jul392¼394½391¼394¼+1¾Sep397¾399½396½399½+1¾Dec403¾406403¼405½+1¼Mar410¾412¾410½412¾+1½May415417¼415417¼+1½Jul419¾421419421+1¼Sep411¼411¾411411¾+¼Dec413414¼412½414¼+½Mar419419½419419—¼Est. sales 250,315.  Fri.'s sales 535,616Fri.'s open int 1,702,714,  up 42,239OATS5,000 bu minimum; cents per bushelMar263¼263¼263¼263¼—1¾May268¾270264½268¾+¼Jul270271¼268270Est. sales 208.  Fri.'s sales 476Fri.'s open int 5,588SOYBEANS5,000 bu minimum; cents per bushelMar1063½10681056¾1060¾May1074¼1079¼1066½1077+6Jul10821087¼1074½1084¾+5½Aug10791084¼1072¾1082½+6Sep10561061½10521059½+5¾Nov1037¼10441036½1042½+5¼Jan1040¼1045¾1038¾1044¼+4½Mar1037¼1042½10361041½+4¼May1036½1041½10351040½+4Jul1040¼1044¼10381043¼+4½Nov997½1002½996¼999¾+4½Jan999999999999—1¼Est. sales 187,120.  Fri.'s sales 334,466Fri.'s open int 796,416,  up 18,736