BC-USDA-Calif Veggies
BC-USDA-Calif Veggies

The Associated Press



LOS ANGELES Terminal Prices as of 05-MAR-2018Provided by:  Specialty Crops Market NewsFederal - State Market News Service, USDA.Phone:  (213) 894-3077     Fax:  (213) 894-2898Weather at 7:00 a.m. CLEAR 46Yesterday's high 62https://www.ams.usda.gov/market-news/fruits-vegetablesHC—FV020VEGETABLES---ARTICHOKES:  MARKET STEADY.  cartons CA Central Coast California GlobeThorned green 12s 32.00 fr cond 12.00 18s 26.00 fr cond 13.00 24s 22.00Thornless green sml lse 32.00---ASPARAGUS:  MARKET STEADY.  pyramid cartons 28 lb bunched MX Green lge 32.00std 32.00 11 lb cartons bunched MX Green jbo 16.00 lge 16.00-18.00 std16.00-18.00 fr cond 12.00-14.00 PE AIR White lge 21.00-22.00 15 lb cartonsbunched MX Green Tips lge 16.00---BEANS:  MARKET ABOUT STEADY.  bushel crates MX Baja District Fava32.00-34.00 one label 45.00 5 lb cartons Local Repack Baja District Wax TypeYellow 10.50 10 lb cartons MX Baja District Dragon Tongue 20.00 Haricot Vert(French Type) 16.00 Wax Type Yellow 20.00 15 lb cartons CA Cranberry Type 35.00MX Baja District Italian Type 24.00-25.00 15 lb crates MX Baja District ItalianType 28.00 30 lb reusable plastic containers (RPC) MX Round Green TypeHandpicked 20.00-22.00 few high as 26.00 fr qual fr cond 10.00-15.00---BEETS:  MARKET STEADY.  cartons bunched MX Baja District Red Type 12s8.00-11.00 25 lb film bags OR Red Type med 10.00-11.50 lge 10.00-11.00 GoldType med-lge 16.00-17.00 few 18.00---BROCCOLI:  MARKET STEADY.  cartons AZ/CA bchd 14s 15.00-16.00 few 18.00 frqual holdovers 12.50-13.50 Baby Hybrid Type bchd 18s 23.50-24.00 20 lb cartonsloose AZ/CA Crown Cut 17.00-18.00 few 20.00 fr qual holdovers 13.50-14.50---BRUSSELS SPROUTS: OFFERINGS LIGHT.   25 lb cartons CA Central CoastCalifornia med 20.00-22.00---CABBAGE:  MARKET GREEN HIGHER, RED & SAVOY STEADY.  50 lb cartons AZ/CARound Green Type med 13.00-14.00 lge 12.00-12.50 Red Type med 20.00-21.00 45 lbcartons AZ/CA Savoy Type med-lge 17.00-18.00---CARROTS:  MARKET STEADY.  sacks 48 1-lb film bags CA Kern DistrictCalifornia med-lge 16.50-17.00 sacks 24 2-lb film bags CA Kern DistrictCalifornia med-lge 16.00-17.00 sacks 10 5-lb film bags CA Kern DistrictCalifornia med-lge 16.00-17.00 50 lb sacks loose CA Kern District CaliforniaJuice Type 14.00-15.00 25 lb sacks loose CA Kern District California med10.00-10.50 jbo 12.00-13.00 few 14.00 cartons 20 1-lb film bags CA KernDistrict California Baby Peeled med-lge 20.00-21.00---CAULIFLOWER:  MARKET STEADY.  cartons film wrapped AZ/CA White 12s26.00-28.00 few 30.00 fr qual holdovers 21.00-23.00 16s 24.00-26.00 few 28.00fr qual holdovers 19.00-21.00 CA Orange 6s 19.00 Central Coast CaliforniaOrange 8s 19.00 12s 22.50 Purple 6s 19.00 8s 19.00 12s 22.50 Romanesco 12s22.00 16s 22.00---CELERY:  MARKET STEADY.  cartons CA Central Coast California 2 dz 9.00-10.00fr qual 8.00-8.50 2 1/2 dz 9.00-10.00 fr qual 8.00-8.50---CORN-SWEET:  MARKET WHITE HIGHER, YELLOW STEADY.  cartons MX Yellow 4 dz14.00-16.00 White 4 dz 18.00-20.00---CUCUMBERS:  MARKET ABOUT STEADY.  1 1/9 bushel cartons MX med 28.00-30.00 frqual 24.00-26.00 ord qual 18.00-20.00 lge 22.00-24.00 fr qual 17.00-18.00 BajaDistrict med Offerings insuffcient to quote. cartons MX 36s 13.00-14.00 few16.00 fr qual 10.00-11.00 40 lb plastic containers MX Pickles 200-300s28.00-30.00 300-400s 28.00-30.00 4/7 bushel cartons MX Baja District Picklessml-med 14.00-15.00 sml 14.00-15.00 GREENHOUSE cartons film wrapped MX LongSeedless 12s 13.00-13.50 16s 14.00-14.50 22 lb cartons MX Baja District Persianmed 14.00-15.00 sml-med 17.00-18.00 sml 18.00---EGGPLANT:  MARKET 18S & 24S HIGHER, OTHERS STEADY.  1 bu, 1 1/9 bu, 1 1/6 bucartons wrapped MX 18s 15.00-16.00 fr qual 12.00-12.50 24s 15.00-16.00 fr qual12.00-12.50 30 lb cartons MX Chinese sml-med 13.00-16.00 mostly 13.00-15.00occas higher poorer quality and condition lower Italian sml-med 18.00-22.50occas lower Japanese sml-med 22.00-25.00 occas best higher Indian med18.00-22.00---ENDIVE:  MARKET STEADY.  cartons AZ/CA 24s 11.00-12.00 fr qual 9.00-9.50 10lb cartons BL AIR Witloof 20.00-21.50 CA Central Coast California Witloof18.00-18.50 8 lb cartons CA Central Coast California Witloof Red Type 43.00 3kg cartons NL AIR Witloof Red Type 43.00---ESCAROLE:  MARKET STEADY.  cartons AZ/CA 24s 14.00-15.00---GARLIC: OFFERINGS LIGHT. MARKET STEADY.  30 lb cartons CA Central CoastCalifornia White super col 65.00-70.00 col 69.00 exjbo 63.00 jbo 47.00 CQ Whitenetted 5s 46.00 Purple netted 5s 46.00 MX Baja District White jbo 60.00 netted5s 65.00 Purple col 50.00 PE Purple col 55.00 10 lb cartons CA Central CoastCalifornia elephant 32.00-32.50 14 kg containers SP White super col 52.00-55.00cartons 4 5-lb plastic jars CQ Peeled 11.00-12.00 cartons 4 5-lb film bags CQPeeled 10.00-11.00---GREENS:  MARKET STEADY.  cartons bunched AZ/CA Collard 24s 15.00-16.00 fewhigh as 18.00 Kale green 24s 11.00-12.00 fr qual 9.00-9.50 Lacinato (Tuscan)24s 20.00-22.00 Kale, Multicolor 24s 23.00-24.00 Mustard Curly 24s 16.00-17.00Flat 24s 17.00-18.00 Swiss Chard 12s 12.00-13.00 red 12s 12.00-13.00 BroccoliRabe (Rappini) 20s 43.00-45.00 Dandelion green 12s 11.00-12.00 red 12s11.00-12.00---LETTUCE-ICEBERG:  MARKET ABOUT STEADY.  cartons AZ/CA 24s 14.50-15.00 frqual holdovers 12.50-13.50 flm lined 24s 16.50-17.00 24s flmwrpd 16.50-17.00---LETTUCE-OTHER:  MARKET ABOUT STEADY.  cartons AZ/CA Boston 24s 12.00-13.00fr qual 10.00-10.50 Green Leaf 24s 15.00-16.00 few 17.00 fr qual holdovers13.00-13.50 Red Leaf 24s 11.50-12.00 fr qual holdovers 9.50-10.00 flats 1 layerAZ/CA Frisee 24s 16.00-16.50 12s 8.50-9.00 2 lb cartons AZ/CA Lolla Rossa 24s8.50-9.00 Red Oak Leaf 24s 8.50-9.00 Green Oak Leaf 24s 8.50-9.00 3 lb cartonsAZ/CA Mesculin Mix 5.50-6.50 cartons 3 1-lb film bags AZ/CA Mesculin Mix5.50-6.50---LETTUCE-ROMAINE:  MARKET HIGHER.  cartons AZ/CA 24s 21.00-22.00 fr qualholdovers 17.00-18.00 cartons 12 3-count packages AZ/CA Hearts 19.50-20.00 frqual 18.00-18.50 cartons film lined AZ/CA Hearts 24s 21.50-22.00---MUSHROOMS:  MARKET STEADY.  10 lb cartons CA Central Coast California Whitelge 18.00-19.00 med 17.00-18.00 sml 17.00-18.00 Cremini 22.00-23.00 CD BritishColumbia White lge 19.00-20.00 med 18.00 sml 18.00 PA White lge 19.00-20.00 med18.00 sml 18.00 Cremini 22.00-23.00 5 lb cartons CA Central Coast CaliforniaShiitake fr qual 15.00-16.00 Oyster 16.00-17.00 Portobella lge 16.00-17.00 med16.00-17.00 Woodear 20.00 CQ Shiitake med 20.00 cartons 12 1-lb trays filmwrapped CA Central Coast California White Sliced 12.00-12.50 cartons 12 8-oztrays film wrapped CA Central Coast California White 14.00-14.50 cartons 8 1-lbtrays film wrapped CA Central Coast California White 21.00---OKRA: OFFERINGS LIGHT.   1/2 bushel cartons HD AIR sml 25.00-26.00 NI AIRsml 25.00-26.00---ONIONS GREEN:  MARKET STEADY.  cartons bunched AZ/CA 48s med 9.00-10.00 48ssml 7.00-8.00 few low as 6.00 MX Baja District 48s med 9.00-10.00 few 11.00 48ssml 7.00-8.00 few low as 6.00 Bulb Type 24s 8.00-9.00 AZ/CA Leeks med14.00-15.00 few higher MX Baja District Leeks med 14.00-16.00---PARSLEY:  MARKET STEADY.  cartons bunched AZ/CA Curly 60s 12.00-13.00 few14.00 fr qual 10.00-10.50 poorer quality and condition 8.50-9.00 Plain 60s12.50-13.00 few 14.00 fr qual 10.50-11.00 poorer quality and condition 9.50---PARSNIPS: OFFERINGS LIGHT. MARKET STEADY.  20 lb film bags loose OR24.00-27.00 few 28.00-30.00 cartons 12 1-lb film bags OR 24.00-27.00---PEAS GREEN: OFFERINGS LIGHT.   1 1/9 bushel cartons MX Baja District Englishfr appear 25.00 10 lb cartons GU AIR Snow Peas Decalyxed 13.00-14.00 MX BajaDistrict Snow Peas Decalyxed 13.00-14.00 GU AIR Sugar Snap Peas Decalyxed16.00-18.00 MX Baja District Sugar Snap Peas Decalyxed 13.00-14.00---PEAS OTHER: OFFERINGS LIGHT.   bushel crates MX Baja District Blackeye 35.00(marked 30lbs)---PEPPERS, BELL TYPE:  MARKET GREEN FIRM, OTHERS STEADY.  1 1/9 bushel cartonsMX Green exlge 15.00-16.00 few 18.00 lge 14.00-15.00 few 16.00 med 13.00-14.00irreg sz 10.00-12.00 fr qual 8.00-8.50 Red exlge 24.00 lge 24.00 irreg sz18.00-20.00 fr qual 15.00-16.00 Yellow exlge 24.00 lge 24.00 irreg sz18.00-20.00 fr qual 15.00-16.00 Orange med 14.00 irreg sz 14.00 15 lb cartonsMX Red exlge 15.00 25 lb cartons place pack MX Green exlge Offeringsinsufficient to quote. GREENHOUSE 5 kg/11 lb cartons MX Red exlge-lge17.00-18.00 fr qual 9.00-10.00 Yellow exlge-lge 17.00-18.00 fr qual 9.00-10.00Orange exlge-lge 17.00-18.00 fr qual 9.00-10.00---PEPPERS, OTHER:  MARKET STEADY.  1 1/9 bushel cartons FL Cubanelles33.00-35.00 1 1/9 bushel cartons/crates per lb MX Baja District Anaheim .50-.55Habanero orange .80-.90 cartons/crates per lb MX Baja District Jalapeno .30-.35Manzano 3.00-3.50 Pasilla .60-.65 Serrano .35-.40 Yellow Chile .60-.65---RADISHES:  MARKET STEADY.  cartons topped 30 6-oz film bags AZ/CA Red12.00-14.00 25 lb film bags topped AZ/CA Red 20.00-22.00 few high as23.00-24.00 MX Baja District Red 19.00-20.00 cartons bunched AZ/CA Red 48s11.00-12.00 MX Baja District Red 48s 10.00-12.00---RHUBARB: OFFERINGS LIGHT.   GREENHOUSE 15 lb cartons WA WAExFcy 55.00 6 kgcontainers NL AIR 50.00---RUTABAGAS: OFFERINGS FAIRLY LIGHT.   25 lb film bags CA med 22.00-24.00 MXBaja District med 20.00-22.00---SPINACH:  MARKET STEADY.  cartons bunched AZ/CA Flat 24s 13.00-14.00 fr qual10.50-11.00 cartons 12 10-oz film bags AZ/CA 10.00-12.00 few 13.00 cartons 42-1/2 lb film bags AZ/CA 10.50-12.50---SQUASH:  MARKET ABOUT STEADY.  4/7 bushel cartons MX Zucchini Green sml26.00 few 28.00 fr qual holdovers 20.00-22.00 sml-med 26.00 few 28.00 fr qualholdovers 20.00-22.00 med 24.00 few 26.00 fr qual holdovers 18.00-20.00 YellowStraightneck sml 24.00-26.00 sml-med 24.00-26.00 med 22.00-24.00 Grey sml10.00-11.00 sml-med 10.00-11.00 med 10.00-11.00 bushel cartons MX Acorn Greenmed 16.00-17.00 Butternut med 14.00-15.00 few 16.00 lge 14.00-16.00 Kabochamed-lge 14.00-15.00 Spaghetti med-lge 12.00-13.00 few 14.00 1 1/9 bushel cratesMX Zucchini Green lge 22.00-24.00---SWEET POTATOES:  MARKET STEADY.  40 lb cartons CA Atwater LivingstonCalifornia U.S. No. 1 Orange Types 25.00-28.00 Red Types 25.00-28.00 WhiteTypes 32.00-35.00 Japanese Types 35.00-38.00 No Grade Marks Orange Types med18.00-20.00 jbo 20.00-23.00 Red Types med 18.00-20.00 jbo 21.00-24.00 WhiteTypes med 17.00-18.00 few 20.00 jbo 18.00-20.00---TOMATOES:  MARKET ABOUT STEADY.  OPEN FIELD 25 lb cartons loose MX MatureGreens light red 5x5 sz 13.00 ADAPTED ENVIRONMENT 25 lb cartons loose MX VineRipes light red 5x5 sz 13.00 flats 2 layer MX Vine Ripes light red 4x4s10.00-12.00 few 14.00 4x5s 10.00-12.00 few 14.00 5x5s 9.00-11.00 few 12.00 5x6s9.00-11.00 few 12.00 CONTROLLED ENVIRONMENT 5 kg/11 lb flats on the vine MXVine Ripes red 4-5 count 7.00-8.00 few 9.00 cartons 8 1-lb containers with lidsMX Baja District Vine Ripe - Campari Type 18.00-18.50 GREENHOUSE 5 kg/11 lbflats on the vine CA Vine Ripes red 4-5 count 7.00-8.00 few 9.00---TOMATOES, CHERRY:  MARKET STEADY.  ADAPTED ENVIRONMENT flats 12 1-pt basketsMX light red-red med 12.00-13.00 Baja District light red-red med Offeringsinsufficient to quote. flats 12 1/2-pt cups with lids MX Baja District PearType red 40.00 yellow 40.00 cartons 12 10.5-oz containers with lids MX BajaDistrict Heirloom Varieties yellow med 28.50---TOMATOES, GRAPE TYPE:  MARKET STEADY.  ADAPTED ENVIRONMENT flats 12 1-ptcontainers with lids MX Baja District red 10.00-12.00 fr qual 8.00-8.50 flats15 1-pt containers with lids MX Baja District yellow 28.50 20 lb cartons looseMX Baja District red fr qual 15.00-16.00---TOMATOES, PLUM TYPE:  MARKET FIRM.  ADAPTED ENVIRONMENT 25 lb cartons looseMX Roma light red-red exlge 11.00-12.00 few 14.00 fr qual 9.00-9.50 lge11.00-12.00 few 14.00 fr qual 9.00-9.50 med 10.00-11.00 few 12.00 fr qual8.00-8.50---TURNIPS:  MARKET STEADY.  25 lb film bags CA Central Coast California PurpleTop lge 13.00-14.00 med 13.00-14.00 MI Purple Top med 14.00 MX Baja DistrictPurple Top lge 14.00 med 13.00-14.00---VEGETABLES OTHER: OFFERINGS LIGHT.   5 lb film bags CA Alfalfa Sprouts12.00-13.00 cartons 12 4-oz packages CA Alfalfa Sprouts 16.00-17.00 35 lbcrates MX Baja District Cactus Leaf (Nopales) 17.00-18.00 10 lb cartons LocalRepack Jerusalem Artichokes 20.00 20 lb film bags CA Jerusalem Artichokes 35.00cartons 12 1-lb trays film wrapped CA Jerusalem Artichokes 36.00 1 layercontainers CA Central Coast California Radicchio 9s 13.00-13.50 12s 13.00-13.50Treviso 9s 18.50 12s 18.50ORGANICVEGETABLES---BEETS: cartons bunched MX Baja District Red Type 12s 17.00 25 lb film bagsMX Baja District Red Type med 21.00-22.00---BROCCOLI: 20 lb cartons loose AZ/CA Crown Cut Offerings insuffcient toquote.---CABBAGE: 50 lb cartons AZ/CA Round Green Type med 26.00 Red Type med 23.00---CARROTS: sacks 48 1-lb film bags CA Kern District California med-lge 26.00sacks 24 2-lb film bags CA Kern District California med-lge 26.00 sacks 10 5-lbfilm bags CA Kern District California med-lge 26.00 25 lb sacks loose CA KernDistrict California jbo 16.00 cartons 20 1-lb film bags CA Kern DistrictCalifornia Baby Peeled med-lge 26.00 cartons 4 5-lb film bags CA Kern DistrictCalifornia Baby Peeled med-lge 26.00---CAULIFLOWER: cartons film wrapped CA Central Coast California White 12s12.00---CELERY: cartons CA Central Coast California 24s 20.00 30s 20.00---EGGPLANT: 1 bu, 1 1/9 bu, 1 1/6 bu cartons wrapped MX 12s 15.00---GREENS: cartons bunched AZ/CA Collard 24s 18.00 Kale green 24s 22.00Lacinato (Tuscan) 24s 18.00 Swiss Chard 12s 18.00 Mixed Colors 12s 18.00 Red12s 18.00---LETTUCE-OTHER: cartons AZ/CA Green Leaf 24s Offerings insuffcient to quote.Red Leaf 24s Offerings insufficient to quote.---LETTUCE-ROMAINE: cartons AZ/CA 24s Offerings insufficient to quote. cartons12 3-count packages AZ/CA Hearts Offerings insufficient to quote.---MUSHROOMS: 5 lb cartons CA Central Coast California Shiitake 25.50 fr qual16.00 Oyster 17.00 cartons 24 3 1/2-oz film packages CA Central CoastCalifornia Hen Of The Woods 2.50 Beech (Honshimeji) brown 2.00 white 2.00---ONIONS GREEN: cartons bunched MX Baja District Leeks med 43.25---PARSLEY: cartons bunched AZ/CA Curly 30s 22.00 Plain 30s 22.00---RADISHES: cartons bunched MX Baja District Red 24s 35.00---SPINACH: cartons bunched AZ/CA Flat 24s 26.00---TOMATOES, GRAPE TYPE: ADAPTED ENVIRONMENT flats 12 1-pt containers with lidsMX red 18.00