BC-USDA-Okla City Catl Actn
BC-USDA-Okla City Catl Actn

The Associated Press



KO—LS150 Oklahoma City, OK    Mon  Mar  5,  2018    USDA-OK Dept of Ag Market NewsOklahoma National Stockyards - Oklahoma City, OKLivestock Auction Report for 3/5/2018 AUCTION                          Receipts           Week Ago             Year Ago--------------------------------------------------------------------------------- Total Receipts:                  7,200                 2,633              8,069------------------------------------------------------------------------------ Feeder Cattle:                   7,200(100           2,633(100%)        8,069(100%)---------------------------------------------------------------------------------*** Open ***Compared to last week:  All classes of feeder cattle and calves are trading mostly steady to firm from last week's limited offerings.  demand good.  Quality average  to attractive.  Feeder cattle supply included 75 percent Steers, and  25 percent Heifers. Feeder cattle supply over 600lbs was 65 percent.--------------------------------------------------------------------------------FEEDER CATTLE--------------------------------------------------------------------------------Feeder Steers(Per CWT):  Medium and Large 1 357 lbs 214.00; 400-500 lbs185.00-201.00, Thin Fleshed 193.00-210.00; 500-600 lbs 173.00-182.00, 519 lbsThin Fleshed 192.50; 600-700 lbs 154.00-168.00, Thin Fleshed 168.00-179.00; 700-800 lbs 143.00-162.00, 796 lbs Calves 132.00, Thin Fleshed 164.00-165.00; 800-900 lbs 136.00-146.00; 922 lbs 133.10; 1010 lbs Full 128.75. Medium and Large 1-2 498 lbs 185.00; 500-600 lbs 156.50-166.00, 557 lbs Thin Fleshed 172.50; 600-700 lbs 155.00-160.00, 613 lbs Calves 154.00, 628 lbs Thin Fleshed 167.00; 700-800 lbs 142.00-144.00; 800-900 lbs 135.00-142.50; 903 lbs 131.00.Feeder Heifers(Per CWT):  Medium and Large 1 300-400 lbs Thin Fleshed 186.00-200.00; 400-500 lbs 168.50-182.00; 500-600 lbs 150.00-167.50; 600-700 lbs142.60-145.50; 700-800 lbs 132.00-135.00; 804 lbs 131.00, 828 lbs Replacement144.00; 957 lbs 127.25. Medium and Large 1-2 435 lbs 168.00; 500-600 lbs 128.00-154.00; 635 lbs 146.00.Please Note:The above USDA LPGMN price report is reflective of the majority of classes and grades of livestock offered for sale.  There may be instances where some salesdo not fit within reporting guidelines and therefore will not be included in the report.  Prices are reported on an FOB basis, unless otherwise noted. Source:  USDA-OK Dept of Ag Market News ServiceTina Colby/Joe Massey, Market Reporter, N/A24 Hour Market Report 1-405-636-2691www.ams.usda.gov/mnreports/KO—LS150.txtwww.ams.usda.gov/market-news/livestock-poultry-grain