Close
Close

The Associated Press

CHICAGO




CHICAGO (AP) — Futures trading on the Chicago Board of Trade Mon.:
OpenHighLowSettleChg.WHEAT5,000 bu minimum; cents per bushelMar497502¼493502¼+10¼May506½510¼495¼509¼+9¼Jul520½524¼509½523¼+8¾Sep534¾538¼524537½+8¾Dec553½556½542¼555¾+8¾Mar565¼570556570+9¼May563¾574¾563¾574¾+9¾Jul567575¾564575¼+9¼Sep575581575581+9¾Dec587¾592585591¾+9Mar595598591598+8May597¾+8Jul573+10½Est. sales 122,387.  Fri.'s sales 226,931Fri.'s open int 461,059,  up 16,403CORN5,000 bu minimum; cents per bushelMar376¼378½374¾378¼+1May385387½384387¼+2Jul392¼394½391¼394½+2Sep397¾400396½400+2¼Dec403¾406403¼406+1¾Mar410¾413410½413+1¾May415417¾415417¾+2Jul419¾421½419421½+1¾Sep411¼412¼411412¼+¾Dec413414½412½414½+¾Mar419420¼419420¼+1May424+¾Jul428¾+½Sep424+½Dec417¾+½Jul426+½Dec418½—¼Est. sales 287,233.  Fri.'s sales 535,616Fri.'s open int 1,702,714,  up 42,239OATS5,000 bu minimum; cents per bushelMar263¼264¾263¼264¾—¼May268¾270264½269+½Jul270271¼268269½—½Sep265¾Dec266½266½266½266½+3¼Mar268½+5May270½+7Jul275½+7Sep276¾+7Dec276¾+7Jul275¼+7Sep275¼+7Est. sales 240.  Fri.'s sales 476Fri.'s open int 5,588SOYBEANS5,000 bu minimum; cents per bushelMar1063½10681056¾1066¾+6May1074¼1079¼1066½1077½+6½Jul10821087¼1074½1085¾+6½Aug10791084¼1072¾1083+6½Sep10561061½10521059½+5¾Nov1037¼10441036½1042¼+5Jan1040¼1045¾1038¾1044¼+4½Mar1037¼1042½10361042¼+5May1036½1041½10351041+4½Jul1040¼1044¼10381042¾+4Aug1033¾+3½Sep1016¾+3½Nov997½1002½996¼1000+4¾Jan9991004¼9991004¼+4Mar1004¾+4May1012¼+4Jul1014¾+4Aug1007¼+4Sep1004+4Nov982½+4Jul982½+4Nov982½+4Est. sales 212,822.  Fri.'s sales 334,466Fri.'s open int 796,416,  up 18,736SOYBEAN OIL60,000 lbs; cents per lbMar32.1532.2531.9732.01—.05May32.3032.5832.1732.21—.09Jul32.3732.7632.3532.40—.09Aug32.4632.8332.4332.47—.10Sep32.6532.9132.5132.56—.09Oct32.7032.9732.5832.64—.08Dec32.8233.1832.7932.85—.07Jan33.0033.2832.9833.03—.07Mar33.3433.5433.1933.25—.05May33.5333.6233.3733.39—.04Jul33.6433.8133.5033.50—.07Aug33.50—.06Sep33.49—.06Oct33.5333.6033.3933.39—.05Dec33.6933.6933.3733.42—.08Jan33.54—.08Mar33.75—.08May33.78—.08Jul33.91—.08Aug33.90—.08Sep33.90—.08Oct33.90—.08Dec33.81—.08Jul33.81—.08Oct33.81—.08Dec33.81—.08Est. sales 65,595.  Fri.'s sales 133,163Fri.'s open int 488,874,  up 13,644SOYBEAN MEAL100 tons; dollars per tonMar392.40392.60383.60389.30—.90May395.30396.10385.80393.20+.30Jul392.80393.50384.40391.40+1.00Aug388.10388.20379.90386.30+1.30Sep379.90382.50376.10380.90+1.10Oct375.20375.50370.10374.10+1.10Dec369.90372.60367.20371.70+1.60Jan365.20367.70364.00367.50+1.20Mar360.20362.20358.50361.00+1.00May359.00359.20356.40357.50+.10Jul356.80359.50356.50357.70Aug355.80—.20Sep351.60—.60Oct344.80+.10Dec344.20344.90342.10343.20—.10Jan343.90—.10Mar344.70—.10May344.70—.10Jul346.20—.10Aug346.20—.10Sep346.20—.10Oct346.20—.10Dec343.00—.10Jul343.00—.10Oct343.00—.10Dec343.00—.10Est. sales 87,729.  Fri.'s sales 106,904Fri.'s open int 451,251,  up 1,593