BC-Merc Early
BC-Merc Early

The Associated Press

CHICAGO




CHICAGO (AP) — Early trading on the Chicago Mercantile Exchange Tue:
OpenHighLowLastChg.CATTLE40,000 lbs.; cents per lb.Apr123.32124.82122.95124.05+.83Jun115.35116.47114.97116.02+.67Aug113.12113.87112.67113.42+.30Oct115.80116.47115.42116.00+.28Dec117.97118.70117.70118.40+.48Feb118.30119.45118.30119.15+.58Apr118.30119.05118.25119.00+.50Jun111.80112.00111.80112.00+.20Est. sales 30,045.  Mon.'s sales 55,128Mon.'s open int 372,502FEEDER CATTLE50,000 lbs.; cents per lb.Mar145.25146.40144.65145.35+.20Apr147.17148.40146.60147.32+.45May147.90148.97147.35148.15+.48Aug152.62153.87152.15153.10+.78Sep152.70154.07152.57153.27+.55Oct152.35153.65152.32152.97+.60Nov151.77152.97151.60152.10+.58Est. sales 6,798.  Mon.'s sales 15,150Mon.'s open int 56,260HOGS,LEAN40,000 lbs.; cents per lb.Apr69.2769.3068.6068.72—.08May76.1076.1075.3575.35—.40Jun81.0081.3280.5280.70—.27Jul81.7081.7281.1781.30Aug81.4581.6081.1581.20+.05Oct69.4569.5568.7768.97+.05Dec63.2563.3762.8563.37+.30Feb66.9566.9766.8566.87+.12Est. sales 15,728.  Mon.'s sales 40,675Mon.'s open int 225,202PORK BELLIES40,000 lbs.; cents per lb.No open contracts.