BC-USDA-Eastern Cornbelt Hog Report
BC-USDA-Eastern Cornbelt Hog Report

The Associated Press



LM—HG209Des Moines, Iowa                Tue, Mar 06, 2018               USDA Market NewsEASTERN CORNBELT DAILY DIRECT MORNING HOG REPORT BASED ON STATE OF ORIGINPLANT DELIVERED PURCHASE DATA FOR Tuesday, March 6, 2018(Includes information from 1:30 PM to 9:30 AM.)CURRENT VOLUME BY PURCHASE TYPEBARROWS & GILTS LIVE AND CARCASS BASISEstimated     Actual     Actual     ActualToday      Today   Week Ago   Year AgoProducer SoldNegotiated                                6,714      5,785      7,840      2,855Other Market Formula (Futures/Options)    5,376      4,183      7,527      5,774Swine or Pork Market Formula             26,803     20,215     27,289     26,204Other Purchase Arrangement               25,936     22,646     23,255     17,676Negotiated Formula                        1,521      1,521      1,342        165Packer Sold (all purchase types)          1,785      1,785      1,795      1,537--------------------------------------------------------------------------------NEGOTIATED PURCHASE (Including Packer Sold)Barrows & Gilts (carcass basis): 3,835Compared to Prior Day's closing weighted average (LM—HG207), no comparison.Base Price Rng $56.00 - $63.00, Wtd Avg $62.56, 5 Day Rolling Avg $62.41---------------------------------------------------------------------------------NEGOTIATED FORMULA PURCHASE (Including Packer Sold)Barrows & Gilts (carcass basis): 0                     5 Day Rolling Avg $-----------------------------------------------------------------------------------COMBINED NEGOTIATED & NEGOTIATED FORMULA PURCHASE (Including Packer Sold)Barrows & Gilts (carcass basis): 3,835*Price not reported due to confidentiality* 5 Day Rolling Avg $-----------------------------------------------------------------------------------EASTERN CORNBELT DAILY DIRECT NEGOTIATED HOG PURCHASE MATRIXREPRESENTING INDIVIDUAL PACKER CARCASS MERIT BUYING PROGRAMSbased on both Fat and Muscle Measurements for a 200 lb Carcass BasisLOIN AREA/DEPTH (INCHES)BF      4.0/ 1.4       5.0/ 1.7       6.0/ 2.0       7.0/ 2.3       8.0/ 2.70.4   59.00  66.84   60.50  68.15   61.50  69.46   62.50  70.78   63.00  72.530.5   56.00  66.84   59.00  68.15   61.50  69.46   62.00  70.78   63.00  72.530.6   56.00  65.58   59.00  66.90   60.50  68.21   61.50  69.53   62.50  71.280.7   56.00  64.33   56.00  65.65   59.00  66.96   61.50  68.27   62.00  70.030.8   55.00  63.08   56.00  64.39   59.00  65.71   60.50  67.02   62.00  68.780.9   55.00  62.00   56.00  63.14   56.00  64.46   59.00  65.77   61.50  67.521.0   53.00  60.58   55.00  62.00   56.00  63.21   59.00  64.52   60.50  66.271.1   52.00  59.01   55.00  60.33   56.00  62.50   56.00  63.50   60.50  64.711.2   52.00  57.14   53.00  58.45   55.00  62.00   56.00  63.00   59.00  64.001.4   48.50  51.50   50.31  55.00   51.63  58.00   52.94  62.00   54.69  63.00--------------------------------------------------------------------------------CARCASS WEIGHT DIFFERENTIALS145#   -32.00 -6.26          175#   -4.00  0.00          205#   -5.01  0.00155#   -19.00  0.00          185#   -1.00  0.00          215#   -5.01  0.00165#    -9.00  0.00          195#   -1.25  0.00          225#   -5.01  0.00--------------------------------------------------------------------------------MEASUREMENTS BASED ON SLAUGHTER DATA SUBMITTED5-Day Rolling Average Market Hog: 188.04 lb carcass, 0.59 inch back-fat,7.05 square inch loin/2.35 inch loin depth, FFLI: 54.05%Price Range $61.50 - $69.53--------------------------------------------------------------------------------SWINE OR PORK MARKET FORMULA PURCHASE (Including Packer Sold)Barrows & Gilts (carcass basis): 15,875Base Price Range $61.23 - $70.57, Weighted Average $66.76--------------------------------------------------------------------------------NEGOTIATED PURCHASE (Including Packer Sold)Barrows & Gilts (live basis, 240-320 lbs): 76*Price not reported due to confidentiality* 5 Day Rolling Avg $49.75--------------------------------------------------------------------------------NEGOTIATED FORMULA PURCHASE (Including Packer Sold)Barrows & Gilts (live basis, 240-320 lbs): 1,115*Price not reported due to confidentiality* 5 Day Rolling Avg $----------------------------------------------------------------------------------COMBINED NEGOTIATED & NEGOTIATED FORMULA PURCHASE (Including Packer Sold)Barrows & Gilts (live basis, 240-320 lbs): 1,191*Price not reported due to confidentiality* 5 Day Rolling Avg $----------------------------------------------------------------------------------BARROWS & GILTS PURCHASE BY STATE OF ORIGINGeorgia                 345               Illinois              14,489Indiana               5,492               Kentucky                 550Michigan              2,800               North Carolina        13,757Ohio                  6,483               Pennsylvania           2,657South Carolina          170               Wisconsin                447--------------------------------------------------------------------------------*Price not reported due to confidentiality, for more information visit:www.ams.usda.gov/sites/default/files/media/ConfidentialityGuidelines.pdf*Base Price is the price from which no discounts are subtracted and no premiumsare added.Source:    USDA Livestock, Poultry & Grain Market News Division, Des Moines, IA515-284-4460      email:  desm.lpgmn@ams.usda.gov24 Hour recorded market information 515-284-4830www.ams.usda.gov/market-news/livestock-poultry-grain1100C.