Close
Close

The Associated Press

CHICAGO




CHICAGO (AP) — Futures trading on the Chicago Board of Trade Tue.:
OpenHighLowSettleChg.WHEAT5,000 bu minimum; cents per bushelMar498¾502496¾502—¼May506¼507¾495¼507—2¼Jul520¼521¾509½521¼—2Sep534536¾524½536¼—1¼Dec553555¼543¼554¾—1Mar566569¾558½569¼—¾May569½574½568574½—¼Jul571½576563¼575¼Sep577¼580¾575¾580¾—¼Dec582¾592582¾591¾Mar588598588598May597¾Jul566573½565573½+½Est. sales 129,372.  Mon.'s sales 226,931Mon.'s open int 461,059CORN5,000 bu minimum; cents per bushelMar377¾380¼377¼379¾+1½May386½388½385½388¼+1Jul393¾395¾392¾395½+1Sep399400¾398¼400½+½Dec405406¾404406½+½Mar412413½411¼413½+½May415¾418¼415¾418¼+½Jul420422419½422+½Sep412413412413+¾Dec413¼415413415+½Mar420421½420420¾+½May424¾+¾Jul429429429429+¼Sep424¼+¼Dec417418¼417418¼+½Jul426½+½Dec415420415418½Est. sales 304,931.  Mon.'s sales 535,616Mon.'s open int 1,702,714OATS5,000 bu minimum; cents per bushelMar265½265½261¼262—2¾May269270¼267¼267¾—1¼Jul270½271¼268268—1½Sep265—¾Dec266—½Mar268¾+¼May271¾+1¼Jul276¾+1¼Sep278+1¼Dec278+1¼Jul276½+1¼Sep276½+1¼Est. sales 162.  Mon.'s sales 476Mon.'s open int 5,588SOYBEANS5,000 bu minimum; cents per bushelMar106610671060¾1064½—2¼May10771077¾1070¼1074¾—2¾Jul10851085¾1078¼1083—2¾Aug1082¾1083½10771081—2Sep105710621056¾1060¼+¾Nov10411046¼1039½1045½+3¼Jan10431048¾10421048+3¾Mar1040¼1046¼1040¼1045¾+3½May10391044¾10391044¾+3¾Jul10421046½10421046+3¼Aug1039+5¼Sep1022+5¼Nov9991007¾9991007¾+7¾Jan10081011¾10081011¾+7½Mar1012¼+7½May1019¾+7½Jul1022¼+7½Aug1014¾+7½Sep1011½+7½Nov985990985990+7½Jul990+7½Nov990+7½Est. sales 199,035.  Mon.'s sales 334,466Mon.'s open int 796,416SOYBEAN OIL60,000 lbs; cents per lbMar32.2632.3132.0632.30+.29May32.2132.5432.1832.48+.27Jul32.4132.7432.3832.69+.29Aug32.5332.8332.4832.79+.32Sep32.5832.9032.5832.88+.32Oct32.7233.0032.6632.95+.31Dec32.8833.2032.8533.17+.32Jan33.2433.3933.1033.36+.33Mar33.4133.5933.3233.59+.34May33.6433.7233.6033.72+.33Jul33.6833.8533.6233.85+.35Aug33.83+.33Sep33.81+.32Oct33.5833.6933.5733.69+.30Dec33.6833.8133.6733.76+.34Jan33.88+.34Mar34.09+.34May34.12+.34Jul34.24+.33Aug34.23+.33Sep34.23+.33Oct34.23+.33Dec34.14+.33Jul34.14+.33Oct34.14+.33Dec34.14+.33Est. sales 94,788.  Mon.'s sales 133,163Mon.'s open int 488,874SOYBEAN MEAL100 tons; dollars per tonMar388.90388.90383.30384.50—4.80May394.10394.40387.00388.00—5.20Jul391.80392.40386.50387.70—3.70Aug386.00386.00382.70384.10—2.20Sep380.20380.70378.20379.50—1.40Oct373.60373.70371.90373.10—1.00Dec372.00372.00369.60371.00—.70Jan366.20367.50365.90367.10—.40Mar360.70361.50359.20360.80—.20May356.10357.20356.00357.10—.40Jul356.50357.20356.50357.20—.50Aug355.20—.60Sep351.40—.20Oct343.90344.10343.00343.70—1.10Dec343.00344.00342.90343.50+.30Jan344.20+.30Mar345.00+.30May345.00+.30Jul346.50+.30Aug346.50+.30Sep346.50+.30Oct346.50+.30Dec343.30+.30Jul343.30+.30Oct343.30+.30Dec343.30+.30Est. sales 82,641.  Mon.'s sales 106,904Mon.'s open int 451,251