BC-Merc Table
BC-Merc Table

The Associated Press

CHICAGO




CHICAGO (AP) — Futures trading on the Chicago Mercantile Exchange Tue:
OpenHighLowSettleChg.CATTLE40,000 lbs.; cents per lb.Apr123.32124.82122.45122.82—.40Jun115.35116.47114.50114.77—.58Aug113.12113.87112.20112.45—.67Oct115.80116.47114.65115.05—.67Dec117.97118.70117.55117.87—.05Feb118.30119.45118.30118.85+.28Apr118.30119.05118.25118.87+.37Jun111.80112.45111.80112.45+.65Aug111.00+.38Est. sales 77,443.  Mon.'s sales 70,382Mon.'s open int 375,409FEEDER CATTLE50,000 lbs.; cents per lb.Mar145.25146.40144.15144.30—.85Apr147.17148.40145.77146.12—.75May147.90148.97146.57147.10—.57Aug152.62153.87151.42152.22—.10Sep152.70154.07151.87152.80+.08Oct152.35153.65151.77152.70+.33Nov151.77152.97151.05151.90+.38Jan147.20147.20146.62147.05+.35Est. sales 16,378.  Mon.'s sales 14,209Mon.'s open int 56,678HOGS,LEAN40,000 lbs.; cents per lb.Apr69.2769.3268.1268.20—.60May76.1076.1074.1274.25—1.50Jun81.0081.3279.8579.95—1.02Jul81.7081.7780.6280.72—.58Aug81.4581.7080.6580.72—.43Oct69.4569.5568.4268.52—.40Dec63.2563.8762.8563.17+.10Feb66.9567.6266.8566.90+.15Apr70.7070.7070.3270.32+.10May76.02+.10Jun79.1779.1779.1779.17+.17Jul79.40+.18Est. sales 48,373.  Mon.'s sales 48,332Mon.'s open int 227,859PORK BELLIES40,000 lbs.; cents per lb.No open contracts.