BC-USDA-Iowa Elev Grain Prcs
BC-USDA-Iowa Elev Grain Prcs

The Associated Press



NW—GR110Des Moines, IA    Tue Mar. 6, 2018    IA Dept of Ag-USDA Market NewsIA Dept. of Ag-USDA Market News Interior Iowa Daily Grain PricesClosing cash grain bids offered to producers as of 1:30 p.m.Dollars per bushel, delivered to Interior Iowa Country Elevators.US 2 Yellow Corn Prices were mostly 1 cent higher for a state average of 3.44.US 1 Yellow Soybean Prices were mostly 3 cents lower for a state average of 9.88.Iowa Regions       #2 Yellow Corn          #1 Yellow SoybeansRange       Avg        Range          AvgNorthwest        3.37 ? 3.50   3.42       9.80 ?  9.89   9.84North Central    3.39 ? 3.50   3.43       9.82 ?  9.90   9.87Northeast        3.37 ? 3.53   3.45       9.74 ? 10.03   9.90Southwest        3.34 ? 3.45   3.41       9.68 ?  9.90   9.84South Central    3.35 ? 3.52   3.42       9.81 ?  9.89   9.86Southeast        3.34 ? 3.68   3.49       9.94 ? 10.10   9.99Corn basis to STATE AVERAGE PRICE for the CBOT MAY contract is -.45Soybean basis to STATE AVERAGE PRICE for the CBOT MAY contract is -.87This report was prepared by the Marketing Bureau, Iowa Department ofAgriculture and Land Stewardship.Source:  USDA Market News Des Moines, Iowa515-284-4460www.ams.usda.gov/mnreports/nw—gr110.txtIowa Dept. of Agriculture and Land Stewardship515-281-8604www.iowaagriculture.gov/agMarketing/dailyGrainPrices.asp16:14 ja