BC-USDA-Fdr Catl
BC-USDA-Fdr Catl

The Associated Press



SJ—LS150 St Joseph, MO    Wed  Mar  7,  2018    USDA-MO Dept of Ag Market NewsSt Joseph Stockyards - St Joseph, MOLivestock Auction Report for 3/7/2018 AUCTION                          Receipts           Week Ago             Year Ago--------------------------------------------------------------------------------- Total Receipts:                  3,400                 3,458              2,548------------------------------------------------------------------------------ Feeder Cattle:                   3,400(100           3,458(100%)        2,548(100%)---------------------------------------------------------------------------------***OPEN***Compared to last week, feeder steers and heifers sold mostly steady in the opening round.  Feeder cattle supply included 61 percent Steers, 1 percent Dairy Steers, 36 percent Heifers, and  1 percent Bulls.Feeder cattle supply over 600 lbs was 46 percent.--------------------------------------------------------------------------------FEEDER CATTLE--------------------------------------------------------------------------------Feeder Steers(Per CWT):  Medium and Large 1 396 lbs 206.00; 400-500 lbs199.00-205.00; 500-600 lbs 181.00-208.00; 600-700 lbs 157.50-182.00; 700-800 lbs142.50-152.00; 800-900 lbs 131.00-140.00. Medium and Large 1-2 300-400 lbs180.00-202.50; 400-500 lbs 180.00-204.00; 500-600 lbs 180.00-188.50; 603 lbs165.00.Feeder Dairy Steers(Per CWT):   283 lbs 96.00.Feeder Dairy Steers(Per Head):  Large 4 100-200 lbs 100.00.Feeder Heifers(Per CWT):  Medium and Large 1 300-400 lbs 172.00-182.00; 400-500 lbs 174.00-182.00, 477 lbs Thin Fleshed 180.00; 500-600 lbs 150.00-180.00,594 lbs Fleshy 140.00; 600-700 lbs 149.50-156.00, 666 lbs Fleshy 135.50; 807 lbs118.50. Medium and Large 1-2 285 lbs 184.00; 300-400 lbs 165.00-171.00; 400-500lbs 163.50-170.00; 515 lbs 158.00; 808 lbs 122.00.Feeder Bulls(Per CWT):  Medium and Large 1 482 lbs 168.00. Medium 2 425 lbs150.00.Please Note:The above USDA LPGMN price report is reflective of the majority of classes and grades of livestock offered for sale.  There may be instances where some salesdo not fit within reporting guidelines and therefore will not be included in the report.  Prices are reported on an FOB basis, unless otherwise noted. Source:  USDA-MO Dept of Ag Market News ServiceBaldemar Ortiz, Market Reporter, (816) 676-700024 Hour Market Report 1-573-522-9244www.ams.usda.gov/mnreports/SJ—LS150.txtwww.ams.usda.gov/market-news/livestock-poultry-grain