BC-USDA-Opening Bids KY Grain Elevs
BC-USDA-Opening Bids KY Grain Elevs

The Associated Press



SV—GR110Frankfort, KY     Wed, Mar 07, 2018     USDA-KY Dept of Ag Market NewsKentucky Daily Grain Elevators Bids:Bids as of 4:00 est, cash prices by elevators/mills to producers:US NO 2 YELLOW CORNBids           Change          Basis           ChangePurchase        3.8025-3.8725        DN 1        -7K to OptK         UNCHGreen River         3.8225           UP 4            -5K             UP 5Pennyrile           3.7725           DN 1            -10K            UNCHLouisville          3.7425           DN 1            -13K            UNCHBluegrass       3.6100-3.7225     UNCH-DN 1    -18.25H to -15K   UP 0.5-UNCHUS NO 2 WHITE CORNBids           ChangePennyrile             NA              NAUS NO 1 YELLOW SOYBEANSBids           Change          Basis           ChangePurchase       10.3025-10.3225      DN 9.5       -35K to -33K        UNCHGreen River        10.3525          DN 9.5           -30K            UNCHPennyrile          10.1525          DN 9.5           -50K            UNCHLouisville          9.8225          DN 9.5           -83K            UNCHBluegrass       9.7000-10.1025   DN 20-DN 9.5  -95.25K to -55K   DN 10.5-UNCHUS NO 2 SOFT RED WINTER WHEATBids           Change          Basis           ChangePurchase              NA              NA              NA              NAGreen River           NA              NA              NA              NAPennyrile           4.7725         DN 9.75           -20K            UNCH (Milling Qlty)     4.9025         DN 9.75           -7K             UNCHLouisville      4.4325-5.1500    DN 9.75-DN 9    -54K to 22H         UNCHBluegrass           4.8400          UP 14            -9H            UP 23US NO 2 MILO EXTRA HEAVYBids           Change          Basis           ChangePurchase              NA              NA              NA              NALouisville     NA              NA              NA              NAPennyrile      NA              NA              NA              NAUS NO 2 FEED BARLEYBids            ChangePennyrile      NA              NA------------------------------------------------------------------------------Opening Contract Prices for Fall (Jul Wheat) deliveryUS NO 2 YELLOW CORNBids           Change          Basis           ChangePurchase        3.8125-3.8425      DN 0.25       -25Z to -22Z        UNCHGreen River         3.8425         DN 0.25           -22Z            UNCHPennyrile       3.8125-3.9625      DN 0.25       -25Z to -10Z        UNCHLouisville     NA              NA              NA              NABluegrass      3.7625          DN 0.25         -30Z            UNCHUS NO 2 WHITE CORNBids            ChangePennyrile      4.3700          UNCHUS NO 1 YELLOW SOYBEANSBids           Change          Basis           ChangePurchase       10.1950-10.2450       DN 1        -25X to -20X        UNCHGreen River        10.1250           DN 1            -32X            UNCHPennyrile      10.0450-10.0950       DN 1        -40X to -35X        UNCHLouisville     NA              NA              NA              NABluegrass      9.8950          DN 1            -55X            UNCHUS NO 2 SOFT RED WINTER WHEATBids           Change          Basis           ChangePurchase        5.0800-5.1300  DN 8.25-DN 10.25  -5N to OptN      UNCH-DN 2Green River         4.9800         DN 8.25           -15N            UNCHPennyrile       4.8800-4.9300      DN 8.25       -25N to -20N        UNCH (Milling Qlty)     5.1800         DN 8.25            5N             UNCHLouisville     5.1300          DN 8.25         OptN            UNCHBluegrass      4.8800          DN 8.25         -25N            UNCHUS NO 2 MILO EXTRA HEAVYBids            Change          Basis           ChangePurchase       NA              NA              NA              NALouisville     4.1625          DN 0.25         10Z             UNCHPennyrile      NA              NA              NA              NAUS NO 2 FEED BARLEYBids            ChangePennyrile      NA              NAPurchase- Inland elevators west of Tennesse RiverGreen River- Inland elevators near the Green RiverPennyrile- South west KY East of Tennessee River, west of I-65Louisville-Elevators near the Louisville areaBluegrass- Central Kentucky/Lexington areaSource: USDA-KY Dept of Ag Market News Service, Frankfort, KYJodee Inman  502-782-4138??????? www.ams.usda.gov/mnreports/SV—GR110.txt??????? www.ams.usda.gov/LPSMarketNewsPage1549Ekdb