BC-USDA-Fdr Catl
BC-USDA-Fdr Catl

The Associated Press



SJ—LS150 St Joseph, MO    Wed  Mar  7,  2018    USDA-MO Dept of Ag Market NewsSt Joseph Stockyards - St Joseph, MOLivestock Auction Report for 3/7/2018 AUCTION                          Receipts           Week Ago             Year Ago--------------------------------------------------------------------------------- Total Receipts:                  3,337                 3,458              2,548------------------------------------------------------------------------------ Feeder Cattle:                   3,337(100           3,458(100%)        2,548(100%)---------------------------------------------------------------------------------***CLOSED***Compared to last week, steer calves sold mostly steady with 550-600 lbs 2.00 higher.  Heifers calves  sold 2.00-6.00 higher.Feeder steers and heifers sold steady to 2.00 lower, with 650-700 lb steers trading steady to 3.00 higher.  Trade active, demand moderate to good for feeders and good for calves.  Feeder cattle supply included 55 percent Steers, 0 percent Dairy Steers, 41 percent Heifers, and  3percent Bulls. Feeder cattle supply over 600 lbs was 59 percent.--------------------------------------------------------------------------------FEEDER CATTLE--------------------------------------------------------------------------------Feeder Steers(Per CWT):  Medium and Large 1 300-400 lbs 206.00-217.50; 400-500 lbs 198.50-207.00; 500-600 lbs 181.00-209.00, Fancy 206.00-214.50; 600-700lbs 156.50-189.00, 659 lbs Fancy 177.50, 652 lbs Thin Fleshed 178.50; 700-800lbs 141.00-169.00, 757 lbs Fancy 162.25; 800-900 lbs 131.00-140.00, 844 lbsFleshy 132.75. Medium and Large 1-2 300-400 lbs 180.00-202.50; 400-500 lbs180.00-200.00; 500-600 lbs 167.25-188.50; 600-700 lbs 150.00-173.50; 700-800 lbs138.00-152.00; 800-900 lbs 131.00-135.00; 901 lbs 119.00. Large 1-2 694 lbs135.00; 853 lbs 127.00. Small and Medium 1-2 663 lbs 144.00; 744 lbs 141.00.Feeder Dairy Steers(Per CWT):   283 lbs 96.00.Feeder Dairy Steers(Per Head):  Large 4 100-200 lbs 100.00.Feeder Heifers(Per CWT):  Medium and Large 1 300-400 lbs 185.75-201.50, 359lbs Fancy 208.00; 400-500 lbs 169.00-182.00, 464 lbs Fancy 182.50; 500-600 lbs149.50-181.75, Fancy 171.00-172.50, Fleshy 140.00-145.00, 576 lbs Thin Fleshed169.00; 600-700 lbs 140.25-163.00, Fleshy 133.00-137.50; 700-800 lbs 130.00-137.25; 807 lbs 118.50; 901 lbs Fleshy 104.00. Medium and Large 1-2 285 lbs184.00; 300-400 lbs 160.00-182.00; 400-500 lbs 158.00-170.00; 500-600 lbs 144.25-160.50; 600-700 lbs 130.50-143.00; 700-800 lbs 125.00-130.00; 800-900 lbs116.00-122.00; 903 lbs 105.50. Medium and Large 2 431 lbs 150.00. Large 1-2 899lbs 100.00.Feeder Bulls(Per CWT):  Medium and Large 1 365 lbs 211.00; 400-500 lbs194.00-206.50; 500-600 lbs 159.00-186.00; 600-700 lbs 158.50-173.00; 804 lbs120.00. Medium and Large 1-2 400-500 lbs 168.00-171.00; 535 lbs 168.00; 632 lbs135.00; 755 lbs 121.00; 845 lbs 102.00; 954 lbs 97.00. Medium 2 425 lbs 150.00.Please Note:The above USDA LPGMN price report is reflective of the majority of classes and grades of livestock offered for sale.  There may be instances where some salesdo not fit within reporting guidelines and therefore will not be included in the report.  Prices are reported on an FOB basis, unless otherwise noted. Source:  USDA-MO Dept of Ag Market News ServiceBaldemar Ortiz, Market Reporter, (816) 676-700024 Hour Market Report 1-573-522-9244www.ams.usda.gov/mnreports/SJ—LS150.txtwww.ams.usda.gov/market-news/livestock-poultry-grain