BC-Merc Table
BC-Merc Table

The Associated Press

CHICAGO




CHICAGO (AP) — Futures trading on the Chicago Mercantile Exchange Wed:
OpenHighLowSettleChg.CATTLE40,000 lbs.; cents per lb.Apr123.00123.67122.60122.97+.15Jun114.87115.52114.50114.82+.05Aug112.45112.87112.05112.45Oct115.05115.52114.60115.12+.07Dec117.87118.37117.42118.10+.23Feb118.65119.25118.40119.10+.25Apr118.55119.12118.42119.02+.15Jun112.37112.85112.27112.72+.27Aug111.00111.00111.00111.00Est. sales 69,700.  Tue.'s sales 78,410Tue.'s open int 372,271FEEDER CATTLE50,000 lbs.; cents per lb.Mar144.30144.95143.65143.77—.53Apr146.00146.62145.20145.37—.75May146.72147.95146.25146.87—.23Aug152.00152.95151.37152.02—.20Sep152.32153.55152.00152.90+.10Oct152.50153.30151.97152.67—.03Nov151.22152.30151.20152.10+.20Jan146.85147.47146.85147.40+.35Est. sales 16,036.  Tue.'s sales 16,483Tue.'s open int 56,157HOGS,LEAN40,000 lbs.; cents per lb.Apr68.0768.3266.4267.80—.40May74.0074.0072.1272.60—1.65Jun79.6579.7578.1778.60—1.35Jul80.6580.6579.0779.55—1.17Aug80.6080.7079.2779.80—.92Oct68.5068.5067.4267.90—.62Dec63.1063.1062.2562.65—.52Feb66.6566.9766.1766.30—.60Apr70.3270.3769.6069.77—.55May75.7775.7775.7775.77—.25Jun79.1779.5279.1779.17Jul79.40Est. sales 76,011.  Tue.'s sales 49,398Tue.'s open int 223,728PORK BELLIES40,000 lbs.; cents per lb.No open contracts.