BC-USDA-SC Clsng Grain Bids
BC-USDA-SC Clsng Grain Bids

The Associated Press



CO—GR110Columbia, SC     Wednesday, March 07, 2018 USDA-SC Dept Ag Market NewsSouth Carolina closing cash grain bids as of 3:00 P.M.  Prices deliveredto country elevators or processors. New crop bids noted with (*).US 2 Yellow Corn was steady to 1 cent lower.US 1 Yellow Soybeans were 8 to 10 cents lower.US 2 Soft Red Wheat were mostly 3 to 8 lower; one location steady.New Crop US 2 Yellow Corn was steady to 1 cent higher.New Crop US 2 Soft Red Wheat was mostly 8 to 9 lower.CORN: Country Elevators---4.39 at Anderson; 3.64 and *3.99 at Kingstree;4.12 and *4.21 at Hamer; 3.64 and *3.99 at Lynchburg; 3.64 and *3.99 atConway; 3.64 and *3.99 at Estill; Processors---4.19 at Orangeburg; 4.65and *4.65 at Monetta; 4.54 at Sumter; *4.50 at Cassatt.SOYBEANS: Country Elevators---10.06 at Anderson; 10.00 at Kingstree;9.95 at Hamer; 10.00 at Lynchburg; 10.00 at Conway; 10.00 at Estill;Processors---10.55 at Kershaw; Export---10.65 at Mt. Pleasant.WHEAT: Country Elevators---4.99 and *4.78 at Anderson; *4.13 atKingstree; 4.88 and *4.88 at Hamer; *4.13 at Lynchburg; *4.13 at Conway;*4.13 at Estill; Processors---No Bid at Monetta; No Bid at Sumter; *4.54Cassatt; 5.25 at Columbia; Export---No Bid at Mt. Pleasant.COUNTRY ELEVATORS    US 2 Yellow       US 1 Yellow       US 2 Soft RedCorn             Soybeans           WheatCash  New Crop    Cash  New Crop    Cash  New CropAnderson             4.39             10.06              4.99     4.78Kingstree            3.64   3.99      10.00                       4.13Hamer                4.12   4.21       9.95              4.88     4.88Lynchburg            3.64   3.99      10.00                       4.13Conway               3.64   3.99      10.00                       4.13Estill               3.64   3.99      10.00                       4.13PROCESSORSOrangeburg           4.19Monetta              4.65   4.65Sumter               4.54Cassatt                     4.50                                  4.54Kershaw                               10.55Columbia                                                 5.25EXPORTMt. Pleasant                          10.65Source: South Carolina Dept. of Ag-USDA Market News, Columbia, SC803-737-4671.  For more info check out the internet athttp://www.ams.usda.gov/mnreports/co—gr110.txt14:58 ts