Preclosing
Preclosing

The Associated Press

CHICAGO




CHICAGO (AP) — Futures trading on the Chicago Board of Trade Wed:
OpenHighLowLastChg.WHEAT5,000 bu minimum; cents per bushelMar505505498¼502May504¾509¾497½507Jul519524¼512¾521¼Sep533½539½528½529—7¼Dec554558½547¾554¾Mar566½573561½562¼—7May574¼577571¾572¾—1¾Jul572¾579568¾569¼—6Sep576583½574574—6¾Dec590595584¼584¼—7½Mar595¾595¾595¾595¾—2¼Jul575575572572—1½Est. sales 135,638.  Tue.'s sales 137,055Tue.'s open int 465,424,  up 4,365CORN5,000 bu minimum; cents per bushelMar378¾380¾378½379¾May387¾389386¾388¼Jul395395¾393¾394¾—¾Sep400400¾399399¾—¾Dec405¾407405406¼—¼Mar412¾414412¼413¼—¼May417¼418½417418—¼Jul421¼422¼421422Sep412¼412¼411¾411¾—1¼Dec414¾415¾413415¼+¼Mar420422½420421¼+½May422424420¾424—¾Jul429429429429Dec418¼419417¾419+¾Est. sales 258,877.  Tue.'s sales 318,842Tue.'s open int 1,743,951,  up 41,237OATS5,000 bu minimum; cents per bushelMay268¼268¼263½263¾—4Jul267267264¼265—3Dec266½266½263¾265¼—¾Est. sales 266.  Tue.'s sales 162Tue.'s open int 5,563SOYBEANS5,000 bu minimum; cents per bushelMar10581064½1055¾1064½May1073¼1077¼10661074¾Jul1081¼1085¼1074½1074¾—8¼Aug1078¼1083¼10741074¼—6¾Sep1058¾1063¼1055¼1055½—4¾Nov1044½10481041¼1042¾—2¾Jan1045¼1050½1044½1046—2Mar1044¼1047¾10421044¼—1½May10451045¾1042¾1043—1¾Jul1043104710431045¼—¾Nov1005¾1008¼10041006¼—1½Est. sales 206,445.  Tue.'s sales 213,267Tue.'s open int 819,234,  up 22,818