BC-USDA-Iowa Elev Grain Prcs
BC-USDA-Iowa Elev Grain Prcs

The Associated Press



NW—GR110Des Moines, IA    Wed Mar. 7, 2018    IA Dept of Ag-USDA Market NewsIA Dept. of Ag-USDA Market News Interior Iowa Daily Grain PricesClosing cash grain bids offered to producers as of 1:30 p.m.Dollars per bushel, delivered to Interior Iowa Country Elevators.US 2 Yellow Corn Prices were mostly 1 cent lower for a state average of 3.43.US 1 Yellow Soybean Prices were mostly 10 cents lower for a state average of 9.78.Iowa Regions       #2 Yellow Corn          #1 Yellow SoybeansRange       Avg        Range         AvgNorthwest        3.36 ? 3.50   3.41       9.70 ? 9.79   9.74North Central    3.38 ? 3.49   3.42       9.72 ? 9.80   9.77Northeast        3.36 ? 3.52   3.44       9.55 ? 9.90   9.79Southwest        3.37 ? 3.45   3.42       9.73 ? 9.80   9.77South Central    3.34 ? 3.51   3.41       9.72 ? 9.79   9.76Southeast        3.33 ? 3.67   3.47       9.84 ? 9.97   9.88Corn basis to STATE AVERAGE PRICE for the CBOT MAY contract is -.44Soybean basis to STATE AVERAGE PRICE for the CBOT MAY contract is -.87This report was prepared by the Marketing Bureau, Iowa Department ofAgriculture and Land Stewardship.Source:  USDA Market News Des Moines, Iowa515-284-4460www.ams.usda.gov/mnreports/nw—gr110.txtIowa Dept. of Agriculture and Land Stewardship515-281-8604www.iowaagriculture.gov/agMarketing/dailyGrainPrices.asp16:20 ja