BC-BOT Table,1st Ld
BC-BOT Table,1st Ld

The Associated Press

CHICAGO




CHICAGO (AP) — Noon trading on the Chicago Board of Trade Wed.:
OpenHighLowNoonChg.WHEAT5,000 bu minimum; cents per bushelMar505505498¼502May504¾509¾499¾507Jul519524¼514¼521¼Sep533½539½529½533¼—3Dec554558½548¼554¾Mar566½573562¾566¼—3May574¼577571¾572¾—1¾Jul572¾579569½573—2¼Sep576583½576582¼+1½Dec590595588½588½—3¼Mar595¾595¾595¾595¾—2¼Jul575575572572—1½Est. sales 118,552.  Tue.'s sales 137,055Tue.'s open int 465,424,  up 4,365CORN5,000 bu minimum; cents per bushelMar378¾380¾378½379¾May387¾389386¾388¼Jul395395¾393¾395½Sep400400¾399400¼—¼Dec405¾407405406¼—¼Mar412¾414412¼413¼—¼May417¼418½417418—¼Jul421¼422¼421422¼+¼Sep412¼412¼411¾411¾—1¼Dec414¾415¾413415¼+¼Mar420422½420422½+1¾May422424420¾424—¾Jul429429429429Dec418¼418¼417¾417¾—½Est. sales 229,170.  Tue.'s sales 318,842Tue.'s open int 1,743,951,  up 41,237OATS5,000 bu minimum; cents per bushelMay268¼268¼263½263½—4¼Jul267267264¼264¼—3¾Dec266½266½263¾265¼—¾Est. sales 230.  Tue.'s sales 162Tue.'s open int 5,563SOYBEANS5,000 bu minimum; cents per bushelMar10581064½10561064½May1073¼1077¼1066¼1074¾Jul1081¼1085¼1074¾1077¼—5¾Aug1078¼1083¼1074¼1076¾—4¼Sep1058¾1063¼1055¼1057—3¼Nov1044½10481041¼1043¾—1¾Jan1045¼1050½1044½1046¾—1¼Mar1044¼1047¾10421045½—¼May10451045¾1042¾1044—¾Jul1043104710431045½—½Nov1005¾1008¼10041007½—¼Est. sales 191,306.  Tue.'s sales 213,267Tue.'s open int 819,234,  up 22,818SOYBEAN OIL60,000 lbs; cents per lbMar32.1932.1931.9331.95—.35May32.5232.5632.0532.10—.38Jul32.7332.7632.2632.31—.38Aug32.8032.8632.3632.40—.39Sep32.8832.8832.4632.51—.37Oct32.9533.0032.5432.59—.36Dec33.1733.2132.7532.80—.37Jan33.1733.1732.9833.02—.34Mar33.4333.5133.1833.19—.40May33.4133.4633.3333.33—.39Jul33.5333.6233.5233.52—.33Est. sales 66,971.  Tue.'s sales 97,264Tue.'s open int 485,144SOYBEAN MEAL100 tons; dollars per tonMar383.40386.20380.10382.50—2.00May387.80390.80383.20385.50—2.50Jul387.10390.50384.20386.40—1.30Aug383.60386.80381.20383.10—1.00Sep378.00382.30377.20379.00—.50Oct372.30375.80371.40373.70+.60Dec370.30373.60369.20371.40+.40Jan368.70368.70365.60367.10Mar361.00361.90360.90361.00+.20May357.40358.30356.40357.60+.50Jul358.70358.70356.80357.00—.20Aug355.20355.20355.10355.10—.10Sep351.40351.40351.40351.40Est. sales 85,743.  Tue.'s sales 86,041Tue.'s open int 453,096,  up 1,845