BC-USDA-Portland Grain
BC-USDA-Portland Grain

The Associated Press



JO—GR110Portland, OR    Thu Mar 08, 2018    USDA Market NewsPortland Daily Grain ReportBids as of 9:30 a.m. Pacific time; Subject to changeAll Bids in dollars per bushel.  Bids are limited and not fullyestablished in early trading.Bids for grains delivered to Portland, Oregon in dollars per bushel.In early trading March wheat futures trended mixed, from two cents lowerto 2.50 cents per bushel higher than Wednesday?s closes. May wheat futurestrended 0.25 of a cent to 7.50 cents per bushel lower than Wednesday?scloses.Bids for US 1 Soft White Wheat delivered to Portland in unit trains andbarges for March delivery for ordinary protein were not well tested inearly trading, but bids were indicated as steady compared to Wednesday?snoon bids for the same delivery period.  Some exporters were not issuingbids for nearby delivery.  Bids for guaranteed maximum 10.5 percent proteinwere well tested in early trading, but bids were indicated as generallysteady compared to Wednesday?s noon bids for the same delivery period.Some exporters were not issuing bids for nearby delivery.Bids for 11.5 percent protein US 1 Hard Red Winter Wheat for Marchdelivery were not well tested in early trading but bids were indicated aslower compared to Wednesday?s bids for the same delivery period.  Someexporters were not issuing bids for nearby delivery.Bids for 14 percent protein US 1 Dark Northern Spring Wheat for Marchdelivery were not well tested in early trading but bids were indicated aslower compared to Wednesday?s noon bids for the same delivery period.  Someexporters are not issuing bids for nearby delivery.Bids for US 2 Yellow Corn delivered full coast in 110 car shuttle trainsduring March were not well tested in early trading, but bids were indicatedas higher compared to Wednesday?s noon bids for the same delivery period.Some exporters were not issuing bids for nearby delivery.Bids for US 1 Yellow Soybeans delivered full coast in 110 car shuttletrains during March were not well tested in early trading, but bids wereindicated as lower compared to Wednesday?s noon bids for the same deliveryperiod.  Some exporters were not issuing bids for nearby delivery.All wheat bids in dollars per bushelUS 1 Soft White Wheat - delivered by Unit Trains and BargesOrdinary proteinMar                                       5.4000-5.7800Apr                                       5.4000-5.7800May                                       5.7000-5.7800Jun                                       5.6375-5.7800Aug NC                                    5.7300-5.7800Guaranteed maximum 10.5 pct proteinMar                                       5.4000-5.6500Apr                                       5.4000-5.7000May                                       5.6300-5.7000Jun                                       5.6375-5.7300Aug NC                                    5.6475-5.7300—US 1 White Club Wheat - delivered by Unit Trains and BargesOrdinary proteinMar                                       5.4500-5.7800Guaranteed maximum 10.5 pct proteinMar                                       5.4000-5.6500—US 1 Hard Red Winter Wheat - (Exporter bids-falling numbers of 300 orbetter)Ordinary protein                            5.7175-5.817511 pct protein                              6.3175-6.567511.5 pct proteinMar                                       6.6175-6.8175Apr                                       6.6175-6.7675May                                       6.6175-6.7675Jun                                       6.7300-6.780012 pct protein                              6.7675-6.967513 pct protein                              7.0675-7.2675—US 1 Dark Northern Spring Wheat (with a minimum of 300 falling numbers, a maximumof 0.5 part per million vomitoxin, and a maximum of one percent total damage)13 pct protein                              6.8675-7.097514 pct proteinMar                                       7.3475-7.4975Apr                                       7.3475-7.4975May                                       7.3975-7.4975Jun                                       7.3800-7.530015 pct protein                              7.6675-7.817516 pct protein                              7.9775-8.1375—US 2 Yellow CornShuttle trains-Delivered full coast Pacific Northwest-BNMar                                       4.8300-4.9800Apr                                       4.7300-4.8800May                                       4.6800-4.8600Jun                                       4.7900-4.8700Jul                                       4.7000-4.7800Aug                                       NA—US 1 Yellow SoybeansShuttle trains-Delivered full coast Pacific Northwest-BNMar                                       11.4500-11.5000Apr                                       11.5300-11.5700May                                       11.5300-11.5500Jun                                       11.5675-11.6175Jul                                       11.5875-11.6175Oct                                       11.3250—US 2 Heavy White Oats **                      3.1925** Not well tested.Exporter Bids Portland Rail/Barge             Feb 2018Averages in Dollars per bushelUS 1 Soft White by Unit Trains and Barges   5.4300US 1 Hard Red Winter (Ordinary protein)     5.4100US 1 Hard Red Winter (11.5% protein)        6.3200US 1 Dark Northern Spring (14% protein)     7.2900Source:    USDA Market News Service, Portland, ORNiki Davila 503-535-5001  Portland.LPGMN@ams.usda.gov24 Hour Market Report  503-535-5005www.ams.usda.gov/mnreports/jo—gr110.txtwww.ams.usda.gov/lpsmarketnewspage8:53 P nd