BC-Merc Early
BC-Merc Early

The Associated Press

CHICAGO




CHICAGO (AP) — Early trading on the Chicago Mercantile Exchange Thu:
OpenHighLowLastChg.CATTLE40,000 lbs.; cents per lb.Apr123.22123.30122.42122.57—.40Jun114.97115.00114.10114.15—.67Aug112.45112.52111.77111.87—.58Oct115.15115.15114.32114.42—.70Dec118.02118.20117.35117.40—.70Feb118.92119.15118.37118.40—.70Apr118.90119.00118.30118.50—.52Jun112.65112.65112.30112.30—.42Est. sales 17,477.  Wed.'s sales 69,700Wed.'s open int 370,524FEEDER CATTLE50,000 lbs.; cents per lb.Mar143.65144.12143.15143.22—.55Apr145.60145.80144.42144.55—.82May147.12147.30146.05146.20—.67Aug151.92152.47150.82150.92—1.10Sep152.82153.15151.62151.70—1.20Oct152.70153.07151.50151.50—1.17Nov152.10152.10150.72150.72—1.38Est. sales 4,177.  Wed.'s sales 16,036Wed.'s open int 55,990HOGS,LEAN40,000 lbs.; cents per lb.Apr67.1767.3566.6267.05—.75May72.1772.2271.3071.75—.85Jun78.3578.5577.3577.62—.98Jul79.1779.3578.3578.57—.98Aug79.4079.6078.6278.85—.95Oct67.5267.7766.8767.12—.78Dec62.6062.6061.8562.10—.55Feb66.0566.1265.9066.02—.28Apr69.4569.4569.3769.37—.40Est. sales 18,573.  Wed.'s sales 76,011Wed.'s open int 223,322PORK BELLIES40,000 lbs.; cents per lb.No open contracts.