BC-USDA-Eastern Cornbelt Hog Report
BC-USDA-Eastern Cornbelt Hog Report

The Associated Press



LM—HG209Des Moines, Iowa                Thu, Mar 08, 2018               USDA Market NewsEASTERN CORNBELT DAILY DIRECT MORNING HOG REPORT BASED ON STATE OF ORIGINPLANT DELIVERED PURCHASE DATA FOR Thursday, March 8, 2018(Includes information from 1:30 PM to 9:30 AM.)CURRENT VOLUME BY PURCHASE TYPEBARROWS & GILTS LIVE AND CARCASS BASISEstimated     Actual     Actual     ActualToday      Today   Week Ago   Year AgoProducer SoldNegotiated                                5,725      5,375      4,800      3,524Other Market Formula (Futures/Options)    5,855      5,322      9,740      3,857Swine or Pork Market Formula             31,179     24,978     23,620     27,558Other Purchase Arrangement               24,794     21,254     24,036     19,903Negotiated Formula                        1,401      1,401        728          0Packer Sold (all purchase types)          2,012      2,012      1,858      1,696--------------------------------------------------------------------------------NEGOTIATED PURCHASE (Including Packer Sold)Barrows & Gilts (carcass basis): 3,026Compared to Prior Day's closing weighted average (LM—HG207),  0.53 lowerBase Price Rng $58.00 - $62.58, Wtd Avg $62.15, 5 Day Rolling Avg $62.39---------------------------------------------------------------------------------NEGOTIATED FORMULA PURCHASE (Including Packer Sold)Barrows & Gilts (carcass basis): 0                     5 Day Rolling Avg $-----------------------------------------------------------------------------------COMBINED NEGOTIATED & NEGOTIATED FORMULA PURCHASE (Including Packer Sold)Barrows & Gilts (carcass basis): 3,026*Price not reported due to confidentiality* 5 Day Rolling Avg $-----------------------------------------------------------------------------------EASTERN CORNBELT DAILY DIRECT NEGOTIATED HOG PURCHASE MATRIXREPRESENTING INDIVIDUAL PACKER CARCASS MERIT BUYING PROGRAMSbased on both Fat and Muscle Measurements for a 200 lb Carcass BasisLOIN AREA/DEPTH (INCHES)BF      4.0/ 1.4       5.0/ 1.7       6.0/ 2.0       7.0/ 2.3       8.0/ 2.70.4   61.00  66.84   62.50  68.15   63.50  69.46   64.00  70.78   64.00  72.530.5   58.00  66.84   61.00  68.15   63.50  69.46   64.00  70.78   64.00  72.530.6   58.00  65.58   61.00  66.90   62.50  68.21   63.50  69.53   64.00  71.280.7   58.00  64.33   58.00  65.65   61.00  66.96   63.50  68.27   64.00  70.030.8   57.00  63.08   58.00  64.39   61.00  65.71   62.50  67.02   64.00  68.780.9   57.00  61.83   58.00  63.14   58.00  64.46   61.00  65.77   63.50  67.521.0   55.00  60.58   57.00  61.89   58.00  63.21   61.00  64.52   62.50  66.271.1   54.00  59.01   57.00  60.33   58.00  61.64   58.00  62.96   62.50  64.711.2   54.00  57.14   55.00  58.45   57.00  61.00   58.00  62.00   61.00  63.001.4   49.00  50.50   50.31  54.00   51.63  57.00   52.94  61.00   54.69  62.00--------------------------------------------------------------------------------CARCASS WEIGHT DIFFERENTIALS145#   -32.00 -6.26          175#   -4.00  1.00          205#   -5.01  3.00155#   -30.00  0.00          185#   -1.00  1.50          215#   -5.01  3.00165#   -15.00  0.00          195#   -1.25  3.00          225#   -5.01  1.00--------------------------------------------------------------------------------MEASUREMENTS BASED ON SLAUGHTER DATA SUBMITTED5-Day Rolling Average Market Hog: 186.80 lb carcass, 0.59 inch back-fat,6.99 square inch loin/2.33 inch loin depth, FFLI: 54.03%Price Range $63.50 - $69.53--------------------------------------------------------------------------------SWINE OR PORK MARKET FORMULA PURCHASE (Including Packer Sold)Barrows & Gilts (carcass basis): 20,577Base Price Range $61.02 - $69.05, Weighted Average $66.20--------------------------------------------------------------------------------NEGOTIATED PURCHASE (Including Packer Sold)Barrows & Gilts (live basis, 240-320 lbs): 1,950Compared to Prior Day's closing weighted average (LM—HG207),  0.31 lowerPrice Rng $46.50 - $50.50, Wtd Avg $48.23, 5 Day Rolling Avg $48.89--------------------------------------------------------------------------------NEGOTIATED FORMULA PURCHASE (Including Packer Sold)Barrows & Gilts (live basis, 240-320 lbs): 899*Price not reported due to confidentiality* 5 Day Rolling Avg $----------------------------------------------------------------------------------COMBINED NEGOTIATED & NEGOTIATED FORMULA PURCHASE (Including Packer Sold)Barrows & Gilts (live basis, 240-320 lbs): 2,849*Price not reported due to confidentiality* 5 Day Rolling Avg $----------------------------------------------------------------------------------BARROWS & GILTS PURCHASE BY STATE OF ORIGINGeorgia                 720               Illinois              18,701Indiana               8,467               Kentucky               1,385Michigan              5,139               North Carolina        15,207Ohio                  4,801               Pennsylvania             175Wisconsin               665--------------------------------------------------------------------------------*Price not reported due to confidentiality, for more information visit:www.ams.usda.gov/sites/default/files/media/ConfidentialityGuidelines.pdf*Base Price is the price from which no discounts are subtracted and no premiumsare added.Source:    USDA Livestock, Poultry & Grain Market News Division, Des Moines, IA515-284-4460      email:  desm.lpgmn@ams.usda.gov24 Hour recorded market information 515-284-4830www.ams.usda.gov/market-news/livestock-poultry-grain1100C.