Preclosing
Preclosing

The Associated Press

CHICAGO




CHICAGO (AP) — Futures trading on the Chicago Board of Trade Thu:
Open  High  Low   Last   Chg. WHEAT                                   5,000 bu minimum; cents per bushel    Mar      495¼  495¾  493    493          May      497¼  502½  490¼  497¼        Jul      513    518    505¾  513          Sep      528¾  534    522    529¼   + ¼Dec      548    553½  542    548¾        Mar      562¼  566½  556¼  563     + ½May      567    568    562½  565     —2¼Jul      570    576    566¼  571¾   +1  Sep      575    580½  573    573     —3¼Dec      584¾  591¼  584¼  588½   +1½Mar      594½  595    594    594¾   + ¾Est. sales 130,404.  Wed.'s sales 169,712Wed.'s open int 465,913,  up 489       CORN                                     5,000 bu minimum; cents per bushel    Mar      378½  385½  378    379¼        May      386¼  393¼  385¾  387¼        Jul      393½  400    392¾  399½   +5  Sep      398½  404¼  398    403¾   +4  Dec      405    409¾  404½  409½   +3¼Mar      412    416¼  411½  416     +2½May      416¾  421    416¾  420¾   +2¾Jul      420½  425    420½  424¾   +2½Sep      412    414¾  412    414¾   +1¾Dec      414    417¼  413½  416½   +1¼Mar      421¾  421¾  421¾  421¾   + ½May      425    425    425    425          Jul      429    431    427½  431     +1½Dec      417    419    417    419     + ½Dec      417    420    417    420     +1  Est. sales 456,815.  Wed.'s sales 339,755Wed.'s open int 1,775,602,  up 31,651  OATS                                      5,000 bu minimum; cents per bushel    May      266¼  267½  264¼  265     +1  Jul      268    268    265½  266     +1  Dec      266¼  266¼  266    266     + ¾Est. sales 191.  Wed.'s sales 299      Wed.'s open int 5,525                  SOYBEANS                               5,000 bu minimum; cents per bushel    Mar     1052½ 1057¼ 1047   1055          May     1063   1069¼ 1056½ 1065¼        Jul     1072   1078   1065½ 1071     —3  Aug     1071¼ 1076¾ 1065½ 1071¾   —1½Sep     1053¾ 1057¾ 1049¼ 1054½   —1¼Nov     1042¼ 1045   1036   1042¼   —2¼Jan     1045¾ 1048¼ 1040   1045     —2¾Mar     1043¾ 1046   1038¼ 1042½   —3¼May     1042¼ 1045   1038   1042¾   —1½Jul     1042¼ 1047   1040   1041½   —4  Aug     1032½ 1032½ 1032½ 1032½   —6¼Nov     1005¼ 1009½ 1002¾ 1005½   —1¾Mar     1010   1010   1010   1010     —2½Est. sales 227,894.  Wed.'s sales 264,907Wed.'s open int 833,864,  up 14,630