Open
Open

The Associated Press

CHICAGO




CHICAGO (AP) — Early trading on the Chicago Board of Trade Fri.:
OpenHighLowLastChg.WHEAT5,000 bu minimum; cents per bushelMar495495486486—8¾May499½499½488½490½—8¾Jul515¼515¼504½505¾—9½Sep531½531½521¼522—9¾Dec550¾550¾541½542—10Mar564¾565555¾557½—8¼Jul573½573½564½566¼—8¼Sep570¼571570¼571—8¾Dec584¼584¼584¼584¼—7Est. sales 54,170.  Thu.'s sales 155,182Thu.'s open int 466,529,  up 616CORN5,000 bu minimum; cents per bushelMar385385¼383¼383¾—2May392¾393¼390½391¼—2¼Jul399¾400397½398¾—1¾Sep404404¼402¼403¼—1¾Dec409¼409¾408408½—1¾Mar415½416¼414½415½—1¼May420420½419¼420—1¼Jul424¼424¾423¼424¼—1Sep413¾413¾413¾413¾—1Dec415¾416414¼414¾—2Mar422422422422—¾Jul429¼429¼429429—1¾Est. sales 246,682.  Thu.'s sales 544,200Thu.'s open int 1,809,733,  up 34,131OATS5,000 bu minimum; cents per bushelMay264¼266¾262264—1Jul264½264½263263¼—1¼Est. sales 233.  Thu.'s sales 223Thu.'s open int 5,542,  up 17SOYBEANS5,000 bu minimum; cents per bushelMar1049¾1049¾1036¼1037½—16¼May106310651045½1047¼—16¾Jul1072¼10741054¾1056½—16½Aug1072¾1074½10561056½—17Sep1056¼1056¼10421042½—14¾Nov1043¾1044¾10321032¾—12¼Jan1045¾10471035¼1036—11¾Mar1043½1044¼1033¼1034—11¾May1037¾1040½1032¼1033¾—11Jul10401041¾1035½1035½—10½Nov1000¼1001¼999¼1000—7¼Est. sales 116,058.  Thu.'s sales 276,563Thu.'s open int 848,069,  up 14,205SOYBEAN OIL60,000 lbs; cents per lbMar31.4731.5331.4031.43—.24May31.8731.8931.4431.45—.39Jul32.0632.1031.6831.69—.37Aug32.1932.1931.7931.79—.36Sep32.2832.2831.9031.90—.35Oct32.3232.3232.0032.00—.33Dec32.5632.5632.2132.22—.31Jan32.7532.7532.4232.42—.31Mar32.9432.9432.6232.62—.33May33.0533.0532.7732.77—.34Jul33.1333.1533.0233.02—.20Dec33.1133.1133.1133.11—.08Est. sales 62,035.  Thu.'s sales 68,328Thu.'s open int 485,053,  up 2,296SOYBEAN MEAL100 tons; dollars per tonMar378.50378.50374.20377.80—2.80May385.00385.00375.80379.60—3.80Jul384.50385.80377.00380.30—4.20Aug381.00382.30374.10376.80—4.10Sep377.90377.90370.50372.80—4.30Oct372.80372.80366.20368.20—4.80Dec371.90371.90364.60366.60—4.90Jan367.70367.70361.80363.20—4.60Mar358.20358.20355.50357.50—3.60May354.00354.00352.20353.60—3.40Jul353.80353.90352.80352.80—4.00Dec339.80339.80339.30339.30—4.90Est. sales 51,436.  Thu.'s sales 106,771Thu.'s open int 452,476,  up 502