BC-Merc Table
BC-Merc Table

The Associated Press






BC-Merc Table,
CHICAGO (AP) — Futures trading on the Chicago Mercantile Exchange Fri:
OpenHighLowSettleChg.CATTLE40,000 lbs.; cents per lb.Apr122.12123.52121.12123.12+1.35Jun113.70114.57112.67114.30+1.03Aug111.52112.17110.57111.65+.40Oct114.25114.85113.45114.40+.23Dec117.45117.80116.55117.50+.15Feb118.42118.72117.62118.40+.08Apr118.00118.37117.65118.35—.02Jun111.67+.02Aug109.85109.87109.82109.87+.10Est. sales 94,458.  Thu.'s sales 103,153Thu.'s open int 367,586FEEDER CATTLE50,000 lbs.; cents per lb.Mar142.65143.07141.02142.52+.77Apr143.10143.95142.00143.15+.15May144.45145.57143.50144.65+.20Aug149.97150.75149.02149.75—.22Sep150.82151.50149.80150.62—.10Oct150.62151.40149.72150.55—.02Nov150.00150.55149.00150.00+.05Jan144.67145.87144.22145.05+.03Est. sales 15,219.  Thu.'s sales 21,518Thu.'s open int 54,929HOGS,LEAN40,000 lbs.; cents per lb.Apr67.7568.3067.0067.85—.22May72.1072.9071.7272.00—.35Jun78.2579.0077.5077.67—.58Jul78.9779.8278.4578.55—.37Aug79.0080.1078.6578.77—.55Oct67.6568.3767.0767.20—.45Dec62.4563.2062.0062.22—.25Feb66.2267.2566.1766.25—.02Apr69.7570.7569.7569.77May75.77Jun79.17Jul79.32Est. sales 71,753.  Thu.'s sales 76,193Thu.'s open int 221,289PORK BELLIES40,000 lbs.; cents per lb.No open contracts.