BC-US--Grain Prices, US
BC-US--Grain Prices, US

The Associated Press

CHICAGO




CHICAGO (AP) — Futures trading on the Chicago Board of Trade Friday.:
SettleWHEAT (5,000 bu ; cents per bushel)Mar             489    May             489 1-4Jul             505 1-2Sep             522    Dec             542    Mar             556 1-4May             562 3-4Jul             567 1-2Sep             573 1-4Dec             585 1-2Mar             593 1-4May             593    Jul             571 1-2CORN (5,000 bu ; cents per bushel)Mar             383    May             390 1-2Jul             398    Sep             402 1-2Dec             407 1-4Mar             413 3-4May             418 1-2Jul             423    Sep             414 3-4Dec             417 3-4Mar             424 1-2May             428 1-4Jul             432 1-4Sep             427 1-4Dec             420    Jul             428 1-4Dec             419 1-4OATS (5,000 bu ; cents per bushel)Mar             259 1-2May             262 1-2Jul             263    Sep             261 3-4Dec             263 3-4Mar             266 1-2May             270 1-4Jul             275 1-4Sep             276 1-2Dec             276 1-2Jul             275    Sep             275    SOYBEANS (5,000 bu ; cents per bushel)Mar            1029 1-4May            1039 1-4Jul            1048 1-4Aug            1049 1-4Sep            1037 1-2Nov            1030    Jan            1033    Mar            1030 1-2May            1029 1-2Jul            1032    Aug            1025 1-4Sep            1008 1-4Nov             996 1-4Jan            1001 1-4Mar            1001 3-4May            1009 1-4Jul            1011 3-4Aug            1004 1-4Sep            1000 1-2Nov             977    Jul             977    Nov             977    SOYBEAN OIL (60,000 lbs; cents per lb)Mar             31.42May             31.59Jul             31.82Aug             31.93Sep             32.05Oct             32.15Dec             32.38Jan             32.60Mar             32.84May             33.00Jul             33.14Aug             33.14Sep             33.13Oct             33.03Dec             33.14Jan             33.26Mar             33.47May             33.50Jul             33.63Aug             33.62Sep             33.62Oct             33.62Dec             33.53Jul             33.53Oct             33.53Dec             33.53SOYBEAN MEAL (100 tons; dollars per ton)Mar            371.70May            373.60Jul            375.30Aug            372.40Sep            369.30Oct            365.50Dec            364.20Jan            360.90Mar            355.00May            350.90Jul            350.60Aug            349.00Sep            345.90Oct            339.20Dec            339.10Jan            339.80Mar            340.60May            340.60Jul            342.10Aug            342.10Sep            342.10Oct            342.10Dec            338.90Jul            338.90Oct            338.90Dec            338.90