Preclosing
Preclosing

The Associated Press

CHICAGO




CHICAGO (AP) — Futures trading on the Chicago Board of Trade Fri:
OpenHighLowLastChg.WHEAT5,000 bu minimum; cents per bushelMar495495486487—7¾May499½499½486488¼—11Jul515¼515¼501¾504¼—11Sep531½531½518520½—11¼Dec550¾550¾538¼540¾—11¼Mar564¾565552½555—10¾May562½562½562½562½—8¾Jul573½573½562563—11½Sep570¼571567¾567¾—12Dec584¼584¼579¾581—10¼Est. sales 93,538.  Thu.'s sales 155,182Thu.'s open int 466,529,  up 616CORN5,000 bu minimum; cents per bushelMar385385¼382½382¾—3May392¾393¼389¾390—3½Jul399¾400397397¼—3¼Sep404404¼401¼401¾—3¼Dec409¼409¾406¼406½—3¾Mar415½416¼412¾413—3¾May420420½417½418—3¼Jul424¼424¾421¾422—3¼Sep413¾413¾413¾413¾—1Dec415¾416413¼413¾—3Mar422422422422—¾Jul429¼429¼428428—2¾Est. sales 411,461.  Thu.'s sales 544,200Thu.'s open int 1,809,733,  up 34,131OATS5,000 bu minimum; cents per bushelMay264¼266¾262262½—2½Jul264½265¼262262—2½Dec265265263265—¼Est. sales 470.  Thu.'s sales 223Thu.'s open int 5,542,  up 17SOYBEANS5,000 bu minimum; cents per bushelMar1049¾1049¾1031¾1033—20¾May106310651041¼1041¾—22¼Jul1072¼10741050½1051—22Aug1072¾1074½1051¼1051¾—21¾Sep1056¼1056¼1038¼1039¾—17½Nov1043¾1044¾10291030¼—14¾Jan1045¾10471032½1033¾—14Mar1043½1044¼1030¼1031¼—14½May1037¾1040½1030¾1031—13¾Jul10401041¾1031¾1032½—13½Nov1000¼1001¼997997—10¼Est. sales 192,215.  Thu.'s sales 276,563Thu.'s open int 848,069,  up 14,205