BC-Cash Prices, 1st Ld-Writethru,0342
BC-Cash Prices, 1st Ld-Writethru,0342

The Associated Press

NEW YORK




NEW YORK (AP) — Wholesale cash prices Friday
?                                      ??Fri.???????Thu.
F
Foods

?Broilers national comp wtd av           ??.9142??????.9142
?Eggs large white NY Doz.                ???2.08???????2.03
?Flour hard winter KC cwt                ??16.40??????16.40
?Cheddar Cheese Chi. 40 block per lb.    ?2.1325?????2.1325
?Coffee parana ex-dock NY per lb.        ?1.2054?????1.2067
?Coffee medlin ex-dock NY per lb.        ?1.4006?????1.3994
?Cocoa beans Ivory Coast $ metric ton    ???2462???????2462
?Cocoa butter African styl $ met ton     ???6596???????6596
?Hogs Iowa/Minn barrows & gilts wtd av   ??59.72??????62.57
?Feeder cattle 500-550 lb Okl av cwt     ?183.25?????183.25
?Pork loins 13-19 lb FOB Omaha av cwt    ??90.09??????90.80
Grains
?Corn No. 2 yellow Chi processor bid     ?3.78½???????3.81½
?Soybeans No. 1 yellow                   10.14¼??????10.39?
?Soybean Meal Cen Ill 48pct protein-ton  386.40??????386.50
?Wheat No. 2  Chi soft                   ?4.80¼???????4.99¼
?Wheat N. 1 dk  14pc-pro Mpls.           ?7.62½???????7.69¾
?Oats No. 2 heavy or Better              ?2.77½???????2.80?
Fats & Oils
?Corn oil crude wet/dry mill Chi. lb.    ?.30??????????.30?
?Soybean oil crude Decatur lb.           ?.30¼?????????.30½
Metals
?Aluminum per lb LME                     0.9445??????0.9581
?Antimony in warehouse per ton           ??8700????????8700
?Copper Cathode full plate               3.0979??????3.1174
?Gold Handy & Harman                     1321.00????1321.00
?Silver Handy & Harman                   ?16.488??????16.488
?Lead per metric ton LME                 2419.50????2419.50
?Molybdenum per metric ton LME           ?15,500?????15,500
?Platinum per troy oz. Handy & Harman    ?954.00?????954.00
?Platinum Merc spot per troy oz.         ?964.20?????952.30
?Zinc (HG) delivered per lb.             ?1.4702??????1.4909
Textiles, Fibers and Miscellaneous
?Cotton 1-1-16 in. strict low middling   ??81.44??????79.83
Raw Products
?Coal Central Appalachia $ per short ton ??63.10??????63.10
?Natural Gas  Henry Hub, $ per mmbtu     ???2.71???????2.77
b-bid a-asked
n-Nominal
r-revised
n.q.-not quoted<29
n.a.-not available