BC-BOT Table,1st Ld
BC-BOT Table,1st Ld

The Associated Press

CHICAGO




CHICAGO (AP) — Noon trading on the Chicago Board of Trade Fri.:
OpenHighLowNoonChg.WHEAT5,000 bu minimum; cents per bushelMar495495486487—7¾May499½499½486486—13¼Jul515¼515¼501¾502—13¼Sep531½531½518518¼—13½Dec550¾550¾538¼538½—13½Mar564¾565552½552¾—13May562½562½562½562½—8¾Jul573½573½562562—12½Sep570¼571567¾567¾—12Dec584¼584¼579¾579¾—11½Est. sales 87,865.  Thu.'s sales 155,182Thu.'s open int 466,529,  up 616CORN5,000 bu minimum; cents per bushelMar385385¼382½382¾—3May392¾393¼389¾390—3½Jul399¾400397397½—3Sep404404¼401¼401¾—3¼Dec409¼409¾406¼406¼—4Mar415½416¼412¾413—3¾May420420½417½417¾—3½Jul424¼424¾421¾421¾—3½Sep413¾413¾413¾413¾—1Dec415¾416413¼413½—3¼Mar422422422422—¾Jul429¼429¼428428—2¾Est. sales 385,944.  Thu.'s sales 544,200Thu.'s open int 1,809,733,  up 34,131OATS5,000 bu minimum; cents per bushelMay264¼266¾262262¼—2¾Jul264½265¼263264—½Dec265265263265—¼Est. sales 422.  Thu.'s sales 223Thu.'s open int 5,542,  up 17SOYBEANS5,000 bu minimum; cents per bushelMar1049¾1049¾1031¾1031¾—22May106310651041¼1042¼—21¾Jul1072¼10741050½1051¼—21¾Aug1072¾1074½1051¼1052¼—21¼Sep1056¼1056¼1038¼1038½—18¾Nov1043¾1044¾10291029¾—15¼Jan1045¾10471032½1033¼—14½Mar1043½1044¼1030¼1030¾—15May1037¾1040½1030¾1031½—13¼Jul10401041¾1031¾1032—14Nov1000¼1001¼998998—9¼Est. sales 175,743.  Thu.'s sales 276,563Thu.'s open int 848,069,  up 14,205SOYBEAN OIL60,000 lbs; cents per lbMar31.4731.5331.2831.45—.22May31.8731.8931.4331.64—.20Jul32.0632.1031.6631.85—.21Aug32.1932.1931.7731.94—.21Sep32.2832.2831.8932.07—.18Oct32.3232.3231.9932.13—.20Dec32.5632.5632.1932.40—.13Jan32.7532.7532.4132.60—.13Mar32.9432.9432.6232.82—.13May33.0533.0532.7632.97—.14Jul33.1333.1532.9133.13—.09Oct32.7432.8732.7332.87—.24Dec33.1133.1132.8733.10—.09Est. sales 98,378.  Thu.'s sales 68,328Thu.'s open int 485,053,  up 2,296SOYBEAN MEAL100 tons; dollars per tonMar378.50378.50374.00374.00—6.60May385.00385.00375.70375.80—7.60Jul384.50385.80377.00377.20—7.30Aug381.00382.30374.10374.20—6.70Sep377.90377.90370.20370.40—6.70Oct372.80372.80365.90366.10—6.90Dec371.90371.90364.00364.50—7.00Jan367.70367.70360.50361.60—6.20Mar358.20358.20355.30355.30—5.80May354.00354.20350.90351.30—5.70Jul353.80353.90350.80350.90—5.90Oct341.70341.90341.20341.20—3.40Dec339.80342.00339.30341.30—2.90Est. sales 79,395.  Thu.'s sales 106,771Thu.'s open int 452,476,  up 502