BC-USDA-Iowa Elev Grain Prcs
BC-USDA-Iowa Elev Grain Prcs

The Associated Press



NW—GR110Des Moines, IA    Mon Mar. 12, 2018    IA Dept of Ag-USDA Market NewsIA Dept. of Ag-USDA Market News Interior Iowa Daily Grain PricesClosing cash grain bids offered to producers as of 1:30 p.m.Dollars per bushel, delivered to Interior Iowa Country Elevators.US 2 Yellow Corn Prices were mostly steady for a state average of 3.45.US 1 Yellow Soybean Prices were mostly 2 cents higher for a state average of 9.53.Iowa Regions       #2 Yellow Corn          #1 Yellow SoybeansRange       Avg        Range         AvgNorthwest        3.40 ? 3.50   3.45       9.46 ? 9.55   9.50North Central    3.42 ? 3.47   3.44       9.48 ? 9.56   9.53Northeast        3.35 ? 3.52   3.45       9.32 ? 9.68   9.54Southwest        3.36 ? 3.48   3.44       9.45 ? 9.56   9.52South Central    3.38 ? 3.54   3.44       9.51 ? 9.55   9.52Southeast        3.37 ? 3.69   3.50       9.51 ? 9.66   9.60Corn basis to STATE AVERAGE PRICE for the CBOT MAY contract is -.46Soybean basis to STATE AVERAGE PRICE for the CBOT MAY contract is -.88This report was prepared by the Marketing Bureau, Iowa Department ofAgriculture and Land Stewardship.Source:  USDA Market News Des Moines, Iowa515-284-4460www.ams.usda.gov/mnreports/nw—gr110.txtIowa Dept. of Agriculture and Land Stewardship515-281-8604www.iowaagriculture.gov/agMarketing/dailyGrainPrices.asp16:13 ja