Preclosing
Preclosing

The Associated Press

CHICAGO




CHICAGO (AP) — Futures trading on the Chicago Board of Trade Mon:
OpenHighLowLastChg.WHEAT5,000 bu minimum; cents per bushelMar486486483½484½—4½May488½492¾483492+2¾Jul505509499¼508¾+3¼Sep519¼525¼516524¾+2¾Dec541545½536½544¾+2¾Mar555½559¾551½559¾+3½May561561559½560—2¾Jul565¼569¼562¼569¼+1¾Sep570575570575+1¾Dec582¾584582¾583¾—1¾Jul569571½568571½Est. sales 83,331.  Fri.'s sales 119,581Fri.'s open int 468,380,  up 1,851CORN5,000 bu minimum; cents per bushelMar382¾384¼380½383½+½May389½391¼387390½Jul397399394½398Sep401½403399402¼—¼Dec406¼408403½407¼Mar412414½410¼413¾May416¼418¾416¼418—½Jul420¾423419¾422½—½Sep413½413¾412½412½—2¼Dec416416½414½416¼—1½Mar421¾424420¾420¾—3¾Dec418418418418—2Est. sales 287,909.  Fri.'s sales 498,704Fri.'s open int 1,821,414,  up 11,681OATS5,000 bu minimum; cents per bushelMay262¾271¼262263+½Jul264272¾263½263¾+¾Dec268268268268+4¼Est. sales 562.  Fri.'s sales 503Fri.'s open int 5,678,  up 136SOYBEANS5,000 bu minimum; cents per bushelMar10231033½10231032¼+3May1036104510321042+2¾Jul10451054¼1041¼1052+3¾Aug1046¼1055¼1042½1053¼+4Sep10321042¼10321042+4½Nov1027¼1035½1024¼1035¼+5¼Jan1030¼10391027¾1039+6Mar1028¼10361026¾1036+5½May1026¼1034¾1026¼1034¼+4¾Jul1030½1036¼1030½1036+4Nov9941003½9941002½+6¼Est. sales 213,123.  Fri.'s sales 232,953Fri.'s open int 841,576