BC-USDA-SC Clsng Grain Bids
BC-USDA-SC Clsng Grain Bids

The Associated Press



CO—GR110Columbia, SC     Monday, March 12, 2018 USDA-SC Dept Ag Market NewsSouth Carolina closing cash grain bids as of 3:00 P.M.  Prices deliveredto country elevators or processors. New crop bids noted with (*).US 2 Yellow Corn was steady to 1 cent lower.US 1 Yellow Soybeans were mostly 2 to 7 cents higher.US 2 Soft Red Wheat were mixed; 5 cents lower to 2 cents higher.New Crop US 2 Yellow Corn was steady to 1 cent higher.New Crop US 2 Soft Red Wheat was mostly 2 to 3 higher; one locationsteady.CORN: Country Elevators---4.44 at Anderson; 3.69 and *4.02 at Kingstree;4.16 and *4.23 at Hamer; 3.69 and *4.02 at Lynchburg; 3.69 and *4.02 atConway; 3.69 and *4.02 at Estill; Processors---4.24 at Orangeburg; 4.69and *4.68 at Monetta; 4.57 at Sumter; *4.53 at Cassatt.SOYBEANS: Country Elevators---9.83 at Anderson; 9.76 at Kingstree;9.71 at Hamer; 9.76 at Lynchburg; 9.76 at Conway; 9.76 at Estill;Processors---10.36 at Kershaw; Export---10.36 at Mt. Pleasant.WHEAT: Country Elevators---4.84 and *4.73 at Anderson; *4.07 atKingstree; 4.83 and *4.83 at Hamer; *4.07 at Lynchburg; *4.07 at Conway;*4.07 at Estill; Processors---No Bid at Monetta; No Bid at Sumter; *4.58Cassatt; 5.25 at Columbia; Export---No Bid at Mt. Pleasant.COUNTRY ELEVATORS    US 2 Yellow       US 1 Yellow       US 2 Soft RedCorn             Soybeans           WheatCash  New Crop    Cash  New Crop    Cash  New CropAnderson             4.44              9.83              4.84     4.73Kingstree            3.69   4.02       9.76                       4.07Hamer                4.16   4.23       9.71              4.83     4.83Lynchburg            3.69   4.02       9.76                       4.07Conway               3.69   4.02       9.76                       4.07Estill               3.69   4.02       9.76                       4.07PROCESSORSOrangeburg           4.24Monetta              4.69   4.68Sumter               4.57Cassatt                     4.53                                  4.58Kershaw                               10.36Columbia                                                 5.25EXPORTMt. Pleasant                          10.36Source: South Carolina Dept. of Ag-USDA Market News, Columbia, SC803-737-4671.  For more info check out the internet athttp://www.ams.usda.gov/mnreports/co—gr110.txt15:05 ts