BC-USDA-Okla City Catl Actn
BC-USDA-Okla City Catl Actn

The Associated Press



KO—LS150 Oklahoma City, OK    Mon  Mar  12,  2018    USDA-OK Dept of Ag Market NewsOklahoma National Stockyards - Oklahoma City, OKLivestock Auction Report for 3/12/2018 AUCTION                          Receipts           Week Ago             Year Ago--------------------------------------------------------------------------------- Total Receipts:                  9,250                 7,029              6,592------------------------------------------------------------------------------ Feeder Cattle:                   9,250(100           7,029(100%)        6,592(100%)---------------------------------------------------------------------------------*** Close***Compared to last week:  Feeder steers 600-800 lbs steady to 1.00 lower, 800-1000 lbs 3.00-4.00 lower.  Feeder heifers 3.00 lower.  Steer and heifer calves 1.00-5.00 lower.  Demand moderate. Quality mostly average.  The drought continues to plague the trading area with feedlotsfilling to the brim from producers' continuing to sell out of necessity.Feeder cattle supply included 67 percent Steers, 32 percent Heifers, and1 percent Bulls. Feeder cattle supply over 600 lbs was 67 percent.--------------------------------------------------------------------------------FEEDER CATTLE--------------------------------------------------------------------------------Feeder Steers(Per CWT):  Medium and Large 1 262 lbs 210.00; 300-400 lbs206.00-220.00, 336 lbs Thin Fleshed 222.00; 400-500 lbs 185.00-199.00, 401 lbsThin Fleshed 211.00; 500-600 lbs 174.00-187.50, Fleshy 159.00-168.00; 600-700lbs 156.00-171.50, Fleshy 157.00-160.00; 700-800 lbs 139.00-159.00, Fleshy131.00-138.00, 731 lbs Thin Fleshed 163.00; 800-900 lbs 129.50-146.75, Fleshy125.25-133.85; 900-1000 lbs 124.00-132.25; 1000-1100 lbs 122.50-124.35; 1102lbs 122.50. Medium and Large 1-2 200-300 lbs 200.00-208.00; 400-500 lbs 171.00-186.00, 462 lbs Thin Fleshed 183.00; 500-600 lbs 163.00-173.00, Fleshy 157.00-164.00; 600-700 lbs 149.00-157.50, 681 lbs Calves 149.00, 634 lbs Fleshy 150.00;700-800 lbs 131.50-146.00; 800-900 lbs 132.00-135.50; 900-1000 lbs 122.00-126.00, 926 lbs Thin Fleshed 128.00. Medium and Large 2 360 lbs 175.00; 400-500 lbs160.00-165.00; 500-600 lbs 150.00-158.50; 600-700 lbs 141.00-149.00; 727 lbs120.50; 849 lbs 126.00; 936 lbs 122.50.Feeder Heifers(Per CWT):  Medium and Large 1 300-400 lbs 181.00-185.00; 400-500 lbs 168.00-175.00, 453 lbs Fleshy 160.00; 500-600 lbs 153.00-164.00, 547 lbsFleshy 147.50; 600-700 lbs 135.00-152.00, 633 lbs Fleshy 137.00; 700-800 lbs127.00-139.00, Fleshy 124.00-125.00; 800-900 lbs 126.00-129.00, Fleshy 122.00-124.00. Medium and Large 1-2 200-300 lbs 181.00-182.00; 368 lbs Fleshy 164.00;400-500 lbs 156.00-169.00, 486 lbs Fleshy 154.00; 500-600 lbs 140.00-153.00,Fleshy 138.00-142.00, 594 lbs Thin Fleshed 149.00; 600-700 lbs 129.75-140.00,661 lbs Calves 134.00, Fleshy 125.00-126.00, 652 lbs Thin Fleshed 137.00; 700-800 lbs 122.00-131.50, Fleshy 118.50-121.00; 800-900 lbs 122.00-124.50, 878 lbsFleshy 120.00; 921 lbs 119.50. Medium and Large 2 300-400 lbs 151.00-166.00; 400-500 lbs 133.00-158.00, Fleshy 137.00-144.00; 500-600 lbs 132.50-139.00; 600-700lbs 125.00-130.00; 724 lbs Fleshy 114.00; 816 lbs 114.00.Feeder Bulls(Per CWT):  Medium and Large 1 536 lbs 178.50. Medium and Large1-2 400-500 lbs 161.00-165.00; 500-600 lbs 140.00-157.00; 600-700 lbs 135.00-140.00; 713 lbs 123.00. Medium and Large 2 950 lbs 96.50.Please Note:The above USDA LPGMN price report is reflective of the majority of classes and grades of livestock offered for sale.  There may be instances where some salesdo not fit within reporting guidelines and therefore will not be included in the report.  Prices are reported on an FOB basis, unless otherwise noted. Source:  USDA-OK Dept of Ag Market News ServiceJoe Massey/Bartley Brogan, Market Reporters24 Hour Market Report 1-405-636-2691www.ams.usda.gov/mnreports/KO—LS150.txtwww.ams.usda.gov/market-news/livestock-poultry-grain