BC-USDA-Eastern Cornbelt Hog Report
BC-USDA-Eastern Cornbelt Hog Report

The Associated Press



LM—HG209Des Moines, Iowa                Tue, Mar 13, 2018               USDA Market NewsEASTERN CORNBELT DAILY DIRECT MORNING HOG REPORT BASED ON STATE OF ORIGINPLANT DELIVERED PURCHASE DATA FOR Tuesday, March 13, 2018(Includes information from 1:30 PM to 9:30 AM.)CURRENT VOLUME BY PURCHASE TYPEBARROWS & GILTS LIVE AND CARCASS BASISEstimated     Actual     Actual     ActualToday      Today   Week Ago   Year AgoProducer SoldNegotiated                                5,581      4,940      5,785      2,941Other Market Formula (Futures/Options)    3,621      3,250      4,183      3,324Swine or Pork Market Formula             32,228     25,404     20,215     24,356Other Purchase Arrangement               23,778     20,486     22,646     16,712Negotiated Formula                        2,083      1,993      1,621          0Packer Sold (all purchase types)          2,106      2,106      1,785      1,461--------------------------------------------------------------------------------NEGOTIATED PURCHASE (Including Packer Sold)Barrows & Gilts (carcass basis): 2,775*Price not reported due to confidentiality* 5 Day Rolling Avg $62.27---------------------------------------------------------------------------------NEGOTIATED FORMULA PURCHASE (Including Packer Sold)Barrows & Gilts (carcass basis): 0                     5 Day Rolling Avg $-----------------------------------------------------------------------------------COMBINED NEGOTIATED & NEGOTIATED FORMULA PURCHASE (Including Packer Sold)Barrows & Gilts (carcass basis): 2,775*Price not reported due to confidentiality* 5 Day Rolling Avg $-----------------------------------------------------------------------------------EASTERN CORNBELT DAILY DIRECT NEGOTIATED HOG PURCHASE MATRIXREPRESENTING INDIVIDUAL PACKER CARCASS MERIT BUYING PROGRAMSbased on both Fat and Muscle Measurements for a 200 lb Carcass Basis*Price not reported due to confidentiality*--------------------------------------------------------------------------------CARCASS WEIGHT DIFFERENTIALS*Price not reported due to confidentiality*--------------------------------------------------------------------------------MEASUREMENTS BASED ON SLAUGHTER DATA SUBMITTED*Price not reported due to confidentiality*--------------------------------------------------------------------------------SWINE OR PORK MARKET FORMULA PURCHASE (Including Packer Sold)Barrows & Gilts (carcass basis): 19,598Base Price Range $59.74 - $68.89, Weighted Average $65.35--------------------------------------------------------------------------------NEGOTIATED PURCHASE (Including Packer Sold)Barrows & Gilts (live basis, 240-320 lbs): 148Compared to Prior Day's closing weighted average (LM—HG207),  0.18 higherPrice Rng $42.00 - $49.50, Wtd Avg $46.59, 5 Day Rolling Avg $48.55--------------------------------------------------------------------------------NEGOTIATED FORMULA PURCHASE (Including Packer Sold)Barrows & Gilts (live basis, 240-320 lbs): 754*Price not reported due to confidentiality* 5 Day Rolling Avg $----------------------------------------------------------------------------------COMBINED NEGOTIATED & NEGOTIATED FORMULA PURCHASE (Including Packer Sold)Barrows & Gilts (live basis, 240-320 lbs): 902*Price not reported due to confidentiality* 5 Day Rolling Avg $----------------------------------------------------------------------------------BARROWS & GILTS PURCHASE BY STATE OF ORIGINGeorgia                 165               Illinois              16,599Indiana               5,963               Kentucky                 397Michigan              4,328               North Carolina        13,460Ohio                  5,674               Pennsylvania           1,830South Carolina          350               Tennessee                 50Wisconsin               215--------------------------------------------------------------------------------*Price not reported due to confidentiality, for more information visit:www.ams.usda.gov/sites/default/files/media/ConfidentialityGuidelines.pdf*Base Price is the price from which no discounts are subtracted and no premiumsare added.Source:    USDA Livestock, Poultry & Grain Market News Division, Des Moines, IA515-284-4460      email:  desm.lpgmn@ams.usda.gov24 Hour recorded market information 515-284-4830www.ams.usda.gov/market-news/livestock-poultry-grain1100C.