Open
Open

The Associated Press

CHICAGO




CHICAGO (AP) — Early trading on the Chicago Board of Trade Tue.:
OpenHighLowLastChg.WHEAT5,000 bu minimum; cents per bushelMar494½494½493½494½+4¾May490½498490496+5¼Jul507¼514¾507512¾+5¼Sep524530½523½528½+4¾Dec543½550¼543½548½+4¾Mar557¾564½557¾563¼+5May565¼568565¼568+3Jul566½574566½572¼+4¼Dec592592592592+5¾Mar595595595595+¾Jul575575575575+2Est. sales 43,449.  Mon.'s sales 106,180Mon.'s open int 478,082,  up 9,702CORN5,000 bu minimum; cents per bushelMar383¾388383½387¾+3½May390394389¾393¾+3Jul397¾401¾397½401¼+2¾Sep402405¾402405¼+2½Dec407410½407410+2¼Mar413¼416¾413¼416¾+2½May417¾421¼417¾420¾+2Jul422¼425422¼425+2Sep414¼414¾413¾413¾Dec415¼417415¼416½+¼Mar423423¼423423¼+1Est. sales 143,700.  Mon.'s sales 351,146Mon.'s open int 1,837,638,  up 16,224OATS5,000 bu minimum; cents per bushelMay263¼266½263264½+1¾Jul264¾268¼264¾268¼+3½Est. sales 116.  Mon.'s sales 569Mon.'s open int 5,572SOYBEANS5,000 bu minimum; cents per bushelMar1035½1041½1035½1039½+6¼May1041½1049¾1041¼1047¼+6¼Jul1051½1059¾1051½1057½+6½Aug10531060¾10531058¾+6½Sep1041¾10481041¾1047+5¼Nov10361041¾1035¾1040¾+4¾Jan1039104510391044¼+4¾Mar1036¾1041¾1036¾1041+3¾May103710411036¾1040+3¾Jul10421042¼10391042¼+3½Nov100410071003½1006½+2½Est. sales 77,711.  Mon.'s sales 253,076Mon.'s open int 848,874,  up 7,298SOYBEAN OIL60,000 lbs; cents per lbMay31.7532.0531.6831.92+.17Jul31.9732.2831.9232.15+.16Aug32.1032.3932.0432.25+.15Sep32.2132.4832.1932.41+.20Oct32.3632.5732.3632.45+.14Dec32.5032.8232.4632.65+.13Jan32.8032.9832.8032.86+.12Mar32.9533.2132.9533.15+.16May33.1533.2933.1533.23+.08Jul33.3833.3833.3833.38+.10Dec33.2633.4433.2333.38+.11Est. sales 46,626.  Mon.'s sales 61,169Mon.'s open int 490,960,  up 4,728SOYBEAN MEAL100 tons; dollars per tonMar371.80373.10371.80373.10+3.30May370.60377.50370.60375.10+4.70Jul372.60379.00372.60377.00+4.50Aug371.10375.80371.10374.20+3.80Sep370.10373.20369.40371.90+3.60Oct367.00369.80366.10368.70+3.30Dec365.80368.80365.10368.00+2.80Jan362.80365.50362.30364.80+2.50Mar357.40359.50356.50359.10+2.70May353.30355.60352.70354.90+2.60Jul353.00354.80352.90354.70+2.80Oct343.00343.00343.00343.00+2.40Dec342.40343.00342.40342.90+2.60Est. sales 51,799.  Mon.'s sales 84,419Mon.'s open int 448,828