BC-USDA-Portland Grain
BC-USDA-Portland Grain

The Associated Press



JO—GR110Portland, OR    Tue Mar 13, 2018    USDA Market NewsPortland Daily Grain ReportBids as of 9:30 a.m. Pacific time; Subject to changeAll Bids in dollars per bushel.  Bids are limited and not fullyestablished in early trading.Bids for grains delivered to Portland, Oregon in dollars per bushel.In early trading March wheat futures trended 5.50 to 10.75 cents perbushel higher than Monday?s closes. May wheat futures trended four to ninecents per bushel higher than Monday?s closes.Bids for US 1 Soft White Wheat delivered to Portland in unit trains andbarges for March delivery for ordinary protein were not well tested inearly trading, but bids were indicated as steady to higher compared toMonday?s noon bids for the same delivery period.  Some exporters were notissuing bids for nearby delivery.  Bids for guaranteed maximum 10.5 percentprotein were well tested in early trading, but bids were indicated asgenerally higher compared to Monday?s noon bids for the same deliveryperiod.  Some exporters were not issuing bids for nearby delivery.Bids for 11.5 percent protein US 1 Hard Red Winter Wheat for Marchdelivery were not well tested in early trading but bids were indicated ashigher compared to Monday?s bids for the same delivery period.  Someexporters were not issuing bids for nearby delivery.Bids for 14 percent protein US 1 Dark Northern Spring Wheat for Marchdelivery were not well tested in early trading but bids were indicated ashigher compared to Monday?s noon bids for the same delivery period.  Someexporters are not issuing bids for nearby delivery.Bids for US 2 Yellow Corn delivered full coast in 110 car shuttle trainsduring March were not well tested in early trading, but bids were indicatedas higher compared to Monday?s noon bids for the same delivery period.Some exporters were not issuing bids for nearby delivery.Bids for US 1 Yellow Soybeans delivered full coast in 110 car shuttletrains during March were not well tested in early trading, but bids wereindicated as higher compared to Monday?s noon bids for the same deliveryperiod.  Some exporters were not issuing bids for nearby delivery.All wheat bids in dollars per bushelUS 1 Soft White Wheat - delivered by Unit Trains and BargesOrdinary proteinMar                                       5.4000-5.7050Apr                                       5.4000-5.7550May                                       5.6200-5.8050Jun                                       5.6400-5.8125Aug NC                                    5.6400-5.7900Guaranteed maximum 10.5 pct proteinMar                                       5.4000-5.7050Apr                                       5.4000-5.7550May                                       5.6200-5.8050Jun                                       5.6800-5.8125Aug NC                                    5.6500-5.7900—US 1 White Club Wheat - delivered by Unit Trains and BargesOrdinary proteinMar                                       5.4500-5.7050Guaranteed maximum 10.5 pct proteinMar                                       5.4500-5.7050—US 1 Hard Red Winter Wheat - (Exporter bids-falling numbers of 300 orbetter)Ordinary protein                            5.7125-5.912511 pct protein                              6.3125-6.612511.5 pct proteinMar                                       6.6125-6.8625Apr                                       6.6625-6.8125May                                       6.6625-6.8625Jun                                       6.8275-6.857512 pct protein                              6.7625-7.012513 pct protein                              7.0625-7.3125—US 1 Dark Northern Spring Wheat (with a minimum of 300 falling numbers, a maximumof 0.5 part per million vomitoxin, and a maximum of one percent total damage)13 pct protein                              6.9550-7.185014 pct proteinMar                                       7.4350-7.6350Apr                                       7.4350-7.6650May                                       7.4850-7.6650Jun                                       7.4550-7.605015 pct protein                              7.7550-7.955016 pct protein                              8.0650-8.2750—US 2 Yellow CornShuttle trains-Delivered full coast Pacific Northwest-BNMar                                       5.0300-5.1000Apr                                       5.0000May                                       5.0000Jun                                       5.0250-5.0350Jul                                       4.8750-4.9750Aug                                       NA—US 1 Yellow SoybeansShuttle trains-Delivered full coast Pacific Northwest-BNMar                                       11.3500-11.4800Apr                                       11.4800-11.5000May                                       11.4800-11.5000Jun                                       11.5525-11.5825Jul                                       11.5325-11.5825Oct                                       11.3275—US 2 Heavy White Oats **                      3.4825** Not well tested.Exporter Bids Portland Rail/Barge             Feb 2018Averages in Dollars per bushelUS 1 Soft White by Unit Trains and Barges   5.4300US 1 Hard Red Winter (Ordinary protein)     5.4100US 1 Hard Red Winter (11.5% protein)        6.3200US 1 Dark Northern Spring (14% protein)     7.2900Source:    USDA Market News Service, Portland, ORNiki Davila 503-535-5001  Portland.LPGMN@ams.usda.gov24 Hour Market Report  503-535-5005www.ams.usda.gov/mnreports/jo—gr110.txtwww.ams.usda.gov/lpsmarketnewspage8:46 P nd