BC-BOT Table,1st Ld
BC-BOT Table,1st Ld

The Associated Press

CHICAGO




CHICAGO (AP) — Noon trading on the Chicago Board of Trade Tue.:
OpenHighLowNoonChg.WHEAT5,000 bu minimum; cents per bushelMar494½503¼493½499+9¼May490½498485½486¼—4½Jul507¼514¾503¼503¾—3¾Sep524530½519¼520½—3¼Dec543½550¼539540—3¾Mar557¾564½554555½—2¾May565¼570¼562½562½—2½Jul566½574564¼565½—2½Dec592592590590+3¾Mar595595595595+¾Jul575575575575+2Est. sales 101,409.  Mon.'s sales 112,577Mon.'s open int 478,082,  up 9,702CORN5,000 bu minimum; cents per bushelMar383¾388¾383½386+1¾May390395¼389¾392¾+2Jul397¾402¾397½400½+2Sep402407402405+2¼Dec407411½407409½+1¾Mar413¼417¾413¼416+1¾May417¾422417¾420+1¼Jul422¼426422¼424½+1½Sep414¼415413¾414½+¾Dec415¼417415¼416—¼Mar423423¼423423¼+1Dec420420419419Est. sales 311,283.  Mon.'s sales 373,990Mon.'s open int 1,837,638,  up 16,224OATS5,000 bu minimum; cents per bushelMay263¼266½263264½+1¾Jul264¾268¼264¾267½+2¾Est. sales 216.  Mon.'s sales 903Mon.'s open int 5,571SOYBEANS5,000 bu minimum; cents per bushelMar1035½1043¼1035½1040½+7¼May1041½10521041¼1048¼+7¼Jul1051½1062¼1051½1058½+7½Aug1053106310531059¼+7Sep1041¾1050½1041¾1047½+5¾Nov10361044¼1035¾1041¾+5¾Jan1039104710391044¾+5¼Mar1036¾10441036¾1041½+4¼May103710431036¾1040¼+4Jul10421044¼10391043+4¼Nov10041008¾1003½1007¼+3¼Est. sales 132,521.  Mon.'s sales 271,291Mon.'s open int 848,872,  up 7,296SOYBEAN OIL60,000 lbs; cents per lbMay31.7532.2531.6832.17+.42Jul31.9732.4631.9232.39+.40Aug32.1032.5532.0432.49+.39Sep32.2132.6632.1932.58+.37Oct32.3632.7332.3632.66+.35Dec32.5032.9432.4632.86+.34Jan32.8033.1332.8033.10+.36Mar32.9533.3532.9533.29+.30May33.1533.4933.1533.46+.31Jul33.3833.6233.3833.61+.33Dec33.2633.6333.2333.60+.33Est. sales 93,779.  Mon.'s sales 66,992Mon.'s open int 490,960,  up 4,728SOYBEAN MEAL100 tons; dollars per tonMar371.80373.10371.60371.60+1.80May370.60377.50370.60374.80+4.40Jul372.60379.00372.60376.70+4.20Aug371.10375.80371.10374.20+3.80Sep370.10373.20369.40371.80+3.50Oct367.00369.80366.10368.00+2.60Dec365.80368.80365.10367.50+2.30Jan362.80365.50362.30364.20+1.90Mar357.40359.50356.50359.00+2.60May353.30355.60352.70354.30+2.00Jul353.00354.90352.90354.70+2.80Oct343.00343.00343.00343.00+2.40Dec342.40343.00341.80342.60+2.30Est. sales 75,434.  Mon.'s sales 88,705Mon.'s open int 448,828