BC-Wheat KX
BC-Wheat KX

The Associated Press

CHICAGO




CHICAGO (AP) — Winter Wheat futures on the Chicago Board of Trade Tue:
OpenHighLowSettleChg.WHEAT5,000 bu minimum; cents per bushelMar519¾519¾506¾507—2May523533¼518520¼—2Jul539¾550535¼537¼—1¾Sep556¼566¾552554—2Dec575585571¼573½—1½Mar587½594¾581½583¼—1¾May589¼589¼584¼584¾—1¾Jul583½591578½581—1½Sep589¼—1½Dec607½610602602—1½Mar606½—1½May606½—1½Jul588½—1½Est. sales 46,128.  Mon.'s sales 34,081Mon.'s open int 291,671