BC-Merc Table
BC-Merc Table

The Associated Press

CHICAGO




CHICAGO (AP) — Futures trading on the Chicago Mercantile Exchange Tue:
OpenHighLowSettleChg.CATTLE40,000 lbs.; cents per lb.Apr121.75122.57120.75121.90+.35Jun113.45113.65112.10113.15—.12Aug110.95111.30109.82110.77—.05Oct114.10114.17112.90113.70—.35Dec117.10117.15115.87116.62—.48Feb118.10118.22117.00117.85—.25Apr117.75118.20117.15118.07—.08Jun111.15111.90111.05111.90—.07Aug109.30109.55108.97109.55—.42Est. sales 84,465.  Mon.'s sales 90,694Mon.'s open int 361,541FEEDER CATTLE50,000 lbs.; cents per lb.Mar142.27142.42140.42141.55—.62Apr142.67143.20141.02142.30—.27May144.12144.27142.10143.12—.98Aug148.87149.05146.92148.05—1.02Sep150.10150.10148.20149.25—.95Oct150.22150.22148.37149.37—.95Nov149.82149.85148.07149.25—.82Jan144.50145.47144.12145.35Est. sales 15,362.  Mon.'s sales 14,326Mon.'s open int 52,627HOGS,LEAN40,000 lbs.; cents per lb.Apr67.6768.8567.4267.72+.05May71.4272.2771.2271.85+.63Jun77.2078.1277.0277.47+.42Jul78.1078.9078.0578.42+.45Aug78.2779.0778.2578.72+.40Oct67.1567.8567.0567.55+.40Dec62.5562.9262.2062.72+.17Feb66.5766.9566.2266.82+.02Apr69.8270.1269.8270.12—.05May76.12—.05Jun78.80—.05Jul78.95—.05Est. sales 68,476.  Mon.'s sales 66,921Mon.'s open int 226,864,  up 3,160PORK BELLIES40,000 lbs.; cents per lb.No open contracts.