BC-USDA-Iowa Elev Grain Prcs
BC-USDA-Iowa Elev Grain Prcs

The Associated Press



NW—GR110Des Moines, IA    Tue Mar. 13, 2018    IA Dept of Ag-USDA Market NewsIA Dept. of Ag-USDA Market News Interior Iowa Daily Grain PricesClosing cash grain bids offered to producers as of 1:30 p.m.Dollars per bushel, delivered to Interior Iowa Country Elevators.US 2 Yellow Corn Prices were mostly 1 cent higher for a state average of 3.47.US 1 Yellow Soybean Prices were mostly 8 cents higher for a state average of 9.61.Iowa Regions       #2 Yellow Corn          #1 Yellow SoybeansRange       Avg        Range         AvgNorthwest        3.41 ? 3.64   3.48       9.54 ? 9.63   9.58North Central    3.43 ? 3.48   3.45       9.56 ? 9.65   9.61Northeast        3.36 ? 3.53   3.46       9.40 ? 9.75   9.62Southwest        3.42 ? 3.49   3.46       9.57 ? 9.64   9.61South Central    3.39 ? 3.52   3.45       9.59 ? 9.64   9.62Southeast        3.40 ? 3.70   3.50       9.59 ? 9.73   9.67Corn basis to STATE AVERAGE PRICE for the CBOT MAY contract is -.45Soybean basis to STATE AVERAGE PRICE for the CBOT MAY contract is -.87This report was prepared by the Marketing Bureau, Iowa Department ofAgriculture and Land Stewardship.Source:  USDA Market News Des Moines, Iowa515-284-4460www.ams.usda.gov/mnreports/nw—gr110.txtIowa Dept. of Agriculture and Land Stewardship515-281-8604www.iowaagriculture.gov/agMarketing/dailyGrainPrices.asp16:09 ja