BC-USDA-Opening Bids KY Grain Elevs
BC-USDA-Opening Bids KY Grain Elevs

The Associated Press



SV—GR110Frankfort, KY     Tue, Mar 13, 2018     USDA-KY Dept of Ag Market NewsKentucky Daily Grain Elevators Bids:Bids as of 4:00 est, cash prices by elevators/mills to producers:US NO 2 YELLOW CORNBids           Change          Basis           ChangePurchase        3.8475-3.9175        UP 1        -7K to OptK         UNCHGreen River         3.8175           DN 1            -10K            DN 2Pennyrile           3.8175           UP 1            -10K            UNCHLouisville          3.6775           DN 7            -24K            DN 8Bluegrass       3.5000-3.7675     UNCH-UP 1     -35.5H to -15K   DN 1.25-UNCHUS NO 2 WHITE CORNBids           ChangePennyrile             NA              NAUS NO 1 YELLOW SOYBEANSBids           Change          Basis           ChangePurchase       10.1375-10.1575     UP 7.75       -35K to -33K        UNCHGreen River        10.0875         UP 4.75           -40K            DN 3Pennyrile           9.8875         UP 7.75           -60K            UNCHLouisville          9.4975         UP 1.75           -99K            DN 6Bluegrass       9.5000-9.9375   UP 10-UP 7.75  -98.75K to -55K   UP 2.25-UNCHUS NO 2 SOFT RED WINTER WHEATBids           Change          Basis           ChangePurchase              NA              NA              NA              NAGreen River           NA              NA              NA              NAPennyrile           4.6650         DN 4.25           -20K            UNCH (Milling Qlty)     4.7950         DN 4.25           -7K             UNCHLouisville      4.2350-5.0750  DN 1.25-DN 4.25   -63K to 22H      UP 3-UNCHBluegrass           4.8000           UNCH           -5.5H          UP 4.25US NO 2 MILO EXTRA HEAVYBids           Change          Basis           ChangePurchase              NA              NA              NA              NALouisville     NA              NA              NA              NAPennyrile      NA              NA              NA              NAUS NO 2 FEED BARLEYBids            ChangePennyrile      NA              NA------------------------------------------------------------------------------Opening Contract Prices for Fall (Jul Wheat) deliveryUS NO 2 YELLOW CORNBids           Change          Basis           ChangePurchase        3.8475-3.8775        UP 2        -25Z to -22Z        UNCHGreen River         3.8475           DN 1            -25Z            DN 3Pennyrile       3.8475-3.9975        UP 2        -25Z to -10Z        UNCHLouisville     NA              NA              NA              NABluegrass      3.7975          UP 2            -30Z            UNCHUS NO 2 WHITE CORNBids            ChangePennyrile      4.4000          UP 3US NO 1 YELLOW SOYBEANSBids           Change          Basis           ChangePurchase       10.1900-10.2400       UP 8        -25X to -20X        UNCHGreen River        10.1200           UP 8            -32X            UNCHPennyrile      10.0400-10.0900       UP 8        -40X to -35X        UNCHLouisville     NA              NA              NA              NABluegrass      9.8900          UP 8            -55X            UNCHUS NO 2 SOFT RED WINTER WHEATBids           Change          Basis           ChangePurchase        4.9950-5.0450        DN 3        -5N to OptN         UNCHGreen River         4.8950           DN 3            -15N            UNCHPennyrile       4.7950-4.8450        DN 3        -25N to -20N        UNCH (Milling Qlty)     5.0950           DN 3             5N             UNCHLouisville     5.0450          DN 3            OptN            UNCHBluegrass      4.7950          DN 3            -25N            UNCHUS NO 2 MILO EXTRA HEAVYBids            Change          Basis           ChangePurchase       NA              NA              NA              NALouisville     4.1975          UP 2            10Z             UNCHPennyrile      NA              NA              NA              NAUS NO 2 FEED BARLEYBids            ChangePennyrile      NA              NAPurchase- Inland elevators west of Tennesse RiverGreen River- Inland elevators near the Green RiverPennyrile- South west KY East of Tennessee River, west of I-65Louisville-Elevators near the Louisville areaBluegrass- Central Kentucky/Lexington areaSource: USDA-KY Dept of Ag Market News Service, Frankfort, KYJodee Inman  502-782-4138??????? www.ams.usda.gov/mnreports/SV—GR110.txt??????? www.ams.usda.gov/LPSMarketNewsPage1554Ekdb