BC-USDA-Natl Sheep
BC-USDA-Natl Sheep

The Associated Press



SA—LS850San Angelo, TX    Tue Mar 13, 2018    USDA Market NewsNational Sheep Summary for Tuesday, March 13, 2018Compared to last week at New Holland, PA slaughter lambs steady to10.00 lower; slaughter ewes steady.  At San Angelo, TX slaughter lambs10.00-20.00 lower; slaughter ewes firm; no comparison on feeder lambs.6100 head estimated for today.Slaughter Lambs:  Choice and Prime 2-3 90-150 lbs:San Angelo:    shorn and wooled 110-170 lbs 128.00-140.00.New Holland:   shorn and wooled 90-110 lbs 250.00-275.00; 110-130 lbs225.00-252.00; 130-150 lbs 190.00-225.00; 150-200 lbs160.00-190.00.Virginia:      wooled 110-125 lbs 160.00-210.00.Billings, MT:  no test.Slaughter Lambs:  Choice and Prime 1-2:San Angelo:    40-60 lbs 220.00-240.00; 60-70 lbs 210.00-232.00; 70-80lbs 208.00-228.00; 80-90 lbs 200.00-210.00; 90-100 lbs180.00-204.00.New Holland:   30-40 lbs 270.00-310.00; 40-50 lbs 260.00-295.00, few325.0-332.00; 50-60 lbs 250.00-275.00, few 305.00-310.00;60-70 lbs 245.00-270.00; 70-80 lbs 225.00-257.00, few260.00-275.00; 80-90 lbs 220.00-260.00, few 260.00-265.00; 90-110 lbs 245.00-252.00.Virginia:      60-90 lbs 175.00-222.50.Billings, MT:  no test.Slaughter Ewes:San Angelo:    Good 3-4 (very fleshy) no test; Good 2-3 (fleshy)no test; Utility and Good 1-3 (medium flesh) 80.00-88.00; Utility 1-2 (thin) 70.00-80.00; Cull and Utility1-2 (very thin) 56.00-65.00; Cull 1 45.00-55.00.New Holland:   Good 3-4 (very fleshy) no test; Good 2-3 (fleshy)80.00-130.00; Utility 1-2 (thin) 70.00-125.00; Cull 1no test.Billings:      Good 3-4 (very fleshy) 58.00-60.00; Good 2-3 (fleshy)61.00-65.00; Utility 1-2 (thin) 58.00-62.00; Cull andUtility 1-2 (very thin) 57.00-61.00; Cull 1 48.50.Virginia:      Good 2-4 100.00-104.00.Feeder Lambs:     Medium and Large 1-2:San Angelo:    new crop 50-80 lbs 214.00-216.00, 91 lbs 216.00; oldcrop 89 lbs 176.00.Virginia:      no test.Billings:      70-80 lbs 205.00-210.00; 80-90 lbs 189.00-205.00; 90-100lbs 181.00-191.00; 100-105 lbs 180.00-185.00; 120-125lbs 164.00-166.00; 138 lbs 147.50.Replacement Ewes: Medium and Large 1-2:San Angelo:    mixed age hair ewes 80-135 lbs 90.00-150.00 cwt.Billings:      bred yearlings 210.00 per head; bred baby tooth 185.00per head; bred baby tooth to solid mouth 135.00-190.00per head; yearlings 120 lbs 70.00 cwt; baby tooth tosolid mouth 150-270 lbs 60.00-65.00 cwt; aged 135-185lbs 61.00-69.00 cwt.Virginia:      no test.Sheep and lamb slaughter under federal inspection for the week to datetotaled 16,000 compared w1th 18,000 last week and 17,000 last year.Source:  USDA Market News Service, San Angelo, TexasRebecca Sauder 325-653-1778www.ams.usda.gov/mnreports/SA—LS850.txtwww.ams.usda.gov/LSMarketNews1600c    rs