BC-USDA-Kingsport Catl Actn
BC-USDA-Kingsport Catl Actn

The Associated Press



NV—LS140Nashville, TN      Wed Mar 14, 2018     USDA-TN Dept of Ag Market NewsAthens Stockyard, Athens, TNWeighted Average Report for Tuesday Mar 13, 2018Cattle Receipts:  998          Last week: 1355           Last year: not reportedCompared to last week, feeder steers gauging 4.00 to 5.00 lower, with feederheifers mostly steady overall, and feeder bulls 2.00 to 3.00 lower.  Slaughtercows and bulls mostly steady overall.Feeder: 781				Slaughter: 155			Replacement: 62Slaughter cows made up 19 percent of the offering, slaughter bulls 0 percent,replacement cows 5 percent, and feeders 75 percent.  The feeder supply included21 percent steers, 47 percent heifers, and 32 percent bulls. Near 23 percent ofthe run weighed over 600 lbs.Please Note:The below USDA LPGMN price report is reflective of the majority of classes andgrades of livestock offered for sale.  There may be instances where some salesdo not fit within reporting guidelines and therefore will not be included in thereport.  Prices are reported on a per cwt. basis, unless otherwise noted.Feeder Steers                Medium and Large 1 - 2 Head   Wt Range   Avg Wt    Price Range   Avg Price2    210-240    225    187.50-192.50     189.835    300-345    316    176.00-186.00     182.059    350-385    371    164.00-178.00     170.286    420-445    435    164.00-180.00     172.3912    455-490    475    168.00-182.00     177.313    453-453    453       188.00         188.00   Fancy1    450-450    450       191.00         191.00   Value Added10    505-525    512    162.00-175.00     169.599    550-595    576    141.00-154.00     147.382    570-580    575       161.00         161.00   Fancy5    555-583    572    165.00-168.00     165.97   Value Added6    610-645    628    130.00-144.00     138.771    635-635    635       151.00         151.00   Value Added3    650-690    672    130.00-139.00     133.915    660-660    660       144.00         144.00   Value Added7    700-740    725    124.00-133.00     127.111    775-775    775       122.00         122.001    905-905    905       118.00         118.00Small and Medium 1 - 21    295-295    295       150.00         150.001    445-445    445       145.00         145.00Medium and Large 2 - 31    425-425    425       160.00         160.001    465-465    465       145.00         145.001    570-570    570       137.00         137.00Holstein Large 41    570-570    570        72.00          72.00Feeder Heifers                Medium and Large 1 - 2 Head   Wt Range   Avg Wt    Price Range   Avg Price2    210-220    215    157.50-167.00     162.362    243-243    243       172.50         172.50   Value Added6    255-295    282    168.00-172.50     169.8617    305-345    335    161.00-175.00     170.101    315-315    315       180.00         180.00   Fancy4    314-314    314       181.00         181.00   Value Added13    360-395    381    151.00-170.00     162.931    355-355    355       178.00         178.00   Fancy1    360-360    360       177.00         177.00   Value Added19    400-445    420    145.00-162.50     152.176    400-440    418    165.00-169.00     167.52   Fancy4    415-448    440    167.00-169.00     167.47   Value Added38    450-495    472    145.00-164.00     156.231    495-495    495       176.00         176.00   Fancy1    485-485    485       132.00         132.00   Brahman X21    500-540    522    137.00-152.00     144.981    510-510    510       157.00         157.00   Fancy1    505-505    505       156.00         156.00   Value Added20    550-590    571    128.00-143.00     135.392    560-570    565    145.00-146.00     145.50   Fancy3    560-580    567    146.00-148.00     147.32   Value Added20    600-645    614    118.00-127.00     123.738    650-685    669    115.00-122.00     118.366    700-745    719    111.00-115.00     112.32Small and Medium 1 - 21    205-205    205       142.50         142.501    300-300    300       140.00         140.001    425-425    425       137.00         137.001    510-510    510       115.00         115.00Medium and Large 2 - 31    335-335    335       154.00         154.001    395-395    395       140.00         140.003    465-480    475    140.00-142.00     140.672    510-520    515    131.00-132.00     131.50Feeder Bulls                Medium and Large 1 - 2 Head   Wt Range   Avg Wt    Price Range   Avg Price5    265-285    276    178.00-191.00     181.872    320-320    320    175.00-190.00     182.5016    350-395    374    168.00-181.00     173.052    373-373    373       192.00         192.00   Value Added1    395-395    395       162.50         162.50   Brahman X15    400-440    413    169.00-183.00     176.401    420-420    420       186.00         186.00   Fancy9    450-480    469    158.00-173.00     167.371    470-470    470       180.00         180.00   Fancy3    465-465    465       186.00         186.00   Value Added13    505-545    521    148.00-165.00     157.744    500-530    516    168.00-175.00     171.68   Fancy2    528-528    528       171.00         171.00   Value Added10    550-598    583    142.00-155.00     150.722    565-565    565       164.00         164.00   Fancy11    600-625    617    130.00-145.00     140.303    600-605    602    152.00-153.00     152.34   Fancy2    625-625    625       149.00         149.00   Value Added12    650-685    667    121.00-130.00     123.841    665-665    665       116.00         116.00   Brahman X5    705-717    713    115.00-122.00     120.412    755-775    765    115.00-118.00     116.482    870-890    880     91.00-102.00      96.56Small and Medium 1 - 21    340-340    340       155.00         155.002    400-435    418    150.00-155.00     152.602    510-515    513    124.00-141.00     132.461    755-755    755       100.00         100.00Medium and Large 2 - 33    400-440    418    155.00-160.00     158.351    465-465    465       142.00         142.001    455-455    455       132.00         132.00   Brahman X1    550-550    550       135.00         135.003    620-645    633    122.00-124.00     122.991    700-700    700       105.00         105.001    835-835    835        81.00          81.003    970-985    977     78.00-86.00       83.00Bred Cows                  Medium and Large 1 - 2 Young Head   Wt Range   Avg Wt    Price Range   Avg Price1   1050-1050  1050       825.00         825.00   Per Head  1-3 Months Bred1   1200-1200  1200       850.00         850.00   Per Head  1-3 Months Bred3    750-800    767      1000.00        1000.00   Per Head  4-6 Months Bred3   1000-1100  1050   925.00-1130.00    1015.08   Per Head  7-9 Months BredMedium and Large 1 - 2 Middle Aged1   1100-1100  1100      1140.00        1140.00   Per Head  4-6 Months Bred2   1350-1400  1375    850.00-925.00     888.18   Per Head  4-6 Months Bred1   1100-1100  1100       825.00         825.00   Per Head  7-9 Months Bred2   1400-1400  1400    940.00-975.00     957.50   Per Head  7-9 Months Bred1   1600-1600  1600       925.00         925.00   Per Head  7-9 Months BredMedium and Large 1 - 2 Aged1    800-800    800       700.00         700.00   Per Head  4-6 Months Bred5    900-1050   950    650.00-775.00     702.32   Per Head  4-6 Months Bred2   1300-1350  1325    750.00-825.00     786.79   Per Head  4-6 Months Bred2   1500-1600  1550    925.00-945.00     934.68   Per Head  4-6 Months Bred1   1300-1300  1300       710.00         710.00   Per Head  7-9 Months BredMedium and Large 2 -3 Young2    700-750    725    700.00-750.00     725.86   Per Head  4-6 Months BredSmall and Medium 1 - 2 Young1    700-700    700       700.00         700.00   Per Head  1-3 Months Bred1    700-700    700       650.00         650.00   Per Head  4-6 Months Bred2    750-850    800    625.00-750.00     683.59   Per Head  7-9 Months BredSlaughter Cows                Breaker 70-80% Lean Head   Wt Range   Avg Wt    Price Range   Avg Price7   1245-1340  1289     58.00-64.00       60.833   1515-1810  1658     59.00-61.00       59.97Boner 80-85% Lean1    845-845    845        57.00          57.004    730-885    821     50.50-55.00       53.47   Low Dressing46    960-1380  1178     57.00-67.00       61.654   1185-1355  1263     70.00-71.50       70.51   High Dressing12    905-1290  1039     50.00-56.00       53.51   Low Dressing17   1450-1800  1577     57.00-67.00       61.121   1710-1710  1710        52.00          52.00   Low DressingLean 85-90% Lean1    700-700    700        48.00          48.001    765-765    765        43.00          43.00   Low Dressing19    885-1220  1044     50.00-56.50       54.20Slaughter Bulls                Yield Grade 1 Head   Wt Range   Avg Wt    Price Range   Avg Price1   1745-1745  1745        93.00          93.001   1615-1615  1615        72.50          72.50   Low DressingSource: TN Dept of Ag-USDA Market News Service, Nashville, TNKristy Tippins, Market Reporter  502-782-4139www.ams.usda.gov/lsmnpubsNV—LS140.txt