Open
Open

The Associated Press

CHICAGO




CHICAGO (AP) — Early trading on the Chicago Board of Trade Wed.:
Open  High  Low   Last   Chg. WHEAT                                   5,000 bu minimum; cents per bushel    Mar      485    496½  485    496½  +11  May      485½  490½  483    485¾   — ¾Jul      503¼  508    501    503½   —1  Sep      519¼  524¼  517½  520¼   — ¾Dec      539¼  544¾  537¾  541          Mar      554    560½  553    557¼   +1½May      560¾  567    560    565½   +2½Jul      565¼  571    565¼  569     +1½Sep      570¾  570¾  570¾  570¾   —3  Dec      585    585    584¼  584¼   —1¼Est. sales 41,957.  Tue.'s sales 146,404Tue.'s open int 495,276,  up 17,194     CORN                                     5,000 bu minimum; cents per bushel    Mar      386½  386½  385½  385¾   + ¼May      391    393¼  389¾  391¾        Jul      399    401¼  397½  399½   — ¼Sep      404    406¼  403¼  404¾   + ¼Dec      409    412    408½  410¼   + ½Mar      415    418    415    416½   + ½May      419½  422¼  419½  421     + ½Jul      423¾  426¼  423½  425¼   + ½Sep      414¾  414¾  414¾  414¾        Dec      417    418    417    417          Mar      424¼  425¼  423    423     — ¼Dec      419½  419½  419    419½        Est. sales 149,156.  Tue.'s sales 421,093Tue.'s open int 1,860,162,  up 22,524   OATS                                      5,000 bu minimum; cents per bushel    May      264    264½  262    262¼   —1  Jul      266    266½  265    265     —1  Sep      266¾  266¾  266¾  266¾   +1½Dec      267    267    267    267     + ¾Est. sales 202.  Tue.'s sales 293       Tue.'s open int 5,557                  SOYBEANS                               5,000 bu minimum; cents per bushel    Mar     1042¼ 1042¼ 1040   1040     — ½May     1048½ 1054   1045¼ 1047¾   —1  Jul     1059¼ 1064½ 1056¼ 1058½   —1  Aug     1060½ 1065¾ 1057¾ 1059¼   —1½Sep     1048¼ 1052¾ 1046¼ 1046¾   —3  Nov     1043½ 1045   1038½ 1039½   —4½Jan     1046¼ 1048   1041½ 1042     —5  Mar     1043¼ 1044½ 1038¾ 1039     —5½May     1040½ 1042½ 1037½ 1037¾   —4¾Jul     1043½ 1044¼ 1039½ 1040     —5¼Sep     1022½ 1022½ 1022½ 1022½   +1¼Nov     1006¼ 1009   1003¼ 1003¾   —6  Nov      990    990    990    990     +2¼Est. sales 112,997.  Tue.'s sales 223,686Tue.'s open int 849,745,  up 873       SOYBEAN OIL                            60,000 lbs; cents per lb                 May      32.20  32.37  32.02  32.11   —.11Jul      32.43  32.60  32.25  32.33   —.12Aug      32.53  32.70  32.35  32.42   —.13Sep      32.66  32.80  32.45  32.59   —.07Oct      32.75  32.89  32.54  32.61   —.12Dec      32.94  33.09  32.76  32.82   —.11Jan      33.16  33.20  32.98  32.98   —.16Mar      33.34  33.40  33.22  33.25   —.13May      33.43  33.43  33.43  33.43   —.10Dec      33.65  33.68  33.65  33.68   +.02Est. sales 30,493.  Tue.'s sales 117,049Tue.'s open int 490,234                SOYBEAN MEAL                         100 tons; dollars per ton                Mar     376.10 376.10 376.10 376.10  +3.80May     375.70 380.30 374.10 376.20   +.70Jul     377.60 381.30 376.00 377.80   +.30Aug     373.70 377.90 373.20 374.20   —.60Sep     373.00 374.70 371.40 371.50   —.80Oct     369.20 370.60 367.70 367.90  —1.10Dec     367.30 369.40 366.50 367.20  —1.10Jan     365.10 365.60 364.30 364.30  —1.20Mar     359.70 360.20 358.10 359.10   —.40May     355.90 355.90 353.70 353.70  —1.90Dec     343.20 343.80 343.20 343.80  +1.10Est. sales 47,693.  Tue.'s sales 95,964 Tue.'s open int 453,357,  up 4,529