Close
Close

The Associated Press

CHICAGO




CHICAGO (AP) — Futures trading on the Chicago Board of Trade Wed.:
Open  High  Low  Settle   Chg.WHEAT                                   5,000 bu minimum; cents per bushel    Mar      485    496½  485    495¾  +10¼May      485½  490½  483    488¾   +2¼Jul      503¼  508    501    506¼   +1¾Sep      519¼  524¼  517½  522¾   +1¾Dec      539¼  544¾  537¾  543½   +2½Mar      554    560½  553    559     +3¼May      560¾  567    560    566¾   +3¾Jul      565¼  571    565¼  570     +2½Sep      570¾  576    570¾  576     +2¼Dec      585    588½  584¼  588½   +3  Mar                           596½   +3  May                           596¼   +3  Jul                           577¾   +5½Est. sales 98,920.  Tue.'s sales 153,145Tue.'s open int 495,276,  up 17,194     CORN                                     5,000 bu minimum; cents per bushel    Mar      386½  386½  384¼  384¼   —1¼May      391    393¼  388    388¾   —3  Jul      399    401¼  396    396¾   —3  Sep      404    406¼  401½  402¼   —2¼Dec      409    412    407¼  407¾   —2  Mar      415    418    413¾  414¼   —1¾May      419½  422¼  418½  418¾   —1¾Jul      423¾  426¼  423    423¼   —1½Sep      414¾  414¾  411¾  412½   —2¼Dec      417    418    414¾  415¼   —1¾Mar      424¼  425¼  422¼  422¼   —1  May                           425¾   —1  Jul                           430     —1½Sep                           425     —1½Dec      419½  419½  417½  418     —1½Jul                           426¼   —1½Dec                           417     —1½Est. sales 391,327.  Tue.'s sales 439,855Tue.'s open int 1,860,162,  up 22,524   OATS                                      5,000 bu minimum; cents per bushel    May      264    264½  253½  255¾   —7½Jul      266    266½  257½  259¼   —6¾Sep      266¾  266¾  258¾  258¾   —6½Dec      267    267    258¾  259¾   —6½Mar                           263½   —6¼May                           267     —6¼Jul                           272     —6¼Sep                           273¼   —6¼Dec                           273¼   —6¼Jul                           271¾   —6¼Sep                           271¾   —6¼Est. sales 832.  Tue.'s sales 347       Tue.'s open int 5,557                  SOYBEANS                               5,000 bu minimum; cents per bushel    Mar     1042¼ 1042¾ 1036   1036     —4½May     1048½ 1054   1031   1032¼  —16½Jul     1059¼ 1064½ 1041¾ 1043    —16½Aug     1060½ 1065¾ 1043¼ 1044¾  —16  Sep     1048¼ 1052¾ 1032½ 1034    —15¾Nov     1043½ 1045   1027¼ 1028¾  —15¼Jan     1046¼ 1048   1031   1031½  —15½Mar     1043¼ 1044½ 1028½ 1029½  —15  May     1040½ 1042½ 1027½ 1028    —14½Jul     1043½ 1044¼ 1030½ 1030½  —14¾Aug                          1023¾  —14½Sep     1022½ 1022½ 1006¾ 1006¾  —14½Nov     1006¼ 1009    997    997½  —12¼Jan                          1002½  —11¼Mar                          1003    —11¼May                          1010½  —11¼Jul                          1013    —11¼Aug                          1005½  —11¼Sep                          1001¾  —11¼Nov      990    990    976½  976½  —11¼Jul                           976½  —11¼Nov                           976½  —11¼Est. sales 259,468.  Tue.'s sales 237,373Tue.'s open int 849,743,  up 871       SOYBEAN OIL                            60,000 lbs; cents per lb                 May      32.20  32.37  31.63  31.71   —.51Jul      32.43  32.60  31.86  31.95   —.50Aug      32.53  32.70  31.98  32.06   —.49Sep      32.66  32.80  32.11  32.18   —.48Oct      32.75  32.89  32.20  32.28   —.45Dec      32.94  33.09  32.44  32.50   —.43Jan      33.16  33.20  32.65  32.72   —.42Mar      33.34  33.40  32.88  32.95   —.43May      33.43  33.43  33.06  33.12   —.41Jul      33.52  33.53  33.23  33.25   —.42Aug                           33.27   —.41Sep      33.32  33.33  33.28  33.28   —.39Oct                           33.20   —.36Dec      33.65  33.68  33.26  33.26   —.40Jan                           33.36   —.41Mar                           33.59   —.40May                           33.62   —.40Jul                           33.76   —.39Aug                           33.75   —.39Sep                           33.75   —.39Oct                           33.75   —.39Dec                           33.66   —.39Jul                           33.66   —.39Oct                           33.66   —.39Dec                           33.66   —.39Est. sales 91,528.  Tue.'s sales 124,162Tue.'s open int 490,234                SOYBEAN MEAL                         100 tons; dollars per ton                Mar     376.10 376.10 376.10 376.10  +3.80May     375.70 380.30 370.60 370.90  —4.60Jul     377.60 381.30 371.80 372.50  —5.00Aug     373.70 377.90 369.10 369.80  —5.00Sep     373.00 374.70 366.60 367.30  —5.00Oct     369.20 370.60 363.30 364.20  —4.80Dec     367.30 369.40 362.20 363.30  —5.00Jan     365.10 365.60 359.20 360.40  —5.10Mar     359.70 360.20 354.30 355.30  —4.20May     355.90 355.90 350.80 351.30  —4.30Jul     352.00 352.00 350.80 351.20  —4.00Aug                          349.40  —4.00Sep                          346.20  —3.80Oct     340.70 340.70 339.60 339.60  —3.50Dec     343.20 343.80 339.30 339.30  —3.40Jan                          340.00  —3.40Mar                          340.80  —3.40May                          340.80  —3.40Jul                          342.30  —3.40Aug                          342.30  —3.40Sep                          342.30  —3.40Oct                          342.30  —3.40Dec                          339.10  —3.40Jul                          339.10  —3.40Oct                          339.10  —3.40Dec                          339.10  —3.40Est. sales 108,248.  Tue.'s sales 103,486Tue.'s open int 453,357,  up 4,529