BC-Merc Table
BC-Merc Table

The Associated Press






BC-Merc Table,
CHICAGO (AP) — Futures trading on the Chicago Mercantile Exchange Wed:
OpenHighLowSettleChg.CATTLE40,000 lbs.; cents per lb.Apr123.00124.30122.77123.00+1.10Jun114.00114.80112.90113.25+.10Aug111.45112.25110.57110.77Oct114.22114.65113.30113.70Dec117.00117.50116.35116.80+.18Feb118.40118.80117.62118.12+.27Apr118.40118.82117.75118.15+.08Jun112.30112.45111.52112.00+.10Aug110.25110.25110.00110.00+.45Est. sales 79,868.  Tue.'s sales 87,714Tue.'s open int 362,117,  up 576FEEDER CATTLE50,000 lbs.; cents per lb.Mar142.17143.60141.65142.05+.50Apr143.22144.85142.35142.72+.42May143.30145.00143.12143.62+.50Aug148.55149.65147.95148.80+.75Sep149.67150.65148.85149.72+.47Oct149.82150.72148.95149.70+.33Nov149.55150.32148.90149.17—.08Jan146.00146.47145.00145.07—.28Est. sales 15,386.  Tue.'s sales 16,012Tue.'s open int 51,925HOGS,LEAN40,000 lbs.; cents per lb.Apr67.4567.7266.6266.87—.85May71.7072.2571.2572.05+.20Jun77.3078.5577.0078.35+.88Jul78.4079.7578.1079.55+1.13Aug78.7580.2278.4580.10+1.38Oct67.5568.5267.2068.47+.92Dec62.4563.2562.4063.15+.43Feb66.6567.3266.5767.27+.45Apr70.5270.6770.5270.67+.55May76.67+.55Jun79.25+.45Jul79.40+.45Est. sales 46,793.  Tue.'s sales 71,994Tue.'s open int 230,506,  up 3,642PORK BELLIES40,000 lbs.; cents per lb.No open contracts.