BC-USDA-Fdr Catl
BC-USDA-Fdr Catl

The Associated Press



SJ—LS150 St Joseph, MO    Wed  Mar  14,  2018    USDA-MO Dept of Ag Market NewsSt Joseph Stockyards - St Joseph, MOLivestock Auction Report for 3/14/2018 AUCTION                          Receipts           Week Ago             Year Ago--------------------------------------------------------------------------------- Total Receipts:                  3,200                 3,337              2,174------------------------------------------------------------------------------ Feeder Cattle:                   3,200(100           3,337(100%)        2,174(100%)---------------------------------------------------------------------------------***MID-SESSION***Compared to last week, steer and heifer calves mostly steady.  Feeder steers and heifers sold steady to 3.00 higher.  Feeder cattle supply included 58 percent Steers, 38 percent Heifers, and  4percent Bulls. Feeder cattle supply over 600 lbs was 58 percent.--------------------------------------------------------------------------------FEEDER CATTLE--------------------------------------------------------------------------------Feeder Steers(Per CWT):  Medium and Large 1 300-400 lbs 200.00-214.00; 400-500 lbs 198.00-214.25, 429 lbs Thin Fleshed 210.00; 500-600 lbs 177.50-210.25,542 lbs Fancy 207.75; 600-700 lbs 158.25-190.00, Fancy 178.75-195.00, Fleshy144.50-162.00, 653 lbs Thin Fleshed 180.60; 700-800 lbs 142.00-169.75, Fleshy141.50-153.00; 800-900 lbs 136.00-143.00, 807 lbs Fancy 152.85; 914 lbs 132.00.Medium and Large 1-2 343 lbs Thin Fleshed 198.00; 400-500 lbs 174.75-190.00; 500-600 lbs 158.50-185.00; 600-700 lbs 144.50-172.50; 700-800 lbs 138.50-147.50,722 lbs Fleshy 139.50; 800-900 lbs 120.00-136.50. Medium and Large 2 513 lbs173.50. Large 1-2 690 lbs 153.00. Medium 1-2 682 lbs 132.00; 734 lbs 135.00.Feeder Heifers(Per CWT):  Medium and Large 1 300-400 lbs 181.00-193.00; 400-500 lbs 169.00-180.50, 487 lbs Thin Fleshed 167.50; 500-600 lbs 150.50-179.00,Fancy 177.00-180.00, 512 lbs Fleshy 150.00, Thin Fleshed 172.50-177.00; 600-700lbs 139.50-163.00, Fleshy 128.00-137.25; 700-800 lbs 133.00-138.00, 711 lbsFancy 142.50; 800-900 lbs 129.50-132.00. Medium and Large 1-2 400-500 lbs 152.50-169.50; 500-600 lbs 139.75-164.00; 600-700 lbs 132.00-145.00; 700-800 lbs117.00-141.50; 868 lbs 118.00. Medium 1 835 lbs 120.50. Small and Medium 1-2 398lbs 144.00.Feeder Bulls(Per CWT):  Medium and Large 1 428 lbs 184.00; 500-600 lbs156.50-174.50; 600-700 lbs 145.50-159.25; 700-800 lbs 126.50-136.50. Medium andLarge 1-2 467 lbs 176.50. Large 2 463 lbs 160.00.Please Note:The above USDA LPGMN price report is reflective of the majority of classes and grades of livestock offered for sale.  There may be instances where some salesdo not fit within reporting guidelines and therefore will not be included in the report.  Prices are reported on an FOB basis, unless otherwise noted. Source:  USDA-MO Dept of Ag Market News ServiceBaldemar Ortiz, Market Reporter, (816) 676-700024 Hour Market Report 1-573-522-9244www.ams.usda.gov/mnreports/SJ—LS150.txtwww.ams.usda.gov/market-news/livestock-poultry-grain