BC-USDA-Iowa-Daily Hogs
BC-USDA-Iowa-Daily Hogs

The Associated Press



LM—HG206Des Moines, Iowa                Wed, Mar 14, 2018               USDA Market NewsIOWA/MINNESOTA DAILY DIRECT AFTERNOON HOG REPORT BASED ON STATE OF ORIGINPLANT DELIVERED PURCHASE DATA FOR Wednesday, March 14, 2018(Includes information from 1:30 PM to 1:30 PM.)CURRENT VOLUME BY PURCHASE TYPEBARROWS & GILTS LIVE AND CARCASS BASISEstimated     Actual     Actual     ActualToday      Today   Week Ago   Year AgoProducer SoldNegotiated                                4,504      4,504      4,162      5,157Other Market Formula (Futures/Options)   15,395     15,395     17,018     14,962Swine or Pork Market Formula             75,755     75,755     72,536     56,484Other Purchase Arrangement               25,824     25,824     27,459     34,385Negotiated Formula                          170        170          0        170Packer Sold (all purchase types)          4,197      4,197      3,670      7,148--------------------------------------------------------------------------------NEGOTIATED PURCHASE (Including Packer Sold)Barrows & Gilts (carcass basis): 4,854Compared to Prior Day's closing weighted average (LM—HG204), 0.37 lowerBase Price Rng $55.00 - $60.00, Wtd Avg $59.44, 5 Day Rolling Avg $60.42--------------------------------------------------------------------------------NEGOTIATED FORMULA PURCHASE (Including Packer Sold)Barrows & Gilts (carcass basis): 170*Price not reported due to confidentiality* 5 Day Rolling Avg $----------------------------------------------------------------------------------COMBINED NEGOTIATED & NEGOTIATED FORMULA PURCHASE (Including Packer Sold)Barrows & Gilts (carcass basis): 5,024*Price not reported due to confidentiality* 5 Day Rolling Avg $----------------------------------------------------------------------------------IOWA/MINNESOTA DAILY DIRECT NEGOTIATED HOG PURCHASE MATRIXREPRESENTING INDIVIDUAL PACKER CARCASS MERIT BUYING PROGRAMSbased on both Fat and Muscle Measurements for a 200 lb Carcass Basis*Price not reported due to confidentiality*--------------------------------------------------------------------------------CARCASS WEIGHT DIFFERENTIALS145#   -30.00-10.44          175#   -3.00  1.00          205#    0.00  3.00155#   -30.00 -5.80          185#   -0.25  1.50          215#   -0.25  3.00165#   -15.00 -3.37          195#    0.00  3.00          225#   -2.25  1.00--------------------------------------------------------------------------------MEASUREMENTS BASED ON SLAUGHTER DATA SUBMITTED*Price not reported due to confidentiality*--------------------------------------------------------------------------------SWINE OR PORK MARKET FORMULA PURCHASE (Including Packer Sold)Barrows & Gilts (carcass basis): 88,794Base Price Range $57.78 - $69.85, Weighted Average $63.07--------------------------------------------------------------------------------NEGOTIATED PURCHASE (Including Packer Sold)Barrows & Gilts (live basis, 240-320 lbs): 821*Price not reported due to confidentiality* 5 Day Rolling Avg $----------------------------------------------------------------------------------NEGOTIATED FORMULA PURCHASE (Including Packer Sold)Barrows & Gilts (live basis, 240-320 lbs): 988*Price not reported due to confidentiality* 5 Day Rolling Avg $----------------------------------------------------------------------------------COMBINED NEGOTIATED & NEGOTIATED FORMULA PURCHASE (Including Packer Sold)Barrows & Gilts (live basis, 240-320 lbs): 1,809*Price not reported due to confidentiality* 5 Day Rolling Avg $----------------------------------------------------------------------------------BARROWS & GILTS PURCHASE BY STATE OF ORIGINIowa                103,212               Minnesota             49,606--------------------------------------------------------------------------------*Price not reported due to confidentiality, for more information visit:www.ams.usda.gov/sites/default/files/media/ConfidentialityGuidelines.pdf*Base Price is the price from which no discounts are subtracted and no premiumsare added.Source:    USDA Livestock, Poultry & Grain Market News Division, Des Moines, IA515-284-4460      email:  desm.lpgmn@ams.usda.gov24 Hour recorded market information 515-284-4830www.ams.usda.gov/market-news/livestock-poultry-grain1500C.