BC-SC--Commodities, SC
BC-SC--Commodities, SC

The Associated Press



COLUMBIA, SC  Thursday, March 15, 2018South Carolina State Farmers Market - Prices to GrowersProvided by: Specialty Crops Market NewsFederal State Market News Office Columbia, SCCA—FV001Columbia Farmers Market - Wholesale prices paid to Growers until 9:00a.m. for South Carolina grown produce unless otherwise stated.  Standardcartons/crates. Farmers' pack not necessarily USDA grades.  Pricessubject to change without notice.Recorder number: (803)737-5900 Office:(803)737-4497Internet http://www.ams.usda.gov/mnreports/CA—FV001.TXTSIZES: jbo=jumbo, xlge=extra large, lge=large, med=medium sml=smallVOLUME SYMBOLS: TFQ = Supplies insufficient to quote prices,VL=very light, F=few, L=light, M=moderate, H=heavy, VH=very heavyCOMMODITY         VOL   CONTAINERS         VARIETY                 PRICESCILANTRO:         VL    ctns bnchd         30s                      12.00GREENS:           VL    dz bnchs           Collards/Mustard/Turnips 20.001.35 buctns bnchd  Kale 24s Green           13.001 1/9 buctns lse   Turnip Tops              13.00Creasy type              13.00ONIONS,GREEN:     VL    crts bnchd         24s                       9.00ctns bnchd         48s                      14.00Sweet Type               20.00PARSLEY:          VL    ctns bnchd         Flat type 30s            15.00RUTABAGAS:        VL    dz bnchs                                    20.001 1/9 buctns       Topped No Wax            10.00SPINACH:          VL    1.35 bucrts        Savoy type               18.00TURNIPS:          VL    25 lb sks          Topped Lge               12.00*****OUT OF STATE PRODUCE SOLD UNDER SHEDS (Buying Wholesale)************APPLES:           VL    Buctns lse         Red/Golden/Rome          20.00Granny Smith             20.00Gala/Fuji/Cameo          20.00Pinklady                 20.00BANANAS:          VL    40 lb ctns         #1                       18.00BEANS:            VL    1 1/9 bucrts       Snap type FL             15.00KY type FL               25.00Half Runner FL           30.00BEETS:            VL    25 lb sks          Red Topped Med MI        14.00BROCCOLI:         VL    20 lb ctns         Crown Cut FL             15.00CABBAGE:          VL    50 lb ctns         Green type Med FL        16.0050 lb sks          Green type Lge FL        10.00CANTALOUPS:       VL    1/2 ctns           HD 12s                   12.00CARROTS:          VL    50 lb sks          Jumbo MX                 24.00CORN,SWEET:       VL    4 dz crts          Bi-Color/Yellow/White    13.00CUCUMBERS:        VL    1 1/9 buctns       Long Greens Sel HD       25.001 1/9 bucrts       Pickles Sml-Med MX       35.00EGGPLANT:         VL    buctns             MX 18s                   20.00GRAPES:           VL    18 lb ctns bgd     White Seedless           20.00MANGOES:          VL    1 layer ctns       Kent PE 9s                8.00Ataulfo MX 14s/12s   7.00-8.50NECTARINES:       VL    2 layer ctns       White Flesh CL 60s       20.00OKRA:             VL    1/2 bucrts         Sml-Med HD               25.00ONIONS,DRY:       VL    50 lb sks          Yellow Jumbo             16.0025 lb sks          Red Jumbo                14.0040 lb ctns         Sweet type Jbo PE        24.0050 lb sks          Sweet type Jbo PE        18.0016 3-lb sks        Sweet type Med PE        28.0010 5-lb sks        Sweet type Jbo PE        30.0032 lb sks          Sets Yellow/Red/White    22.00ONIONS,GREEN:           Vidalia District of GeorgiaVL    ctns bnchd         24ct                     22.00PEARS:            VL    2 layer ctns       Asian type 32s CA        20.00PEPPERS,BELL:     VL    1 1/9 buctns       Green Xlge               15.00Green Lge                13.00Red Xlge                 25.00Yellow                   25.00PEPPERS,OTHER:    VL    1 1/9 buctns       Jalapeno MX              22.001/2 buctns         Jalapeno                 12.00PINEAPPLE:        VL    1 layer ctns       Golden Ripe MX 7s        11.00PLUMS:            VL    2 layer ctns       Red 36s                  20.00POTATOES:         VL    50 lb sks          Seed type Red/White      20.00SQUASH:           VL    3/4 buctns         Crookneck Sml            25.00Medium             15.00-16.001/2 buctns         Zucchini Small     22.00-24.00Medium                   20.00Fair Quality       16.00-18.00VL    buctns             Acorn/Butternut/Spaghetti20.00STRAWBERRIES:     VL    8 1-lb cntrs       FL                       10.00SWEET POTATOES:   VL    40 lb ctns         Orange typeU.S. NO 1 MS             23.00U.S. NO 1 NC       16.00-18.00US #2 NC/MS        12.00-13.00Jumbo NC/MS              13.00Purple MS/NC             25.00TOMATOES:         VL    25 lb ctns         Vine Ripes Turning Red5x6 sz/Xlge/Jbo    15.00-16.006x6 sz             13.00-14.00Red type All Sizes 10.00-12.00Green 5x6 sz       15.00-16.00Yellow 5x6               22.002 layer ctns       4x5s MX                  10.00TOMATOES,GRAPE:   VL    12 1-pt cntrs      Red type FL              12.0020 lb ctns         Red type FL              20.00TOMATOES,PLUM:    VL    25 lb ctns         Roma Xlge MX             15.00WATERMELONS:      VL    per melon          Red Flesh Seedless HD15-17 lbs                 5.00CITRUS:GRAPEFRUIT:       VL    7/10 buctns        Red type CA 23s          25.00LEMONS:           VL    7/10 buctns        CA 115s/140s Standard    30.00MISC CITRUS:      VL    25 lb ctns         Satsuma FL Xlge          15.00ORANGES:          VL    7/10 buctns        Navel CA 56/72/88  25.00-28.00Cara Cara 88s            30.0010 4-lb sks        Valencia FL 64sz         25.00TANGELOS:         VL    7/10 buctns        Minneola 100s            25.0080s                25.00-28.00NUTS:WALNUTS:          VL    50 lb sks          English type CA         150.00Remarks: These items also available Rice, Cheese, Eggs, Honey, SlicedMeats, Butter, Flowers, Jams, Ciders, Plants, Trees, etc.Web site www.ams.usda.gov/mnreports/CA—FV001.TXT09:40 kt