BC-Merc Early
BC-Merc Early

The Associated Press

CHICAGO




CHICAGO (AP) — Early trading on the Chicago Mercantile Exchange Thu:
OpenHighLowLastChg.CATTLE40,000 lbs.; cents per lb.Apr123.07123.82122.32122.55—.45Jun113.25113.95112.60113.02—.23Aug110.80111.42110.30110.67—.10Oct113.70113.97113.10113.30—.40Dec116.55116.95116.07116.32—.48Feb117.50118.22117.47117.57—.55Apr117.50117.92117.50117.52—.63Est. sales 24,537.  Wed.'s sales 79,868Wed.'s open int 361,520FEEDER CATTLE50,000 lbs.; cents per lb.Mar141.90142.67141.25141.80—.25Apr142.72143.40141.60142.37—.35May143.35144.02142.42143.17—.45Aug148.50149.02147.47148.20—.60Sep149.07149.87148.40149.02—.70Oct149.05149.67148.75149.67—.03Nov148.72148.72148.72148.72—.45Est. sales 4,352.  Wed.'s sales 15,386Wed.'s open int 51,402HOGS,LEAN40,000 lbs.; cents per lb.Apr66.4066.5065.8766.15—.72May71.5271.9071.4771.90—.15Jun78.0078.2277.7278.12—.23Jul79.1779.6278.9779.60+.05Aug79.7080.1579.4580.07—.03Oct68.0568.4267.9068.37—.10Dec62.7563.1562.5563.10—.05Feb66.8067.1066.8067.10—.17Apr70.2770.5070.2770.50—.17Est. sales 16,301.  Wed.'s sales 46,793Wed.'s open int 230,864,  up 358PORK BELLIES40,000 lbs.; cents per lb.No open contracts.