BC-Merc Table
BC-Merc Table

The Associated Press






BC-Merc Table,
CHICAGO (AP) — Futures trading on the Chicago Mercantile Exchange Thu:
OpenHighLowSettleChg.CATTLE40,000 lbs.; cents per lb.Apr123.07123.82121.12121.85—1.15Jun113.25113.95111.50112.30—.95Aug110.80111.42109.17109.80—.97Oct113.70113.97112.00112.60—1.10Dec116.55116.95115.05115.62—1.18Feb117.50118.22116.47116.95—1.17Apr117.50117.92116.87116.92—1.23Jun111.12111.12110.65110.90—1.10Aug108.75109.00108.75109.00—1.00Est. sales 67,882.  Wed.'s sales 79,868Wed.'s open int 361,520FEEDER CATTLE50,000 lbs.; cents per lb.Mar141.90142.67140.05140.62—1.43Apr142.72143.40140.25140.82—1.90May143.35144.02140.97141.60—2.02Aug148.50149.02146.00146.50—2.30Sep149.07149.87147.17147.62—2.10Oct149.05149.67147.47147.67—2.03Nov148.72148.75146.75147.37—1.80Jan144.62144.62142.82142.90—2.17Est. sales 14,751.  Wed.'s sales 15,386Wed.'s open int 51,402HOGS,LEAN40,000 lbs.; cents per lb.Apr66.4066.8265.6765.72—1.15May71.5273.0771.4772.75+.70Jun78.0079.3777.7279.17+.82Jul79.1780.6778.9780.50+.95Aug79.7081.4079.4581.05+.95Oct68.0569.4067.9069.35+.88Dec62.7563.9262.5563.77+.62Feb66.8067.6066.8067.55+.28Apr70.2770.9569.6770.87+.20May76.77+.10Jun78.6279.7578.2579.75+.50Jul79.90+.50Est. sales 51,363.  Wed.'s sales 46,793Wed.'s open int 230,864,  up 358PORK BELLIES40,000 lbs.; cents per lb.No open contracts.