BC-US--Grain Prices, US
BC-US--Grain Prices, US

The Associated Press

CHICAGO




CHICAGO (AP) — Futures trading on the Chicago Board of Trade Thursday.:
SettleWHEAT (5,000 bu ; cents per bushel)May             478 3-4Jul             496    Sep             512 1-2Dec             533 1-4Mar             549 1-4May             557 1-4Jul             560 1-2Sep             566 3-4Dec             579 1-2Mar             587 3-4May             587 1-2Jul             570 1-4CORN (5,000 bu ; cents per bushel)May             386 3-4Jul             394 1-2Sep             400    Dec             406 1-4Mar             413    May             417    Jul             421 1-4Sep             410 1-2Dec             413 1-4Mar             419 3-4May             423 1-2Jul             427 1-2Sep             422 1-2Dec             416    Jul             424 1-4Dec             415 1-4OATS (5,000 bu ; cents per bushel)May             251    Jul             256    Sep             255 3-4Dec             256 1-4Mar             260    May             263 3-4Jul             268 3-4Sep             270    Dec             270    Mar             270    Jul             268 1-2Sep             268 1-2SOYBEANS (5,000 bu ; cents per bushel)May            1040 3-4Jul            1051 1-4Aug            1052 3-4Sep            1040    Nov            1033 1-2Jan            1036    Mar            1032 1-2May            1031    Jul            1033 3-4Aug            1027 1-4Sep            1010 1-4Nov             999 1-4Jan            1004 1-4Mar            1004 3-4May            1012 1-4Jul            1014 3-4Aug            1007 1-4Sep            1003 1-2Nov             978 1-4Jul             978 1-4Nov             978 1-4SOYBEAN OIL (60,000 lbs; cents per lb)May             32.06Jul             32.30Aug             32.41Sep             32.53Oct             32.63Dec             32.86Jan             33.07Mar             33.30May             33.47Jul             33.61Aug             33.64Sep             33.63Oct             33.55Dec             33.61Jan             33.71Mar             33.94May             33.97Jul             34.10Aug             34.09Sep             34.09Oct             34.09Dec             34.00Jul             34.00Oct             34.00Dec             34.00SOYBEAN MEAL (100 tons; dollars per ton)May            371.00Jul            372.60Aug            369.90Sep            367.30Oct            364.10Dec            363.20Jan            360.40Mar            355.40May            351.30Jul            351.00Aug            349.00Sep            346.00Oct            340.00Dec            339.90Jan            340.60Mar            341.40May            341.40Jul            342.90Aug            342.90Sep            342.90Oct            342.90Dec            339.70Jul            339.70Oct            339.70Dec            339.70