BC-Cash Prices, 1st Ld-Writethru,0342
BC-Cash Prices, 1st Ld-Writethru,0342

The Associated Press

NEW YORK




NEW YORK (AP) — Wholesale cash prices Wednesday
?                                      ??Thu.???????Wed.
F
Foods

?Broilers national comp wtd av           ??.9142??????.9142
?Eggs large white NY Doz.                ???2.33???????2.25
?Flour hard winter KC cwt                ??16.15??????16.15
?Cheddar Cheese Chi. 40 block per lb.    ?2.1800?????2.1800
?Coffee parana ex-dock NY per lb.        ?1.2106?????1.1930
?Coffee medlin ex-dock NY per lb.        ?1.4087?????1.3943
?Cocoa beans Ivory Coast $ metric ton    ???2752???????2752
?Cocoa butter African styl $ met ton     ???7426???????7426
?Hogs Iowa/Minn barrows & gilts wtd av   ??59.58??????59.44
?Feeder cattle 500-550 lb Okl av cwt     ?180.75?????180.75
?Pork loins 13-19 lb FOB Omaha av cwt    ??89.22??????88.74
Grains
?Corn No. 2 yellow Chi processor bid     ?3.80¾???????3.82¾
?Soybeans No. 1 yellow                   10.15¾??????10.07¼
?Soybean Meal Cen Ill 48pct protein-ton  374.90??????379.50
?Wheat No. 2  Chi soft                   ?4.69¾???????4.79¾
?Wheat N. 1 dk  14pc-pro Mpls.           ?7.71¾???????7.71¾
?Oats No. 2 heavy or Better              ?2.66????????2.70¾
Fats & Oils
?Corn oil crude wet/dry mill Chi. lb.    ?.29¾?????????.29¾
?Soybean oil crude Decatur lb.           ?.30??????????.30½
Metals
?Aluminum per lb LME                     0.9506??????0.9434
?Antimony in warehouse per ton           ??8700????????8700
?Copper Cathode full plate               3.1818??????3.1219
?Gold Handy & Harman                     1318.75????1323.55
?Silver Handy & Harman                   ?16.415?????16.560
?Lead per metric ton LME                 2453.50????2404.00
?Molybdenum per metric ton LME           ?15,500?????15,500
?Platinum per troy oz. Handy & Harman    ?959.00?????964.00
?Platinum Merc spot per troy oz.         ?956.90?????961.50
?Zinc (HG) delivered per lb.             ?1.4875??????1.4872
Textiles, Fibers and Miscellaneous
?Cotton 1-1-16 in. strict low middling   ??80.45??????80.39
Raw Products
?Coal Central Appalachia $ per short ton ??63.10??????63.10
?Natural Gas  Henry Hub, $ per mmbtu     ???2.66???????2.76
b-bid a-asked
n-Nominal
r-revised
n.q.-not quoted<29
n.a.-not available