BC-USDA-Opening Bids KY Grain Elevs
BC-USDA-Opening Bids KY Grain Elevs

The Associated Press



SV—GR110Frankfort, KY     Fri, Mar 16, 2018     USDA-KY Dept of Ag Market NewsKentucky Daily Grain Elevators Bids:Bids as of 4:00 est, cash prices by elevators/mills to producers:US NO 2 YELLOW CORNBids           Change          Basis           ChangePurchase        3.7275-3.7775        DN 4        -10K to -5K         UNCHGreen River         3.6775           DN 4            -15K            UNCHPennyrile           3.7275           DN 4            -10K            UNCHLouisville      3.4675-3.5775     DN 4-DN 9      -36K to -25K     UNCH-DN 5Bluegrass       3.5100-3.6275     UP 3-DN 4    -31.75K to -20K    UP 7-UNCHUS NO 2 WHITE CORNBids           ChangePennyrile             NA              NAUS NO 1 YELLOW SOYBEANSBids           Change          Basis           ChangePurchase       10.1250-10.1650     UP 8.75       -37K to -33K        UNCHGreen River        10.0450         UP 8.75           -45K            UNCHPennyrile           9.8450         UP 8.75           -65K            UNCHLouisville          9.4150         UP 8.75          -108K            UNCHBluegrass       9.4300-9.9450    UP 5-UP 8.75  -106.5K to -55K   DN 3.75-UNCHUS NO 2 SOFT RED WINTER WHEATBids           Change          Basis           ChangePurchase              NA              NA              NA              NAGreen River           NA              NA              NA              NAPennyrile           4.4775          DN 11            -20K            UNCH (Milling Qlty)     4.6075          DN 11            -7K             UNCHLouisville      4.0675-4.8975    DN 94-DN 97     -61K to 22K     DN 83-DN 86Bluegrass             NA              NA              NA              NAUS NO 2 MILO EXTRA HEAVYBids           Change          Basis           ChangePurchase              NA              NA              NA              NALouisville     NA              NA              NA              NAPennyrile      NA              NA              NA              NAUS NO 2 FEED BARLEYBids            ChangePennyrile      NA              NA------------------------------------------------------------------------------Opening Contract Prices for Fall (Jul Wheat) deliveryUS NO 2 YELLOW CORNBids           Change          Basis           ChangePurchase        3.7875-3.8175       DN 2.5       -25Z to -22Z        UNCHGreen River         3.7875          DN 2.5           -25Z            UNCHPennyrile       3.7875-3.9375       DN 2.5       -25Z to -10Z        UNCHLouisville     NA              NA              NA              NABluegrass      3.7375          DN 2.5          -30Z            UNCHUS NO 2 WHITE CORNBids            ChangePennyrile      4.3400          DN 3US NO 1 YELLOW SOYBEANSBids           Change          Basis           ChangePurchase       10.1600-10.2100      UP 7.5       -25X to -20X        UNCHGreen River        10.0900          UP 7.5           -32X            UNCHPennyrile      10.0100-10.0600      UP 7.5       -40X to -35X        UNCHLouisville     NA              NA              NA              NABluegrass      9.8600          UP 7.5          -55X            UNCHUS NO 2 SOFT RED WINTER WHEATBids           Change          Basis           ChangePurchase        4.7700-4.8500    DN 14-DN 11     -8N to OptN      DN 3-UNCHGreen River         4.7000          DN 11            -15N            UNCHPennyrile       4.6000-4.6500       DN 11        -25N to -20N        UNCH (Milling Qlty)     4.9000          DN 11             5N             UNCHLouisville     4.8500          DN 11           OptN            UNCHBluegrass      4.6000          DN 11           -25N            UNCHUS NO 2 MILO EXTRA HEAVYBids            Change          Basis           ChangePurchase       NA              NA              NA              NALouisville     4.1375          DN 2.5          10Z             UNCHPennyrile      NA              NA              NA              NAUS NO 2 FEED BARLEYBids            ChangePennyrile      NA              NAPurchase- Inland elevators west of Tennesse RiverGreen River- Inland elevators near the Green RiverPennyrile- South west KY East of Tennessee River, west of I-65Louisville-Elevators near the Louisville areaBluegrass- Central Kentucky/Lexington areaSource: USDA-KY Dept of Ag Market News Service, Frankfort, KYJodee Inman  502-782-4138??????? www.ams.usda.gov/mnreports/SV—GR110.txt??????? www.ams.usda.gov/LPSMarketNewsPage1532Ekdb