BC-USDA-SC Clsng Grain Bids
BC-USDA-SC Clsng Grain Bids

The Associated Press



CO—GR110Columbia, SC     Friday, March 16, 2018 USDA-SC Dept Ag Market NewsSouth Carolina closing cash grain bids as of 3:00 P.M.  Prices deliveredto country elevators or processors. New crop bids noted with (*).US 2 Yellow Corn was 3 to 4 cents lower.US 1 Yellow Soybeans were 9 cents higher.US 2 Soft Red Wheat were mostly 11 cents lower; one location steady.New Crop US 2 Yellow Corn was 2 to 4 cents lower.New Crop US 2 Soft Red Wheat was 3 to 11 cents lower.CORN: Country Elevators---4.42 at Anderson; 3.67 and *3.96 at Kingstree;4.08 and *4.19 at Hamer; 3.67 and *3.96 at Lynchburg; 3.67 and *3.96 atConway; 3.67 and *3.96 at Estill; Processors---4.23 at Orangeburg; 4.61and *4.62 at Monetta; 4.49 at Sumter; *4.47 at Cassatt.SOYBEANS: Country Elevators---9.99 at Anderson; 9.84 at Kingstree;9.80 at Hamer; 9.84 at Lynchburg; 9.84 at Conway; 9.84 at Estill;Processors---10.44 at Kershaw; Export---10.44 at Mt. Pleasant.WHEAT: Country Elevators---4.67 and *4.45 at Anderson; *3.85 atKingstree; 4.60 and *4.60 at Hamer; *3.85 at Lynchburg; *3.85 at Conway;*3.85 at Estill; Processors---No Bid at Monetta; No Bid at Sumter; *4.51Cassatt; 5.25 at Columbia; Export---No Bid at Mt. Pleasant.COUNTRY ELEVATORS    US 2 Yellow       US 1 Yellow       US 2 Soft RedCorn             Soybeans           WheatCash  New Crop    Cash  New Crop    Cash  New CropAnderson             4.42              9.99              4.67     4.45Kingstree            3.67   3.96       9.84                       3.85Hamer                4.08   4.19       9.80              4.60     4.60Lynchburg            3.67   3.96       9.84                       3.85Conway               3.67   3.96       9.84                       3.85Estill               3.67   3.96       9.84                       3.85PROCESSORSOrangeburg           4.23Monetta              4.61   4.62Sumter               4.49Cassatt                     4.47                                  4.51Kershaw                               10.44Columbia                                                 5.25EXPORTMt. Pleasant                          10.44Source: South Carolina Dept. of Ag-USDA Market News, Columbia, SC803-737-4671.  For more info check out the internet athttp://www.ams.usda.gov/mnreports/co—gr110.txt15:07 ts