Open
Open

The Associated Press

CHICAGO




CHICAGO (AP) — Early trading on the Chicago Board of Trade Mon.:
Open  High  Low   Last   Chg. WHEAT                                   5,000 bu minimum; cents per bushel    May      465    466    453¼  455    —12¾Jul      482¼  483¼  470½  472¼  —12¾Sep      500¼  500¼  487½  489    —13  Dec      520¾  521¼  509¼  511    —12¼Mar      536½  536½  526¾  526¾  —13  May      544    544    535¾  536½  —11½Jul      547½  548    538¼  538½  —12¼Sep      556¾  556¾  550    550     —8½Dec      567¼  567¼  560    560    —12¾Mar      572    572    572    572     —9½Est. sales 90,839.  Fri.'s sales 124,919 Fri.'s open int 492,957                 CORN                                     5,000 bu minimum; cents per bushel    May      382    382    376    376½   —6¼Jul      390    390    384¼  384¾   —6¼Sep      396¼  396¼  390¾  391½   —5¼Dec      402¾  403¼  398    398½   —5¼Mar      410    410    405¼  405¾   —4¾May      413¾  413¾  410    410½   —4¼Jul      418¼  418½  414¼  414¾   —4¼Sep      404¾  404¾  403¼  403¼   —4¾Dec      410    410¼  406¾  407¼   —3½Mar      416¼  417    415    415     —2¾May      416¼  416¼  416¼  416¼   —5¼Dec      414    414    412    412     —1¾Est. sales 245,077.  Fri.'s sales 311,437Fri.'s open int 1,885,830,  up 4,154    OATS                                      5,000 bu minimum; cents per bushel    May      242    242    235½  239     —3¼Jul      248¼  248¼  243¼  246     —3¼Sep      251½  251½  250    251     —1¼Dec      252    252    252    252     —1¼Est. sales 614.  Fri.'s sales 1,250     Fri.'s open int 5,467,  up 57           SOYBEANS                               5,000 bu minimum; cents per bushel    May     1045¼ 1045½ 1029   1031¼  —18¼Jul     1055¾ 1056   1039¾ 1042    —18¼Aug     1057¼ 1057¼ 1041½ 1044    —17¼Sep     1045   1045   1030   1032¾  —15  Nov     1037   1039   1025   1027    —14  Jan     1038½ 1041¾ 1028½ 1030¾  —12¾Mar     1035   1037¼ 1025¾ 1026¼  —13¾May     1036¼ 1036¼ 1025   1027    —11¼Jul     1033¾ 1033¾ 1027¼ 1028    —11¾Nov      998    998½  995¾  996½   —8  Jan     1001   1001   1001   1001     —8½Est. sales 103,947.  Fri.'s sales 124,793Fri.'s open int 861,367,  up 11,347     SOYBEAN OIL                            60,000 lbs; cents per lb                 May      32.06  32.12  31.83  31.88   —.10Jul      32.28  32.35  32.07  32.11   —.11Aug      32.40  32.47  32.20  32.23   —.11Sep      32.43  32.59  32.32  32.34   —.12Oct      32.57  32.69  32.42  32.45   —.12Dec      32.88  32.93  32.64  32.67   —.14Jan      32.93  33.11  32.90  32.90   —.11Mar      33.29  33.34  33.16  33.25   +.01May      33.44  33.44  33.44  33.44   +.01Jul      33.62  33.62  33.62  33.62   +.02Est. sales 37,076.  Fri.'s sales 97,628  Fri.'s open int 492,446                 SOYBEAN MEAL                         100 tons; dollars per ton                May     372.50 372.50 362.40 362.80 —10.10Jul     374.50 374.50 365.00 365.30  —9.30Aug     369.20 369.30 362.50 362.70  —8.60Sep     365.90 365.90 360.20 360.90  —7.30Oct     362.50 362.50 357.60 358.40  —6.60Dec     362.70 362.70 357.20 357.90  —6.60Jan     358.50 358.50 355.40 355.80  —5.80Mar     353.80 353.80 350.00 350.20  —6.30May     349.40 349.40 347.40 347.40  —4.90Oct     336.90 336.90 336.90 336.90  —4.10Dec     339.00 339.00 336.40 336.40  —4.40Est. sales 59,602.  Fri.'s sales 80,365  Fri.'s open int 456,830,  up 717