BC-USDA-Slghtr Catl
BC-USDA-Slghtr Catl

The Associated Press



SJ—LS110 St Joseph, MO    Mon  Mar  19,  2018    USDA-MO Dept of Ag Market NewsSt Joseph Stockyards - St Joseph, MOLivestock Weighted Average Report for 3/19/2018 AUCTION                         Receipts           Week Ago              Year Ago-------------------------------------------------------------------------------- Total Receipts:                    229                   320                 0-------------------------------------------------------------------------------- Slaughter Cattle:                  179(78              220(69%)            0(0%) Replacement Cattle:                 50(22              100(31%)            0(0%)-------------------------------------------------------------------------------- ***CLOSE***  Compared to last week, slaughter cows were 8.00 dollars lower,while slaughter bulls were 3.00 lower.--------------------------------------------------------------------------------SLAUGHTER CATTLE-------------------------------------------------------------------------------- COWS - Breaker 75-80%  (Per Cwt / Actual Wt) Head      Wt Range    Avg Wt     Price Range   Avg Price Dressing4      1735-1975     1842      50.00-52.00      50.51    Average2      1485-1645     1565         48.00         48.00        Low COWS - Boner 80-85%  (Per Cwt / Actual Wt) Head      Wt Range    Avg Wt     Price Range   Avg Price Dressing61      1113-1800     1381      47.00-59.00      52.24    Average14      1015-1390     1269      60.00-67.50      62.64       High12      1035-1580     1432      45.00-47.00      45.15        Low COWS - Lean 85-90%  (Per Cwt / Actual Wt) Head      Wt Range    Avg Wt     Price Range   Avg Price Dressing27       790-1545     1206      40.00-51.00      45.87    Average5      1050-1260     1165      52.00-58.00      54.26       High17       700-1360     1115      30.00-42.00      34.38        Low BULLS -  1-2 (Per Cwt / Actual Wt) Head      Wt Range    Avg Wt     Price Range   Avg Price Dressing19      1165-2230     1866      75.00-83.00      79.38    Average4      1620-1980     1722      60.00-72.00      64.65        Low--------------------------------------------------------------------------------REPLACEMENT CATTLE--------------------------------------------------------------------------------STOCK COWS - Medium and Large 1 (Per Cwt / Actual Wt)Age    Stage  Head     Wt Range     Avg Wt    Price Range    Avg Price2-4      O     22      745-1235       963     85.00-122.50     112.08STOCK COWS - Medium and Large 1-2 (Per Cwt / Actual Wt)Age    Stage  Head     Wt Range     Avg Wt    Price Range    Avg Price2-8      O      7      1070-1560     1255     59.00-76.00       69.73BRED COWS - Medium and Large 1 (Per Head / Actual Wt)Age    Stage  Head     Wt Range     Avg Wt    Price Range    Avg Price2-4    T1-2     7      1280-1360     1321   1150.00-1360.00   1286.50BRED COWS - Medium and Large 1-2 (Per Head / Actual Wt)Age    Stage  Head     Wt Range     Avg Wt    Price Range    Avg Price2-8    T2-3     3      1105-1360     1203    885.00-960.00     913.61BRED HEIFERS - Medium and Large 1 (Per Head / Actual Wt)Age    Stage  Head     Wt Range     Avg Wt    Price Range    Avg Price2-4     T2      1        1095        1095       1150.00       1150.002-4     T3      5        1159        1159       1600.00       1600.00Please Note:The above USDA LPGMN price report is reflective of the majority of classes and grades of livestock offered for sale.  There may be instances where some salesdo not fit within reporting guidelines and therefore will not be included in the report.  Prices are reported on an FOB basis, unless otherwise noted.Explanatory Notes:Stage (Cattle) - Represents pregnancy stage (O = open; T1 = 1st Trimester, 1to 3 months; T1-2 = 1st/2nd trimester, 1 to 6 months; T2 = 2nd Trimester, 4 to6 months; T2-3 = 2nd/3rd Trimester, 4 to 9 months; T3 = 3rd Trimester, 7 to 9months; T1-3 = all trimesters, 1 to 9 months; E = Exposed; B = Bred)Age - Numerical representation of age in years. Source:  USDA-MO Dept of Ag Market News ServiceLINDSAY BRUNET, Market Reporter, (816) 676-700024 Hour Market Report 1-573-522-9244www.ams.usda.gov/mnreports/SJ—LS110.txtwww.ams.usda.gov/market-news/livestock-poultry-grain