Close
Close

The Associated Press

CHICAGO




CHICAGO (AP) — Futures trading on the Chicago Board of Trade Mon.:
OpenHighLowSettleChg.WHEAT5,000 bu minimum; cents per bushelMay465466450¼450¾—17Jul482¼483¼467¼467¾—17¼Sep500¼500¼484484½—17½Dec520¾521¼505¾506¼—17Mar536½536½523523½—16¼May544544532¼532¼—15¾Jul547½548535¼535¼—15½Sep556¾556¾543½543½—15Dec567¼567¼558¼558¾—14Mar572572568¼568¼—13¼May568—13¼Jul550¼—13¾Est. sales 182,837.  Fri.'s sales 134,485Fri.'s open int 492,957CORN5,000 bu minimum; cents per bushelMay382382374¾375—7¾Jul390390383383¼—7¾Sep396¼396¼389¾390—6¾Dec402¾403¼397397½—6¼Mar410410404¼404¾—5¾May413¾413¾409409¼—5½Jul418¼418½413413¼—5¾Sep404¾404¾402½402½—5½Dec410410¼405¾406¼—4½Mar416¼417413½414—3¾May416¼417¾416¼417¾—3¾Jul422422422422—3¾Sep416½—4¼Dec414414411¾412—1¾Jul420¼—1¾Dec415—¼Est. sales 439,900.  Fri.'s sales 343,767Fri.'s open int 1,885,830,  up 4,154OATS5,000 bu minimum; cents per bushelMay242242234235—7¼Jul248¼248¼241¼241¾—7½Sep251½251½247½247½—4¾Dec252252½251251—2¼Mar254¾—2¼May258½—2¼Jul263½—2¼Sep264¾—2¼Dec264¾—2¼Mar264¾—2¼Jul263¼—2¼Sep263¼—2¼Est. sales 1,066.  Fri.'s sales 1,303Fri.'s open int 5,467,  up 57SOYBEANS5,000 bu minimum; cents per bushelMay1045¼1045½1021¾1022½—27Jul1055¾10561032¾1033½—26¾Aug1057¼1057¼1034½1035¼—26Sep1045104510251025¾—22Nov103710391021½1022¾—18¼Jan1038½1041¾1025¼1026½—17Mar10351037¼10231024—16May1036¼1036¼1022¾1023½—14¾Jul1033¾1033¾1025½1026¾—13Aug1021¾—11Sep1004¾—11Nov998998½995996½—8Jan10011001¾10011001¾—7¾Mar1002¼—7¾May1009¾—7¾Jul1012¼—7¾Aug1004¾—7¾Sep1001—7¾Nov975¾—7¾Jul975¾—7¾Nov975¾—7¾Est. sales 231,898.  Fri.'s sales 147,519Fri.'s open int 861,365,  up 11,345SOYBEAN OIL60,000 lbs; cents per lbMay32.0632.1231.7232.06+.08Jul32.2832.3531.9532.29+.07Aug32.4032.4732.0932.40+.06Sep32.4332.5932.1932.52+.06Oct32.5732.6932.3032.63+.06Dec32.8832.9332.5332.86+.05Jan32.9333.1132.7533.07+.06Mar33.2933.3432.9933.30+.06May33.4433.5033.3733.50+.07Jul33.6233.6733.3733.67+.07Aug33.70+.07Sep33.69+.06Oct33.59+.08Dec33.4233.6833.4233.68+.07Jan33.78+.07Mar34.01+.07May34.04+.07Jul34.17+.07Aug34.16+.07Sep34.16+.07Oct34.16+.07Dec34.07+.07Jul34.07+.07Oct34.07+.07Dec34.07+.07Est. sales 82,377.  Fri.'s sales 101,961Fri.'s open int 492,446SOYBEAN MEAL100 tons; dollars per tonMay372.50372.50358.20358.60—14.30Jul374.50374.50360.90361.30—13.30Aug369.20369.30359.10359.40—11.90Sep365.90365.90357.10357.80—10.40Oct362.50362.50354.50355.30—9.70Dec362.70362.70354.20355.10—9.40Jan358.50358.50352.70353.00—8.60Mar353.80353.80348.10348.80—7.70May349.40349.40345.10345.80—6.50Jul346.90346.90345.30345.80—6.00Aug344.50—5.20Sep341.70341.90341.70341.90—4.70Oct336.90337.90336.80337.40—3.60Dec339.00339.00336.30337.30—3.50Jan338.00—3.50Mar338.80—3.50May338.80—3.50Jul340.30—3.50Aug340.30—3.50Sep340.30—3.50Oct340.30—3.50Dec337.10—3.50Jul337.10—3.50Oct337.10—3.50Dec337.10—3.50Est. sales 140,660.  Fri.'s sales 84,554Fri.'s open int 456,830,  up 717