BC-US--Grain Prices, US
BC-US--Grain Prices, US

The Associated Press

CHICAGO




CHICAGO (AP) — Futures trading on the Chicago Board of Trade Monday.:
SettleWHEAT (5,000 bu ; cents per bushel)May             450 3-4Jul             467 3-4Sep             484 1-2Dec             506 1-4Mar             523 1-2May             532 1-4Jul             535 1-4Sep             543 1-2Dec             558 3-4Mar             568 1-4May             568    Jul             550 1-4CORN (5,000 bu ; cents per bushel)May             375    Jul             383 1-4Sep             390    Dec             397 1-2Mar             404 3-4May             409 1-4Jul             413 1-4Sep             402 1-2Dec             406 1-4Mar             414    May             417 3-4Jul             422    Sep             416 1-2Dec             412    Jul             420 1-4Dec             415    OATS (5,000 bu ; cents per bushel)May             235    Jul             241 3-4Sep             247 1-2Dec             251    Mar             254 3-4May             258 1-2Jul             263 1-2Sep             264 3-4Dec             264 3-4Mar             264 3-4Jul             263 1-4Sep             263 1-4SOYBEANS (5,000 bu ; cents per bushel)May            1022 1-2Jul            1033 1-2Aug            1035 1-4Sep            1025 3-4Nov            1022 3-4Jan            1026 1-2Mar            1024    May            1023 1-2Jul            1026 3-4Aug            1021 3-4Sep            1004 3-4Nov             996 1-2Jan            1001 3-4Mar            1002 1-4May            1009 3-4Jul            1012 1-4Aug            1004 3-4Sep            1001    Nov             975 3-4Jul             975 3-4Nov             975 3-4SOYBEAN OIL (60,000 lbs; cents per lb)May             32.06Jul             32.29Aug             32.40Sep             32.52Oct             32.63Dec             32.86Jan             33.07Mar             33.30May             33.50Jul             33.67Aug             33.70Sep             33.69Oct             33.59Dec             33.68Jan             33.78Mar             34.01May             34.04Jul             34.17Aug             34.16Sep             34.16Oct             34.16Dec             34.07Jul             34.07Oct             34.07Dec             34.07SOYBEAN MEAL (100 tons; dollars per ton)May            358.60Jul            361.30Aug            359.40Sep            357.80Oct            355.30Dec            355.10Jan            353.00Mar            348.80May            345.80Jul            345.80Aug            344.50Sep            341.90Oct            337.40Dec            337.30Jan            338.00Mar            338.80May            338.80Jul            340.30Aug            340.30Sep            340.30Oct            340.30Dec            337.10Jul            337.10Oct            337.10Dec            337.10