BC-USDA-Calif Veggies
BC-USDA-Calif Veggies

The Associated Press



LOS ANGELES Terminal Prices as of 20-MAR-2018Provided by:  Specialty Crops Market NewsFederal - State Market News Service, USDA.Phone:  (213) 894-3077     Fax:  (213) 894-2898Weather at 7:00 a.m. CLEAR 58Yesterday's high 74https://www.ams.usda.gov/market-news/fruits-vegetablesHC—FV020VEGETABLES---ARTICHOKES:  MARKET STEADY.  cartons CA Central Coast California GlobeThorned green 12s 32.00 fr cond 12.00 18s 26.00 fr cond 13.00 24s 22.00Thornless green sml lse 32.00---ASPARAGUS:  MARKET ABOUT STEADY.  11 lb cartons bunched MX Baja DistrictGreen jbo 30.00 exlge 28.00-30.00 lge 28.00 fr cond 22.00-24.00 std 28.00 frcond 20.00-22.00 PE AIR White lge 21.00-22.00 15 lb cartons bunched MX BajaDistrict Green Tips lge Offerings insufficient to quote.---BEANS:  MARKET YELLOW WAX LOWER, OTHERS ABOUT STEADY.  bushel crates MX BajaDistrict Fava 32.00-36.00 few 38.00 5 lb cartons Local Repack Baja District WaxType Yellow 8.00-8.50 10 lb cartons MX Baja District Dragon Tongue 20.00Haricot Vert (French Type) 16.00 Wax Type Yellow 15.00-15.50 15 lb cartons CACranberry Type 35.00 MX Baja District Italian Type 32.00 15 lb crates MX BajaDistrict Italian Type 28.00 30 lb reusable plastic containers (RPC) MX RoundGreen Type Handpicked 24.00-25.00 few 26.00 fr qual 18.00-20.00---BEETS:  MARKET ABOUT STEADY.  cartons bunched MX Baja District Red Type 12s8.00-11.00 25 lb film bags CA Red Type med 10.00-11.50 lge 10.00-11.00 GoldType med-lge 16.00-17.00 few 18.00---BROCCOLI:  MARKET SLIGHTLY LOWER.  cartons CA Central Coast California bchd14s 13.00-14.00 few 15.00 fr qual 11.00-11.50 Baby Hybrid Type bchd 18s23.50-24.00 20 lb cartons loose CA Central Coast California Crown Cut14.00-15.00 few 16.00 fr qual 12.00-12.50---BRUSSELS SPROUTS: OFFERINGS LIGHT.   25 lb cartons CA Central CoastCalifornia med 20.00-22.00---CABBAGE:  MARKET ABOUT STEADY.  50 lb cartons CA Central Coast CaliforniaRound Green Type med 13.00-14.00 lge 12.00-12.50 Red Type med 20.00-21.00 45 lbcartons CA Central Coast California Savoy Type med-lge 17.00-18.00---CARROTS:  MARKET STEADY.  sacks 48 1-lb film bags CA Kern DistrictCalifornia med-lge 16.50-17.00 sacks 24 2-lb film bags CA Kern DistrictCalifornia med-lge 16.00-17.00 sacks 10 5-lb film bags CA Kern DistrictCalifornia med-lge 16.00-17.00 50 lb sacks loose CA Kern District CaliforniaJuice Type 14.00-15.00 25 lb sacks loose CA Kern District California med10.00-10.50 jbo 12.00-13.00 few 14.00 cartons 20 1-lb film bags CA KernDistrict California Baby Peeled med-lge 20.00-21.00---CAULIFLOWER:  MARKET WHITE LOWER, OTHERS STEADY.  cartons film wrapped CACentral Coast California White 12s 17.00-18.00 fr qual 13.00-14.00 16s15.00-16.00 fr qual 12.00-13.00 Orange 6s 19.00 8s 19.00 12s 22.50 Purple 6s19.00 8s 19.00 12s 22.50 Romanesco 12s 22.00 16s 22.00---CELERY:  MARKET STEADY.  cartons CA Central Coast California 2 dz11.00-12.00 fr qual 9.00-9.50 2 1/2 dz 11.00-12.00 fr qual 9.00-9.50---CORN-SWEET:  MARKET STEADY.  cartons MX Yellow 4 dz 18.00-20.00 White 4 dz20.00-22.00---CUCUMBERS:  MARKET LOWER.  1 1/9 bushel cartons MX med 24.00-26.00 fr qual18.00-20.00 ord qual 12.00-13.00 lge 22.00-24.00 fr qual 15.00-16.00 BajaDistrict med Offerings insuffcient to quote. cartons MX 36s 13.00-14.00 fr qual10.00-12.00 40 lb plastic containers MX Pickles 200-300s 24.00-25.00 300-400s24.00-25.00 4/7 bushel cartons MX Baja District Pickles sml-med 15.00-16.00 sml15.00-16.00 GREENHOUSE cartons film wrapped MX Long Seedless 12s 13.00-13.5016s 14.00-14.50 22 lb cartons MX Baja District Persian med 12.00-13.00 frappear 8.00-9.00 sml-med 12.00-13.00 sml 13.00-14.00 10 lb cartons CA Japanesemed 23.00---EGGPLANT:  MARKET STEADY.  1 bu, 1 1/9 bu, 1 1/6 bu cartons wrapped MX 18s15.00-16.00 fr qual 12.00-12.50 24s 15.00-16.00 fr qual 12.00-12.50 30 lbcartons MX Chinese sml-med 11.00-15.00 mostly 12.00-14.00 occas higher/lowerItalian sml-med 18.00-22.50 occas lower Japanese sml-med 22.00-25.00 occas besthigher Indian med 17.00-21.00 mostly 17.00-19.00 occas higher/lower---ENDIVE:  MARKET ABOUT STEADY.  cartons CA Central Coast California 24s11.00-12.00 fr qual 9.00-9.50 10 lb cartons BL AIR Witloof 20.00-21.50 CACentral Coast California Witloof 18.00-18.50 8 lb cartons CA Central CoastCalifornia Witloof Red Type 43.00 3 kg cartons NL AIR Witloof Red Type 43.00---ESCAROLE:  MARKET STEADY.  cartons CA Central Coast California 24s14.00-15.00---GARLIC: OFFERINGS LIGHT. MARKET STEADY.  30 lb cartons CA Central CoastCalifornia White super col 65.00-70.00 col 69.00 exjbo 63.00 jbo 47.00 CQ Whitenetted 5s 46.00 Purple netted 5s 46.00 MX Baja District White jbo 60.00 netted5s 65.00 Purple col 50.00 PE Purple col 55.00 10 lb cartons CA Central CoastCalifornia elephant 32.00-32.50 14 kg containers SP White super col 52.00-55.00cartons 4 5-lb plastic jars CQ Peeled 11.00-12.00 cartons 4 5-lb film bags CQPeeled 10.00-11.00---GREENS:  MARKET STEADY.  cartons bunched CA Central Coast California Collard24s 15.00-16.00 few high as 18.00 Kale green 24s 11.00-12.00 fr qual 9.00-9.50Lacinato (Tuscan) 24s 20.00-22.00 Kale, Multicolor 24s 23.00-24.00 MustardCurly 24s 16.00-17.00 Flat 24s 17.00-18.00 Swiss Chard 12s 12.00-13.00 red 12s12.00-13.00 Broccoli Rabe (Rappini) 20s 43.00-45.00 Dandelion green 12s11.00-12.00 red 12s 11.00-12.00---LETTUCE-ICEBERG:  MARKET STEADY.  cartons CA Central Coast California 24s18.00-20.00 fr qual 16.00-16.50 flm lined 24s 20.00-21.00 24s flmwrpd21.00-22.00---LETTUCE-OTHER:  MARKET STEADY.  cartons CA Central Coast California Boston24s 14.00-15.00 fr qual 12.00-12.50 Green Leaf 24s 17.00-18.00 fr qual15.00-15.50 Red Leaf 24s 12.00-13.00 fr qual 10.00-11.00 flats 1 layer CACentral Coast California Frisee 24s 16.00-16.50 12s 8.50-9.00 2 lb cartons CACentral Coast California Lolla Rossa 24s 8.50-9.00 Red Oak Leaf 24s 8.50-9.00Green Oak Leaf 24s 8.50-9.00 3 lb cartons CA Central Coast California MesculinMix 5.50-6.50 cartons 3 1-lb film bags CA Central Coast California Mesculin Mix5.50-6.50---LETTUCE-ROMAINE:  MARKET STEADY.  cartons CA Central Coast California 24s22.00-24.00 fr qual 20.00-20.50 cartons 12 3-count packages CA Central CoastCalifornia Hearts 26.00-28.00 fr qual 21.00-23.00 cartons film lined CA CentralCoast California Hearts 24s 28.00-30.00---MUSHROOMS:  MARKET STEADY.  10 lb cartons CA Central Coast California Whitelge 18.00-19.00 med 17.00-18.00 sml 17.00-18.00 Cremini 22.00-23.00 CD BritishColumbia White lge 19.00-20.00 med 18.00 sml 18.00 PA White lge 19.00-20.00 med18.00 sml 18.00 Cremini 22.00-23.00 5 lb cartons CA Central Coast CaliforniaShiitake fr qual 15.00-16.00 Oyster 16.00-17.00 Portobella lge 16.00-17.00 med16.00-17.00 Woodear 20.00 CQ Shiitake med 20.00 cartons 12 1-lb trays filmwrapped CA Central Coast California White Sliced 12.00-12.50 cartons 12 8-oztrays film wrapped CA Central Coast California White 14.00-14.50 cartons 8 1-lbtrays film wrapped CA Central Coast California White 21.00---OKRA: OFFERINGS LIGHT.   1/2 bushel cartons GU AIR sml 24.00---ONIONS GREEN:  MARKET STEADY.  cartons bunched CA Central Coast California48s med 9.00-10.00 48s sml 7.00-8.00 few low as 6.00 MX Baja District 48s med9.00-10.00 few 11.00 48s sml 7.00-8.00 few low as 6.00 Bulb Type 24s 8.00-9.00CA Central Coast California Leeks med 15.00-16.00 MX Baja District Leeks med14.00-15.00---PARSLEY:  MARKET STEADY.  cartons bunched CA Central Coast California Curly60s 12.00-13.00 few 14.00 fr qual 10.00-10.50 poorer quality and condition8.50-9.00 Plain 60s 12.50-13.00 few 14.00 fr qual 10.50-11.00 poorer qualityand condition 9.50---PARSNIPS: OFFERINGS LIGHT. MARKET STEADY.  20 lb film bags loose CA24.00-27.00 few 28.00-30.00 cartons 12 1-lb film bags CA 24.00-27.00---PEAS GREEN: OFFERINGS LIGHT.   1 1/9 bushel cartons MX Baja District Englishfr appear 25.00 10 lb cartons GU AIR Snow Peas Decalyxed 13.00-14.00 MX BajaDistrict Snow Peas Decalyxed 13.00-14.00 GU AIR Sugar Snap Peas Decalyxed16.00-18.00 MX Baja District Sugar Snap Peas Decalyxed 13.00-14.00---PEAS OTHER: OFFERINGS LIGHT.   bushel crates MX Baja District Blackeye 35.00(marked 30lbs)---PEPPERS, BELL TYPE:  MARKET STEADY.  1 1/9 bushel cartons MX Green exlge15.00-16.00 few 18.00 lge 14.00-15.00 few 16.00 med 13.00-14.00 irreg sz10.00-12.00 fr qual 8.00-8.50 Red exlge 26.00-28.00 lge 26.00-28.00 irreg sz24.00-25.00 fr qual 20.00-21.00 Yellow exlge 24.00 lge 24.00 irreg sz18.00-20.00 fr qual 15.00-16.00 Orange med 14.00 irreg sz 14.00 15 lb cartonsMX Red exlge 15.00 25 lb cartons place pack MX Green exlge 20.00-22.00GREENHOUSE 5 kg/11 lb cartons MX Red exlge-lge 17.00-18.00 fr qual 9.00-10.00Yellow exlge-lge 17.00-18.00 fr qual 9.00-10.00 Orange exlge-lge 17.00-18.00 frqual 9.00-10.00---PEPPERS, OTHER:  MARKET STEADY.  1 1/9 bushel cartons FL Cubanelles33.00-35.00 1 1/9 bushel cartons/crates per lb MX Baja District Anaheim .50-.55Habanero orange .80-.90 cartons/crates per lb MX Baja District Jalapeno .30-.35Manzano 3.00-3.50 Pasilla .60-.65 Serrano .35-.40 Yellow Chile .60-.65---RADISHES:  MARKET STEADY.  cartons topped 30 6-oz film bags CA Central CoastCalifornia Red 12.00-14.00 25 lb film bags topped CA Central Coast CaliforniaRed 15.00-16.00 MX Baja District Red 14.00-15.00 cartons bunched CA CentralCoast California Red 48s 14.00-15.00 MX Baja District Red 48s 13.00-14.00---RHUBARB: OFFERINGS LIGHT.   GREENHOUSE 15 lb cartons WA WAExFcy 55.00 6 kgcontainers NL AIR 50.00---RUTABAGAS: OFFERINGS FAIRLY LIGHT.   25 lb film bags CA med 22.00-24.00 MXBaja District med 20.00-22.00---SPINACH:  MARKET STEADY.  cartons bunched CA Central Coast California Flat24s 16.00-18.00 fr qual 13.00-13.50 cartons 12 10-oz film bags CA Central CoastCalifornia 10.00-12.00 few 13.00 cartons 4 2-1/2 lb film bags CA Central CoastCalifornia 10.50-12.50---SQUASH:  MARKET STEADY.  4/7 bushel cartons MX Zucchini Green sml17.00-18.00 few 20.00 fr qual 14.00-15.00 sml-med 17.00-18.00 few 20.00 fr qual14.00-15.00 med 15.00-16.00 few 18.00 fr qual 12.00-13.00 Yellow Straightnecksml 24.00-26.00 sml-med 24.00-26.00 med 22.00-24.00 Grey sml 10.00-11.00sml-med 10.00-11.00 med 10.00-11.00 bushel cartons MX Acorn Green med16.00-17.00 Butternut med 14.00-15.00 few 16.00 lge 14.00-16.00 Kabocha med-lge14.00-15.00 Spaghetti med-lge 12.00-13.00 few 14.00 1 1/9 bushel crates MXZucchini Green lge 22.00-24.00---SWEET POTATOES:  MARKET STEADY.  40 lb cartons CA Atwater LivingstonCalifornia U.S. No. 1 Orange Types 25.00-28.00 Red Types 25.00-28.00 WhiteTypes 32.00-35.00 Japanese Types 35.00-38.00 No Grade Marks Orange Types med18.00-20.00 jbo 20.00-23.00 Red Types med 18.00-20.00 jbo 21.00-24.00 WhiteTypes med 17.00-18.00 few 20.00 jbo 18.00-20.00---TOMATOES:  MARKET STEADY.  ADAPTED ENVIRONMENT 25 lb cartons loose MX VineRipes light red 5x5 sz 16.00-18.00 flats 2 layer MX Vine Ripes light red 4x4s18.00-20.00 mostly 18.00 fr qual fr cond 15.00-16.00 4x5s 18.00-20.00 mostly18.00 fr qual fr cond 15.00-16.00 5x5s 16.00-18.00 mostly 16.00 fr qual fr cond13.00-14.00 5x6s 16.00-18.00 mostly 16.00 fr qual fr cond 13.00-14.00CONTROLLED ENVIRONMENT 5 kg/11 lb flats on the vine MX Vine Ripes red 4-5 count7.00-8.00 few 9.00 cartons 8 1-lb containers with lids MX Baja District VineRipe - Campari Type 18.00-18.50 GREENHOUSE 5 kg/11 lb flats on the vine CA VineRipes red 4-5 count 11.00-12.00---TOMATOES, CHERRY:  MARKET STEADY.  ADAPTED ENVIRONMENT flats 12 1-pt basketsMX light red-red med 12.00-13.00 few 14.00 Baja District light red-red medOfferings insufficient to quote. flats 12 1/2-pt cups with lids MX BajaDistrict Pear Type red 40.00 yellow 40.00 cartons 12 10.5-oz containers withlids MX Baja District Heirloom Varieties yellow med 28.50---TOMATOES, GRAPE TYPE:  MARKET STEADY.  ADAPTED ENVIRONMENT flats 12 1-ptcontainers with lids MX Baja District red 14.00-15.00 few 16.00 fr qual11.00-12.00 flats 15 1-pt containers with lids MX Baja District yellow 28.50 20lb cartons loose MX Baja District red 22.00-24.00---TOMATOES, PLUM TYPE:  MARKET LOWER.  ADAPTED ENVIRONMENT 25 lb cartons looseMX Roma light red-red exlge 15.00-16.00 few 18.00 fr qual fr cond 12.00-13.00lge 15.00-16.00 few 18.00 fr qual fr cond 12.00-13.00 med 14.00-15.00 few 16.00fr qual fr cond 10.00-12.00---TURNIPS:  MARKET ABOUT STEADY.  25 lb film bags CA Purple Top lge13.00-14.00 med 13.00-14.00 MX Baja District Purple Top lge 14.00 med13.00-14.00---VEGETABLES OTHER: OFFERINGS LIGHT.   5 lb film bags CA Central CoastCalifornia Alfalfa Sprouts 12.00-13.00 cartons 12 4-oz packages CA CentralCoast California Alfalfa Sprouts 16.00-17.00 35 lb crates MX Baja DistrictCactus Leaf (Nopales) 17.00-18.00 10 lb cartons Local Repack JerusalemArtichokes 20.00 20 lb film bags CA Jerusalem Artichokes 35.00 cartons 12 1-lbtrays film wrapped CA Jerusalem Artichokes 36.00 1 layer containers CA CentralCoast California Radicchio 9s 13.00-13.50 12s 13.00-13.50 Treviso 9s 18.50 12s18.50ORGANICVEGETABLES---BEETS: cartons bunched MX Baja District Red Type 12s 17.00 25 lb film bagsMX Baja District Red Type med 21.00-22.00---BROCCOLI: 20 lb cartons loose CA Central Coast California Crown CutOfferings insuffcient to quote.---CABBAGE: 50 lb cartons CA Round Green Type med 26.00 Central CoastCalifornia Red Type med 23.00---CARROTS: sacks 48 1-lb film bags CA Kern District California med-lge 26.00sacks 24 2-lb film bags CA Kern District California med-lge 26.00 sacks 10 5-lbfilm bags CA Kern District California med-lge 26.00 25 lb sacks loose CA KernDistrict California jbo 16.00 cartons 20 1-lb film bags CA Kern DistrictCalifornia Baby Peeled med-lge 26.00 cartons 4 5-lb film bags CA Kern DistrictCalifornia Baby Peeled med-lge 26.00---CAULIFLOWER: cartons film wrapped CA Central Coast California White 12s12.00---CELERY: cartons CA Central Coast California 24s 20.00 30s 20.00---EGGPLANT: 1 bu, 1 1/9 bu, 1 1/6 bu cartons wrapped MX 12s 15.00---GREENS: cartons bunched CA Central Coast California Collard 24s 18.00 Kalegreen 24s 22.00 Lacinato (Tuscan) 24s 18.00 Swiss Chard 12s 18.00 Mixed Colors12s 18.00 Red 12s 18.00---LETTUCE-OTHER: cartons CA Central Coast California Green Leaf 24s 22.00 RedLeaf 24s 22.00---LETTUCE-ROMAINE: cartons CA Central Coast California 24s 24.00-25.00 cartons12 3-count packages CA Central Coast California Hearts Offerings insufficientto quote.---MUSHROOMS: 5 lb cartons CA Central Coast California Shiitake 25.50 fr qual16.00 Oyster 17.00 cartons 24 3 1/2-oz film packages CA Central CoastCalifornia Hen Of The Woods 2.50 Beech (Honshimeji) brown 2.00 white 2.00---ONIONS GREEN: cartons bunched MX Baja District Leeks med 43.25---PARSLEY: cartons bunched CA Central Coast California Curly 30s 22.00 Plain30s 22.00---RADISHES: cartons bunched MX Baja District Red 24s Offerings insufficient toquote.---SPINACH: cartons bunched CA Central Coast California Flat 24s 26.00---TOMATOES, GRAPE TYPE: ADAPTED ENVIRONMENT flats 12 1-pt containers with lidsMX red 18.00