Open
Open

The Associated Press

CHICAGO




CHICAGO (AP) — Early trading on the Chicago Board of Trade Tue.:
OpenHighLowLastChg.WHEAT5,000 bu minimum; cents per bushelMay452½457½450455+4¼Jul469¼474¼466½471¼+3½Sep485490¾483¾487½+3Dec507½512¼506¼509¼+3Mar525¼528¾523½524¾+1¼May536¼537¾532534½+2¼Jul535¾540½535¾539¼+4Dec562562559½559½+¾Est. sales 73,421.  Mon.'s sales 182,837Mon.'s open int 481,244CORN5,000 bu minimum; cents per bushelMay375¼377373¼375Jul383½385381¼383¼Sep390391¾388¼389¾—¼Dec397½398¾395½397—½Mar404½406402¾404—¾May409¼410½407½409½+¼Jul413¼414¾411¾413—¼Sep402½402½402402—½Dec406¼407405406¼Mar413¾414413¾414Sep415415415415—1½Dec412412411¼411¼—¾Est. sales 173,890.  Mon.'s sales 439,900Mon.'s open int 1,880,865OATS5,000 bu minimum; cents per bushelMay236237¼233¾236+1Jul243243240¾242+¼Est. sales 430.  Mon.'s sales 1,066Mon.'s open int 5,556,  up 89SOYBEANS5,000 bu minimum; cents per bushelMay1022¼10291022¼1027½+5Jul10331039¾1032¾1038¼+4¾Aug1034¾1041¼1034¾1039¾+4½Sep10261030½10261029½+3¾Nov1021¾1027¼1021½1026+3¼Jan1026½1030¼1026½1029¾+3¼Mar10241027¾10241026½+2½May102710281024¾1026¼+2¾Jul103010301029½1029½+2¾Nov999¾999¾998998¾+2¼Est. sales 69,705.  Mon.'s sales 231,898Mon.'s open int 859,156SOYBEAN OIL60,000 lbs; cents per lbMay32.0632.1531.8931.98—.08Jul32.3132.3732.1132.21—.08Aug32.3832.4832.2432.34—.06Sep32.5032.6132.3532.39—.13Oct32.5532.7032.4632.50—.13Dec32.8132.9532.7032.78—.08Jan32.9733.0632.9632.99—.08Mar33.2533.2533.1933.19—.11May33.5433.5433.3933.43—.07Jul33.6033.6033.6033.60—.07Est. sales 22,484.  Mon.'s sales 82,377Mon.'s open int 496,298,  up 3,852SOYBEAN MEAL100 tons; dollars per tonMay358.00361.00358.00359.30+.70Jul360.90363.50360.90362.00+.70Aug360.00361.50359.10360.00+.60Sep358.40359.60357.50357.90+.10Oct355.60356.70354.50355.10—.20Dec355.60357.10354.50355.10Jan355.00355.00352.60353.40+.40Mar349.50351.00348.60350.20+1.40May347.70347.70345.70347.50+1.70Jul347.00347.00347.00347.00+1.20Oct334.70334.70334.70334.70—2.70Dec335.70335.70335.60335.60—1.70Est. sales 35,775.  Mon.'s sales 140,660Mon.'s open int 453,442