BC-USDA-Portland Grain
BC-USDA-Portland Grain

The Associated Press



JO—GR110Portland, OR    Tue Mar 20, 2018    USDA Market NewsPortland Daily Grain ReportBids as of 9:30 a.m. Pacific time; Subject to changeAll Bids in dollars per bushel.  Bids are limited and not fullyestablished in early trading.Bids for grains delivered to Portland, Oregon in dollars per bushel.In early trading May wheat futures trended two to 5.25 cents perbushel higher than Monday?s noon closes.Bids for US 1 Soft White Wheat delivered to Portland in unit trains andbarges for March delivery for ordinary protein were not well tested inearly trading, but bids were indicated as steady compared to Monday?s noonbids for the same delivery period.  Some exporters were not issuing bidsfor nearby delivery.  Bids for guaranteed maximum 10.5 percent protein werewell tested in early trading, but bids were indicated as generally steadycompared to Monday?s noon bids for the same delivery period.  Someexporters were not issuing bids for nearby delivery.Bids for 11.5 percent protein US 1 Hard Red Winter Wheat for Marchdelivery were not well tested in early trading but bids were indicated ashigher compared to Monday?s bids for the same delivery period.  Someexporters were not issuing bids for nearby delivery.Bids for 14 percent protein US 1 Dark Northern Spring Wheat for Marchdelivery were not well tested in early trading but bids were indicated ashigher compared to Monday?s noon bids for the same delivery period.  Someexporters are not issuing bids for nearby delivery.Bids for US 2 Yellow Corn delivered full coast in 110 car shuttle trainsduring March were not well tested in early trading, but bids were indicatedas higher compared to Monday?s noon bids for the same delivery period.Some exporters were not issuing bids for nearby delivery.Bids for US 1 Yellow Soybeans delivered full coast in 110 car shuttletrains during March were not well tested in early trading, but bids wereindicated as higher compared to Monday?s noon bids for the same deliveryperiod.  Some exporters were not issuing bids for nearby delivery.All wheat bids in dollars per bushelUS 1 Soft White Wheat - delivered by Unit Trains and BargesOrdinary proteinMar                                       5.4000-5.6200Apr                                       5.4000-5.6000May                                       5.6000-5.6100Jun                                       5.6000-5.6100Aug NC                                    5.5300-5.6000Guaranteed maximum 10.5 pct proteinMar                                       5.4000-5.5600Apr                                       5.4000-5.6000May                                       5.6000-5.6100Jun                                       5.6075-5.6100Aug NC                                    5.5300-5.5375—US 1 White Club Wheat - delivered by Unit Trains and BargesOrdinary proteinMar                                       5.4500-5.6200Guaranteed maximum 10.5 pct proteinMar                                       5.4500-5.5600—US 1 Hard Red Winter Wheat - (Exporter bids-falling numbers of 300 orbetter)Ordinary protein                            5.1225-5.322511 pct protein                              5.7225-6.022511.5 pct proteinMar                                       6.0225-6.2725Apr                                       6.0725-6.2225May                                       6.0725-6.2725Jun                                       6.2475-6.277512 pct protein                              6.1725-6.422513 pct protein                              6.4725-6.7225—US 1 Dark Northern Spring Wheat (with a minimum of 300 falling numbers, a maximumof 0.5 part per million vomitoxin, and a maximum of one percent total damage)13 pct protein                              6.6725-6.902514 pct proteinMar                                       7.1525-7.3525Apr                                       7.1525-7.3825May                                       7.2025-7.4025Jun                                       7.1875-7.437515 pct protein                              7.4725-7.672516 pct protein                              7.7825-7.9925—US 2 Yellow CornShuttle trains-Delivered full coast Pacific Northwest-BNMar                                       4.7075-4.8575Apr                                       4.7575-4.8575May                                       4.7575-4.8575Jun                                       4.7875-4.8575Jul                                       4.6875-4.7375Aug                                       NA—US 1 Yellow SoybeansShuttle trains-Delivered full coast Pacific Northwest-BNMar                                       11.0775-11.1275Apr                                       11.2375-11.2575May                                       11.2375-11.2575Jun                                       11.3200-11.3300Jul                                       11.3000-11.3200Oct                                       11.1475-11.2475—US 2 Heavy White Oats **                      3.4825** Not well tested.Exporter Bids Portland Rail/Barge             Feb 2018Averages in Dollars per bushelUS 1 Soft White by Unit Trains and Barges   5.4300US 1 Hard Red Winter (Ordinary protein)     5.4100US 1 Hard Red Winter (11.5% protein)        6.3200US 1 Dark Northern Spring (14% protein)     7.2900Source:    USDA Market News Service, Portland, ORNiki Davila 503-535-5001  Portland.LPGMN@ams.usda.gov24 Hour Market Report  503-535-5005www.ams.usda.gov/mnreports/jo—gr110.txtwww.ams.usda.gov/lpsmarketnewspage8:44 P nd