BC-Merc Table
BC-Merc Table

The Associated Press

CHICAGO




CHICAGO (AP) — Futures trading on the Chicago Mercantile Exchange Tue:
OpenHighLowSettleChg.CATTLE40,000 lbs.; cents per lb.Apr120.50120.82119.32119.57—.65Jun110.10110.40108.90109.00—1.15Aug107.70107.97106.62106.70—1.00Oct110.30110.32109.05109.45—.82Dec113.97113.97112.72113.10—.80Feb115.27115.40114.37114.95—.55Apr115.40115.67114.75115.02—.70Jun109.25109.45108.65109.05—.57Aug108.00108.00107.50107.62—.63Est. sales 81,549.  Mon.'s sales 6,377Mon.'s open int 361,134FEEDER CATTLE50,000 lbs.; cents per lb.Mar138.72139.17137.35137.77—.68Apr138.35138.92136.82137.45—.75May139.05139.55137.40138.25—.77Aug144.77144.77142.80143.62—.93Sep146.00146.00144.17145.07—.85Oct146.27146.35144.45145.37—.83Nov145.72146.00144.52145.37—.68Jan141.62142.32141.37141.42—.75Est. sales 18,708.  Mon.'s sales 13,068Mon.'s open int 51,615HOGS,LEAN40,000 lbs.; cents per lb.Apr63.2763.8562.8263.25+.10May70.5070.8070.0270.20—.42Jun76.9077.1076.1576.75—.07Jul78.3778.3777.5777.90—.27Aug79.0079.0078.1078.25—.55Oct68.0268.1567.4767.72—.18Dec62.7562.9262.3562.60+.05Feb66.4066.5266.2566.32+.10Apr70.1070.1070.1070.10+.30May76.00—.17Jun79.05—.17Jul79.20—.17Est. sales 42,490.  Mon.'s sales 53,464Mon.'s open int 229,171PORK BELLIES40,000 lbs.; cents per lb.No open contracts.