Preclosing
Preclosing

The Associated Press

CHICAGO




CHICAGO (AP) — Futures trading on the Chicago Board of Trade Tue:
OpenHighLowLastChg.WHEAT5,000 bu minimum; cents per bushelMay452½457½450453+2¼Jul469¼474¼466½469+1¼Sep485490¾483¾485+½Dec507½512¼506¼507½+1¼Mar525¼528¾523½524¼+¾May536¼537¾532533¾+1½Jul535¾540½535¾536½+1¼Sep545½545½545½545½+2Dec562562559½559½+¾Est. sales 122,186.  Mon.'s sales 134,485Mon.'s open int 492,957CORN5,000 bu minimum; cents per bushelMay375¼377373¼374½—½Jul383½385381¼382¾—½Sep390391¾388¼389¾—¼Dec397½398¾395½397¼—¼Mar404½406402¾404¼—½May409¼410½407½409—¼Jul413¼414¾411¾413—¼Sep402½402¾402402¾+¼Dec406¼407½405406¼Mar413¾414413¾414Sep415415415415—1½Dec412412411¼411¼—¾Est. sales 313,439.  Mon.'s sales 343,767Mon.'s open int 1,885,830OATS5,000 bu minimum; cents per bushelMay236239233¾235Jul243243240¾241¼—½Sep247½247½247247—½Dec252253252253+2Mar257257257257+2¼Est. sales 876.  Mon.'s sales 1,303Mon.'s open int 5,467SOYBEANS5,000 bu minimum; cents per bushelMay1022¼1029¾1022¼1028¾+6¼Jul10331040¼1032¾1039¼+5¾Aug1034¾1041¾1034¾1040¾+5½Sep1026103110261029+3¼Nov1021¾1027¼1021½1025+2¼Jan1026½10311026½1028¾+2¼Mar1024102910241027¼+3¼May10271028¼1024¾1027+3½Jul103010311028¾1030+3¼Nov999¾1000997¾998½+2Est. sales 113,008.  Mon.'s sales 147,519Mon.'s open int 861,365