BC-USDA-Memphis Cotton
BC-USDA-Memphis Cotton

The Associated Press



MP—CN001                            0MEMPHIS, TN                 3/20/2018        USDA Cotton and Tobacco Program, MNDMARKET        41-4/34 31-3/35  BALES    FUTURES     TODAYMay-18     83.08SOUTHEAST             83.58   85.83    390      Jul-18     83.18NORTH DELTA           82.08   83.83     0       Oct-18     79.27SOUTH DELTA           82.08   83.83     0       Dec-18     77.99EAST TX-OK            77.75   79.50    7508     Mar-19     78.17WEST TEXAS            77.00   79.00    3252     May-19     78.16DESERT SW             78.08   82.08     0       Jul-19     78.13SJ VALLEY             78.58   87.48     0       Oct-19     75.47Dec-19     73.04AVERAGE               79.88   83.08   11150     Mar-20     73.28COTTON QUOTATIONS FOR SELECTED QUALITIES                   MIKE             STRENGTH24 & Belo -2000   19.0 - 19.9   -250EAST TX-OK            31-3    41-4     32-3      42-4      25-26   -2000   20.0 - 20.9   -250STAPLE 32       -300    -375     -450      -525      27-29   -1275   21.0 - 21.9   -225STAPLE 33       -100    -275     -300      -450      30-32    -925   22.0 - 22.9   -200STAPLE 34        50       0      -25       -100      33-34    -700   23.0 - 23.9   -175STAPLE 35        175      0      -25       -100    Base 35-3   0     24.0 - 24.9   -175STAPLE 36        300     100     125       -25       37-42     0     25.0 - 25.9   -150STAPLE 37        350     125     125       -25     Base 43-4   0     26.0 - 26.9   -10050-52    -225  Base 27.0 - 2   0Prep            1        -200                    53 & Abov  -350   29.0 - 29.9    02        -500                                      30.0 - 30.9    25Bark            1        -350                                      31.0 - 32.9    252        -525                                     33.0 & above    25Other           1        -5502        -600WEST TEXAS            31-3    41-4     32-3      42-4    24 & Belo -2000   19.0 - 19.9   -250STAPLE 32       -250    -400     -325      -500      25-26   -2000   20.0 - 20.9   -250STAPLE 33        -50    -325     -150      -400      27-29   -1275   21.0 - 21.9   -225STAPLE 34        25       0      -75       -200      30-32    -925   22.0 - 22.9   -200STAPLE 35        200      0       0        -125      33-34    -700   23.0 - 23.9   -175STAPLE 36        300     100     125        50     Base 35-3   0     24.0 - 24.9   -175STAPLE 37        350     125     125        50       37-42     0     25.0 - 25.9   -150Base 43-4   0     26.0 - 26.9   -100Prep            1        -200                      50-52    -225  Base 27.0 - 2   02        -500                    53 & Abov  -350   29.0 - 29.9    0Bark            1        -350                                      30.0 - 30.9    252        -525                                      31.0 - 32.9    25Other           1        -550                                     33.0 & above    252        -600Mar 16 - Mar 22AWP   75.12CC ADJ.    0.00FC ADJ. - 2016   0.87FC ADJ. - 2017   1.02LDP    0.00Cotton and Tobacco Program, Market News Division3275 Appling RdMemphis, TN  38133(901) 384-3016www.ams.usda.gov/mnreports/mp—cn001.txt