BC-Cotton
BC-Cotton

The Associated Press

NEW YORK




NEW YORK (AP) — Cotton No. 2 Futures on the IntercontinentalExchange (ICE) Tuesday:
OpenHighLowSettleChg.COTTON 250,000 lbs.; cents per lb.May81.1583.3580.9583.08+1.85Jul81.4783.3781.3183.18+1.66Sep77.99+.70Oct79.2579.2779.2579.27+.97Nov77.99+.70Dec77.3077.9977.2277.99+.70Jan78.17+.67Mar77.4778.1777.4578.17+.67May77.6778.1677.6778.16+.54Jul77.6578.1377.6578.13+.48Sep73.04—.11Oct75.47+.21Nov73.04—.11Dec73.1573.3073.0173.04—.11Jan73.28—.11Mar73.28—.11May73.98—.11Jul74.09—.11Sep72.55—.11Oct73.68—.11Nov72.55—.11Dec72.55—.11Est. sales 31,668.  Mon.'s sales 26,851Mon.'s open int 268,891