BC-USDA-Portland Grain
BC-USDA-Portland Grain

The Associated Press



JO—GR110Portland, OR    Tue Mar 20, 2018    USDA Market NewsPortland Daily Grain ReportBids as of 12:00 p.m. Pacific time; Subject to changeMay wheat futures trended mixed, from 3.25 cents lower to 2.25 cents perbushel higher compared to Monday?s noon closes, with the greatest declinein Minneapolis dark northern spring wheat and the advance in Chicago softred wheat.Bids for US 1 Soft White Wheat delivered to Portland in unit trains andbarges for March delivery ordinary protein trended steady compared toMonday?s noon bids for the same delivery period.  Some exporters were notissuing bids for nearby delivery.  Bids for guaranteed maximum 10.5 percentprotein trended steady compared to Monday?s noon bids for nearby delivery.Some exporters are not issuing bids for nearby delivery.Bids for 11.5 percent US 1 Hard Red Winter Wheat for March deliverytrended 0.25 of a cent per bushel lower than Monday?s noon bids for thesame delivery period.  Some exporters were not issuing bids for nearbydelivery.Bids for 14 percent protein US 1 Dark Northern Spring Wheat for Marchdelivery trended 3.25 cents per bushel lower than Monday?s noon bids forthe same delivery period.  Some exporters were not issuing bids for nearbydelivery.Bids for US 2 Yellow Corn delivered full coast in 110 car shuttle trainsfor March delivery were 0.50 of a cent per bushel lower than Monday?s noonbids for the same delivery period.  Some exporters were not issuing bidsfor nearby delivery.Bids for US 1 Yellow Soybeans delivered full coast in 110 car shuttletrains for March delivery were 5.75 cents per bushel higher than Monday?snoon bids for the same delivery period.  Some exporters were not issuingbids for nearby delivery.All bids in dollars per bushelUS 1 Soft White Wheat - delivered by Unit Trains and BargesOrdinary proteinMar                                       5.4000-5.6200    unchApr                                       5.4000-5.6000    unchMay                                       5.5800-5.6000    up 2.25-unchJun                                       5.5775-5.6100    up 1.00-unchAug NC                                    5.5025-5.6000    up 0.75-unchGuaranteed maximum 10.5 pct proteinMar                                       5.2500-5.5600    unchApr                                       5.4000-5.6000    unchMay                                       5.5800-5.6000    up 2.25-unchJun                                       5.5775-5.6100    up 1.00-unchAug NC                                    5.5025-5.5300    up 0.75-unch—US 1 White Club Wheat - delivered by Unit Trains and BargesOrdinary proteinMar                                       5.4500-5.6200    unchGuaranteed maximum 10.5 pct proteinMar                                       5.2500-5.5600    unch—US 1 Hard Red Winter Wheat - (Exporter bids-falling numbers of 300 orbetter)Ordinary protein                            5.1000-5.3000    dn 0.2511 pct protein                              5.7000-6.0000    dn 0.2511.5 pct proteinMar                                       6.0000-6.2500    dn 0.25Apr                                       6.0500-6.2000    dn 0.25May                                       6.0500-6.2500    dn 0.25Jun                                       6.2275-6.2575    dn 0.2512 pct protein                              6.1500-6.4000    dn 0.2513 pct protein                              6.4500-6.7000    dn 0.25—US 1 Dark Northern Spring Wheat (with a minimum of 300 falling numbers, a maximumof 0.5 part per million vomitoxin, and a maximum of one percent total damage)13 pct protein                              6.6025-6.8325    dn 3.2514 pct proteinMar                                       7.0825-7.2825    dn 3.25Apr                                       7.0825-7.3125    dn 3.25May                                       7.1325-7.3325    dn 3.25Jun                                       7.1250-7.3750    dn 2.50 15 pct protein                               7.4025-7.6025    dn 3.25 16 pct protein                               7.7125-7.9225    dn 3.25—US 2 Yellow CornShuttle trains-Delivered full coast Pacific Northwest-BNMar                                       4.6950-4.8450    dn 0.50Apr                                       4.7450-4.8450    dn 0.50May                                       4.7450-4.8450    dn 0.50Jun                                       4.7750-4.8450    dn 0.75Jul                                       4.6750-4.7250    dn 0.75Aug                                       NA—US 1 Yellow SoybeansShuttle trains-Delivered full coast Pacific Northwest-BNMar                                       11.0825-11.1325  up 5.75Apr                                       11.2425-11.2625  up 5.75May                                       11.2425-11.2625  up 5.75Jun                                       11.3300-11.3400  up 5.50Jul                                       11.3100-11.3300  up 5.50Oct                                       11.1500-11.2500  up 2.25—US 2 Heavy White Oats **                      3.4825           unch** Not well tested.Exporter Bids Portland Rail/Barge             Feb 2018Averages in Dollars per bushelUS 1 Soft White by Unit Trains and Barges   5.4300US 1 Hard Red Winter (Ordinary protein)     5.4100US 1 Hard Red Winter (11.5% protein)        6.3200US 1 Dark Northern Spring (14% protein)     7.2900Source:    USDA Market News Service, Portland, ORNiki Davila 503-535-5001  Portland.LPGMN@ams.usda.gov24 Hour Market Report  503-535-5005www.ams.usda.gov/mnreports/jo—gr110.txtwww.ams.usda.gov/lpsmarketnewspage11:27P nd