BC-USDA-Fdr Catl Actn
BC-USDA-Fdr Catl Actn

The Associated Press



SF—LS150Sioux Falls, SD        Thu   Mar 21, 2002       USDA-SD Ag Market News*correction on first line trend*Sioux Falls Feeder CattleThis week: 2151          Last week: 391     Year ago: 1080Compared to two weeks ago feeder steers and *heifers* sold mostly2.00-4.00 lower, except 700-750 steers steady to weak. Demand moderateto good at the decline. Steers comprised 64 percent of the run;heifers 36 percent. 85 percent over 600 lbs.Feeder Steer Medium and Large 1Head   Wt Range     Avg Wt     Price Range     Avg Price13      545          545        97.00            97.0024    552-598        582     92.75-97.75         93.899      578          578        92.50            92.50   Fleshy47    605-649        627     91.00-92.50         91.5238    652-688        671     87.00-90.50         88.42169    700-731        713     83.75-87.30         86.0932    737-747        742     77.00-81.25         78.98   Fleshy120    758-793        777     77.75-82.50         81.1766    805-819        814     76.40-77.30         76.7749    856-890        864     73.00-76.50         75.4240    877-891        880        73.20            73.20   Fleshy8      863          863        73.20            73.20   Full131    911-949        932     70.00-73.10         72.1772      983          983        71.50            71.5024    950-992        976     68.25-72.75         71.47   Fleshy40   1112-1113      1113     68.90-69.20         69.09Feeder Steer Medium and Large 1-2Head   Wt Range     Avg Wt     Price Range     Avg Price22      487          487       104.75           104.75   Thin47    508-545        539     96.50-101.00        97.179      571          571        92.00            92.00   Fleshy32      609          609        87.25            87.257      614          614        78.50            78.50   Fleshy21      658          658        85.25            85.25   ThinFeeder Steer Large 1Head   Wt Range     Avg Wt     Price Range     Avg Price10      708          708        80.25            80.258      811          811        75.75            75.7511      943          943        70.00            70.00Feeder Steer Medium 1Head   Wt Range     Avg Wt     Price Range     Avg Price38      654          654        85.00            85.00Feeder Holstein Steers Large 3Head   Wt Range     Avg Wt     Price Range     Avg Price38    506-511        507     68.00-73.00         69.067      648          648        69.00            69.0029    821-839        832     51.25-56.50         54.365      890          890        58.50            58.5034      949          949        59.10            59.107     1005         1005        56.75            56.75Feeder Heifers Medium and Large 1Head   Wt Range     Avg Wt     Price Range     Avg Price5      470          470        93.00            93.0010    522-535        528     86.50-87.00         86.756      528          528        87.50            87.50   Thin8    587-592        590     80.50-83.00         82.07101    605-639        625     78.75-83.75         82.2276    723-741        732     76.00-78.25         77.0029    724-725        725     73.00-74.75         74.33   Fleshy14    754-767        759     72.50-73.00         72.687      768          768        68.00            68.00   Fleshy45    820-847        838     70.10-72.50         70.8832    803-815        808     70.00-70.30         70.17   Fleshy18    857-872        863     70.50-70.85         70.7117      862          862        67.90            67.90   Fleshy77    903-926        922     67.75-70.50         70.05   Fleshy5      966          966        69.75            69.75   Fleshy15     1037         1037        68.60            68.60Feeder Heifers Medium and Large 1-2Head   Wt Range     Avg Wt     Price Range     Avg Price5      445          445        93.50            93.505      553          553        84.50            84.50   Fleshy29      572          572        83.50            83.50   Thin37      622          622        81.00            81.0014      621          621        73.75            73.75   Fleshy23    677-687        678     75.00-77.00         75.26   Fleshy16      674          674        77.00            77.00   Thin29      705          705        76.25            76.257      746          746        69.75            69.75   FleshyFeeder Heifers Medium and Large 2Head   Wt Range     Avg Wt     Price Range     Avg Price7      391          391        97.75            97.759      502          502        87.50            87.50   ThinFeeder Heifers Large 1Head   Wt Range     Avg Wt     Price Range     Avg Price25      902          902        69.70            69.70Feeder Heifers Medium 1Head   Wt Range     Avg Wt     Price Range     Avg Price15      524          524        84.75            84.75USDA-SD Dept Ag Market News, Sioux Falls, SDCharles McIntrye, Market Reporter605-338-4061www.ams.usda.gov/mnreports/SF—LS150.txt1660c cemc.