Open
Open

The Associated Press

CHICAGO




CHICAGO (AP) — Early trading on the Chicago Board of Trade Wed.:
Open  High  Low   Last   Chg. WHEAT                                   5,000 bu minimum; cents per bushel    May      453½  454½  448¼  448¾   —4¼Jul      468½  470½  463½  464     —4¾Sep      485    486¾  480    480¼   —5  Dec      506¼  507½  501¼  501½   —5  Mar      523¾  523¾  518¼  518½   —5  May      532¾  533¼  527¼  527½   —5  Jul      535¼  536¾  531¾  531¾   —4¼Sep      541    541    540    540     —3¾Est. sales 58,549.  Tue.'s sales 144,712Tue.'s open int 473,974                CORN                                     5,000 bu minimum; cents per bushel    May      375    375½  373¾  374¾   + ¼Jul      383    383½  382    382½        Sep      390    390¼  389    389¼   — ½Dec      397¼  397¾  396½  397     — ¼Mar      404¼  405    403¾  404     — ¼May      409¼  409½  408½  408¾        Jul      413¼  413½  412½  413          Sep      402¾  402¾  402½  402½        Dec      406    406¾  406    406¼        Est. sales 110,186.  Tue.'s sales 353,221Tue.'s open int 1,862,226               OATS                                      5,000 bu minimum; cents per bushel    May      235¾  235¾  234    234     —1½Jul      241    242    240¾  240¾   —1  Dec      253    253    253    253     + ½Est. sales 138.  Tue.'s sales 955       Tue.'s open int 5,621,  up 154         SOYBEANS                               5,000 bu minimum; cents per bushel    May     1029½ 1037¼ 1026¾ 1031¾   +3½Jul     1040   1048   1037¼ 1042½   +3½Aug     1042   1049   1038¾ 1043¾   +3½Sep     1031¼ 1035¾ 1027½ 1031½   +3¼Nov     1025¼ 1031   1022¾ 1026¼   +1¼Jan     1029½ 1034½ 1027   1031½   +2½Mar     1029¼ 1032   1026½ 1028     +1  May     1027   1031¼ 1027   1031¼   +4½Jul     1029¼ 1035¼ 1029¼ 1030¾   +1  Nov     1000   1004   1000   1000     +1½Est. sales 84,160.  Tue.'s sales 128,484Tue.'s open int 851,443                SOYBEAN OIL                            60,000 lbs; cents per lb                 May      31.71  31.94  31.62  31.88   +.14Jul      31.97  32.17  31.87  32.11   +.14Aug      32.09  32.28  31.98  32.20   +.11Sep      32.22  32.38  32.11  32.35   +.13Oct      32.32  32.48  32.20  32.42   +.10Dec      32.55  32.73  32.43  32.67   +.12Jan      32.71  32.92  32.70  32.92   +.15Mar      32.94  33.04  32.94  33.04   +.04May      33.21  33.23  33.18  33.23   +.02Jul      33.35  33.35  33.35  33.35   —.02Dec      33.45  33.53  33.45  33.53   +.14Est. sales 46,944.  Tue.'s sales 85,743 Tue.'s open int 498,566,  up 6,120      SOYBEAN MEAL                         100 tons; dollars per ton                May     362.50 368.80 361.20 366.40  +4.70Jul     365.00 370.80 363.70 368.70  +4.50Aug     363.60 368.20 362.40 366.70  +4.40Sep     361.90 365.90 360.80 365.60  +5.20Oct     359.30 362.90 358.30 361.90  +4.00Dec     358.70 362.20 357.60 360.70  +2.90Jan     358.00 359.40 357.40 359.40  +3.70Mar     355.00 355.00 353.70 354.30  +2.30May     350.70 351.70 350.10 350.80  +1.70Jul     349.30 351.50 349.30 351.40  +2.10Dec     341.50 342.40 341.50 342.10  +2.50Est. sales 46,487.  Tue.'s sales 80,651 Tue.'s open int 446,889