BC-USDA-Okla City Catl Actn
BC-USDA-Okla City Catl Actn

The Associated Press



KO—LS150 Oklahoma City, OK    Tue  Mar  20,  2018    USDA-OK Dept of Ag Market NewsOklahoma National Stockyards - Oklahoma City, OKLivestock Auction Report for 3/19/2018 AUCTION                          Receipts           Week Ago             Year Ago--------------------------------------------------------------------------------- Total Receipts:                  6,865                 9,169              6,545------------------------------------------------------------------------------ Feeder Cattle:                   6,865(100           9,169(100%)        6,545(100%)---------------------------------------------------------------------------------*** Close ***Compared to last week:  Feeder steers and heifers 3.00-6.00 lower.Demand light to moderate for feeder cattle as cattle futures continue lower.   Stocker cattle and calves 4.00-10.00 lower.Grass accounts appear full as demand for grazing type cattle is light, especially 600-700 lbs.  Drought still looms in much of Western Oklahoma,despite storms that moved thru North Western Oklahoma over the weekend. Some areas saw close to an inch of rain.  Quality plain to average, few attractive.  Feeder cattle supply included 59 percent Steers, 0 percent Dairy Steers, 39 percent Heifers, and  2 percent Bulls. Feeder cattlesupply over 600 lbs was 61 percent.--------------------------------------------------------------------------------FEEDER CATTLE--------------------------------------------------------------------------------Feeder Steers(Per CWT):  Medium and Large 1 300-400 lbs 191.00-195.00, ThinFleshed 217.00-222.00; 400-500 lbs 179.00-195.00, 491 lbs Fleshy 173.00, 409 lbsThin Fleshed 198.00; 500-600 lbs 164.00-178.00, Fleshy 156.00-164.00, ThinFleshed 185.00-188.00; 600-700 lbs 151.00-165.50, 651 lbs Calves 149.50, Fleshy143.00-147.00; 700-800 lbs 135.00-154.50, Fleshy 134.00-144.00; 800-900 lbs125.75-139.00, Fleshy 125.00-127.00; 900-1000 lbs 118.50-124.00, 978 lbs Full116.25. Medium and Large 1-2 201 lbs 197.00; 318 lbs Thin Fleshed 207.00; 400-500 lbs 170.00-178.00; 500-600 lbs 153.50-170.00, 555 lbs Fleshy 147.00; 600-700lbs 143.00-155.00, 608 lbs Thin Fleshed 160.00; 700-800 lbs 132.00-142.50, 709lbs Calves 133.00; 800-900 lbs 126.00-131.75; 900-1000 lbs 120.50-124.50.Medium and Large 2 299 lbs 173.00; 400-500 lbs 154.00-166.00; 500-600 lbs 149.00-163.00; 600-700 lbs 139.00-150.00; 700-800 lbs 129.00-130.50; 800-900 lbs124.00-127.00. Medium and Large 3 623 lbs 127.00. Large 1 655 lbs 148.50; 894lbs 124.75; 921 lbs 124.50.Feeder Dairy Steers(Per CWT):  Large 3 583 lbs 59.00.Feeder Heifers(Per CWT):  Medium and Large 1 300-400 lbs 167.00-174.00; 400-500 lbs 149.00-167.00, 497 lbs Fleshy 140.00; 500-600 lbs 143.00-155.00, Fleshy135.00-144.00; 600-700 lbs 132.00-147.00, Fleshy 126.00-134.00; 700-800 lbs126.00-132.00, Fleshy 123.50-124.50; 800-900 lbs 123.00-125.75, Fleshy 113.50-116.00; 900-1000 lbs 114.50-115.25. Medium and Large 1-2 300-400 lbs 162.00-174.00; 400-500 lbs 154.00-159.00, Fleshy 140.00-151.00; 500-600 lbs 137.00-152.00; 600-700 lbs 130.00-143.00, 643 lbs Fleshy 135.00; 700-800 lbs 120.00-127.50. Medium and Large 2 258 lbs 168.00; 300-400 lbs 151.00-165.00; 400-500lbs 140.00-150.00; 500-600 lbs 134.00-139.50, 569 lbs Thin Fleshed 147.00; 600-700 lbs 135.00-138.00; 723 lbs 126.00, 773 lbs Calves 122.00.Feeder Bulls(Per CWT):  Medium and Large 1 278 lbs 197.00; 362 lbs 196.00;400-500 lbs 156.00-182.00; 500-600 lbs 144.00-166.00; 620 lbs 135.00. Medium andLarge 1-2 500-600 lbs 150.00-156.00; 600-700 lbs 134.00-140.00.Please Note:The above USDA LPGMN price report is reflective of the majority of classes and grades of livestock offered for sale.  There may be instances where some salesdo not fit within reporting guidelines and therefore will not be included in the report.  Prices are reported on an FOB basis, unless otherwise noted. Source:  USDA-OK Dept of Ag Market News ServiceTina Colby/Joe Massey Market Reporter24 Hour Market Report 1-405-636-2691www.ams.usda.gov/mnreports/KO—LS150.txtwww.ams.usda.gov/market-news/livestock-poultry-grain