BC-BOT Table,1st Ld
BC-BOT Table,1st Ld

The Associated Press

CHICAGO




CHICAGO (AP) — Noon trading on the Chicago Board of Trade Wed.:
Open  High  Low  Noon    Chg.WHEAT                                   5,000 bu minimum; cents per bushel    May      453½  454½  446¾  450     —3  Jul      468½  470½  462¼  465¾   —3  Sep      485    486¾  479    482     —3¼Dec      506¼  507½  500¾  503¾   —2¾Mar      523¾  523¾  518¼  521     —2½May      532¾  533¼  527¼  530     —2½Jul      535¼  536¾  531¾  534     —2  Sep      541    541    540    540     —3¾Est. sales 104,222.  Tue.'s sales 149,837Tue.'s open int 473,974                CORN                                     5,000 bu minimum; cents per bushel    May      375    375½  373¾  374½        Jul      383    383½  381¾  382½        Sep      390    390¼  388½  389¼   — ½Dec      397¼  397¾  395¾  396¼   —1  Mar      404¼  405    402¾  403½   — ¾May      409¼  409½  407½  408     — ¾Jul      413¼  413½  411½  412     —1  Sep      402¾  402¾  402    402     — ½Dec      406    406¾  404¾  405½   — ¾Dec      412¼  412¼  412¼  412¼   — ¼Est. sales 200,638.  Tue.'s sales 372,060Tue.'s open int 1,862,226               OATS                                      5,000 bu minimum; cents per bushel    May      235¾  235¾  227½  228¼   —7¼Jul      241    242    234¾  235     —6¾Sep      246    246    246    246     —1¼Dec      253    253    248½  248½   —4  Est. sales 696.  Tue.'s sales 955       Tue.'s open int 5,621,  up 154         SOYBEANS                               5,000 bu minimum; cents per bushel    May     1029½ 1037¼ 1024¾ 1026¾   —1½Jul     1040   1048   1035½ 1037½   —1½Aug     1042   1049   1037¼ 1039¼   —1  Sep     1031¼ 1035¾ 1025¾ 1026¾   —1½Nov     1025¼ 1031   1022   1023¼   —1¾Jan     1029½ 1034½ 1026   1026¾   —2¼Mar     1029¼ 1032   1024   1024¾   —2¼May     1027   1031¼ 1024½ 1024½   —2¼Jul     1029¼ 1035¼ 1027   1027½   —2¼Nov     1000   1004    996    996     —2½Est. sales 153,084.  Tue.'s sales 138,977Tue.'s open int 851,441                SOYBEAN OIL                            60,000 lbs; cents per lb                 May      31.71  32.50  31.62  32.23   +.49Jul      31.97  32.69  31.87  32.45   +.48Aug      32.09  32.80  31.98  32.56   +.47Sep      32.22  32.91  32.11  32.68   +.46Oct      32.32  33.00  32.20  32.83   +.51Dec      32.55  33.25  32.43  33.00   +.45Jan      32.71  33.45  32.70  33.09   +.32Mar      32.94  33.67  32.94  33.44   +.44May      33.21  33.85  33.18  33.64   +.43Jul      33.35  34.02  33.35  33.85   +.48Dec      33.45  34.03  33.45  33.81   +.42Est. sales 109,138.  Tue.'s sales 90,214Tue.'s open int 498,566,  up 6,120      SOYBEAN MEAL                         100 tons; dollars per ton                May     362.50 368.80 361.20 364.40  +2.70Jul     365.00 370.80 363.70 366.50  +2.30Aug     363.60 368.20 362.40 364.30  +2.00Sep     361.90 365.90 360.80 362.40  +2.00Oct     359.30 362.90 358.30 359.60  +1.70Dec     358.70 362.20 357.60 358.80  +1.00Jan     358.00 359.40 356.90 356.90  +1.20Mar     355.00 355.00 352.30 352.40   +.40May     350.70 351.70 350.00 350.00   +.90Jul     349.30 351.50 349.10 350.40  +1.10Aug     349.80 349.80 349.60 349.60  +2.00Sep     346.80 346.80 346.80 346.80  +2.10Oct     341.80 341.80 341.60 341.60  +1.90Dec     341.50 342.50 340.20 340.80  +1.20Est. sales 75,303.  Tue.'s sales 84,736 Tue.'s open int 446,889