BC-USDA-Portland Grain
BC-USDA-Portland Grain

The Associated Press



JO—GR110Portland, OR    Wed Mar 21, 2018    USDA Market NewsPortland Daily Grain ReportBids as of 9:30 a.m. Pacific time; Subject to changeAll Bids in dollars per bushel.  Bids are limited and not fullyestablished in early trading.Bids for grains delivered to Portland, Oregon in dollars per bushel.In early trading May wheat futures trended four to 8.50 cents perbushel lower than Tuesday?s noon closes.Bids for US 1 Soft White Wheat delivered to Portland in unit trains andbarges for March delivery for ordinary protein were not well tested inearly trading, but bids were indicated as steady compared to Tuesday?s noonbids for the same delivery period.  Some exporters were not issuing bidsfor nearby delivery.  Bids for guaranteed maximum 10.5 percent protein werewell tested in early trading, but bids were indicated as generally steadycompared to Tuesday?s noon bids for the same delivery period.  Someexporters were not issuing bids for nearby delivery.Bids for 11.5 percent protein US 1 Hard Red Winter Wheat for Marchdelivery were not well tested in early trading but bids were indicated aslower compared to Tuesday?s bids for the same delivery period.  Someexporters were not issuing bids for nearby delivery.Bids for 14 percent protein US 1 Dark Northern Spring Wheat for Marchdelivery were not well tested in early trading but bids were indicated aslower compared to Tuesday?s noon bids for the same delivery period.  Someexporters are not issuing bids for nearby delivery.Bids for US 2 Yellow Corn delivered full coast in 110 car shuttle trainsduring March were not well tested in early trading, but bids were indicatedas lower compared to Tuesday?s noon bids for the same delivery period.Some exporters were not issuing bids for nearby delivery.Bids for US 1 Yellow Soybeans delivered full coast in 110 car shuttletrains during March were not well tested in early trading, but bids wereindicated as higher compared to Tuesday?s noon bids for the same deliveryperiod.  Some exporters were not issuing bids for nearby delivery.All wheat bids in dollars per bushelUS 1 Soft White Wheat - delivered by Unit Trains and BargesOrdinary proteinMar                                       5.4000-5.6200Apr                                       5.4000-5.6000May                                       5.5400-5.6000Jun                                       5.5350-5.6100Aug NC                                    5.4575-5.6000Guaranteed maximum 10.5 pct proteinMar                                       5.4000-5.5600Apr                                       5.4000-5.5800May                                       5.5400-5.5800Jun                                       5.5350-5.6100Aug NC                                    5.4575-5.5000—US 1 White Club Wheat - delivered by Unit Trains and BargesOrdinary proteinMar                                       5.4400-5.6200Guaranteed maximum 10.5 pct proteinMar                                       5.4500-5.5600—US 1 Hard Red Winter Wheat - (Exporter bids-falling numbers of 300 orbetter)Ordinary protein                            5.0150-5.215011 pct protein                              5.6150-5.915011.5 pct proteinMar                                       5.9150-6.1650Apr                                       5.9650-6.1150May                                       5.9650-6.1650Jun                                       6.1450-6.175012 pct protein                              6.0650-6.315013 pct protein                              6.3650-6.6150—US 1 Dark Northern Spring Wheat (with a minimum of 300 falling numbers, a maximumof 0.5 part per million vomitoxin, and a maximum of one percent total damage)13 pct protein                              6.5600-6.790014 pct proteinMar                                       7.0400-7.2400Apr                                       7.0400-7.2700May                                       7.0900-7.2900Jun                                       7.0825-7.332515 pct protein                              7.3600-7.560016 pct protein                              7.6700-7.8800—US 2 Yellow CornShuttle trains-Delivered full coast Pacific Northwest-BNMar                                       4.6950-4.8450Apr                                       4.7450-4.8450May                                       4.7450-4.8450Jun                                       4.7750-4.8450Jul                                       4.6750-4.7250Aug                                       NA—US 1 Yellow SoybeansShuttle trains-Delivered full coast Pacific Northwest-BNMar                                       11.1350-11.1850Apr                                       11.2950-11.3150May                                       11.2950-11.3150Jun                                       11.3825-11.3925Jul                                       11.3625-11.3825Oct                                       11.1800-11.2800—US 2 Heavy White Oats **                      3.4825** Not well tested.Exporter Bids Portland Rail/Barge             Feb 2018Averages in Dollars per bushelUS 1 Soft White by Unit Trains and Barges   5.4300US 1 Hard Red Winter (Ordinary protein)     5.4100US 1 Hard Red Winter (11.5% protein)        6.3200US 1 Dark Northern Spring (14% protein)     7.2900Source:    USDA Market News Service, Portland, ORNiki Davila 503-535-5001  Portland.LPGMN@ams.usda.gov24 Hour Market Report  503-535-5005www.ams.usda.gov/mnreports/jo—gr110.txtwww.ams.usda.gov/lpsmarketnewspage8:43 P nd