BC-USDA-Natl Sheep
BC-USDA-Natl Sheep

The Associated Press



SA—LS850San Angelo, TX    Wed Mar 21, 2018    USDA Market NewsNational Sheep Summary for Wednesday, March 21, 2018Compared to last week at Sioux Falls, SD slaughter lambs steady;slaughter ewes sharply higher; feeder lambs had a higher undertone.Slaughter Lambs:   Choice and Prime 2-3 90-150 lbs:Sioux Falls:    shorn and wooled 115-120 lbs 158.00-161.00; 140-150 lbs149.00-152.00; 150-160 lbs 143.00-148.00.Virginia:       no test.Slaughter Lambs:  Choice and Prime 1-2:Sioux Falls:    80-100 lbs 159.00-160.00; 105 lbs 147.50.Virginia:       no test.Slaughter Ewes:Sioux Falls:    Good 3-4 (very fleshy) 55.00-66.00; Good 2-3 (fleshy)50.00-68.00; Utility 1-2 (thin) 52.00-64.00; Cull 141.00-46.00.Virginia:       Good 2-4 no test.Feeder Lambs:   Medium and Large 1-2:Sioux Falls:    41 lbs 332.50; 50-60 lbs 289.00-300.00; 60-70 lbs232.50-252.50; 78 lbs 186.00; 80-90 lbs 160.00-170.00.Virginia:       no test.Replacement Ewes: Medium and Large 1-2:Sioux Falls:    bred solid mouth 180.00-220.00 per head; bred aged110.00 per head; ewes and baby lambs 50.00 per head.Virginia:       no test.Sheep and lamb slaughter under federal inspection for the week to datetotaled 25,000 compared with 22,000 last week and 25,000 last year.Source:  USDA Market News Service, San Angelo, TXRebecca Sauder 325-653-1778www.ams.usda.gov/mnreports/SA—LS850.txtwww.ams.usda.gov/LSMarketNews1700  rs