BC-US--Grain Prices, US
BC-US--Grain Prices, US

The Associated Press

CHICAGO




CHICAGO (AP) — Futures trading on the Chicago Board of Trade Wednesday.:
SettleWHEAT (5,000 bu ; cents per bushel)May             453 1-2Jul             469 1-4Sep             485 1-2Dec             507 1-4Mar             524 1-2May             533 1-4Jul             538 1-4Sep             546 1-4Dec             560 3-4Mar             570    May             569 3-4Jul             552 1-2CORN (5,000 bu ; cents per bushel)May             375    Jul             383    Sep             389 1-2Dec             396 3-4Mar             403 3-4May             408 1-4Jul             412 1-2Sep             402 1-2Dec             405 3-4Mar             413 1-2May             417 3-4Jul             421 3-4Sep             416 1-4Dec             412    Jul             420 1-4Dec             415    OATS (5,000 bu ; cents per bushel)May             231 1-2Jul             238 1-2Sep             244 1-2Dec             252 1-2Mar             258 1-2May             262 1-4Jul             267 1-4Sep             268 1-2Dec             268 1-2Mar             268 1-2Jul             267    Sep             267    SOYBEANS (5,000 bu ; cents per bushel)May            1029 3-4Jul            1040 1-2Aug            1041 3-4Sep            1030 1-4Nov            1026 1-4Jan            1029 3-4Mar            1027 1-2May            1027 1-2Jul            1030    Aug            1025 1-4Sep            1008 1-4Nov             997 1-2Jan            1002 1-2Mar            1003    May            1010 1-2Jul            1013    Aug            1005 1-2Sep            1001 3-4Nov             976 1-2Jul             976 1-2Nov             976 1-2SOYBEAN OIL (60,000 lbs; cents per lb)May             32.37Jul             32.60Aug             32.71Sep             32.83Oct             32.94Dec             33.17Jan             33.38Mar             33.61May             33.80Jul             33.98Aug             34.00Sep             33.99Oct             33.88Dec             34.00Jan             34.10Mar             34.33May             34.36Jul             34.49Aug             34.48Sep             34.48Oct             34.48Dec             34.39Jul             34.39Oct             34.39Dec             34.39SOYBEAN MEAL (100 tons; dollars per ton)May            364.50Jul            366.80Aug            364.60Sep            362.60Oct            359.70Dec            359.00Jan            356.70Mar            352.30May            349.50Jul            349.70Aug            348.00Sep            345.30Oct            340.00Dec            339.60Jan            340.30Mar            341.10May            341.10Jul            342.60Aug            342.60Sep            342.60Oct            342.60Dec            339.40Jul            339.40Oct            339.40Dec            339.40