BC-USDA-Portland Grain
BC-USDA-Portland Grain

The Associated Press



JO—GR110Portland, OR    Thu Mar 22, 2018    USDA Market NewsPortland Daily Grain ReportBids as of 9:30 a.m. Pacific time; Subject to changeAll Bids in dollars per bushel.  Bids are limited and not fullyestablished in early trading.Bids for grains delivered to Portland, Oregon in dollars per bushel.In early trading May wheat futures trended 0.75 of a cent to 4.50 centsper bushel higher than Wednesday?s noon closes.Bids for US 1 Soft White Wheat delivered to Portland in unit trains andbarges for March delivery for ordinary protein were not well tested inearly trading, but bids were indicated as steady compared to Wednesday?snoon bids for the same delivery period.  Some exporters were not issuingbids for nearby delivery.  Bids for guaranteed maximum 10.5 percent proteinwere well tested in early trading, but bids were indicated as generallyhigher compared to Wednesday?s noon bids for the same delivery period.Some exporters were not issuing bids for nearby delivery.Bids for 11.5 percent protein US 1 Hard Red Winter Wheat for Marchdelivery were not well tested in early trading but bids were indicated ashigher compared to Wednesday?s bids for the same delivery period.  Someexporters were not issuing bids for nearby delivery.Bids for 14 percent protein US 1 Dark Northern Spring Wheat for Marchdelivery were not well tested in early trading but bids were indicated ashigher compared to Wednesday?s noon bids for the same delivery period.Some exporters are not issuing bids for nearby delivery.Bids for US 2 Yellow Corn delivered full coast in 110 car shuttle trainsduring March were not well tested in early trading, but bids were indicatedas lower compared to Wednesday?s noon bids for the same delivery period.Some exporters were not issuing bids for nearby delivery.Bids for US 1 Yellow Soybeans delivered full coast in 110 car shuttletrains during March were not well tested in early trading, but bids wereindicated as lower compared to Wednesday?s noon bids for the same deliveryperiod.  Some exporters were not issuing bids for nearby delivery.All wheat bids in dollars per bushelUS 1 Soft White Wheat - delivered by Unit Trains and BargesOrdinary proteinMar                                       5.4000-5.6200Apr                                       5.4000-5.6000May                                       5.5625-5.6100Jun                                       5.5975-5.6300Aug NC                                    5.5000-5.6000Guaranteed maximum 10.5 pct proteinMar                                       5.4000-5.5900Apr                                       5.4000-5.6100May                                       5.5625-5.6100Jun                                       5.5975-5.6300Aug NC                                    5.5000-5.5100—US 1 White Club Wheat - delivered by Unit Trains and BargesOrdinary proteinMar                                       5.4500-5.6200Guaranteed maximum 10.5 pct proteinMar                                       5.4000-5.5900—US 1 Hard Red Winter Wheat - (Exporter bids-falling numbers of 300 orbetter)Ordinary protein                            5.1000-5.300011 pct protein                              5.7000-6.000011.5 pct proteinMar                                       6.0000-6.2500Apr                                       6.0500-6.2000May                                       6.0500-6.2500Jun                                       6.2375-6.2675Aug NC                                    NA12 pct protein                              6.1500-6.400013 pct protein                              6.4500-6.7000—US 1 Dark Northern Spring Wheat (with a minimum of 300 falling numbers, a maximumof 0.5 part per million vomitoxin, and a maximum of one percent total damage)13 pct protein                              6.5825-6.812514 pct proteinMar                                       7.0625-7.2625Apr                                       7.0625-7.2925May                                       7.1125-7.3625Jun                                       7.1100-7.4100Aug NC                                    NA15 pct protein                              7.3825-7.582516 pct protein                              7.6925-7.9025—US 2 Yellow CornShuttle trains-Delivered full coast Pacific Northwest-BNMar                                       4.6975-4.8475Apr                                       4.7475-4.8475May                                       4.7475-4.8475Jun                                       4.7750-4.8450Jul                                       4.6750-4.7250Aug                                       NA—US 1 Yellow SoybeansShuttle trains-Delivered full coast Pacific Northwest-BNMar                                       11.0750-11.1250Apr                                       11.2350-11.2550May                                       11.2350-11.2550Jun                                       11.3225-11.3325Jul                                       11.3025-11.3225Oct                                       11.1250-11.2250—US 2 Heavy White Oats **                      3.4825** Not well tested.Exporter Bids Portland Rail/Barge             Feb 2018Averages in Dollars per bushelUS 1 Soft White by Unit Trains and Barges   5.4300US 1 Hard Red Winter (Ordinary protein)     5.4100US 1 Hard Red Winter (11.5% protein)        6.3200US 1 Dark Northern Spring (14% protein)     7.2900Source:    USDA Market News Service, Portland, ORNiki Davila 503-535-5001  Portland.LPGMN@ams.usda.gov24 Hour Market Report  503-535-5005www.ams.usda.gov/mnreports/jo—gr110.txtwww.ams.usda.gov/lpsmarketnewspage8:43 P nd