BC-USDA-Iowa Elev Grain Prcs
BC-USDA-Iowa Elev Grain Prcs

The Associated Press



NW—GR110Des Moines, IA    Thu Mar 22, 2018    IA Dept of Ag-USDA Market NewsIA Dept. of Ag-USDA Market News Interior Iowa Daily Grain PricesClosing cash grain bids offered to producers as of 1:30 p.m.Dollars per bushel, delivered to Interior Iowa Country Elevators.US 2 Yellow Corn Prices were mostly 1 cent higher for a state average of 3.31.US 1 Yellow Soybean Prices were mostly 1 cent higher for a state average of 9.45.Iowa Regions       #2 Yellow Corn          #1 Yellow SoybeansRange       Avg        Range         AvgNorthwest        3.25 ? 3.40   3.28       9.38 ? 9.47   9.41North Central    3.27 ? 3.33   3.31       9.38 ? 9.48   9.44Northeast        3.24 ? 3.37   3.32       9.30 ? 9.62   9.45Southwest        3.27 ? 3.34   3.32       9.40 ? 9.51   9.46South Central    3.23 ? 3.36   3.28       9.40 ? 9.49   9.45Southeast        3.17 ? 3.54   3.32       9.44 ? 9.55   9.50Corn basis to STATE AVERAGE PRICE for the CBOT MAY contract is -.45Soybean basis to STATE AVERAGE PRICE for the CBOT MAY contract is -.85This report was prepared by the Marketing Bureau, Iowa Department ofAgriculture and Land Stewardship.Source:  USDA Market News Des Moines, Iowa515-284-4460www.ams.usda.gov/mnreports/nw—gr110.txtIowa Dept. of Agriculture and Land Stewardship515-281-8604www.iowaagriculture.gov/agMarketing/dailyGrainPrices.asp16:23 ja