BC-BOT Table,1st Ld
BC-BOT Table,1st Ld

The Associated Press

CHICAGO




CHICAGO (AP) — Noon trading on the Chicago Board of Trade Thu.:
Open  High  Low  Noon    Chg.WHEAT                                   5,000 bu minimum; cents per bushel    May      453½  459¾  451¼  456¾   +3¼Jul      468¾  475¼  467    472¾   +3½Sep      483    491¼  483    488¼   +2¾Dec      507¼  512¾  504¾  509¾   +2½Mar      524    529¾  522    525½   +1  May      532¾  538¼  531    533¼        Jul      537¾  542½  536½  540¾   +2½Sep      545½  547    545    547     + ¾Est. sales 80,177.  Wed.'s sales 149,837Wed.'s open int 473,974                CORN                                     5,000 bu minimum; cents per bushel    May      375½  377½  374    375½   + ½Jul      383    385½  382    383          Sep      389¾  392    388½  389½        Dec      396¾  399½  396    397½   + ¾Mar      403½  406¼  403    404½   + ¾May      409¼  410½  407¾  409     + ¾Jul      412½  414¾  412    413¼   + ¾Sep      402    402¼  402    402¼   — ¼Dec      406¼  407¼  404½  407     +1¼Mar      413    414¾  413    414¾   +1¼Jul      421    421    421    421     — ¾Est. sales 189,688.  Wed.'s sales 372,060Wed.'s open int 1,862,226              OATS                                      5,000 bu minimum; cents per bushel    May      229½  232½  228¼  229½   —2  Jul      236½  240½  236½  236¾   —1¾Dec      250    251½  250    251     —1½Est. sales 731.  Wed.'s sales 955      Wed.'s open int 5,621                  SOYBEANS                               5,000 bu minimum; cents per bushel    May     1032   1035½ 1022¼ 1026½   —3¼Jul     1042¼ 1045¾ 1033   1037     —3½Aug     1044½ 1047¼ 1035¼ 1039     —2¾Sep     1032¾ 1034½ 1024¼ 1027¾   —2½Nov     1025¾ 1029¾ 1018¾ 1024     —2¼Jan     1030   1033¾ 1023   1027½   —2¼Mar     1029   1030½ 1021   1025¾   —1¾May     1031¼ 1031¼ 1020¼ 1025¼   —2¼Jul     1031¼ 1031¼ 1022¾ 1028¼   —1¾Aug     1022¾ 1022¾ 1022¾ 1022¾   —2½Nov      998¾  998¾  992    995     —2½Est. sales 151,291.  Wed.'s sales 138,977Wed.'s open int 851,441                SOYBEAN OIL                            60,000 lbs; cents per lb                 May      32.35  32.41  31.75  31.78   —.59Jul      32.58  32.64  31.99  32.02   —.58Aug      32.71  32.71  32.10  32.12   —.59Sep      32.81  32.84  32.23  32.24   —.59Oct      32.87  32.97  32.35  32.35   —.59Dec      33.15  33.19  32.57  32.59   —.58Jan      33.25  33.25  32.80  32.87   —.51Mar      33.41  33.41  33.04  33.10   —.51May      33.38  33.38  33.38  33.38   —.42Dec      33.99  33.99  33.50  33.50   —.50Est. sales 69,737.  Wed.'s sales 90,214 Wed.'s open int 498,566                SOYBEAN MEAL                         100 tons; dollars per ton                May     366.00 368.90 365.00 366.50  +2.00Jul     368.20 371.10 367.60 368.80  +2.00Aug     366.00 368.30 365.60 366.60  +2.00Sep     364.00 366.10 363.60 364.10  +1.50Oct     361.50 363.00 360.60 361.00  +1.30Dec     360.10 362.10 359.70 360.30  +1.30Jan     358.90 359.50 356.90 357.70  +1.00Mar     352.30 354.00 351.90 352.00   —.30May     349.30 351.20 349.00 349.00   —.50Jul     349.00 351.10 348.90 349.20   —.50Aug     347.70 347.70 347.70 347.70   —.30Sep     345.00 345.00 345.00 345.00   —.30Oct     340.80 340.80 340.80 340.80   +.80Dec     338.00 340.10 337.90 339.40   —.20Est. sales 68,673.  Wed.'s sales 84,736 Wed.'s open int 446,889