BC-USDA-Catl Actn
BC-USDA-Catl Actn

The Associated Press



.SA—LS150San Angelo, TX    Thu Mar 22, 2018    USDA Market NewsProducers Livestock Auction Co Report, San Angelo, TexasCattle and Calf Auction:Close and Weekly:Total Receipts:  1449    Last Week:   1350    Year Ago:  1014Compared to last week steer and heifer calves and yearlings weak to2.00 lower.  Slaughter cows and slaughter bulls weak.  Stock cows andpairs steady.  Trading and demand moderate.  Quality mostly average toplain.  Supply included 14 percent slaughter cows, 1 percent slaughterbulls, 80 percent feeders, 5 percent stock cows and pairs ? of thefeeders 50 percent were steers and bulls ? 35 percent weighed over 600lbs.FEEDER STEERS:Medium and Large 1 293 lbs 208.00; 300-400 lbs 200.00-209.00; 500-600lbs 170.00-180.00; 600-700 lbs 156.00-160.00; 797 lbs 136.00.Medium and Large 1-2 300-400 lbs 181.00-194.00; 400-500 lbs 179.00-188.50; 500-600 lbs 153.00-166.00; 600-700 lbs 140.00-149.00; 700-800 lbs131.00-134.00; 800-850 lbs 128.00-129.00.Medium and Large 2 300-400 lbs 178.00-180.00; 400-500 lbs 160.00-176.00; 500-600 lbs 144.00-152.00; 600-700 lbs 130.00-138.00; 700-800 lbs120.00-127.00; 800-850 lbs 120.50-123.00; 900-950 lbs 103.00-116.00.FEEDER BULLS:Medium and Large 2 400-500 lbs 145.00-159.00; 600-700 lbs 120.00-125.00; 700-800 lbs 108.00-110.00.FEEDER HEIFERS:Medium and Large 1 300-400 lbs 176.00-189.00; 400-450 lbs 169.00-173.00; 500-600 lbs 143.00-154.00.Medium and Large 1-2 298 lbs 178.00; 300-400 lbs 165.00-172.00; 400-500 lbs 152.00-162.00; 500-600 lbs 134.00-142.00; 600-700 lbs 131.00-142.00; 700-750 lbs 122.50-124.00.Medium and Large 2 293 lbs 160.00; 300-400 lbs 140.00-150.00; 400-500lbs 141.00-150.00; 500-700 lbs 118.00-131.00; 700-825 lbs 105.00-119.00.SLAUGHTER COWS:%Lean   weight         avg dress      hi-dress      low-dressBreakers  75-80  1200-1750 lbs   53.00-62.00Boners    80-85   950-1475 lbs   63.00-68.00      72.00Lean      85-90   850-1400 lbs   60.00-67.00                 55.00-60.0085-90   600-900  lbs                               45.00-55.00SLAUGHTER BULLS:  Yield Grade 1 1500-2000 lbs 78.00-88.00; low-dressing1150-1600 lbs 72.00-78.00.PREGNANCY TESTED STOCK COWS AND HEIFERS:  All sold by the head.Medium and Large 1Medium and Large 1-2Medium and Large 2      800.00-925.00.COW/CALF PAIRS:    All sold by the pair.  All have 150-350 lbs calves.Medium and Large 1     1425.00-1575.00.Medium and Large 1-2   1225.00-1260.00.Medium and Large 2      800.00-1100.00.STOCKER AND FEEDER COWS:Medium and Large 1-2 (young) 800-1000 92.00-104.00 cwt; (young andmiddle age) 800-1100 lbs 79.00-88.00 cwt; (middle age) 900-1450 lbs68.00-73.00 cwt; (thin &/or aged) 800-1300 lbs 60.00-67.00 cwt.Source:  USDA Market News Service, San Angelo, TexasRebecca Sauder 325-653-1778www.ams.usda.gov/mnreports/SA—LS150.txtwww.ams.usda.gov/LSMarketNews1700c  rs