BC-BOT Table,1st Ld
BC-BOT Table,1st Ld

The Associated Press

CHICAGO




CHICAGO (AP) — Noon trading on the Chicago Board of Trade Fri.:
OpenHighLowNoonChg.WHEAT5,000 bu minimum; cents per bushelMay455¼460¼446½459¼+3½Jul472476½463¼475¾+3¾Sep487¾492¾480492+4Dec509¼514501½513¼+4Mar526¼530519530+3½May532538½528½538¼+3Jul541543533543+2Est. sales 93,226.  Thu.'s sales 112,008Thu.'s open int 479,302,  up 5,328CORN5,000 bu minimum; cents per bushelMay376¼377¼369¼376Jul384½385½377½383¾—½Sep391391¾384390½Dec398399391½397¾—¼Mar405406398¾404¾—½May410410½404409¾—¼Jul414414½408½414Dec407¼407½404407Mar413¾414413¾414—1½Jul423423423423+¼Sep415415415415—1½Dec411412410½412Est. sales 402,483.  Thu.'s sales 302,979Thu.'s open int 1,847,102OATS5,000 bu minimum; cents per bushelMay228¼229½222½227½—1¼Jul236½236½231½235¾—1¼Sep241½241½240240—3Dec251254¼251254¼+3¼Est. sales 843.  Thu.'s sales 975Thu.'s open int 5,758,  up 137SOYBEANS5,000 bu minimum; cents per bushelMay1026½1034¼1009¼1022¾—7Jul1037½1045¼1020¼1033½—7¼Aug1039½1046¾10231036—6½Sep1029¼1035½10151026—5Nov102310311012½1021½—5¼Jan1026¾10341016¾1024¾—5½Mar1024¾1031¾1015¾1023—5¼May1025¼103210161023¼—5Jul1025¾10281018¾1026—4¾Aug1021¼1021¼1017¾1017¾—8¼Nov9941000988992½—4¾Est. sales 245,280.  Thu.'s sales 194,611Thu.'s open int 861,603,  up 10,162SOYBEAN OIL60,000 lbs; cents per lbMay31.8631.9831.4531.48—.40Jul32.0932.2131.6931.72—.40Aug32.2032.3231.8131.84—.40Sep32.2932.4431.9331.96—.40Oct32.4532.5232.0632.09—.39Dec32.6832.8032.3032.34—.38Jan32.9032.9832.5232.54—.40Mar33.1033.1932.7732.77—.40May33.3933.3932.9433.03—.34Jul33.5733.5733.1433.14—.42Aug33.1833.1833.1833.18—.39Sep33.2533.2533.2533.25—.32Dec33.2933.2933.2933.29—.31Est. sales 93,570.  Thu.'s sales 104,997Thu.'s open int 496,496SOYBEAN MEAL100 tons; dollars per tonMay367.90375.50360.50372.80+4.80Jul369.70377.60363.30374.90+4.50Aug367.50374.20361.50371.60+3.50Sep365.10370.50359.60367.90+2.20Oct362.00366.00356.90364.20+1.60Dec361.70364.20355.90362.70+1.00Jan359.40360.30353.10359.20+.40Mar353.40353.70348.30353.20—.20May347.20350.20346.60350.20—.20Jul349.40350.70346.70350.70+.30Aug345.80349.00345.70349.00+.80Sep342.90342.90342.90342.90—2.60Oct338.20338.20338.20338.20—1.80Dec339.10341.00336.80338.90—.60Est. sales 133,152.  Thu.'s sales 96,225Thu.'s open int 448,445,  up 1,556