BC-USDA-Slghtr Catl
BC-USDA-Slghtr Catl

The Associated Press



SJ—LS110 St Joseph, MO    Mon  Mar  26,  2018    USDA-MO Dept of Ag Market NewsSt Joseph Stockyards - St Joseph, MOLivestock Weighted Average Report for 3/26/2018 AUCTION                         Receipts           Week Ago              Year Ago-------------------------------------------------------------------------------- Total Receipts:                    217                   229                 0-------------------------------------------------------------------------------- Slaughter Cattle:                  191(88              179(78%)            0(0%) Replacement Cattle:                 26(12               50(22%)            0(0%)-------------------------------------------------------------------------------- ***CLOSE***  Compared to last week, slaughter cows sold 5.00 to 7.00 higher,while slaughter bulls sold 3.00 lower.--------------------------------------------------------------------------------SLAUGHTER CATTLE-------------------------------------------------------------------------------- COWS - Breaker 75-80%  (Per Cwt / Actual Wt) Head      Wt Range    Avg Wt     Price Range   Avg Price Dressing2      1720-1920     1820      55.00-58.00      56.58    Average2      1445-1970     1707      53.00-54.50      53.87        Low COWS - Boner 80-85%  (Per Cwt / Actual Wt) Head      Wt Range    Avg Wt     Price Range   Avg Price Dressing56       870-1855     1394      53.00-65.00      57.73    Average17      1210-1490     1327      64.00-69.50      65.95       High6       905-1885     1319      50.00-52.00      51.01        Low COWS - Lean 85-90%  (Per Cwt / Actual Wt) Head      Wt Range    Avg Wt     Price Range   Avg Price Dressing31       975-1845     1292      45.00-58.50      52.43    Average10      1105-1410     1252      59.00-63.00      60.71       High12       985-1485     1203      25.00-40.50      35.76        Low BULLS -  1-2 (Per Cwt / Actual Wt) Head      Wt Range    Avg Wt     Price Range   Avg Price Dressing24      1030-2500     1704      73.00-83.00      76.94    Average2      1080-1195     1137      87.00-90.00      88.58       High7      1380-1875     1620      50.00-70.00      61.00        Low--------------------------------------------------------------------------------REPLACEMENT CATTLE--------------------------------------------------------------------------------STOCK COWS - Medium and Large 1 (Per Cwt / Actual Wt)Age    Stage  Head     Wt Range     Avg Wt    Price Range    Avg Price2-4      O     12      890-1315      1031     85.00-121.00     108.40STOCK COWS - Medium and Large 1-2 (Per Cwt / Actual Wt)Age    Stage  Head     Wt Range     Avg Wt    Price Range    Avg Price2-8      O      8      940-1425      1105     63.00-81.00       70.35BRED COWS - Medium and Large 1-2 (Per Head / Actual Wt)Age    Stage  Head     Wt Range     Avg Wt    Price Range    Avg Price2-8     T3      3      945-1135      1071    625.00-900.00     819.17COW-CALF PAIRS - Medium and Large 1-2 w/ 150-300 lbs calf (Per Family / Estimate Wt)Age    Stage  Head     Wt Range     Avg Wt    Price Range    Avg Price>5      O      2         875         875       1000.00       1000.00COW-CALF PAIRS - Medium and Large 2 w/ 150-300 lbs calf (Per Family / Estimate Wt)Age    Stage  Head     Wt Range     Avg Wt    Price Range    Avg Price>8      O      1         900         900        650.00        650.00Please Note:The above USDA LPGMN price report is reflective of the majority of classes and grades of livestock offered for sale.  There may be instances where some salesdo not fit within reporting guidelines and therefore will not be included in the report.  Prices are reported on an FOB basis, unless otherwise noted.Explanatory Notes:Stage (Cattle) - Represents pregnancy stage (O = open; T1 = 1st Trimester, 1to 3 months; T1-2 = 1st/2nd trimester, 1 to 6 months; T2 = 2nd Trimester, 4 to6 months; T2-3 = 2nd/3rd Trimester, 4 to 9 months; T3 = 3rd Trimester, 7 to 9months; T1-3 = all trimesters, 1 to 9 months; E = Exposed; B = Bred)Age - Numerical representation of age in years. Source:  USDA-MO Dept of Ag Market News ServiceLINDSAY BRUNET, Market Reporter, (816) 676-700024 Hour Market Report 1-573-522-9244www.ams.usda.gov/mnreports/SJ—LS110.txtwww.ams.usda.gov/market-news/livestock-poultry-grain