BC-BOT Table,1st Ld
BC-BOT Table,1st Ld

The Associated Press

CHICAGO




CHICAGO (AP) — Noon trading on the Chicago Board of Trade Mon.:
Open  High  Low  Noon    Chg.WHEAT                                   5,000 bu minimum; cents per bushel    May      462½  463¾  451¼  457½   —2¾Jul      478¼  479½  467¾  474     —2½Sep      494    495½  484    490     —2½Dec      515¼  516¾  505¼  511     —2¾Mar      532¼  533    521¾  527¼   —3½May      541    542¼  531    537¼   —2¼Jul      542¾  544    538¾  543     —2½Est. sales 78,058.  Fri.'s sales 130,401 Fri.'s open int 484,320,  up 5,018      CORN                                     5,000 bu minimum; cents per bushel    May      378½  380¾  373½  375     —2¼Jul      386½  388¾  382    383¼   —2½Sep      393    394¾  388½  390     —2  Dec      400    402¼  396¼  397½   —1¾Mar      407¼  409¼  403¾  404½   —2  May      412    413¾  408½  409¾   —1¾Jul      416    418    413¼  414     —2  Sep      406¼  406¼  406¼  406¼   +1½Dec      408¾  409¾  406    406¾   —2  Mar      417½  418¼  417½  418¼   +1½Jul      423    423    423    423     —2  Dec      414    414    413½  414     +1½Est. sales 258,349.  Fri.'s sales 542,308Fri.'s open int 1,833,794               OATS                                      5,000 bu minimum; cents per bushel    May      227½  232¼  226¾  227¾   +1½Jul      238    240    236    236½   +1¼Dec      252    253    252    252     + ½Est. sales 497.  Fri.'s sales 962       Fri.'s open int 6,002,  up 244          SOYBEANS                               5,000 bu minimum; cents per bushel    May     1026¼ 1040¼ 1025   1027     —1¼Jul     1037¼ 1051   1036   1037½   —1¾Aug     1040   1052½ 1038½ 1040¼   —1  Sep     1029¾ 1042¼ 1029¾ 1031     — ½Nov     1025   1036¼ 1025   1026     — ½Jan     1028¾ 1038¾ 1028¼ 1029¾   — ¼Mar     1028¾ 1037¾ 1026½ 1027½   — ¾May     1028   1035½ 1027   1027¼   —1½Jul     1034¾ 1036   1029¾ 1029¾   —1½Nov      998¾ 1000    995¼  997¼   +1  Est. sales 142,166.  Fri.'s sales 333,101Fri.'s open int 867,237,  up 5,634      SOYBEAN OIL                            60,000 lbs; cents per lb                 May      31.50  31.73  31.39  31.54   +.12Jul      31.73  31.98  31.65  31.79   +.12Aug      31.81  32.09  31.76  31.92   +.14Sep      31.93  32.22  31.90  32.05   +.14Oct      32.06  32.35  32.03  32.18   +.14Dec      32.31  32.60  32.26  32.42   +.13Jan      32.57  32.79  32.49  32.66   +.15Mar      32.75  33.05  32.74  32.90   +.16May      33.17  33.22  32.97  33.10   +.16Jul      33.28  33.31  33.15  33.30   +.17Aug      33.22  33.30  33.22  33.30   +.17Sep      33.20  33.35  33.20  33.35   +.19Oct      33.26  33.26  33.26  33.26   +.14Dec      33.30  33.45  33.29  33.33   +.16Est. sales 70,997.  Fri.'s sales 140,670 Fri.'s open int 507,213,  up 10,717     SOYBEAN MEAL                         100 tons; dollars per ton                May     377.90 385.80 374.20 375.70  —2.20Jul     380.00 387.60 376.80 378.30  —1.70Aug     377.00 383.50 373.80 375.20  —1.70Sep     373.60 379.50 370.50 370.50  —3.30Oct     369.10 374.50 366.30 367.30  —2.30Dec     368.10 373.20 364.60 365.60  —2.50Jan     365.30 368.60 361.50 362.10  —2.40Mar     359.50 361.30 354.70 354.70  —2.90May     356.00 356.10 350.40 350.40  —3.10Jul     354.80 354.80 350.50 351.30  —2.20Oct     343.00 343.00 338.00 338.00  —1.80Dec     341.00 342.10 337.00 338.10  —1.20Est. sales 95,088.  Fri.'s sales 179,345 Fri.'s open int 459,520,  up 11,075