BC-Merc Early
BC-Merc Early

The Associated Press

CHICAGO




CHICAGO (AP) — Early trading on the Chicago Mercantile Exchange Mon:
OpenHighLowLastChg.CATTLE40,000 lbs.; cents per lb.Apr116.22117.20115.65115.82—.23Jun106.20107.30105.70105.90—.30Aug104.90105.70104.17104.35—.60Oct108.92109.52108.22108.37—.55Dec112.75113.30112.15112.25—.47Feb114.50115.00114.02114.05—.25Apr114.85115.35114.75114.77—.08Jun109.50109.92109.05109.05—.15Est. sales 24,195.  Fri.'s sales 72,537Fri.'s open int 355,730FEEDER CATTLE50,000 lbs.; cents per lb.Mar135.50136.50135.50135.95+.25Apr136.07137.25135.82136.15+.05May137.00138.30136.72137.20—.10Aug142.12143.47141.85142.20—.10Sep143.30144.52143.00143.30—.35Oct143.72144.75143.47143.62—.25Nov144.07144.95143.65143.92—.23Jan141.52141.52140.75141.00+.50Est. sales 5,289.  Fri.'s sales 18,155Fri.'s open int 53,985,  up 861HOGS,LEAN40,000 lbs.; cents per lb.Apr58.8259.1058.1258.95+.53May65.7566.4265.5266.27+1.05Jun74.3575.5274.2575.50+1.35Jul75.6076.4275.3776.42+1.07Aug75.5076.5275.4776.52+1.07Oct65.3566.0065.2566.00+.75Dec60.4260.8560.3560.85+.43Feb64.5264.9064.5264.80+.08Apr68.6568.6568.4068.45+.20Est. sales 12,047.  Fri.'s sales 60,653Fri.'s open int 236,511,  up 3,047PORK BELLIES40,000 lbs.; cents per lb.No open contracts.