BC-USDA-Iowa Elev Grain Prcs
BC-USDA-Iowa Elev Grain Prcs

The Associated Press



NW—GR110Des Moines, IA   Mon Mar 26, 2018    IA Dept of Ag-USDA Market NewsIA Dept. of Ag-USDA Market News Interior Iowa Daily Grain PricesClosing cash grain bids offered to producers as of 1:30 p.m.Dollars per bushel, delivered to Interior Iowa Country Elevators.US 2 Yellow Corn Prices were mostly 3 cents lower for a state average of 3.29.US 1 Yellow Soybean Prices were generally 1 to 3 cents lower for a state average of 9.40Iowa Regions       #2 Yellow Corn          #1 Yellow SoybeansRange       Avg        Range         AvgNorthwest        3.23 ? 3.38   3.30       9.33 ? 9.43   9.37North Central    3.25 ? 3.31   3.28       9.33 ? 9.44   9.39Northeast        3.20 ? 3.39   3.28       9.26 ? 9.64   9.42Southwest        3.23 ? 3.38   3.30       9.33 ? 9.43   9.41South Central    3.25 ? 3.31   3.27       9.33 ? 9.44   9.40Southeast        3.20 ? 3.39   3.30       9.26 ? 9.64   9.46Corn basis to STATE AVERAGE PRICE for the CBOT MAY contract is -.45Soybean basis to STATE AVERAGE PRICE for the CBOT MAY contract is -.85This report was prepared by the Marketing Bureau, Iowa Department ofAgriculture and Land Stewardship.Source:  USDA Market News Des Moines, Iowa515-284-4460www.ams.usda.gov/mnreports/nw—gr110.txtIowa Dept. of Agriculture and Land Stewardship515-281-8604www.iowaagriculture.gov/agMarketing/dailyGrainPrices.asp16:20 ja