Preclosing
Preclosing

The Associated Press

CHICAGO




CHICAGO (AP) — Futures trading on the Chicago Board of Trade Mon:
OpenHighLowLastChg.WHEAT5,000 bu minimum; cents per bushelMay462½463¾451¼457¾—2½Jul478¼479½467¾474¾—1¾Sep494495½484491¼—1¼Dec515¼516¾505¼512¼—1½Mar532¼533521¾529—1¾May541542¼531537¼—2¼Jul542¾544538¾543½—2Est. sales 87,366.  Fri.'s sales 130,401Fri.'s open int 484,320,  up 5,018CORN5,000 bu minimum; cents per bushelMay378½380¾373½375¼—2Jul386½388¾382383¾—2Sep393394¾388½389¾—2¼Dec400402¼396¼397¾—1½Mar407¼409¼403¾405—1½May412413¾408½410—1½Jul416418413¼414¼—1¾Sep406¼406¼406¼406¼+1½Dec408¾409¾406406¾—2Mar417½418¼417½418¼+1½Jul423423423423—2Dec414414413½413¾+1¼Est. sales 276,671.  Fri.'s sales 542,308Fri.'s open int 1,833,794OATS5,000 bu minimum; cents per bushelMay227½232¼226½226½+¼Jul238240235½235½+¼Dec252253252252+½Est. sales 558.  Fri.'s sales 962Fri.'s open int 6,002,  up 244SOYBEANS5,000 bu minimum; cents per bushelMay1026¼1040¼10251025½—2¾Jul1037¼105110361036¼—3Aug10401052½1038½1039¼—2Sep1029¾1042¼1029¾1030¼—1¼Nov10251036¼10251025¼—1¼Jan1028¾1038¾1028¼1028¾—1¼Mar1028¾1037¾1026½1027¼—1May10281035½10271028½—¼Jul1034¾10361029¾1029¾—1½Nov998¾1000995¼997¼+1Est. sales 150,749.  Fri.'s sales 333,101Fri.'s open int 867,237,  up 5,634