BC-USDA-Opening Bids KY Grain Elevs
BC-USDA-Opening Bids KY Grain Elevs

The Associated Press



SV—GR110Frankfort, KY     Fri, Mar 23, 2018     USDA-KY Dept of Ag Market News***This report will next be published on Wed, March 28, 2018.***Kentucky Daily Grain Elevators Bids:Bids as of 4:00 est, cash prices by elevators/mills to producers:US NO 2 YELLOW CORNBids           Change          Basis           ChangePurchase        3.6425-3.6725  DN 1.75-DN 0.75   -13K to -10K     DN 3-DN 2Green River         3.6225         UP 1.25           -15K            UNCHPennyrile           3.6725         UP 1.25           -10K            UNCHLouisville      3.4725-3.4925  UP 7.25-UP 1.25   -30K to -28K     UP 6-UNCHBluegrass       3.5000-3.5725    UP 1-UP 1.25  -27.25K to -20K   DN 0.25-UNCHUS NO 2 WHITE CORNBids           ChangePennyrile             NA              NAUS NO 1 YELLOW SOYBEANSBids           Change          Basis           ChangePurchase        9.9325-9.9525       DN 1.5       -35K to -33K        UNCHGreen River         9.8325          DN 1.5           -45K            UNCHPennyrile           9.6325          DN 1.5           -65K            UNCHLouisville          9.2925         DN 16.5           -99K           DN 15Bluegrass       9.3800-9.7325    UNCH-DN 1.5   -90.25K to -55K   UP 1.5-UNCHUS NO 2 SOFT RED WINTER WHEATBids           Change          Basis           ChangePurchase              NA              NA              NA              NAGreen River           NA              NA              NA              NAPennyrile           4.4025          UP 4.5           -20K            UNCH (Milling Qlty)     4.5325          UP 4.5           -7K             UNCHLouisville      4.0325-4.8225   UP 8.5-UP 4.5    -57K to 22K      UP 4-UNCHBluegrass             NA              NA              NA              NAUS NO 2 MILO EXTRA HEAVYBids           Change          Basis           ChangePurchase              NA              NA              NA              NALouisville     NA              NA              NA              NAPennyrile      NA              NA              NA              NAUS NO 2 FEED BARLEYBids            ChangePennyrile      NA              NA------------------------------------------------------------------------------Opening Contract Prices for Fall (Jul Wheat) deliveryUS NO 2 YELLOW CORNBids           Change          Basis           ChangePurchase        3.7425-3.7725      UP 1.25       -25Z to -22Z        UNCHGreen River         3.7425         UP 1.25           -25Z            UNCHPennyrile       3.7425-3.8925      UP 1.25       -25Z to -10Z        UNCHLouisville     NA              NA              NA              NABluegrass      3.6925          UP 1.25         -30Z            UNCHUS NO 2 WHITE CORNBids            ChangePennyrile      4.2900          UP 1US NO 1 YELLOW SOYBEANSBids           Change          Basis           ChangePurchase       10.0150-10.0650     DN 0.25       -25X to -20X        UNCHGreen River         9.9450         DN 0.25           -32X            UNCHPennyrile       9.8650-9.9150      DN 0.25       -40X to -35X        UNCHLouisville     NA              NA              NA              NABluegrass      9.7150          DN 0.25         -55X            UNCHUS NO 2 SOFT RED WINTER WHEATBids           Change          Basis           ChangePurchase        4.6850-4.7650   UP 4.5-UP 6.5    -8N to OptN      UNCH-UP 2Green River         4.6150          UP 4.5           -15N            UNCHPennyrile       4.5150-4.5650       UP 4.5       -25N to -20N        UNCH (Milling Qlty)     4.8150          UP 4.5            5N             UNCHLouisville     4.7650          UP 4.5          OptN            UNCHBluegrass      4.5150          UP 4.5          -25N            UNCHUS NO 2 MILO EXTRA HEAVYBids            Change          Basis           ChangePurchase       NA              NA              NA              NALouisville     4.0925          UP 1.25         10Z             UNCHPennyrile      NA              NA              NA              NAUS NO 2 FEED BARLEYBids            ChangePennyrile      NA              NAPurchase- Inland elevators west of Tennesse RiverGreen River- Inland elevators near the Green RiverPennyrile- South west KY East of Tennessee River, west of I-65Louisville-Elevators near the Louisville areaBluegrass- Central Kentucky/Lexington areaSource: USDA-KY Dept of Ag Market News Service, Frankfort, KYJodee Inman  502-782-4138??????? www.ams.usda.gov/mnreports/SV—GR110.txt??????? www.ams.usda.gov/LPSMarketNewsPage1543Ekdb