BC-USDA-Okla City Catl Actn
BC-USDA-Okla City Catl Actn

The Associated Press



KO—LS150 Oklahoma City, OK    Mon  Mar  26,  2018    USDA-OK Dept of Ag Market NewsOklahoma National Stockyards - Oklahoma City, OKLivestock Auction Report for 3/26/2018 AUCTION                          Receipts           Week Ago             Year Ago--------------------------------------------------------------------------------- Total Receipts:                  4,600                 6,865              6,104------------------------------------------------------------------------------ Feeder Cattle:                   4,600(100           6,865(100%)        6,104(100%)---------------------------------------------------------------------------------*** Close ***Compared to last week:  Feeder steers 3.00-6.00 lower and feederheifers mostly 3.00 lower on a lighter test so far. Steer calves bringing1.00-3.00 lower. Heifer calves trading unevenly steady. Demand moderate. Quality mostly average.  The bearish market continues with the COF reportFriday showing higher numbers and CME Futures today is experiencing new lows in it's downward trend.  Feedlot pen space remains limited in the trading region.  Feeder cattle supply included 61 percent Steers, 38 percent Heifers, and  1 percent Bulls. Feeder cattle supply over 600 lbswas 72 percent.--------------------------------------------------------------------------------FEEDER CATTLE--------------------------------------------------------------------------------Feeder Steers(Per CWT):  Medium and Large 1 299 lbs Thin Fleshed 214.00; 300-400 lbs 195.00-206.00; 400-500 lbs 175.00-189.00; 500-600 lbs 163.50-177.00,506 lbs Thin Fleshed 184.00; 600-700 lbs 151.00-167.00, 697 lbs Calves 145.50,653 lbs Fancy 156.00, 640 lbs Fleshy 150.00; 700-800 lbs 132.00-149.50, Calves138.00-142.00; 800-900 lbs 124.00-131.60, Fleshy 120.00-124.25; 900-1000 lbs114.00-119.50. Medium and Large 1-2 451 lbs 173.00; 500-600 lbs 152.50-158.00,563 lbs Fleshy 149.00, Thin Fleshed 161.00-167.00; 600-700 lbs 142.00-149.50,Fleshy 141.00-142.00; 700-800 lbs 124.00-142.00, 768 lbs Thin Fleshed 135.75;800-900 lbs 117.00-126.50, Thin Fleshed 122.00-127.00; 900-1000 lbs 114.50-116.50. Medium and Large 2 400-500 lbs 156.00-163.00; 500-600 lbs 135.00-156.00;600-700 lbs 126.00-137.00; 700-800 lbs 130.00-135.00; 877 lbs 121.00.Feeder Heifers(Per CWT):  Medium and Large 1 300-400 lbs 165.00-177.00, 379lbs Thin Fleshed 198.00; 400-500 lbs 153.00-169.00, Thin Fleshed 163.00-175.00;500-600 lbs 141.00-155.50; 600-700 lbs 127.00-147.00, Calves 124.00-130.50, 697lbs Fleshy 124.50, 628 lbs Thin Fleshed 152.00; 700-800 lbs 124.50-129.00; 819lbs Fleshy 115.00. Medium and Large 1-2 331 lbs 164.00; 480 lbs 143.00; 500-600lbs 131.00-139.00, 528 lbs Thin Fleshed 152.00; 600-700 lbs 120.00-133.00; 700-800 lbs 115.00-123.00, 716 lbs Fleshy 117.00; 800-900 lbs 108.00-116.00; 937 lbs107.00. Medium and Large 2 584 lbs 124.50; 635 lbs 118.00.Feeder Bulls(Per CWT):  Medium and Large 1 343 lbs 187.00; 400-500 lbs165.00-168.00; 574 lbs 150.00; 646 lbs Fleshy 128.00.Please Note:The above USDA LPGMN price report is reflective of the majority of classes and grades of livestock offered for sale.  There may be instances where some salesdo not fit within reporting guidelines and therefore will not be included in the report.  Prices are reported on an FOB basis, unless otherwise noted. Source:  USDA-OK Dept of Ag Market News ServiceBartley Brogan/Joe Massey Market Reporters24 Hour Market Report 1-405-636-2691www.ams.usda.gov/mnreports/KO—LS150.txtwww.ams.usda.gov/market-news/livestock-poultry-grain