Close
Close

The Associated Press

CHICAGO




CHICAGO (AP) — Futures trading on the Chicago Board of Trade Mon.:
Open  High  Low  Settle   Chg.WHEAT                                   5,000 bu minimum; cents per bushel    May      462½  463¾  451¼  454¼   —6  Jul      478¼  479½  467¾  471½   —5  Sep      494    495½  484    487¾   —4¾Dec      515¼  516¾  505¼  509     —4¾Mar      532¼  533    521¾  525¾   —5  May      541    542¼  531    534¾   —4¾Jul      542¾  544    538¾  541¼   —4¼Sep                           549¾   —4½Dec                           565     —4¼Mar                           574½   —4  May                           572¼   —4¼Jul                           558¼   —4¾Est. sales 109,288.  Fri.'s sales 130,401Fri.'s open int 484,320,  up 5,018      CORN                                     5,000 bu minimum; cents per bushel    May      378½  380¾  373½  374     —3¼Jul      386½  388¾  382    382½   —3¼Sep      393    394¾  388½  389     —3  Dec      400    402¼  396¼  396¾   —2½Mar      407¼  409¼  403¾  404     —2½May      412    413¾  408½  409¼   —2¼Jul      416    418    413¼  413½   —2½Sep      406¼  406¼  403    403     —1¾Dec      408¾  409¾  406    406½   —2¼Mar      417½  418¼  415¼  415¼   —1½May                           419½   —1¼Jul      423    423    422¾  422¾   —2¼Sep                           413¼   —2¼Dec      414    414    412½  412½        Jul                           420¾        Dec                           415¾        Est. sales 314,016.  Fri.'s sales 542,308Fri.'s open int 1,833,794               OATS                                      5,000 bu minimum; cents per bushel    May      227½  232¼  226½  226½   + ¼Jul      238    240    235¼  235¼        Sep                           242¾        Dec      252    253    252    252     + ½Mar                           258     + ½May                           261¾   + ½Jul                           266¾   + ½Sep                           268     + ½Dec                           268     + ½Mar                           268     + ½Jul                           266½   + ½Sep                           266½   + ½Est. sales 591.  Fri.'s sales 962       Fri.'s open int 6,002,  up 244          SOYBEANS                               5,000 bu minimum; cents per bushel    May     1026¼ 1040¼ 1025   1025½   —2¾Jul     1037¼ 1051   1036   1036½   —2¾Aug     1040   1052½ 1038½ 1039     —2¼Sep     1029¾ 1042¼ 1029¾ 1030¼   —1¼Nov     1025   1036¼ 1025   1025½   —1  Jan     1028¾ 1038¾ 1028¼ 1028¾   —1¼Mar     1028¾ 1037¾ 1026½ 1026¾   —1½May     1028   1035½ 1027   1027¼   —1½Jul     1034¾ 1036   1029¾ 1030     —1¼Aug                          1024½   —1½Sep                          1007½   —1½Nov      998¾ 1000    995    995¾   — ½Jan                          1000¾   — ½Mar                          1001¼   — ½May                          1008¾   — ½Jul                          1011¼   — ½Aug                          1003¾   — ½Sep                          1000     — ½Nov                           983¼   +7¼Jul                           983¼   +7¼Nov                           983¼   +7¼Est. sales 166,324.  Fri.'s sales 333,101Fri.'s open int 867,237,  up 5,634      SOYBEAN OIL                            60,000 lbs; cents per lb                 May      31.50  31.73  31.39  31.46   +.04Jul      31.73  31.98  31.65  31.72   +.05Aug      31.81  32.09  31.76  31.84   +.06Sep      31.93  32.22  31.90  31.97   +.06Oct      32.06  32.35  32.03  32.10   +.06Dec      32.31  32.60  32.26  32.35   +.06Jan      32.57  32.79  32.49  32.57   +.06Mar      32.75  33.05  32.74  32.79   +.05May      33.17  33.22  32.97  32.99   +.05Jul      33.28  33.31  33.15  33.19   +.06Aug      33.22  33.30  33.22  33.22   +.09Sep      33.20  33.35  33.20  33.24   +.08Oct      33.26  33.26  33.16  33.16   +.04Dec      33.30  33.45  33.27  33.29   +.12Jan                           33.41   +.12Mar                           33.63   +.12May                           33.65   +.12Jul                           33.78   +.11Aug                           33.77   +.11Sep                           33.77   +.11Oct                           33.77   +.11Dec                           33.68   +.11Jul                           33.68   +.11Oct                           33.68   +.11Dec                           33.68   +.11Est. sales 84,044.  Fri.'s sales 140,670 Fri.'s open int 507,213,  up 10,717     SOYBEAN MEAL                         100 tons; dollars per ton                May     377.90 385.80 374.20 375.00  —2.90Jul     380.00 387.60 376.80 377.80  —2.20Aug     377.00 383.50 373.80 374.70  —2.20Sep     373.60 379.50 370.50 371.40  —2.40Oct     369.10 374.50 366.30 367.40  —2.20Dec     368.10 373.20 364.50 365.80  —2.30Jan     365.30 368.60 361.00 362.00  —2.50Mar     359.50 361.30 354.50 355.20  —2.40May     356.00 356.10 350.40 350.70  —2.80Jul     354.80 354.80 350.50 350.70  —2.80Aug                          348.70  —2.20Sep                          345.50  —2.40Oct     343.00 343.00 338.00 338.70  —1.10Dec     341.00 342.10 337.00 338.30  —1.00Jan                          339.00  —1.00Mar                          339.80  —1.00May                          339.80  —1.00Jul                          341.30  —1.00Aug                          341.30  —1.00Sep                          341.30  —1.00Oct                          341.30  —1.00Dec                          338.10  —1.00Jul                          338.10  —1.00Oct                          338.10  —1.00Dec                          338.10  —1.00Est. sales 116,169.  Fri.'s sales 179,345Fri.'s open int 459,520,  up 11,075