BC-Merc Table
BC-Merc Table

The Associated Press






BC-Merc Table,
CHICAGO (AP) — Futures trading on the Chicago Mercantile Exchange Tue:
OpenHighLowSettleChg.CATTLE40,000 lbs.; cents per lb.Apr115.40116.57115.00115.42+.25Jun105.32106.67104.90105.25—.05Aug103.65105.12103.45103.97+.30Oct107.52108.55107.35107.52—.05Dec111.62112.60111.47111.75+.13Feb113.45114.65113.32113.85+.28Apr114.82115.10114.20114.45+.13Jun108.22109.05108.00108.72+.32Aug107.47107.47107.00107.37—.05Est. sales 68,259.  Mon.'s sales 61,892Mon.'s open int 357,016,  up 1,286FEEDER CATTLE50,000 lbs.; cents per lb.Mar135.00135.80135.00135.42+.50Apr134.50136.90134.50135.35+.85May135.55137.87135.42136.35+.80Aug141.40143.52141.10142.20+1.05Sep142.45144.50142.30143.20+.85Oct142.75144.77142.50143.50+.93Nov142.75144.97142.75143.82+1.02Jan140.00141.27139.67140.22+.17Est. sales 13,101.  Mon.'s sales 13,573Mon.'s open int 54,572,  up 587HOGS,LEAN40,000 lbs.; cents per lb.Apr58.0058.2257.5257.75—.27May65.4066.0565.1565.45+.20Jun74.1574.7573.7274.02—.08Jul75.1776.2575.0075.25+.05Aug75.3076.2575.1075.30+.05Oct64.8765.6264.4564.57—.35Dec60.1060.6259.5759.77—.25Feb64.5264.8064.0064.00—.45Apr67.7268.2267.6767.70—.42May73.9073.9073.7573.75—.12Jun76.9076.9076.9076.90—.10Jul77.17—.45Est. sales 38,239.  Mon.'s sales 36,117Mon.'s open int 236,954,  up 443PORK BELLIES40,000 lbs.; cents per lb.No open contracts.