BC-USDA-Onion and Pots
BC-USDA-Onion and Pots

The Associated Press



IDAHO FALLS Shipping Point Prices as of 27-MAR-2018Provided by:  Specialty Crops Market NewsFederal - State Market News Service, USDA.Phone:  (208) 525-0166     Fax:  (208) 525-5546Prices represent open (spot) market sales by first handlers on product ofgenerally good quality and condition unless otherwise stated and may includepromotional allowances or other incentives.  No consideration is given toafter-sale adjustments unless otherwise stated.  Brokerage fees paid by theshipper are included in the price reported. Delivered Sales, Shipping PointBasis excludes all charges for freight.IF—FV130The Following Terms when used by Market News will be interpreted as meaning:Occasional-1 to 5%, Few-6 to 10%, Some-11 to 25%, Many-26 to 50%,Mostly-51 to 90%, Generally-91 to 100%Moses Lake, WA Mostly Cloudy 46/62 WindyPasco, WA Mostly Cloudy 46/61 WindyMount Vernon, WA Overcast 45/52 Rain/MistOntario, OR Partly Cloudy 33/61Twin Falls, Clear 27/52 WindyIdaho Falls, ID Partly Cloudy 27/48 WindyMonte Vista, CO Overcast 29/30 Light Snow/Fog/MistStevens Point, WI Overcast 35/48 WindyAntigo, WI Overcast 32/46 WindyNorth Platte, NE Clear 26/55Grand Forks, ND Clear 21/38Ica, Peru Cloudy 68/89Lima, Peru Partly Cloudy 66/77Fort Myers, FL Partly Cloudy 64/82 WindyTampico, Mexico Cloudy 72/83 ThunderstormsCENTRAL WISCONSINSales F.O.B. Shipping Point and/or Delivered Sales, Shipping Point Basis2017 Season---POTATOES: DEMAND GOOD. MARKET STEADY.Russet Norkotah U.S. Onebaled 5 10-lb film bags sz A 8.00-9.00 mostly 8.50-8.75 occas lowerbaled 10 5-lb film bags sz A 9.00-10.00 mostly 9.50-9.75 occas lower50 lb cartons40s 14.00-16.00 mostly 15.00-15.5050s 14.00-16.00 mostly 15.00-15.5060s 14.00-16.00 mostly 15.00-15.5070s 14.00-16.00 mostly 15.00-15.5080s 11.50-16.00 mostly 12.50-14.0090s 10.00-13.00 mostly 11.00100s 10.00-12.50 mostly 10.00-11.00COLUMBIA BASIN WASHINGTON & UMATILLA BASIN OREGONSales F.O.B. Shipping Point and/or Delivered Sales, Shipping Point Basis2017 Season---ONIONS DRY: DEMAND MODERATE. MARKET STEADY.Yellow Hybrid 50 lb sackscol 8.00-10.00 mostly 9.00jbo 6.00-7.00med 4.00-6.00 mostly 4.50-5.00Red Globe Type 25 lb sacksjbo 4.00-6.00 mostly 5.50med 4.00-6.00 mostly 5.50COLUMBIA BASIN WASHINGTON & UMATILLA BASIN OREGONSales F.O.B. Shipping Point and/or Delivered Sales, Shipping Point Basis2017 Season---POTATOES: DEMAND CARTON 50S-80S GOOD, OTHERS FAIRLY GOOD. MARKET ABOUTSTEADY.Russet Norkotah U.S. One 2" or 4-oz Minbaled 5 10-lb film bags non sz A 5.50-6.00 mostly 6.00 occas lowerbaled 10 5-lb film bags non sz A 6.50-7.00 mostly 7.00 occas lower50 lb cartons40s 8.00-9.00 occas higher & lower50s 10.00-12.50 mostly 11.75-12.50 occas lower few high as 13.0060s 11.00-13.00 mostly 12.00-13.0070s 11.00-13.00 mostly 12.00-12.5080s 10.00-12.00 mostly 10.00-11.00 few high as 13.0090s 9.00-10.00 mostly 9.00-9.50100s 8.50-10.00 mostly 9.00U.S. Two 50 lb sacks10 oz min 5.50-6.50 mostly 6.00 occas higherFLORIDASales F.O.B. Shipping Point and/or Delivered Sales, Shipping Point Basis2018 Season---POTATOES: DEMAND YELLOW TYPE SIZE A FAIRLY GOOD, OTHERS MODERATE. MARKETYELLOW TYPE SIZE A SLIGHTLY HIGHER,  ROUND WHITE SIZE B SLIGHTLY LOWER, OTHERSABOUT STEADY.Round Red U.S. One50 lb cartonssz A 14.00-15.00 mostly 14.50 occas lowersz B 22.00-24.50 mostly 22.00-22.50 occas lowerCreamers 3/4-1 5/8" 36.75-40.75 mostly 38.75-40.7550 lb sackssz A 12.25-13.50 mostly 12.75sz B 20.25-22.75 mostly 20.50-20.75tote bags approx 2000 lbs per cwtsz A 18.00-26.00 mostly 20.50-24.50sz B 40.00-44.50 mostly 41.50-44.50 occas lowerU.S. Two 50 lb sackssz A 9.75-10.75sz B 14.50-16.75Round White U.S. One50 lb cartonssz A 16.00-18.50 mostly 18.50sz B 12.00-18.50 mostly 14.50-18.5050 lb sackssz A 14.50-16.75 mostly 16.75sz B 10.25-16.75 mostly 12.75-16.75tote bags approx 2000 lbs per cwtsz A 29.00-32.50 mostly 31.00-32.50U.S. Two 50 lb sackssz A 10.75-18.50 mostly 10.75-12.75Yellow Type U.S. One50 lb cartonssz A 16.50-22.50 mostly 18.50-18.75sz B 12.00-18.00 mostly 12.50Creamers 3/4-1 5/8" 45.75-50.75 mostly 50.50-50.7550 lb sackssz A 14.75-20.50 mostly 16.75-17.00sz B 10.25-16.50 mostly 10.75tote bags approx 2000 lbs per cwtsz A 28.50-40.00 mostly 31.00-32.50sz B 20.50-21.00U.S. Two 50 lb sackssz A 10.00-10.75 mostly 10.75sz B 6.75-10.50 mostly 6.75-8.75IDAHO AND MALHEUR COUNTY, OREGONSales F.O.B. Shipping Point and/or Delivered Sales, Shipping Point Basis2017 Season---ONIONS DRY: DEMAND MODERATE. MARKET STEADY.Yellow Spanish Hybrid U.S. One 50 lb sacksSuper Col 8.50-10.00 mostly 9.00-9.50col 7.00-8.00 mostly 8.00jbo 5.50-7.00 mostly 6.00-7.00med 4.00-5.00 occas higherRed Globe Type U.S. One 25 lb sacksjbo 6.00-7.00med 5.00-6.00 mostly 6.00MEXICO CROSSINGS THROUGH SOUTH TEXASSales F.O.B. Shipping Point and/or Delivered Sales, Shipping Point Basis2018 Season---ONIONS DRY: DEMAND MODERATE. MARKET MEDIUM REDS LOWER, OTHERS STEADY.Yellow Grano 50 lb sackscol 7.00-9.00 mostly 8.00-9.00 occas lowerjbo 6.50-8.00 mostly 8.00med 8.00-10.00 mostly 8.00Grano - Marked Sweet 40 lb cartonsjbo 10.00-13.00 mostly 12.00 occas 14.00White 50 lb sacksjbo 7.00-9.00 mostly 8.00 occas lower fine appear 10.00-12.00med 7.00-9.00 mostly 8.00 occas lower fine appear 10.00-12.00Red Globe Type 25 lb sacksjbo 6.00-8.00 mostly 7.00-8.00med 6.00-8.00 mostly 7.00MINNESOTA-NORTH DAKOTA (RED RIVER VALLEY)Sales F.O.B. Shipping Point and/or Delivered Sales, Shipping Point Basis2017 Season---POTATOES: DEMAND FAIRLY LIGHT. MARKET ABOUT STEADY.Round Red U.S. Onebaled 10 5-lb film bags sz A 7.50-9.50 mostly 8.00-9.00 occas lower50 lb cartonssz A 7.50-9.50 mostly 8.00-9.00 occas lowersz B 16.50-18.50 mostly 17.50-18.00 few high as 19.00Creamers 3/4-1 5/8" 25.00-30.0050 lb sackssz A 6.00-8.00 mostly 6.50-7.50 occas lowersz B 15.00-17.00 mostly 16.00-16.50 few high as 17.50tote bags approx 2000 lbs per cwtsz A 9.00-13.00 mostly 10.00-12.00 occas lowersz B 27.00-31.00 mostly 29.00-30.00 few high as 32.00U.S. Two 50 lb sackssz A 3.50-5.00 mostly 3.75-4.50sz B 8.00-9.50 mostly 8.00-9.00 occas lowerRusset U.S. One ORGANICbaled 16 3-lb film bags sz A 18.00-20.00 occas higherRound Red U.S. One ORGANICbaled 16 3-lb film bags sz A 21.00-22.00Yellow Type U.S. One ORGANICbaled 16 3-lb film bags sz A 22.00NEBRASKASales F.O.B. Shipping Point and/or Delivered Sales, Shipping Point Basis2017 Season---POTATOES: DEMAND MODERATE. MARKET STEADY.Russet Norkotah U.S. Onebaled 5 10-lb film bags sz A 8.00-8.50 mostly 8.50baled 10 5-lb film bags sz A 9.00-9.50 mostly 9.5050 lb cartons40s 13.00-14.50 occas lower50s 14.00-14.50 mostly 14.0060s 14.00-14.50 mostly 14.0070s 14.00-14.50 mostly 14.0080s 11.00-13.5090s 11.00-13.50 mostly 11.00-12.00100s 11.00-13.50 mostly 11.00-12.00U.S. Twobaled 5 10-lb film bags 6.00-7.0050 lb sacks 10 oz min 6.00-6.50NORTHWESTERN WASHINGTONSales F.O.B. Shipping Point and/or Delivered Sales, Shipping Point Basis2017 Season---POTATOES: DEMAND MODERATE. MARKET STEADY.Round Red U.S. One50 lb cartonssz A 12.00-18.00 mostly 14.00-15.00 fair appearance 8.00-14.00sz B 14.00-18.00 mostly 16.00 fair appearance 12.00-16.00Creamers 3/4-1 5/8" 34.00-38.00 mostly 36.00 occas higherU.S. Two 50 lb sacks 5.50-7.00 mostly 6.00Yellow Type U.S. One50 lb cartonssz A 16.00-20.00 mostly 18.00-20.00 fair appearance 9.00-16.00sz B 8.00-14.00 mostly 10.00-12.00Creamers 3/4-1 5/8" 34.00-39.00 mostly 35.00-36.00U.S. Two 50 lb sacks 6.00-7.00PERU IMPORTS - REPACKED AT VARIOUS EAST COAST SHIPPING POINTSSales F.O.B. Shipping Point and/or Delivered Sales, Shipping Point Basis2017 Season---ONIONS DRY: DEMAND MODERATE. MARKET STEADY.Yellow Granex - Marked Sweet 40 lb cartonsjbo 15.00-18.00 mostly 16.00-18.00 occas lowerSAN LUIS VALLEY COLORADOSales F.O.B. Shipping Point and/or Delivered Sales, Shipping Point Basis2017 Season---POTATOES: DEMAND MODERATE. MARKET 50-80S HIGHER, OTHERS STEADY.Russet Norkotah/Other Varieties U.S. Onebaled 5 10-lb film bags sz A 7.50-8.00 mostly 8.00baled 10 5-lb film bags sz A 8.50-9.00 mostly 9.0050 lb cartons40s 11.00-13.50 mostly 12.0050s 13.00-14.00 mostly 13.00-13.5060s 13.00-14.00 mostly 13.00-13.5070s 13.00-14.00 mostly 13.0080s 11.00-12.50 mostly 12.0090s 11.00-12.00 mostly 11.00100s 11.00-12.00 mostly 11.00U.S. Twobaled 5 10-lb film bags 6.00-7.00 mostly 6.00-6.50 occas lower50 lb sacks 10 oz min 8.00-10.00 occas lowerU.S. Coml bulk per cwt 9.00-11.00 mostly 10.50Round Red U.S. Onebaled 10 5-lb film bags sz A 12.50-14.00 occas lowerYellow Type U.S. Onebaled 10 5-lb film bags sz A 10.00-11.00UPPER VALLEY, TWIN FALLS-BURLEY DISTRICT IDAHOSales F.O.B. Shipping Point and/or Delivered Sales, Shipping Point Basis2017 Season---POTATOES: DEMAND BALES MODERATE, OTHERS GOOD. MARKET ABOUT STEADY.Russet Burbank U.S. One 2" or 4-oz Minbaled 5 10-lb mesh sacks non sz A 4.50-6.00 mostly 5.00baled 5 10-lb film bags non sz A 4.00-6.00 mostly 4.50baled 10 5-lb mesh sacks non sz A 5.50-7.00 mostly 6.00baled 10 5-lb film bags non sz A 5.00-6.50 mostly 5.5050 lb cartons40s 9.00-10.00 mostly 10.0050s 9.00-10.00 mostly 10.0060s 11.50-12.00 mostly 12.0070s 11.50-14.00 mostly 12.0080s 11.50-14.00 mostly 11.5090s 9.50-13.00 mostly 10.00-10.50 occas lower100s 8.50-10.00 mostly 9.00 occas lowerU.S. Two 50 lb sacks6 oz min 5.50-6.50 mostly 6.00-6.5010 oz min 7.00-7.50Norkotah U.S. One 2" or 4-oz Minbaled 5 10-lb mesh sacks non sz A 4.50-5.50 mostly 5.00baled 5 10-lb film bags non sz A 4.00-5.00 mostly 4.50baled 10 5-lb mesh sacks non sz A 5.50-6.50 mostly 6.00baled 10 5-lb film bags non sz A 5.00-6.00 mostly 5.5050 lb cartons40s 10.00-11.00 mostly 10.0050s 10.00-11.00 mostly 10.0060s 10.50-11.00 mostly 11.0070s 10.50-11.00 mostly 11.0080s 10.00-11.00 mostly 11.0090s 8.00-9.00100s 7.00-8.00U.S. Two 50 lb sacks6 oz min 4.00-5.0010 oz min 6.00-7.00 mostly 7.00