BC-BOT Table,1st Ld
BC-BOT Table,1st Ld

The Associated Press

CHICAGO




CHICAGO (AP) — Noon trading on the Chicago Board of Trade Tue.:
OpenHighLowNoonChg.WHEAT5,000 bu minimum; cents per bushelMay454¼457½449450¾—3½Jul471½474466¼468¼—3¼Sep487¾490½483484½—3¼Dec508¾511¾504½506—3Mar524526¾521521—4¾May533½536532¾535+¼Jul540½540½536½537—4¼Est. sales 77,809.  Mon.'s sales 112,676Mon.'s open int 493,893,  up 9,573CORN5,000 bu minimum; cents per bushelMay374376373½373¾—¼Jul382½384½382382¼—¼Sep389390¾388¾389Dec396¾398½396½396¾Mar403¾405¾403¾404¼+¼May410½410¾409409—¼Jul414½415413413¼—¼Sep404404402½402½—½Dec406½408¼405½406—½Mar415½417¼415½416¾+1½Dec412½414412½414+1½Est. sales 154,069.  Mon.'s sales 340,300Mon.'s open int 1,850,911,  up 17,117OATS5,000 bu minimum; cents per bushelMay227¾228¾225½226—½Jul236½236½233234¼—1Dec252252252252Est. sales 412.  Mon.'s sales 593Mon.'s open int 6,084,  up 82SOYBEANS5,000 bu minimum; cents per bushelMay10271031¼1022¾1023¾—1¾Jul1037¾10421033½1034½—2Aug1040¼1044¼10361036¾—2¼Sep1031¼103410281028¼—2Nov1026¼1029¾1023¼1023½—2Jan102910331026½1027—1¾Mar1026¾10311024¾1026½—¼May10281031¼10251025—2¼Jul10301030¼1028¾1029½—½Nov996¼997½994996+¼Est. sales 111,008.  Mon.'s sales 188,586Mon.'s open int 870,134,  up 2,897SOYBEAN OIL60,000 lbs; cents per lbMay31.4631.6431.3531.57+.11Jul31.7231.8931.6131.83+.11Aug31.8532.0131.7431.95+.11Sep31.9532.1431.8732.08+.11Oct32.0832.2732.0032.27+.17Dec32.3332.5332.2532.47+.12Jan32.4732.6332.4732.63+.06Mar32.7432.9732.7432.96+.17May32.9033.0032.9033.00+.01Jul33.1733.2133.1733.21+.02Oct33.2333.2333.2333.23+.07Dec33.3333.3433.3333.33+.04Est. sales 46,058.  Mon.'s sales 90,032Mon.'s open int 515,131,  up 7,918SOYBEAN MEAL100 tons; dollars per tonMay376.70378.50373.50374.20—.80Jul379.40381.00376.10376.70—1.10Aug376.80377.90373.30373.50—1.20Sep372.60374.30369.90369.90—1.50Oct366.20369.90365.70365.70—1.70Dec366.80368.30363.80363.80—2.00Jan361.90363.90360.20360.20—1.80Mar354.80357.80354.60355.00—.20May351.60353.00351.10351.20+.50Jul351.70351.70351.00351.00+.30Oct339.90340.00339.90340.00+1.30Dec340.40340.50339.40339.40+1.10Est. sales 53,468.  Mon.'s sales 120,092Mon.'s open int 461,202,  up 1,682