BC-USDA-Natl Sheep
BC-USDA-Natl Sheep

The Associated Press



SA—LS850San Angelo, TX    Tue Mar 27, 2018    USDA Market NewsNational Sheep Summary for Tuesday, March 27, 2018Compared to last week at New Holland, PA no report due to the saleheld on Tuesday.  At San Angelo, TX slaughter weak to 5.00 lower;slaughter ewes firm to 5.00 higher; feeder lambs steady.  5400 headestimated for today.Slaughter Lambs:  Choice and Prime 2-3 90-150 lbs:San Angelo:    shorn and wooled 110-170 lbs 125.00-140.00.New Holland:   shorn and wooled 90-110 lbs no report.Virginia:      no test.Billings, MT:  no test.Slaughter Lambs:  Choice and Prime 1-2:San Angelo:    40-60 lbs 201.00-222.00, few 228.00; 60-70 lbs 200.00-213.00, few 218.00; 70-80 lbs 195.00-210.00, few 211.00-214.00; 80-90 lbs 190.00-204.00; 90-100 lbs 175.00-185.00.New Holland:   no report.Virginia:      30-60 lbs 237.00-269.00; 60-90 lbs 200.00-240.00; 90-110lbs 235.00-250.00.Billings, MT:  no test.Slaughter Ewes:San Angelo:    Good 3-4 (very fleshy) no test; Good 2-3 (fleshy)70.00-75.00; Utility and Good 1-3 (medium flesh) 82.00-95.00; Utility 1-2 (thin) 70.00-80.00; Cull and Utility1-2 (very thin) 60.00-68.00; Cull 1 45.00-55.00.New Holland:   Good 3-4 (very fleshy) no test; Good 2-3 (fleshy)no test; Utility 1-2 (thin) no test; Cull 1no test.Billings:      Good 3-4 (very fleshy) no test; Good 2-3 (fleshy)no test; Utility 1-2 (thin) no test; Cull andUtility 1-2 (very thin) no test; Cull 1 no test.Virginia:      Good 2-4 60.00-85.00.Feeder Lambs:     Medium and Large 1-2:San Angelo:    new crop 40-60 lbs 200.00-213.00, 60-80 lbs 194.00-216.00, 80-100 lbs 192.00-218.00; old crop 60-90 lbs184.00-196.00; 103 lbs 180.00.Virginia:      no test.Billings:      no test.Replacement Ewes: Medium and Large 1-2:San Angelo:    mixed age hair ewes 80-135 lbs 90.00-120.00 cwt.Billings:      no test.Virginia:      no test.Sheep and lamb slaughter under federal inspection for the week to datetotaled 18,000 compared w1th 18,000 last week and 20,000 last year.Source:  USDA Market News Service, San Angelo, TexasRebecca Sauder 325-653-1778www.ams.usda.gov/mnreports/SA—LS850.txtwww.ams.usda.gov/LSMarketNews1600c    rs