BC-USDA-Calif Veggies
BC-USDA-Calif Veggies

The Associated Press



LOS ANGELES Terminal Prices as of 27-MAR-2018Provided by:  Specialty Crops Market NewsFederal - State Market News Service, USDA.Phone:  (213) 894-3077     Fax:  (213) 894-2898Weather at 7:00 a.m. CLEAR 52Yesterday's high 70https://www.ams.usda.gov/market-news/fruits-vegetablesHC—FV020VEGETABLES---ARTICHOKES:  MARKET STEADY.  cartons CA Central Coast California GlobeThorned green 12s 32.00 fr cond 12.00 18s 26.00 fr cond 13.00 24s 22.00Thornless green sml lse 32.00---ASPARAGUS:  MARKET STEADY.  11 lb cartons bunched CA Imperial ValleyCalifornia Green lge 26.00-28.00 MX Baja District Green jbo 30.00 exlge28.00-30.00 lge 28.00 fr cond 22.00-24.00 std 28.00 fr cond 20.00-22.00 PE AIRWhite lge 21.00-22.00 15 lb cartons bunched MX Baja District Green Tips lgeOfferings insufficient to quote.---BEANS:  MARKET STEADY.  bushel crates MX Baja District Fava 30.00-32.00 few37.50 5 lb cartons Local Repack Baja District Wax Type Yellow 8.00-8.50 10 lbcartons MX Baja District Dragon Tongue 20.00 Haricot Vert (French Type) 16.00Wax Type Yellow 15.00-15.50 15 lb cartons CA Cranberry Type 35.00 MX BajaDistrict Italian Type 32.00 15 lb crates MX Baja District Italian Type 28.00 30lb cartons MX Baja District Round Green Type Handpicked 22.00 30 lb reusableplastic containers (RPC) MX Round Green Type Handpicked 18.00-22.00 few high as26.00 fr qual 14.00-15.00---BEETS:  MARKET STEADY.  cartons bunched MX Baja District Red Type 12s8.00-11.00 25 lb film bags CA Red Type med 10.00-11.50 lge 10.00-11.00 GoldType med-lge 16.00-17.00 few 18.00---BROCCOLI:  MARKET STEADY.  cartons CA Central Coast California bchd 14s10.00-11.00 few 12.00 fr qual 8.00-8.50 Baby Hybrid Type bchd 18s 23.50-24.0020 lb cartons loose CA Central Coast California Crown Cut 12.00-13.00 few 14.00fr qual 10.00-10.50---BRUSSELS SPROUTS: OFFERINGS LIGHT.   25 lb cartons CA Central CoastCalifornia med 20.00-22.00---CABBAGE:  MARKET ABOUT STEADY.  50 lb cartons CA Central Coast CaliforniaRound Green Type med 13.00-14.00 lge 12.00-12.50 Red Type med 18.00-20.00 45 lbcartons CA Central Coast California Savoy Type med-lge 17.00-18.00---CARROTS:  MARKET STEADY.  sacks 48 1-lb film bags CA Kern DistrictCalifornia med-lge 16.50-17.00 sacks 24 2-lb film bags CA Kern DistrictCalifornia med-lge 16.00-17.00 sacks 10 5-lb film bags CA Kern DistrictCalifornia med-lge 16.00-17.00 50 lb sacks loose CA Kern District CaliforniaJuice Type 14.00-15.00 25 lb sacks loose CA Kern District California med10.00-10.50 jbo 12.00-13.00 few 14.00 cartons 20 1-lb film bags CA KernDistrict California Baby Peeled med-lge 20.00-21.00---CAULIFLOWER:  MARKET STEADY.  cartons film wrapped CA Central CoastCalifornia White 12s 24.00-25.00 fr qual 18.00-20.00 16s 22.00-24.00 fr qual16.00-18.00 Orange 6s 19.00 8s 19.00 12s 22.50 Purple 6s 19.00 8s 19.00 12s22.50 Romanesco 12s 22.00 16s 22.00---CELERY:  MARKET STEADY.  cartons CA Central Coast California 2 dz12.00-13.00 fr qual 10.00-10.50 2 1/2 dz 12.00-13.00 fr qual 10.00-10.50---CORN-SWEET: OFFERINGS GOOD QUALILTY & CONDITION LIGHT.   cartons MX Yellow 4dz 20.00-24.00 White 4 dz 30.00-33.00 fr qual fr cond 16.00-22.00---CUCUMBERS:  MARKET 40 LB PLASTIC CONTAINER PICKLES LOWER, OTHERS ABOUTSTEADY.  1 1/9 bushel cartons MX med 20.00-22.00 fr qual 17.00-18.00 ord qual12.00-13.00 lge 20.00-22.00 fr qual 15.00-16.00 Baja District med Offeringsinsuffcient to quote. cartons MX 36s 12.00-13.00 fr qual 10.00-10.50 40 lbplastic containers MX Pickles 200-300s 18.00-20.00 300-400s 18.00-20.00 4/7bushel cartons MX Baja District Pickles sml-med 13.00-14.00 sml 13.00-14.00GREENHOUSE cartons film wrapped MX Long Seedless 12s 13.00-13.50 16s14.00-14.50 22 lb cartons MX Baja District Persian med 10.00-12.00 sml-med13.00-14.00 sml 13.00-14.00 10 lb cartons CA Japanese med 23.00---EGGPLANT:  MARKET STEADY.  1 bu, 1 1/9 bu, 1 1/6 bu cartons wrapped MX 18s15.00-16.00 fr qual 12.00-12.50 24s 15.00-16.00 fr qual 12.00-12.50 30 lbcartons MX Chinese sml-med 14.00-16.00 occas lower Italian sml-med 18.00-22.50occas lower Japanese sml-med 22.00-25.00 occas best higher Indian med15.00-20.00 mostly 15.00-18.00 occas higher/lower---ENDIVE:  MARKET STEADY.  cartons CA Central Coast California 24s 11.00-12.00fr qual 9.00-9.50 10 lb cartons BL AIR Witloof 20.00-21.50 CA Central CoastCalifornia Witloof 18.00-18.50 8 lb cartons CA Central Coast California WitloofRed Type 43.00 3 kg cartons NL AIR Witloof Red Type 43.00---ESCAROLE:  MARKET STEADY.  cartons CA Central Coast California 24s14.00-15.00---GARLIC: OFFERINGS LIGHT. MARKET STEADY.  30 lb cartons CA Central CoastCalifornia White super col 65.00-70.00 col 69.00 exjbo 63.00 jbo 47.00 CQ Whitenetted 5s 46.00 Purple netted 5s 46.00 MX Baja District White jbo 60.00 netted5s 65.00 Purple col 50.00 PE Purple col 55.00 10 lb cartons CA Central CoastCalifornia elephant 32.00-32.50 14 kg containers SP White super col 52.00-55.00cartons 4 5-lb plastic jars CQ Peeled 11.00-12.00 cartons 4 5-lb film bags CQPeeled 10.00-11.00---GREENS:  MARKET STEADY.  cartons bunched CA Central Coast California Collard24s 15.00-16.00 few high as 18.00 Kale green 24s 11.00-12.00 fr qual 9.00-9.50Lacinato (Tuscan) 24s 20.00-22.00 Kale, Multicolor 24s 23.00-24.00 MustardCurly 24s 16.00-17.00 Flat 24s 17.00-18.00 Swiss Chard 12s 12.00-13.00 red 12s12.00-13.00 Broccoli Rabe (Rappini) 20s 43.00-45.00 Dandelion green 12s11.00-12.00 red 12s 11.00-12.00---LETTUCE-ICEBERG:  MARKET LOWER.  cartons CA Central Coast California 24s14.00-15.00 fr qual 12.00-12.50 flm lined 24s 14.00-15.00 24s flmwrpd15.00-16.00---LETTUCE-OTHER:  MARKET STEADY.  cartons CA Central Coast California Boston24s 14.00-15.00 fr qual 12.00-12.50 Green Leaf 24s 17.00-18.00 fr qual15.00-15.50 Red Leaf 24s 12.00-13.00 fr qual 10.00-11.00 flats 1 layer CACentral Coast California Frisee 24s 16.00-16.50 12s 8.50-9.00 2 lb cartons CACentral Coast California Lolla Rossa 24s 8.50-9.00 Red Oak Leaf 24s 8.50-9.00Green Oak Leaf 24s 8.50-9.00 3 lb cartons CA Central Coast California MesculinMix 5.50-6.50 cartons 3 1-lb film bags CA Central Coast California Mesculin Mix5.50-6.50---LETTUCE-ROMAINE:  MARKET ABOUT STEADY.  cartons CA Central Coast California24s 20.00-21.00 fr qual 15.00-16.00 cartons 12 3-count packages CA CentralCoast California Hearts 28.00-30.00 fr qual 24.00-25.00 cartons film lined CACentral Coast California Hearts 24s 30.00-32.00---MUSHROOMS:  MARKET STEADY.  10 lb cartons CA Central Coast California Whitelge 18.00-19.00 med 17.00-18.00 sml 17.00-18.00 Cremini 22.00-23.00 CD BritishColumbia White lge 19.00-20.00 med 18.00 sml 18.00 PA White lge 19.00-20.00 med18.00 sml 18.00 Cremini 22.00-23.00 5 lb cartons CA Central Coast CaliforniaShiitake fr qual 15.00-16.00 Oyster 16.00-17.00 Portobella lge 16.00-17.00 med16.00-17.00 Woodear 20.00 CQ Shiitake med 20.00 cartons 12 1-lb trays filmwrapped CA Central Coast California White Sliced 12.00-12.50 cartons 12 8-oztrays film wrapped CA Central Coast California White 14.00-14.50 cartons 8 1-lbtrays film wrapped CA Central Coast California White 21.00---OKRA: OFFERINGS LIGHT.   1/2 bushel cartons GU AIR sml 24.00---ONIONS GREEN:  MARKET STEADY.  cartons bunched CA Central Coast California48s med 9.00-10.00 48s sml 7.00-8.00 few low as 6.00 MX Baja District 48s med9.00-10.00 few 11.00 48s sml 7.00-8.00 few low as 6.00 Bulb Type 24s 8.00-9.00CA Central Coast California Leeks med 15.00-16.00 MX Baja District Leeks med14.00-15.00---PARSLEY:  MARKET STEADY.  cartons bunched CA Central Coast California Curly60s 12.00-13.00 few 14.00 fr qual 10.00-10.50 poorer quality and condition8.50-9.00 Plain 60s 12.50-13.00 few 14.00 fr qual 10.50-11.00 poorer qualityand condition 9.50---PARSNIPS: OFFERINGS LIGHT. MARKET STEADY.  20 lb film bags loose CA24.00-27.00 few 28.00-30.00 cartons 12 1-lb film bags CA 24.00-27.00---PEAS GREEN: OFFERINGS LIGHT.   1 1/9 bushel cartons MX Baja District English60.00 10 lb cartons GU AIR Snow Peas Decalyxed 13.00-14.00 MX Baja DistrictSnow Peas Decalyxed 13.00-14.00 GU AIR Sugar Snap Peas Decalyxed 16.00-18.00 MXBaja District Sugar Snap Peas Decalyxed 13.00-14.00---PEAS OTHER: OFFERINGS LIGHT.   bushel crates MX Baja District Blackeye 35.00(marked 30lbs)---PEPPERS, BELL TYPE:  MARKET GREEN FIRM, RED SLIGHTLY LOWER, YELLOW & ORANGESTEADY.  1 1/9 bushel cartons MX Green exlge 17.00-18.00 lge 15.00-16.00 med13.00-14.00 irreg sz 11.00-12.00 fr qual 9.00-9.50 Red exlge 24.00-26.00 lge24.00-26.00 irreg sz 22.00-24.00 fr qual 18.00-20.00 Yellow exlge 24.00 lge24.00 irreg sz 18.00-20.00 fr qual 15.00-16.00 Orange med 14.00 irreg sz 14.0015 lb cartons MX Red exlge 15.00 25 lb cartons place pack MX Green exlge20.00-22.00 GREENHOUSE 5 kg/11 lb cartons MX Red exlge-lge 17.00-18.00 fr qual9.00-10.00 Yellow exlge-lge 17.00-18.00 fr qual 9.00-10.00 Orange exlge-lge17.00-18.00 fr qual 9.00-10.00---PEPPERS, OTHER:  MARKET STEADY.  1 1/9 bushel cartons FL Cubanelles33.00-35.00 1 1/9 bushel cartons/crates per lb MX Baja District Anaheim .50-.55Habanero orange .80-.90 cartons/crates per lb MX Baja District Jalapeno .30-.35Manzano 3.00-3.50 Pasilla .60-.65 Serrano .35-.40 Yellow Chile .60-.65---RADISHES:  MARKET STEADY.  cartons topped 30 6-oz film bags CA Central CoastCalifornia Red 12.00-14.00 25 lb film bags topped CA Central Coast CaliforniaRed 15.00-16.00 MX Baja District Red 14.00-15.00 cartons bunched CA CentralCoast California Red 48s 14.00-15.00 MX Baja District Red 48s 13.00-14.00---RHUBARB: OFFERINGS LIGHT.   GREENHOUSE 15 lb cartons WA WAExFcy 55.00 6 kgcontainers NL AIR 50.00---RUTABAGAS: OFFERINGS FAIRLY LIGHT.   25 lb film bags CA med 22.00-24.00 MXBaja District med 20.00-22.00---SPINACH:  MARKET BUNCHED 24S LOWER, OTHERS STEADY.  cartons bunched CACentral Coast California Flat 24s 15.00-16.00 fr qual 12.00-12.50 cartons 1210-oz film bags CA Central Coast California 10.00-12.00 few 13.00 cartons 42-1/2 lb film bags CA Central Coast California 10.50-12.50---SQUASH:  MARKET STEADY.  4/7 bushel cartons MX Zucchini Green sml11.00-12.00 fr qual 9.00-9.50 sml-med 11.00-12.00 fr qual 9.00-9.50 med10.00-11.00 fr qual 8.00-8.50 Yellow Straightneck sml 15.00-16.00 few 18.00 frqual 12.00-12.50 sml-med 15.00-16.00 few 18.00 fr qual 12.00-12.50 med12.00-13.00 fr qual 10.00-10.50 Grey sml 10.00-11.00 sml-med 10.00-11.00 med10.00-11.00 bushel cartons MX Acorn Green med 16.00-17.00 Butternut med14.00-15.00 few 16.00 lge 14.00-16.00 Kabocha med-lge 14.00-15.00 Spaghettimed-lge 12.00-13.00 few 14.00 1 1/9 bushel crates MX Zucchini Green lge12.00-14.00---SWEET POTATOES:  MARKET STEADY.  40 lb cartons CA Atwater LivingstonCalifornia U.S. No. 1 Orange Types 25.00-28.00 Red Types 25.00-28.00 WhiteTypes 32.00-35.00 Japanese Types 35.00-38.00 No Grade Marks Orange Types med18.00-20.00 jbo 20.00-23.00 Red Types med 18.00-20.00 jbo 21.00-24.00 WhiteTypes med 17.00-18.00 few 20.00 jbo 18.00-20.00---TOMATOES:  MARKET ABOUT STEADY.  ADAPTED ENVIRONMENT 25 lb cartons loose MXVine Ripes light red 5x6 sz 13.00-15.00 6x6 sz 14.00-15.00 flats 2 layer MXVine Ripes light red 4x4s 12.00-14.00 few high as 16.00 fr qual fr cond10.00-10.50 4x5s 12.00-14.00 few high as 16.00 fr qual fr cond 10.00-10.50 5x5s12.00-14.00 few high as 16.00 fr qual fr cond 10.00-10.50 5x6s 12.00-14.00 fewhigh as 16.00 fr qual fr cond 10.00-10.50 CONTROLLED ENVIRONMENT 5 kg/11 lbflats on the vine MX Vine Ripes red 4-5 count 9.00-10.00 few 11.00 cartons 81-lb containers with lids MX Baja District Vine Ripe - Campari Type 18.00-18.50GREENHOUSE 5 kg/11 lb flats on the vine CA Vine Ripes red 4-5 count 11.00-12.00---TOMATOES, CHERRY:  MARKET STEADY.  ADAPTED ENVIRONMENT flats 12 1-pt basketsMX light red-red 12.00-13.00 Baja District light red-red 15.00 flats 12 1/2-ptcups with lids MX Baja District Pear Type red 40.00 yellow 40.00 cartons 1210.5-oz containers with lids MX Baja District Heirloom Varieties yellow med28.50---TOMATOES, GRAPE TYPE:  MARKET STEADY.  ADAPTED ENVIRONMENT flats 12 1-ptcontainers with lids MX Baja District red 14.00-15.00 few 16.00 fr qual11.00-12.00 flats 15 1-pt containers with lids MX Baja District yellow 28.50 20lb cartons loose MX Baja District red 22.00-24.00---TOMATOES, PLUM TYPE:  MARKET STEADY.  ADAPTED ENVIRONMENT 25 lb cartonsloose MX Roma light red-red exlge 12.00-13.00 occas 14.00 fr qual fr cond10.00-10.50 lge 12.00-13.00 occas 14.00 fr qual fr cond 10.00-10.50 med11.00-11.50 occas 13.00 fr qual fr cond 9.00-9.50---TURNIPS:  MARKET STEADY.  25 lb film bags CA Purple Top lge 13.00-14.00 med13.00-14.00 MX Baja District Purple Top lge 14.00 med 13.00-14.00---VEGETABLES OTHER: OFFERINGS LIGHT.   5 lb film bags CA Central CoastCalifornia Alfalfa Sprouts 12.00-13.00 cartons 12 4-oz packages CA CentralCoast California Alfalfa Sprouts 16.00-17.00 35 lb crates MX Baja DistrictCactus Leaf (Nopales) 17.00-18.00 10 lb cartons Local Repack JerusalemArtichokes 20.00 20 lb film bags CA Jerusalem Artichokes 35.00 cartons 12 1-lbtrays film wrapped CA Jerusalem Artichokes 36.00 1 layer containers CA CentralCoast California Radicchio 9s 13.00-13.50 12s 13.00-13.50 Treviso 9s 18.50 12s18.50ORGANICVEGETABLES---BEETS: cartons bunched MX Baja District Red Type 12s 17.00 25 lb film bagsMX Baja District Red Type med 21.00-22.00---BROCCOLI: cartons CA Central Coast California bchd 14s 29.00---CABBAGE: 50 lb cartons CA Central Coast California Round Green Type med26.00 (wrapped) Red Type med 25.00---CARROTS: sacks 48 1-lb film bags CA Kern District California med-lge 26.00sacks 24 2-lb film bags CA Kern District California med-lge 26.00 sacks 10 5-lbfilm bags CA Kern District California med-lge 26.00 25 lb sacks loose CA KernDistrict California jbo 16.00 cartons 20 1-lb film bags CA Kern DistrictCalifornia Baby Peeled med-lge 26.00 cartons 4 5-lb film bags CA Kern DistrictCalifornia Baby Peeled med-lge 26.00---CAULIFLOWER: cartons film wrapped CA Central Coast California White 12s12.00---CELERY: cartons CA Central Coast California 24s 22.00 30s 22.00---EGGPLANT: 1 bu, 1 1/9 bu, 1 1/6 bu cartons wrapped MX 12s 15.00---GREENS: cartons bunched CA Central Coast California Collard 24s 18.00 Kalegreen 24s 22.00 Lacinato (Tuscan) 24s 18.00 Swiss Chard 12s 22.00 Mixed Colors12s 18.00 Red 12s 22.00---LETTUCE-ICEBERG: cartons CA Central Coast California 24s flmwrpd Offeringsinsufficient to quote.---LETTUCE-OTHER: cartons CA Central Coast California Green Leaf 24s 25.00 RedLeaf 24s 25.00---LETTUCE-ROMAINE: cartons CA Central Coast California 24s 36.00 cartons 123-count packages CA Central Coast California Hearts 36.00---MUSHROOMS: 5 lb cartons CA Central Coast California Shiitake 25.50 fr qual16.00 Oyster 17.00 cartons 24 3 1/2-oz film packages CA Central CoastCalifornia Hen Of The Woods 2.50 Beech (Honshimeji) brown 2.00 white 2.00---ONIONS GREEN: cartons bunched MX Baja District Leeks med 43.25---PARSLEY: cartons bunched CA Central Coast California Curly 30s 22.00 Plain30s 22.00---RADISHES: cartons bunched MX Baja District Red 24s Offerings insufficient toquote.---SPINACH: cartons bunched CA Central Coast California Flat 24s 25.00---SQUASH: 4/7 bushel cartons MX Zucchini Green med 29.00 bushel cartons MXButternut lge 22.00---TOMATOES, GRAPE TYPE: ADAPTED ENVIRONMENT flats 12 1-pt containers with lidsMX red 18.00