BC-BOT Table,1st Ld
BC-BOT Table,1st Ld

The Associated Press

CHICAGO




CHICAGO (AP) — Noon trading on the Chicago Board of Trade Wed.:
OpenHighLowNoonChg.WHEAT5,000 bu minimum; cents per bushelMay449½452½444½447—2Jul466¾469¾462464¼—2¼Sep485½486¼478½481—2¼Dec505½507½500¼503—1¾Mar522¾524517518¾—2½May528528½526¼528½—1½Jul532¾539¼532½537¾+1¾Sep541¾542¾541¾542¾—1¾Dec557½557½557¼557½—2¼Est. sales 73,643.  Tue.'s sales 108,967Tue.'s open int 498,346,  up 4,453CORN5,000 bu minimum; cents per bushelMay374¼375372373¼—¾Jul382¾383¼380½382—½Sep389¼390387¼388½—½Dec397398395¼396¾—¼Mar404¼405402¾403¾—½May409¾409¾407¾408½—½Jul413413¼411¾412½—¾Sep402402¼401402¼—¼Dec406½407404½405½—½Mar414414½413¾413¾—1¼Jul421421421421—1¼Dec411411¼411411—1½Est. sales 229,469.  Tue.'s sales 257,468Tue.'s open int 1,850,903OATS5,000 bu minimum; cents per bushelMay226226¾221½222½—3½Jul233¼233¼230231½—2Dec252252249249—3Est. sales 665.  Tue.'s sales 486Tue.'s open int 6,213,  up 129SOYBEANS5,000 bu minimum; cents per bushelMay1019½1023¼10151020¾+1¼Jul1030¼1033¾10261031¼+1Aug1032¼1035¾1028¼1033+½Sep1023¾1026¼1020½1023¼—¾Nov102010231016½1018½—2Jan102310261019¾1021¼—2½Mar1021¼1023½1017½1019¼—2¼May1021¼1023½10181019¾—2Jul1025¾1025¾1021¾1022¼—2¾Nov990992¾988990—1¼Nov981981981981—1Est. sales 135,562.  Tue.'s sales 184,691Tue.'s open int 872,794,  up 2,660SOYBEAN OIL60,000 lbs; cents per lbMay31.5831.8931.4031.61+.03Jul31.8532.1431.6631.87+.02Aug31.9432.2631.7931.99+.01Sep32.0832.3831.9232.12+.01Oct32.1832.5132.0732.26+.02Dec32.4832.7732.3132.50—.01Jan32.6632.9832.5532.72—.01Mar32.8333.2232.7932.99+.03May33.0333.4233.0333.25+.09Jul33.2533.6233.2333.62+.26Dec33.6433.6433.5633.59+.13Est. sales 71,758.  Tue.'s sales 83,678Tue.'s open int 518,872,  up 3,741SOYBEAN MEAL100 tons; dollars per tonMay372.10376.10369.50372.30—.10Jul374.60378.50372.10374.50—.60Aug372.00375.00369.20371.30—.90Sep368.50370.50365.80367.50—1.20Oct364.90366.10361.40363.30—1.00Dec362.30364.30359.60361.70—.60Jan359.50359.90358.10358.10—.60Mar352.60352.70351.30352.60+.10May349.30349.30348.30348.30—.10Jul349.00349.00346.70348.40Oct333.50337.20333.50337.20+1.20Dec333.20336.60333.10336.40+.80Est. sales 63,300.  Tue.'s sales 80,167Tue.'s open int 463,132,  up 1,930