BC-USDA-Portland Grain
BC-USDA-Portland Grain

The Associated Press



JO—GR110Portland, OR    Wed Mar 28, 2018    USDA Market NewsPortland Daily Grain ReportBids as of 9:30 a.m. Pacific time; Subject to changeAll Bids in dollars per bushel.  Bids are limited and not fullyestablished in early trading.Bids for grains delivered to Portland, Oregon in dollars per bushel.In early trading May wheat futures trended mixed, from 2.25 cents lowerto 1.50 cents per bushel higher than Tuesday?s noon closes.Bids for US 1 Soft White Wheat delivered to Portland in unit trains andbarges for March delivery for ordinary protein were not well tested inearly trading, but bids were indicated as steady to higher compared toTuesday?s noon bids for the same delivery period.  Some exporters were notissuing bids for nearby delivery.  Bids for guaranteed maximum 10.5 percentprotein were well tested in early trading, but bids were indicated asgenerally higher compared to Tuesday?s noon bids for the same deliveryperiod.  Some exporters were not issuing bids for nearby delivery.Bids for 11.5 percent protein US 1 Hard Red Winter Wheat for Marchdelivery were not well tested in early trading but bids were indicated aslower compared to Tuesday?s bids for the same delivery period.  Someexporters were not issuing bids for nearby delivery.Bids for 14 percent protein US 1 Dark Northern Spring Wheat for Marchdelivery were not well tested in early trading but bids were indicated aslower compared to Tuesday?s noon bids for the same delivery period.Some exporters are not issuing bids for nearby delivery.Bids for US 2 Yellow Corn delivered full coast in 110 car shuttle trainsduring March were not well tested in early trading, but bids were indicatedas lower compared to Tuesday?s noon bids for the same delivery period.Some exporters were not issuing bids for nearby delivery.Bids for US 1 Yellow Soybeans delivered full coast in 110 car shuttletrains during March were not well tested in early trading, but bids wereindicated as lower compared to Tuesday?s noon bids for the same deliveryperiod.  Some exporters were not issuing bids for nearby delivery.All wheat bids in dollars per bushelUS 1 Soft White Wheat - delivered by Unit Trains and BargesOrdinary proteinMar                                       5.4000-5.6050Apr                                       5.4000-5.6500May                                       5.6050-5.6500Jun                                       5.6250-5.7000Aug NC                                    5.4925-5.5500Guaranteed maximum 10.5 pct proteinMar                                       5.4000-5.6050Apr                                       5.4000-5.6500May                                       5.6050-5.6500Jun                                       5.6250-5.7000Aug NC                                    5.4925-5.5000—US 1 White Club Wheat - delivered by Unit Trains and BargesOrdinary proteinMar                                       5.4500-5.6050Guaranteed maximum 10.5 pct proteinMar                                       5.4000-5.6050—US 1 Hard Red Winter Wheat - (Exporter bids-falling numbers of 300 orbetter)Ordinary protein                            5.0375-5.237511 pct protein                              5.6375-5.987511.5 pct proteinMar                                       5.9375-6.2375Apr                                       5.9875-6.2375May                                       5.9875-6.2375Jun                                       6.1775-6.2075Aug NC                                    NA12 pct protein                              6.0875-6.387513 pct protein                              6.3875-6.6875—US 1 Dark Northern Spring Wheat (with a minimum of 300 falling numbers, a maximumof 0.5 part per million vomitoxin, and a maximum of one percent total damage)13 pct protein                              6.5800-6.810014 pct proteinMar                                       7.0600-7.2600Apr                                       7.0600-7.2900May                                       7.1100-7.3600Jun                                       7.0800-7.3800Aug NC                                    NA15 pct protein                              7.3800-7.580016 pct protein                              7.6900-7.9000—US 2 Yellow CornShuttle trains-Delivered full coast Pacific Northwest-BNMar                                       4.6775-4.8275Apr                                       4.8075-4.8575May                                       4.7975-4.8275Jun                                       4.8150-4.8450Jul                                       4.6650-4.8150Aug                                       NA—US 1 Yellow SoybeansShuttle trains-Delivered full coast Pacific Northwest-BNMar                                       10.9800-11.0300Apr                                       11.0500-11.1100May                                       11.0800Jun                                       11.1875-11.2375Jul                                       11.1875-11.2575Oct                                       11.0825-11.1825—US 2 Heavy White Oats **                      3.4825** Not well tested.Exporter Bids Portland Rail/Barge             Feb 2018Averages in Dollars per bushelUS 1 Soft White by Unit Trains and Barges   5.4300US 1 Hard Red Winter (Ordinary protein)     5.4100US 1 Hard Red Winter (11.5% protein)        6.3200US 1 Dark Northern Spring (14% protein)     7.2900Source:    USDA Market News Service, Portland, ORNiki Davila 503-535-5001  Portland.LPGMN@ams.usda.gov24 Hour Market Report  503-535-5005www.ams.usda.gov/mnreports/jo—gr110.txtwww.ams.usda.gov/lpsmarketnewspage8:48 P nd