BC-USDA-Okla City Catl Actn
BC-USDA-Okla City Catl Actn

The Associated Press



KO—LS150 Oklahoma City, OK    Wed  Mar  28,  2018    USDA-OK Dept of Ag Market NewsOKC West - El Reno, OKLivestock Auction Report for 3/27/2018 AUCTION                          Receipts           Week Ago             Year Ago--------------------------------------------------------------------------------- Total Receipts:                  4,693                 7,263             11,396------------------------------------------------------------------------------ Feeder Cattle:                   4,693(100           7,263(100%)       11,396(100%)---------------------------------------------------------------------------------*** Final report ***Compared to last week:  Feeder steers and heifers sold 3.00-5.00 higher with exception of steers over 900 lbs firm to 2.00 higher.  Demand good for feeder cattle.  Steer and heifer calves sold 1.00-3.00 higher onlimited comparable sales, with exception of 550-600 lb heifer calves trading sharply higher.  Quality average to attractive, demand moderate to good especially for thin fleshed long weaned calves.  Feeder cattle supply included 59 percent Steers, 40 percent Heifers, and  2 percentBulls. Feeder cattle supply over 600 lbs was 80 percent.--------------------------------------------------------------------------------FEEDER CATTLE--------------------------------------------------------------------------------Feeder Steers(Per CWT):  Medium and Large 1 349 lbs 202.50; 400-500 lbs177.50-186.50, 428 lbs Fancy 200.00, 469 lbs Fleshy 161.00; 500-600 lbs 156.50-176.00, 592 lbs Fleshy 157.00, Thin Fleshed 174.00-184.00; 600-700 lbs 155.00-166.25, Calves 147.00-162.00; 700-800 lbs 134.50-142.25; 800-900 lbs 123.00-140.00, 858 lbs Thin Fleshed 129.25; 900-1000 lbs 119.00-125.00, 903 lbs Fancy129.25; 1023 lbs 117.25; 1192 lbs 111.00. Medium and Large 1-2 327 lbs ThinFleshed 187.50; 400-500 lbs 154.00-172.50; 542 lbs 167.50, 588 lbs Thin Fleshed162.00; 600-700 lbs 141.50-146.00, 647 lbs Calves 147.50, 616 lbs Thin Fleshed160.00; 700-800 lbs 129.50-133.25; 800-900 lbs 118.00-133.00; 900-1000 lbs115.00-119.00; 1025 lbs 114.00. Medium and Large 2 500-600 lbs 148.00-150.00;828 lbs 115.00.Feeder Heifers(Per CWT):  Medium and Large 1 300-400 lbs 162.00-167.00; 400-500 lbs 165.00-168.00, 445 lbs Fancy 145.00, 425 lbs Fleshy 150.00, Thin Fleshed162.00-172.50; 500-600 lbs 142.00-155.50, 573 lbs Fancy 154.50, Thin Fleshed156.00-162.00; 600-700 lbs 134.00-145.00, Calves 131.00-140.00, 601 lbs ThinFleshed 152.00; 700-800 lbs 123.25-131.25; 800-900 lbs Fleshy 112.50-119.75.Medium and Large 1-2 396 lbs 167.50, Fleshy 147.00-157.00; 436 lbs 148.00; 515lbs 154.00, Fleshy 130.00-139.00; 700-800 lbs 119.50-125.50, 799 lbs Fleshy119.80; 800-900 lbs 115.00-119.40. Medium and Large 2 554 lbs 141.00; 693 lbs110.00; 717 lbs 112.00.Feeder Bulls(Per CWT):  Medium and Large 1 300-400 lbs 190.00-202.50; 408lbs Fleshy 165.00; 500-600 lbs 154.00-160.00, 552 lbs Fleshy 140.00. Medium andLarge 1-2 399 lbs Fleshy 165.00; 400-500 lbs 162.50-173.00; 600-700 lbs Calves133.00-135.00. Medium and Large 2 545 lbs 145.00.Please Note:The above USDA LPGMN price report is reflective of the majority of classes and grades of livestock offered for sale.  There may be instances where some salesdo not fit within reporting guidelines and therefore will not be included in the report.  Prices are reported on an FOB basis, unless otherwise noted. Source:  USDA-OK Dept of Ag Market News ServiceTina Colby, Market Reporter, N/A24 Hour Market Report 1-573-522-9244www.ams.usda.gov/mnreports/KO—LS150.txtwww.ams.usda.gov/market-news/livestock-poultry-grain