BC-Merc Table
BC-Merc Table

The Associated Press






BC-Merc Table,
CHICAGO (AP) — Futures trading on the Chicago Mercantile Exchange Wed:
OpenHighLowSettleChg.CATTLE40,000 lbs.; cents per lb.Apr115.45116.42114.82116.00+.58Jun105.22106.42104.50105.57+.32Aug104.00105.25103.67104.45+.48Oct107.52108.77107.45108.30+.78Dec111.77113.00111.75112.37+.62Feb113.75115.00113.75114.55+.70Apr114.52115.45114.45115.27+.82Jun109.00109.45108.60109.37+.65Aug107.95+.58Est. sales 56,946.  Tue.'s sales 69,613Tue.'s open int 357,162,  up 146FEEDER CATTLE50,000 lbs.; cents per lb.Mar135.60136.12135.30135.97+.55Apr135.57138.52135.42137.82+2.47May136.75139.32136.52138.50+2.15Aug142.30145.00142.30144.42+2.22Sep143.40145.77143.37145.30+2.10Oct143.75146.00143.72145.45+1.95Nov144.00146.07143.95145.32+1.50Jan141.42142.05140.65141.45+1.23Est. sales 14,390.  Tue.'s sales 13,195Tue.'s open int 54,643,  up 71HOGS,LEAN40,000 lbs.; cents per lb.Apr56.8557.4056.7556.92—.83May64.4767.6264.4767.32+1.87Jun72.9576.9272.9576.62+2.60Jul74.9077.9574.3777.65+2.40Aug75.1078.0275.0077.65+2.35Oct64.1566.5564.1566.00+1.43Dec59.5060.8759.5060.37+.60Feb64.0065.0263.9064.35+.35Apr67.7768.5067.6067.70May73.75Jun77.4077.4077.4077.40+.50Jul77.55+.38Est. sales 50,794.  Tue.'s sales 39,171Tue.'s open int 239,660,  up 2,706PORK BELLIES40,000 lbs.; cents per lb.No open contracts.