BC-USDA-Natl Sheep
BC-USDA-Natl Sheep

The Associated Press



SA—LS850San Angelo, TX    Wed Mar 28, 2018    USDA Market NewsNational Sheep Summary for Wednesday, March 28, 2018Compared to last week at Sioux Falls, SD slaughter lambs weak;slaughter ewes steady; feeder lambs sharply lower.  At New Holland, PAslaughter lambs under 60 lbs steady to 20.00 higher, over 60 lbs weak;slaughter ewes steady to 10.00 lower.Slaughter Lambs:   Choice and Prime 2-3 90-150 lbs:Sioux Falls:    shorn and wooled 120-125 lbs 152.00-164.00; 146 lbs145.00; 150-170 lbs 131.00-138.00.Virginia:       no test.New Holland:    shorn and wooled 90-110 lbs 235.00-252.00; 110-130 lbs210.00-230.00; 130-150 lbs 172.00-190.00; 150-200 lbs150.00-170.00.Slaughter Lambs:  Choice and Prime 1-2:Sioux Falls:    93 lbs 167.00.Virginia:       30-60 lbs 242.00; 60-90 lbs 242.00-247.00; 90-110 lbs199.00-244.00.New Holland:    20-30 lbs 270.00-315.00; 30-40 lbs 290.00-315.00, few320.00-335.00; 40-50 lbs 270.00-305.00, few 305.00-320.00; 50-60 lbs 250.00-287.00, few 290.00-300.00; 60-70 lbs 230.00-265.00, few 265.00-275.00; 70-80 lbs220.00-255.00, few 255.00-275.00; 80-90 lbs 210.00-235.00, few 235.00-245.00; 90-110 lbs 220.00-230.00.Buffalo, MO:    40-65 lbs 237.50-250.00.Slaughter Ewes:Sioux Falls:    Good 3-4 (very fleshy) 52.00-70.00; Good 2-3 (fleshy)54.00-63.00; Utility 1-2 (thin) 44.00-56.00; Cull 1no test.Virginia:       Good 2-4 no test.New Holland:    Good 3-4 (very fleshy) 60.00-89.00; Good 2-3 (fleshy)70.00-135.00; Utility 1-2 (thin) 62.00-115.00; Cull 150.00-75.00.Buffalo, MO:    Utility and Good 1-3 (medium flesh) 55.00-70.00.Feeder Lambs:   Medium and Large 1-2:Sioux Falls:    36 lbs 270.00; 40-50 lbs 255.00-287.50; 50-60 lbs230.00-240.00; 67 lbs 220.00.Virginia:       no test.Replacement Ewes: Medium and Large 1-2:Sioux Falls:    bred solid mouth 165.00-220.00 per head.Buffalo, MO:    hair ewes 95-110 lbs 130.00-147.50 cwt, 110-130 lbs112.50-125.00 cwt; hair ewes with lambs 225.00-265.00per family.Sheep and lamb slaughter under federal inspection for the week to datetotaled 25,000 compared with 25,000 last week and 27,000 last year.Source:  USDA Market News Service, San Angelo, TXRebecca Sauder 325-653-1778www.ams.usda.gov/mnreports/SA—LS850.txtwww.ams.usda.gov/LSMarketNews1700  rs