BC-USDA-Eastern Cornbelt Hog Report
BC-USDA-Eastern Cornbelt Hog Report

The Associated Press



LM—HG209Des Moines, Iowa                Thu, Mar 29, 2018               USDA Market NewsEASTERN CORNBELT DAILY DIRECT MORNING HOG REPORT BASED ON STATE OF ORIGINPLANT DELIVERED PURCHASE DATA FOR Thursday, March 29, 2018(Includes information from 1:30 PM to 9:30 AM.)CURRENT VOLUME BY PURCHASE TYPEBARROWS & GILTS LIVE AND CARCASS BASISEstimated     Actual     Actual     ActualToday      Today   Week Ago   Year AgoProducer SoldNegotiated                                4,717      4,506      6,880      5,086Other Market Formula (Futures/Options)   14,046      8,807      3,568      7,661Swine or Pork Market Formula             29,107     25,742     25,549     26,812Other Purchase Arrangement               25,864     26,379     20,288     15,832Negotiated Formula                        1,165      1,165      1,293      1,026Packer Sold (all purchase types)          1,933      1,933      2,158      1,596--------------------------------------------------------------------------------NEGOTIATED PURCHASE (Including Packer Sold)Barrows & Gilts (carcass basis): 1,995*Price not reported due to confidentiality* 5 Day Rolling Avg $-----------------------------------------------------------------------------------NEGOTIATED FORMULA PURCHASE (Including Packer Sold)Barrows & Gilts (carcass basis): 160*Price not reported due to confidentiality* 5 Day Rolling Avg $-----------------------------------------------------------------------------------COMBINED NEGOTIATED & NEGOTIATED FORMULA PURCHASE (Including Packer Sold)Barrows & Gilts (carcass basis): 2,155*Price not reported due to confidentiality* 5 Day Rolling Avg $-----------------------------------------------------------------------------------EASTERN CORNBELT DAILY DIRECT NEGOTIATED HOG PURCHASE MATRIXREPRESENTING INDIVIDUAL PACKER CARCASS MERIT BUYING PROGRAMSbased on both Fat and Muscle Measurements for a 200 lb Carcass Basis*Price not reported due to confidentiality*--------------------------------------------------------------------------------CARCASS WEIGHT DIFFERENTIALS*Price not reported due to confidentiality*--------------------------------------------------------------------------------MEASUREMENTS BASED ON SLAUGHTER DATA SUBMITTED*Price not reported due to confidentiality*--------------------------------------------------------------------------------SWINE OR PORK MARKET FORMULA PURCHASE (Including Packer Sold)Barrows & Gilts (carcass basis): 18,142Base Price Range $50.10 - $62.26, Weighted Average $55.63--------------------------------------------------------------------------------NEGOTIATED PURCHASE (Including Packer Sold)Barrows & Gilts (live basis, 240-320 lbs): 2,177Compared to Prior Day's closing weighted average (LM—HG207),  2.60 lowerPrice Rng $37.00 - $42.50, Wtd Avg $38.01, 5 Day Rolling Avg $40.75--------------------------------------------------------------------------------NEGOTIATED FORMULA PURCHASE (Including Packer Sold)Barrows & Gilts (live basis, 240-320 lbs): 579*Price not reported due to confidentiality* 5 Day Rolling Avg $----------------------------------------------------------------------------------COMBINED NEGOTIATED & NEGOTIATED FORMULA PURCHASE (Including Packer Sold)Barrows & Gilts (live basis, 240-320 lbs): 2,756*Price not reported due to confidentiality* 5 Day Rolling Avg $----------------------------------------------------------------------------------BARROWS & GILTS PURCHASE BY STATE OF ORIGINGeorgia                 180               Illinois              22,636Indiana               7,276               Kentucky               1,875Michigan              2,152               North Carolina        14,433Ohio                  7,918               Pennsylvania           2,705South Carolina          180               Tennessee                957Virginia                 25               Wisconsin                349--------------------------------------------------------------------------------*Price not reported due to confidentiality, for more information visit:www.ams.usda.gov/sites/default/files/media/ConfidentialityGuidelines.pdf*Base Price is the price from which no discounts are subtracted and no premiumsare added.Source:    USDA Livestock, Poultry & Grain Market News Division, Des Moines, IA515-284-4460      email:  desm.lpgmn@ams.usda.gov24 Hour recorded market information 515-284-4830www.ams.usda.gov/market-news/livestock-poultry-grain1100C.