BC-USDA-Calif Fruit
BC-USDA-Calif Fruit

The Associated Press



LOS ANGELES Terminal Prices as of 29-MAR-2018Provided by:  Specialty Crops Market NewsFederal - State Market News Service, USDA.Phone:  (213) 894-3077     Fax:  (213) 894-2898WEATHER AT 7:00 AM: MIST: 51YESTERDAY'S WEATHER: 76https://www.ams.usda.gov/mnreports/hc—fv010.txtHC—FV010CITRUS FRUITS---CLEMENTINES: OFFERINGS LIGHT. MARKET STEADY.  flat cartons 10 3-lb mesh bagsCA 40 sz 33.00-33.50 cartons 4 5-lb containers CA 32 sz 21.00-22.50 one label24.00 1/2 bushel cartons CA mam 21.50-22.50 jbo 21.50-22.50 lge 21.50-22.50 med20.00-21.00---GRAPEFRUIT: OFFERINGS LIGHT. MARKET STEADY.  7/10 bushel cartons CA Shprs1st Grade Star Ruby 23s 26.50-27.50 27s 26.50-27.50 32s 25.00-26.00 36s24.00-25.00 40s 19.50-20.50 48s 18.00-19.00 56s 16.50-17.50 Shprs Choice StarRuby 27s 15.50-16.50 40s 15.50-16.50 MX No Grade Marks Red 23s 14.00-15.00 27s16.00-17.00 32s 16.00-17.00 36s 17.00-18.00 40s 17.00-18.00 48s 14.00-15.00 TXTexas Fancy Marked Rio Star 18s 22.00-23.00 23s 22.00-25.00 mostly 23.00-24.0027s 22.00-25.00 mostly 23.00-24.00 32s 22.00-25.00 mostly 23.00-24.00 36s22.00-24.00 mostly 23.00 40s 20.00-23.00 mostly 20.00-22.00 few high as 24.0048s 19.00-20.00 occas higher/lower---LEMONS:  MARKET STEADY.  7/10 bushel cartons CA Shprs 1st Grade 75s33.00-36.00 mostly 34.00-35.50 95s 33.00-36.00 mostly 34.00-35.00 one label37.50 115s 33.00-36.00 mostly 34.00-35.00 one label 37.50 140s 33.00-36.00mostly 34.00-35.00 one label 37.50 165s 33.00-36.00 mostly 34.00-35.00 onelabel 37.50 200s 36.00-38.00 mostly 36.00-37.50 235s 33.00-34.00 mostly33.00-33.50 Shprs Choice 75s 24.00-26.00 mostly 24.00-25.00 occas lower 95s28.00-31.00 mostly 29.00-30.00 occas lower 115s 28.00-31.00 mostly 29.00-30.00occas lower 140s 30.00-33.00 mostly 31.00-32.00 occas lower 165s 29.00-33.00mostly 30.00-31.00 occas lower 200s 33.00-35.00 mostly 33.00-34.00 occas lower235s 29.00-32.00 mostly 30.00-31.00 occas lower Uncl (Standard) 95s 20.00-21.00few 17.50 115s 19.00-20.00 few 17.50 140s 19.00-22.00 mostly 20.00-21.50 165s19.50-21.50---LIMES: OFFERINGS VERY LIGHT. MARKET STEADY. Wide range in quality andappearance. 40 lb containers MX Seedless Type 150s 55.00-60.00 mostly55.00-58.00 occas higher 175s 55.00-60.00 mostly 56.00-59.00 few high as 66.00200s 55.00-60.00 mostly 56.00-59.00 few high as 66.00 230s 45.00-50.00 mostly45.00-48.00 poorer quality and condition all sizes lower 35-36 lb cartons MXSeeded Types 300s 36.00-38.00 500s 32.00-34.00---MISC CITRUS:  MARKET STEADY.  1/2 bushel cartons w/ stems/leaves CA Satsumairreg sz 23.00-25.00 mostly 23.00-24.00 occas higher/lower 1/2 cartons CA Shprs1st Grade Blood Orange Moro 48s 14.00-15.00 56s 15.50-16.50 72s 15.50-16.50138s 13.50-14.50 7/10 bushel cartons CA Meyer Lemon 115s 19.00-20.00 140s19.00-20.00 165s 19.00-20.00 Sour Orange Seville offerings insufficient toquote. Sweet Lime col 35.00-36.00 mam 31.00-32.00 Shprs 1st Grade Pummelo 14s21.00-23.00 Oro Blanco 27s 17.25-18.25 10 lb cartons CA Kumquats 24.00-26.00Meyer Lemon med 12.00-14.00 mostly 12.00-13.00---ORANGES: OFFERINGS OF CARA CARA LIGHT. MARKET STEADY.  7/10 bushel cartonsCA Shprs 1st Grade Navel 40s 24.00-25.00 occas higher/lower 48s 21.00-24.00mostly 22.00-23.00 one label higher 56s 22.00-26.00 mostly 24.00-25.00 72s23.00-26.00 mostly 24.00-25.50 one label higher 88s 23.00-26.00 mostly24.00-25.50 one label higher 113s 25.00-28.00 mostly 26.00-27.50 one labelhigher 138s 25.00-28.00 mostly 26.00-27.50 Cara Cara 56s 26.00-28.00 mostly26.00-27.00 72s 27.50-28.50 113s 25.50-26.50 138s 25.50-26.50 Shprs ChoiceNavel 48s 19.00-23.00 mostly 20.00-21.00 occas lower 56s 20.00-23.00 mostly21.00-22.00 occas lower 72s 21.00-24.00 mostly 22.00-23.00 occas lower 88s18.50-20.00 one label higher 113s 22.00-24.00 mostly 22.00-23.00 one labelhigher 138s 20.00-21.00 one label higher TX U.S. Combination Marr 72s25.00-27.00 mostly 25.00-26.00 88s 25.00-27.00 113s 25.00-27.00---TANGELOS: OFFERINGS LIGHT.   7/10 bushel cartons CA Shprs 1st Grade Minneola64s 23.00-24.00 80s 20.00-21.00 100s 20.00-21.00 125s 21.00-23.00 150s15.00-16.00---TANGERINES: OFFERINGS VERY LIGHT. MARKET STEADY.  4/5 bushel cartons FL U.S.No. 1 Honey 80s 45.00-46.00 120s 33.00-34.00 1/2 bushel cartons CA GoldenNugget col 23.00-25.00 mam 28.00-30.00 lge 23.00-25.00 med 23.00-25.00 w/stems/leaves CA W. Murcott Afourer irreg sz 23.00-25.00 25 lb cartons CA Pixiejbo 40.00-42.00BERRIES---BLUEBERRIES: OFFERINGS CHILE LIGHT. MARKET STEADY.  flats 12 6-oz cups withlids CA med 28.00-30.00 CL BOAT med 13.00-16.00 mostly 14.00-15.00 occas lowerMX med 16.00-20.00 mostly 18.00-19.00 few high as 22.00 poorer condition lowerBaja District lge 30.00 (one label)---MISC BERRIES:  MARKET STEADY.  flats 12 6-oz cups with lids MX Blackberrieslge 12.00-16.00 mostly 14.00-15.00 occas higher/lower one label 26.00---RASPBERRIES: OFFERINGS LIGHT.   flats 12 6-oz cups with lids CA OxnardDistrict California Red lge 24.00-28.00 mostly 24.00-26.00 MX Baja District Redlge 26.00-28.00 one label 32.00---STRAWBERRIES: OFFERINGS SANTA MARIA VERY LIGHT. MARKET CA OXNARD AND SANTAMARIA DISTRICT 1 LB CONTAIINERS WITH LIDS SLIGHTLY HIGHER, OTHERS ABOUT STEADY.Wide range in quality, condition and appearance. flats 12 1-pt containers withlids CA Oxnard District California med-lge 20.00-22.00 few 24.00 poorer qualityand condition lower flats 8 1-lb containers with lids CA Oxnard DistrictCalifornia med 20.00-24.00 mostly 22.00-24.00 one label high as 28.00 SantaMaria District med 20.00-24.00 mostly 22.00-24.00 MX Baja District med15.00-19.00 mostly 15.00-17.00 one label higher flats 4 1-lb containers withlids CA Oxnard District California With Stems lge-exlge 22.00-24.00 mostly22.00-23.00 occas higher/lower Santa Maria District With Stems lge-exlge 22.00occas higher/lowerMELONS---CANTALOUPS: OFFERINGS HONDURAS LIGHT. MARKET STEADY.  1/2 cartons CR BOAT 9s12.00-14.00 12s 11.00-14.00 mostly 12.00-13.00 GU BOAT 9s 11.00-14.00 mostly12.00-13.00 12s 11.00-14.00 mostly 12.00-13.00 oversized 1/2 cartons GU BOAT 9s(6 size) 13.00-16.00 mostly 14.00-15.00 occas higher HD BOAT 9s (6 size)13.00-16.00 mostly 14.00-15.00 occas higher---HONEYDEWS: OFFERINGS LIGHT. MARKET MX- 2/3 CARTONS 6S SLIGHTLY HIGHER,OTHERS ABOUT STEADY.  2/3 cartons HD BOAT 5s 12.00-14.00 mostly 12.00-13.00 MX5s 12.00-14.00 mostly 12.00-13.00 6s 11.00-14.00 mostly 11.00-13.00 8s11.00-13.00 mostly 11.00-12.00 oversized 2/3 cartons GU BOAT 5s (4 size)12.00-14.00 mostly 12.00-13.00 HD BOAT 5s (4 size) 12.00-14.00 mostly12.00-13.00 MX 5s (4 size) 12.00-14.00 mostly 12.00-13.00---WATERMELONS: OFFERINGS BINS VERY LIGHT. MARKET ABOUT STEADY. Wide range inquality and appearance. cartons MX Red Flesh Seedless Type 5s 33.00-36.00mostly 34.00-35.00 few high as 38.00-40.00 6s 30.00-33.00 mostly 30.00-32.00occas higher/lower flat cartons MX Red Flesh Seedless Miniature 6s 18.00-22.00occas higher/lower 8s 18.00-22.00 occas higher/lower 9s 18.00-22.00 occashigher/lower 24 inch bins MX Red Flesh Seedless Type 45s 220.00 occashigher/lowerNON-CITRUS FRUITS---APPLES:  MARKET STEADY.  cartons tray pack CD CDExFcy Spartan 88s44.00-45.00 WA WAExFcy Red Delicious 56s 16.00-18.00 64s 16.00-18.00 72s16.00-18.00 fineappear 21.00-22.00 88s 18.00-20.00 100s fineappear 19.00-20.00113s 18.00-20.00 125s 16.00-18.00 138s 16.00-18.00 163s 16.00-18.00 GoldenDelicious 64s fineappear 36.00-38.00 72s fineappear 36.00-38.00 88s fineappear33.00-35.00 100s fineappear 24.00-26.00 125s fineappear 23.00-25.00 138sfineappear 22.00-24.00 Fuji 56s 28.00-30.00 72s 28.00-30.00 88s 26.00-28.00100s 22.00-24.00 113s 22.00-24.00 125s 20.00-22.00 138s 23.00-25.00 163s23.00-25.00 Granny Smith 64s 30.00-32.00 occas higher/lower 72s 32.00-34.00mostly 32.00-33.00 88s 30.00-32.00 occas higher/lower 100s 25.00-27.00 occashigher/lower 113s 24.00-26.00 occas higher/lower 125s 22.00-24.00 occashigher/lower 138s 22.00-24.00 occas higher/lower 163s 22.00-24.00 occashigher/lower Gala 64s 26.00-28.00 72s 26.00-28.00 88s 26.00-28.00 100s22.00-24.00 113s 22.00-24.00 125s 22.00-24.00 138s 22.00-24.00 163s 20.00-22.00198S 20.00-22.00 Braeburn 64s fineappear 24.00 72s 23.00-24.00 Jonagold 64s24.00-26.00 Honeycrisp 72s 28.00-30.00 88s 28.00-30.00 100s 26.00-28.00 113s26.00-28.00 Pink Lady/Cripps Pink 72s 36.00-38.00 100s 31.00-33.00 cartons 123-lb film bags WA WAExFcy Red Delicious 2 1/2" min 14.00-15.00 Fuji 15.00-16.00Granny Smith 2 1/2" min 15.50-16.50---AVOCADOS: OFFERINGS CALIFORNIA VERY LIGHT. MARKET CARTONS 2 LAYER 84SSLIGHTLY HIGHER, OTHERS ABOUT STEADY.  cartons 2 layer CA Hass 48s 44.00-45.00occas higher/lower MX Hass 32s 42.00-44.00 mostly 42.00-43.00 few 45.00 36s42.00-44.00 mostly 42.00-43.00 few 45.00 40s 40.00-43.00 mostly 40.00-42.00occas higher 48s 40.00-42.00 mostly 40.00-41.00 occas higher 60s 34.00-36.00mostly 34.00-35.00 70s 29.00-32.00 mostly 30.00-31.00 few high as 34.00 84s21.00-24.00 mostly 22.00-23.00 fr qual offerings insufficient to quote.---BANANAS:  MARKET 40-LB CARTONS CONVENTIONAL TYPE SLIGHTLY LOWER, OTHERSABOUT STEADY.  40 lb cartons EC BOAT 18.00-20.00 mostly 19.00-19.50 GU BOAT14.00-16.00 mostly 15.00-16.00 MX 15.00-16.00 few second labels 14.00 Burro14.00-16.50 mostly 15.00 40 lb cartons institutional pack EC BOAT petite15.00-18.00 mostly 16.00-17.50 GU BOAT petite 15.00-18.00 mostly 16.00-17.50 20lb cartons CB BOAT Manzano 21.00-22.00 EC BOAT Red 12.00-13.50 Manzano17.00-18.00 15 lb cartons EC BOAT Baby 11.00-13.00 mostly 11.50-12.00---FRUITS OTHER: OFFERINGS LIGHT. MARKET ABOUT STEADY.  11 lb cartons loose CADates Medjool lge 24.00-29.00 mostly 25.00-27.00 cartons 1 layer CL BOAT ApplePears Hosui 12s 17.00-18.00 18s 17.00-18.00 flat cartons EC AIR Pepino 15s16.00-16.50 16s 16.00-16.50 20s 16.00-16.50 cartons 1 layer TW AIR Carambola -Star Fruit 9s 20.00-22.50 10s 20.00-22.50 12s 20.00-22.50 cartons 1 layer traypack CA Cherimoya 8s 59.00-60.00 10s 59.00-60.00 12s 59.00-60.00 14s59.00-60.00 Passion Fruit 33s 46.00-50.00 39s 46.00-50.00 34-36s 46.00-50.00 CLAIR Kiwano 12s 40.50 NZ AIR Kiwano 12s 38.00-38.50 Passion Fruit 33s49.00-50.00 39s 49.00-50.00 34-36s 49.00-50.00 flats 1 layer MX Figs BlackMission 54s 30.00-32.00 cartons 2 layer tray pack CA Quince 30s 70.00 (markedgolden) CL BOAT Quince 20s 40.00 occas lower 10 lb cartons CA Cherimoya med-lge52.00-52.50 flats 12 1-pt baskets MX Figs Black Mission 46.00-48.00 flats 128-oz containers with lids CL AIR Figs Black Mission 44.00-45.00 MX Figs BlackMission 38.00-40.00 18 kg containers wrapped CQ Apple Pears Yali 72s16.00-17.00 13 lb cartons MX Guava 14.00-16.00 occas higher/lower---GRAPES:  MARKET PE 18-LB CONTAINERS BAGGED RED GLOBE JBO SLIGHTLY HIGHER,OTHERS ABOUT STEADY.  18 lb containers bagged CL BOAT Black Seedless exlge26.00-28.00 occas higher/lower Autumn Royal exlge 20.00-22.00 occashigher/lower PE BOAT Sugraone jbo 28.00-30.00 occas higher/lower White SeedlessType lge 22.00-24.00 occas higher/lower Red Seedless jbo 28.00-30.00 occashigher/lower Red Globe jbo 22.00-24.00 occas higher/lower 19 lb containersbagged CL BOAT Flame Seedless lge 18.00-20.00 Crimson Seedless exlge22.00-24.00---KIWIFRUIT: OFFERINGS LIGHT.   flats 1 layer CA Hayward 27s 10.00-11.00 20 lbcartons loose CA Hayward 27 sz 27.00-31.00 mostly 28.00-30.00 36 sz 25.00-27.00flats 12 4.4-oz cups with lids CL AIR Kiwi Berries (Baby Kiwi) 32.00 NZ AIRKiwi Berries (Baby Kiwi) 30.00-32.00 bins CA Hayward 45 sz 130.00 9 kg (19.8lb) containers loose GR Hayward 39 sz 23.00-24.00 IT Hayward 23 sz 22.00-23.00one label higher---MANGOES: OFFERINGS PERU VERY LIGHT. MARKET STEADY.  flats 1 layer GU Ataulfo12s 5.00-6.00 14s 5.00-6.00 16s 5.00-5.50 18s 5.00-5.50 MX Haden 6s 5.00-6.007s 5.00-6.00 Tommy Atkins 6s 6.00-7.00 mostly 6.00-6.50 7s 6.00-7.00 mostly6.00-6.50 8s 5.00-7.00 mostly 5.50-6.50 9s 5.00-7.00 mostly 5.50-6.50 10s5.00-6.00 12s 4.00-6.00 Ataulfo 12s 6.00-8.00 mostly 7.00-7.50 one label10.50-11.00 14s 6.00-8.00 mostly 7.00-7.50 one label 10.00 fr qual 1.00-3.00mostly 1.00-2.00 16s 5.00-6.00 one label 8.00-8.50 fr qual 1.00-3.00 mostly1.00-2.00 18s 5.00-6.00 one label 7.00-7.50 fr qual 1.00-3.00 mostly 1.00-2.0020s 5.00-6.00 fr qual 1.00-3.00 mostly 1.00-2.00 22s fr qual 1.00-3.00 mostly1.00-2.00 PE Kent 7s 5.00-5.50 fr cond 2.00-4.00 50 lb cartons GU Green CookingType 50.00---NECTARINES: OFFERINGS LIGHT. MARKET STEADY.  cartons 1 layer tray pack CLBOAT Various Yellow Flesh Varieties 32s 18.00-20.00 cartons 2 layer tray packCL BOAT Various Yellow Flesh Varieties 40-42s 18.00-20.00 9 kg containers looseCL BOAT Various Yellow Flesh Varieties 60 sz 16.00-18.00 Arctic Queen 60 sz16.00-18.00---PAPAYA:  MARKET ABOUT STEADY.  10 lb cartons HI AIR Solo Type Yellow Flesh8s 19.00-22.00 mostly 20.00-21.00 9s 19.00-22.00 mostly 20.00-21.00 10s19.00-22.00 mostly 20.00-21.00 30 lb cartons MX Maradol Type 12s 16.00-18.00mostly 17.00-18.00 occas higher/lower 35 lb cartons MX Green Cooking Type17.00-18.00 (approx 20 count)---PEACHES: OFFERINGS VERY LIGHT. MARKET ABOUT STEADY.  cartons 2 layer traypack CL BOAT Various Yellow Flesh Varieties 30s 24.00-26.00 Various White FleshVarieties 40s 28.00-30.00 9 kg containers loose CL BOAT Various Yellow FleshVarieties 60 sz offerings insufficient to quote.---PEARS:  MARKET STEADY.  4/5 bushel cartons wrapped CL BOAT Bartlett 80s34.00-36.00 90s 32.00-34.00 135s 24.00-26.00 WA U.S. One D'Anjou 80s30.00-32.00 90s 30.00-32.00 110s 30.00-32.00 120s 34.00-36.00 135s 33.00-35.00Bosc Golden 80s 36.00-38.00 90s 36.00-38.00 110s 23.00-25.00 2/5 bushel cartonswrapped WA U.S. One Red D'Anjou 40s 16.00-18.00 Comice 40s 16.00---PINEAPPLES:  MARKET STEADY.  cartons 1 layer CR BOAT golden ripe 5s11.00-12.00 occas higher 6s 11.00-13.00 mostly 11.00-12.00 occas higher fr qual6.00-7.00 7s 11.00-12.00 occas higher fr qual 6.00-7.00 SF AIR Baby Type 10s26.00---PLANTAINS:  MARKET ABOUT STEADY.  50 lb cartons CB BOAT 26.00-28.00 mostly27.00-28.00 EC BOAT offerings insufficient to quote. GU BOAT 26.00-27.00 MX25.00-26.00---PLUMS: OFFERINGS VERY LIGHT. MARKET CARTONS 2 LAYER TRAYPACK 40S MARKEDBLACK TYPE SLIGHTLY LOWER, OTHERS ABOUT STEADY.  cartons 2 layer tray pack CLBOAT Black Giant 32s 16.00-18.00 Marked Black Plum 40s 19.00-20.00 Marked RedPlum 30s 24.00-26.00 9 kg containers loose CL BOAT Marked Black Plum 60 sz16.00-18.00 Marked Red Plum 60 sz 16.00-18.00ORGANICBERRIES---BLUEBERRIES: flats 12 6-oz cups with lids MX med 28.00 (one label)26.00-27.00 mostly 26.00-26.50 cartons 12 18-oz containers with lids MX med36.00---MISC BERRIES: flats 12 6-oz cups with lids MX Blackberries lge 22.00-24.00one label 26.00-28.00---RASPBERRIES: flats 12 6-oz cups with lids MX Red lge 38.00-40.00 (one label)---STRAWBERRIES: flats 8 1-lb containers with lids CA Orange County Californiamed-lge 22.00-24.00 MX Baja District med-lge 22.00-24.00NON-CITRUS FRUITS---APPLES: cartons 12 3-lb film bags WA WAExFcy Red Delicious 2 1/2" min32.00-32.50 Fuji 2 1/2" min 32.00-32.50 Granny Smith 2 1/2" min 32.00-32.50Gala 2 1/2" min 32.00-32.50---BANANAS: 40 lb cartons EC BOAT 24.00-26.50 PE BOAT 22.00-23.00