BC-USDA-Iowa Elev Grain Prcs
BC-USDA-Iowa Elev Grain Prcs

The Associated Press



NW—GR110Des Moines, IA   Thu Mar 29, 2018    IA Dept of Ag-USDA Market NewsIA Dept. of Ag-USDA Market News Interior Iowa Daily Grain PricesClosing cash grain bids offered to producers as of 1:30 p.m.Dollars per bushel, delivered to Interior Iowa Country Elevators.US 2 Yellow Corn Prices were generally 14 to 15 cents higher for a state average of 3.43.US 1 Yellow Soybean Prices were mostly 27 cents higher for a state average of 9.59.Iowa Regions       #2 Yellow Corn          #1 Yellow SoybeansRange       Avg        Range         AvgNorthwest        3.37 ? 3.53   3.44       9.54 ? 9.65   9.58North Central    3.40 ? 3.44   3.42       9.53 ? 9.65   9.53Northeast        3.31 ? 3.53   3.43       9.48 ? 9.80   9.60Southwest        3.34 ? 3.48   3.43       9.52 ? 9.66   9.60South Central    3.40 ? 3.50   3.44       9.60 ? 9.66   9.63Southeast        3.25 ? 3.64   3.45       9.57 ? 9.69   9.65Corn basis to STATE AVERAGE PRICE for the CBOT MAY contract is -.44Soybean basis to STATE AVERAGE PRICE for the CBOT MAY contract is -.86This report was prepared by the Marketing Bureau, Iowa Department ofAgriculture and Land Stewardship.Source:  USDA Market News Des Moines, Iowa515-284-4460www.ams.usda.gov/mnreports/nw—gr110.txtIowa Dept. of Agriculture and Land Stewardship515-281-8604www.iowaagriculture.gov/agMarketing/dailyGrainPrices.asp16:17 ja