BC-USDA-SC Clsng Grain Bids
BC-USDA-SC Clsng Grain Bids

The Associated Press



CO—GR110Columbia, SC     Thursday, March 29, 2018 USDA-SC Dept Ag Market News*** Please note that the next report will be issued on Monday, April 2nd, 2018 ***South Carolina closing cash grain bids as of 3:00 P.M.  Prices deliveredto country elevators or processors. New crop3 bids noted with (*).US 2 Yellow Corn was 14 to 15 cents higher.US 1 Yellow Soybeans were 26 to 27 cents higher.US 2 Soft Red Wheat were steady to 6 cents higher.New Crop US 2 Yellow Corn was 7 to 15 cents higher.New Crop US 2 Soft Red Wheat was 5 to 6 cents higher; one location14 cents higher.CORN: Country Elevators---4.47 at Anderson; 3.72 and *3.96 at Kingstree;4.13 and *4.27 at Hamer; 3.72 and *3.96 at Lynchburg; 3.72 and *3.96 atConway; 3.72 and *3.96 at Estill; Processors---4.27 at Orangeburg; 4.65and *4.68 at Monetta; 4.52 at Sumter; *4.53 at Cassatt.SOYBEANS: Country Elevators---9.94 at Anderson; 9.79 at Kingstree;9.75 at Hamer; 9.79 at Lynchburg; 9.79 at Conway; 9.79 at Estill;Processors---10.39 at Kershaw; Export---10.44 at Mt. Pleasant.WHEAT: Country Elevators---4.51 and *4.28 at Anderson; *3.68 atKingstree; 4.44 and *4.44 at Hamer; *3.68 at Lynchburg; *3.68 at Conway;*3.68 at Estill; Processors---No Bid at Monetta; No Bid at Sumter; *4.56Cassatt; 5.25 at Columbia; Export---No Bid at Mt. Pleasant.COUNTRY ELEVATORS    US 2 Yellow       US 1 Yellow       US 2 Soft RedCorn             Soybeans           WheatCash  New Crop    Cash  New Crop    Cash  New CropAnderson             4.47              9.94              4.51     4.28Kingstree            3.72   3.96       9.79                       3.68Hamer                4.13   4.27       9.75              4.44     4.44Lynchburg            3.72   3.96       9.79                       3.68Conway               3.72   3.96       9.79                       3.68Estill               3.72   3.96       9.79                       3.68PROCESSORSOrangeburg           4.27Monetta              4.65   4.68Sumter               4.52Cassatt                     4.53                                  4.56Kershaw                               10.39Columbia                                                 5.25EXPORTMt. Pleasant                          10.44Source: South Carolina Dept. of Ag-USDA Market News, Columbia, SC803-737-4671.  For more info check out the internet athttp://www.ams.usda.gov/mnreports/co—gr110.txt15:10 kt