BC-US--Grain Prices, US
BC-US--Grain Prices, US

The Associated Press

CHICAGO




CHICAGO (AP) — Futures trading on the Chicago Board of Trade Thursday.:
SettleWHEAT (5,000 bu ; cents per bushel)May             451    Jul             468 1-2Sep             485 1-4Dec             506 1-2Mar             522 1-4May             531    Jul             535 1-4Sep             543 3-4Dec             559    Mar             568 1-4May             568    Jul             552 1-4CORN (5,000 bu ; cents per bushel)May             387 3-4Jul             396 1-4Sep             403 1-4Dec             411 1-2Mar             418 1-4May             422 1-4Jul             425 1-2Sep             409    Dec             412 1-4Mar             420 1-2May             424 1-2Jul             428 1-4Sep             418 3-4Dec             414 1-2Jul             422 3-4Dec             418 1-4OATS (5,000 bu ; cents per bushel)May             225    Jul             233 3-4Sep             239 1-2Dec             250 3-4Mar             256 3-4May             260 1-2Jul             265 1-2Sep             266 3-4Dec             266 3-4Mar             266 3-4Jul             265 1-4Sep             265 1-4SOYBEANS (5,000 bu ; cents per bushel)May            1044 3-4Jul            1055 1-2Aug            1058    Sep            1051 1-4Nov            1047 3-4Jan            1049 3-4Mar            1045 3-4May            1044 1-2Jul            1045 1-2Aug            1040 1-4Sep            1023 1-4Nov            1003 3-4Jan            1009    Mar            1009 1-2May            1017    Jul            1017 1-2Aug            1010    Sep            1006 1-4Nov             984    Jul             984    Nov             984    SOYBEAN OIL (60,000 lbs; cents per lb)May             31.87Jul             32.13Aug             32.26Sep             32.37Oct             32.50Dec             32.79Jan             32.99Mar             33.22May             33.44Jul             33.66Aug             33.70Sep             33.69Oct             33.63Dec             33.76Jan             33.89Mar             34.11May             34.09Jul             34.24Aug             34.23Sep             34.23Oct             34.23Dec             34.14Jul             34.14Oct             34.14Dec             34.14SOYBEAN MEAL (100 tons; dollars per ton)May            384.00Jul            386.30Aug            383.20Sep            380.00Oct            376.30Dec            374.70Jan            370.80Mar            362.50May            357.60Jul            357.00Aug            354.20Sep            349.70Oct            340.80Dec            339.90Jan            340.60Mar            341.40May            341.40Jul            342.90Aug            342.90Sep            342.90Oct            342.90Dec            339.70Jul            339.70Oct            339.70Dec            339.70