Close
Close

The Associated Press

CHICAGO




CHICAGO (AP) — Futures trading on the Chicago Board of Trade Thu.:
OpenHighLowSettleChg.WHEAT5,000 bu minimum; cents per bushelMay447½455¾441½451+5½Jul465472½459468½+5¾Sep481489¼475¾485¼+5¾Dec502½510¼497506½+5½Mar518525½513½522¼+5¼May528534522¼531+5¼Jul532¼538¼528535¼+3¼Sep540¼543¾540¼543¾+3Dec556559556559+3Mar568¼+2¾May568+3¾Jul552¼+2¾Est. sales 160,313.  Wed.'s sales 108,967Wed.'s open int 498,346CORN5,000 bu minimum; cents per bushelMay373¾389¼373¾387¾+14¼Jul382¾397½382396¼+14Sep389404388¾403¼+14¼Dec396¾411¾396¾411½+14½Mar403¾418½403¾418¼+13¾May408¾422¼408¾422¼+13Jul412½425¾412½425½+12½Sep401½410¾401½409+7½Dec404¾414½404412¼+7Mar414420½414420½+6½May424½+6½Jul428¼+6Sep418¾+6Dec412419412414½+2¾Jul422¾+2¾Dec418¼+2¾Est. sales 772,470.  Wed.'s sales 257,468Wed.'s open int 1,850,903OATS5,000 bu minimum; cents per bushelMay222¾228¼221½225+3¼Jul230½236¼230¼233¾+3¼Sep239240¼239239½+1Dec251251250¾250¾+1½Mar256¾+¾May260½+¾Jul265½+¾Sep266¾+¾Dec266¾+¾Mar266¾+¾Jul265¼+¾Sep265¼+¾Est. sales 1,100.  Wed.'s sales 486Wed.'s open int 6,213SOYBEANS5,000 bu minimum; cents per bushelMay1019½1050¾1012½1044¾+26¾Jul1029¼1060¾10231055½+26¾Aug1031¼106210251058+27½Sep102310531015¾1051¼+30Nov1016½1049¼1009¾1047¾+31¼Jan1019¼1051¾1012¾1049¾+30½Mar1017½1047¾1011¼1045¾+28¼May1018½104710121044½+26¾Jul1016½1048¾10151045½+24½Aug1040¼+24½Sep1023¼+24½Nov98610109851003¾+16Jan987¾1010¾987½1009+16¼Mar1009½+16¼May1017+16¼Jul1017½+14¼Aug1010+14¼Sep1006¼+14¼Nov987987984984+5¼Jul984+5¼Nov984+5¼Est. sales 379,749.  Wed.'s sales 184,691Wed.'s open int 872,794SOYBEAN OIL60,000 lbs; cents per lbMay31.6232.1531.4231.87+.25Jul31.8832.4031.6732.13+.25Aug32.0032.5231.8132.26+.26Sep32.1332.6431.9632.37+.24Oct32.2732.6832.0832.50+.25Dec32.5333.3032.3132.79+.26Jan32.6233.2432.5832.99+.24Mar33.0033.4832.8333.22+.23May33.1433.6233.1433.44+.25Jul33.2633.7733.2633.66+.27Aug33.8333.8333.7033.70+.27Sep33.8033.8033.6933.69+.25Oct33.63+.24Dec33.5834.0133.5733.76+.24Jan33.89+.28Mar34.11+.27May34.09+.27Jul34.24+.29Aug34.23+.29Sep34.23+.29Oct34.23+.29Dec34.14+.29Jul34.14+.29Oct34.14+.29Dec34.14+.29Est. sales 129,982.  Wed.'s sales 83,678Wed.'s open int 518,872SOYBEAN MEAL100 tons; dollars per tonMay371.80386.20367.80384.00+12.70Jul373.70388.00370.20386.30+12.60Aug370.00384.40367.10383.20+12.70Sep366.10380.90363.80380.00+13.20Oct361.70377.20359.60376.30+13.70Dec360.90375.40357.60374.70+13.70Jan358.10371.50354.70370.80+13.20Mar349.20362.70348.70362.50+11.10May345.60358.00344.20357.60+9.90Jul345.50357.60345.40357.00+9.20Aug354.20+8.10Sep349.70+6.90Oct332.70340.80332.50340.80+5.70Dec332.70344.20332.00339.90+5.30Jan340.60+5.30Mar341.40+5.30May341.40+5.30Jul342.90+5.30Aug342.90+5.30Sep342.90+5.30Oct342.90+5.30Dec339.70+5.30Jul339.70+5.30Oct339.70+5.30Dec339.70+5.30Est. sales 148,029.  Wed.'s sales 80,167Wed.'s open int 463,132