BC-Wheat KX
BC-Wheat KX

The Associated Press

CHICAGO




CHICAGO (AP) — Winter Wheat futures on the Chicago Board of Trade Mon:
OpenHighLowSettleChg.WHEAT5,000 bu minimum; cents per bushelMay473½476¼466¾467½+¼Jul497¾497¾486486¾+½Sep512514505½506+¾Dec537538½530530¾+1Mar552553½545½545¾+1May552½554¼552½552¾+1½Jul560560555½556¼+1½Sep566¼+½Dec582½+1¼Mar588+1May588+1Jul569+1Est. sales 46,359.Thu.'s open int 283,674,  up 2,853