BC-USDA-Portland Grain
BC-USDA-Portland Grain

The Associated Press



JO—GR110Portland, OR    Mon Apr 02, 2018    USDA Market NewsPortland Daily Grain ReportBids as of 9:30 a.m. Pacific time; Subject to changeAll Bids in dollars per bushel.  Bids are limited and not fullyestablished in early trading.Bids for grains delivered to Portland, Oregon in dollars per bushel.In early trading May wheat futures trended mixed, from 5.25 cents lowerto one cent per bushel higher than Thursday?s noon closes.Bids for US 1 Soft White Wheat delivered to Portland in unit trains andbarges for April delivery for ordinary protein were not well tested inearly trading, but bids were indicated as steady to higher compared toThursday?s noon bids for the same delivery period.  Some exporters werenot issuing bids for nearby delivery.  Bids for guaranteed maximum 10.5percent protein were well tested in early trading, but bids were indicatedas generally steady to lower compared to Thursday?s noon bids for the samedelivery period.  Some exporters were not issuing bids for nearby delivery.Bids for 11.5 percent protein US 1 Hard Red Winter Wheat for Aprildelivery were not well tested in early trading but bids were indicated ashigher compared to Thursday?s bids for the same delivery period.  Someexporters were not issuing bids for nearby delivery.Bids for 14 percent protein US 1 Dark Northern Spring Wheat for Aprildelivery were not well tested in early trading but bids were indicated aslower compared to Thursday?s noon bids for the same delivery period.Some exporters are not issuing bids for nearby delivery.Bids for US 2 Yellow Corn delivered full coast in 110 car shuttle trainsduring April were not well tested in early trading, but bids were indicatedas higher compared to Thursday?s noon bids for the same delivery period.Some exporters were not issuing bids for nearby delivery.Bids for US 1 Yellow Soybeans delivered full coast in 110 car shuttletrains during April were not well tested in early trading, but bids wereindicated as lower compared to Thursday?s noon bids for the same deliveryperiod.  Some exporters were not issuing bids for nearby delivery.All wheat bids in dollars per bushelUS 1 Soft White Wheat - delivered by Unit Trains and BargesOrdinary proteinApr                                       5.4000-5.7500May                                       5.6500-5.7500Jun                                       5.7000-5.7500Jul                                       5.5000-5.6700Aug NC                                    5.5000-5.5725Guaranteed maximum 10.5 pct proteinApr                                       5.4000-5.6800May                                       5.6500-5.7300Jun                                       5.7000-5.7025Jul                                       5.5000-5.6025Aug NC                                    5.5000-5.5725—US 1 White Club Wheat - delivered by Unit Trains and BargesOrdinary proteinApr                                       5.4500-5.7500Guaranteed maximum 10.5 pct proteinApr                                       5.2500-5.6800—US 1 Hard Red Winter Wheat - (Exporter bids-falling numbers of 300 orbetter)Ordinary protein                            5.1325-5.282511 pct protein                              5.7325-6.032511.5 pct proteinApr                                       6.0325-6.2825May                                       6.0325-6.2825Jun                                       6.2550-6.3250Jul                                       6.1550-6.2750Aug NC                                    NA12 pct protein                              6.1825-6.432513 pct protein                              6.4825-6.7325—US 1 Dark Northern Spring Wheat (with a minimum of 300 falling numbers, a maximumof 0.5 part per million vomitoxin, and a maximum of one percent total damage)13 pct protein                              6.4025-6.732514 pct proteinApr                                       6.8825-7.1325May                                       7.0325-7.1825Jun                                       7.0225-7.2225Jul                                       7.0225-7.2225Aug NC                                    NA15 pct protein                              7.2025-7.432516 pct protein                              7.5225-7.7525—US 2 Yellow CornShuttle trains-Delivered full coast Pacific Northwest-BNApr                                       4.9600-5.0500May                                       4.9400-4.9700Jun                                       4.9750-5.0350Jul                                       4.8250-4.9750Aug                                       NASep                                       NA—US 1 Yellow SoybeansShuttle trains-Delivered full coast Pacific Northwest-BNApr                                       11.2450-11.2950May                                       11.3450Jun                                       11.4500-11.5000Jul                                       11.4500-11.5200Aug                                       NAOct                                       11.3750-11.4450—US 2 Heavy White Oats **                      3.4825** Not well tested.Exporter Bids Portland Rail/Barge             Feb 2018Averages in Dollars per bushelUS 1 Soft White by Unit Trains and Barges   5.4300US 1 Hard Red Winter (Ordinary protein)     5.4100US 1 Hard Red Winter (11.5% protein)        6.3200US 1 Dark Northern Spring (14% protein)     7.2900Source:    USDA Market News Service, Portland, ORNiki Davila 503-535-5001  Portland.LPGMN@ams.usda.gov24 Hour Market Report  503-535-5005www.ams.usda.gov/mnreports/jo—gr110.txtwww.ams.usda.gov/lpsmarketnewspage8:50 P nd