BC-Cash Prices, 1st Ld-Writethru,0342
BC-Cash Prices, 1st Ld-Writethru,0342

The Associated Press

NEW YORK




NEW YORK (AP) — Wholesale cash prices Thursday
?                                      ??Mon.???????Thu.
F
Foods

?Broilers national comp wtd av           ?1.0613?????1.0613
?Eggs large white NY Doz.                ???2.67???????2.74
?Flour hard winter KC cwt                ??15.20??????15.00
?Cheddar Cheese Chi. 40 block per lb.    ?2.2025?????2.2025
?Coffee parana ex-dock NY per lb.        ?1.1873?????1.1982
?Coffee medlin ex-dock NY per lb.        ?1.3881?????1.3943
?Cocoa beans Ivory Coast $ metric ton    ???2834???????2834
?Cocoa butter African styl $ met ton     ???7558???????7558
?Hogs Iowa/Minn barrows & gilts wtd av   ??47.09??????48.35
?Feeder cattle 500-550 lb Okl av cwt     ?170.25?????170.25
?Pork loins 13-19 lb FOB Omaha av cwt    ??85.03??????83.98
Grains
?Corn No. 2 yellow Chi processor bid     ?3.67¼???????3.67¾
?Soybeans No. 1 yellow                   10.10½??????10.19?
?Soybean Meal Cen Ill 48pct protein-ton  387.50??????374.80
?Wheat No. 2  Chi soft                   ?4.46¼???????4.42?
?Wheat N. 1 dk  14pc-pro Mpls.           ?7.23½???????7.13½
?Oats No. 2 heavy or Better              ?2.40????????2.40?
Fats & Oils
?Corn oil crude wet/dry mill Chi. lb.    ?.28??????????.32?
?Soybean oil crude Decatur lb.           ?.30??????????.30?
Metals
?Aluminum per lb LME                     0.9057??????0.9112
?Antimony in warehouse per ton           ??8588????????8588
?Copper Cathode full plate               3.0321??????2.9942
?Gold Handy & Harman                     1335.25????1323.65
?Silver Handy & Harman                   ?16.605?????16.322
?Lead per metric ton LME                 2411.00????2403.00
?Molybdenum per metric ton LME           ?15,500?????15,500
?Platinum per troy oz. Handy & Harman    ?935.00?????936.00
?Platinum Merc spot per troy oz.         ?930.70?????927.30
?Zinc (HG) delivered per lb.             ?1.5113??????1.4929
Textiles, Fibers and Miscellaneous
?Cotton 1-1-16 in. strict low middling   ??77.73??????78.22
Raw Products
?Coal Central Appalachia $ per short ton ??63.00??????63.00
?Natural Gas  Henry Hub, $ per mmbtu     ???2.75???????2.64
b-bid a-asked
n-Nominal
r-revised
n.q.-not quoted<29
n.a.-not available