Open
Open

The Associated Press

CHICAGO




CHICAGO (AP) — Early trading on the Chicago Board of Trade Mon.:
OpenHighLowLastChg.WHEAT5,000 bu minimum; cents per bushelMay454¼457¼449¼449½—1½Jul473474466¾467—1½Sep489490¾483½483¾—1½Dec510511¾504½504¾—1¾Mar525527520¾521—1¼May534¾536¼530530—1Jul539¼540½535¼535½+¼Dec559559559559Est. sales 45,156.Thu.'s open int 509,567,  up 11,221CORN5,000 bu minimum; cents per bushelMay389¼392½388¼389+1¼Jul397¼401396¾397½+1¼Sep404408403¾404¼+1Dec412416411¾412¾+1¼Mar418422¼418419½+1¼May422¼425¾422¼423+¾Jul425½429425½426¾+1¼Sep407¾411407¾411+2Dec412414½411¼413¼+1Mar423423423423+2½Dec412414½412414½Est. sales 228,712.Thu.'s open int 1,845,774OATS5,000 bu minimum; cents per bushelMay226½233226½232+7Jul235¾241¾235¾241+7¼Est. sales 511.Thu.'s open int 6,091SOYBEANS5,000 bu minimum; cents per bushelMay1045¼1060½1045¼1048+3¼Jul10561071¼10561058½+3Aug1058½1073½1058½1061½+3½Sep1051¼1064¼1051¼1055½+4¼Nov104810601047½1051¼+3½Jan10491060½10491052¾+3Mar1045¼1054½10441047½+1¾May1044½1051¾10411042¾—1¾Jul1045½10501042½1044½—1Nov10011009½1000¼1003¼—½Jan1001¼1001¼1001¼1001¼—7¾Est. sales 130,498.Thu.'s open int 891,299,  up 18,505SOYBEAN OIL60,000 lbs; cents per lbMay32.0332.2431.9532.05+.18Jul32.2232.5032.2132.32+.19Aug32.3432.6132.3432.40+.14Sep32.4832.7532.4632.55+.18Oct32.6032.8232.5932.65+.15Dec32.8633.1332.8532.92+.13Jan33.0933.3433.0933.13+.14Mar33.3633.5633.3033.36+.14May33.7133.7433.5933.59+.15Jul33.9033.9533.9033.92+.26Aug33.9333.9333.9333.93+.23Sep33.9333.9333.9333.93+.24Dec33.9334.1133.9334.11+.35Est. sales 39,189.Thu.'s open int 513,927SOYBEAN MEAL100 tons; dollars per tonMay384.00389.70380.20380.90—3.10Jul386.30392.10382.90383.70—2.60Aug383.30389.00380.60381.00—2.20Sep380.00385.70378.20378.90—1.10Oct378.80382.20374.60374.60—1.70Dec374.00380.80373.20374.10—.60Jan374.80376.00369.60369.60—1.20Mar365.00366.10361.00361.00—1.50May358.00358.00357.90357.90+.30Jul359.60359.60357.20357.20+.20Est. sales 44,639.Thu.'s open int 465,911,  up 2,779