BC-USDA-Portland Grain
BC-USDA-Portland Grain

The Associated Press



JO—GR110Portland, OR    Tue Apr 03, 2018    USDA Market NewsPortland Daily Grain ReportBids as of 9:30 a.m. Pacific time; Subject to changeAll Bids in dollars per bushel.  Bids are limited and not fullyestablished in early trading.Bids for grains delivered to Portland, Oregon in dollars per bushel.In early trading May wheat futures trended ten to 21.75 cents per bushelhigher than Monday?s noon closes.Bids for US 1 Soft White Wheat delivered to Portland in unit trains andbarges for April delivery for ordinary protein were not well tested inearly trading, but bids were indicated as steady to higher compared toMonday?s noon bids for the same delivery period.  Some exporters were notissuing bids for nearby delivery.  Bids for guaranteed maximum 10.5 percentprotein were well tested in early trading, but bids were indicated ashigher compared to Monday?s noon bids for the same delivery period.  Someexporters were not issuing bids for nearby delivery.Bids for 11.5 percent protein US 1 Hard Red Winter Wheat for Aprildelivery were not well tested in early trading but bids were indicated ashigher compared to Monday?s bids for the same delivery period.  Someexporters were not issuing bids for nearby delivery.Bids for 14 percent protein US 1 Dark Northern Spring Wheat for Aprildelivery were not well tested in early trading but bids were indicated ashigher compared to Monday?s noon bids for the same delivery period.  Someexporters are not issuing bids for nearby delivery.Bids for US 2 Yellow Corn delivered full coast in 110 car shuttle trainsduring April were not well tested in early trading, but bids were indicatedas higher compared to Monday?s noon bids for the same delivery period.Some exporters were not issuing bids for nearby delivery.Bids for US 1 Yellow Soybeans delivered full coast in 110 car shuttletrains during April were not well tested in early trading, but bids wereindicated as higher compared to Monday?s noon bids for the same deliveryperiod.  Some exporters were not issuing bids for nearby delivery.All wheat bids in dollars per bushelUS 1 Soft White Wheat - delivered by Unit Trains and BargesOrdinary proteinApr                                       5.4000-5.8500May                                       5.6500-5.9000Jun                                       5.7000-5.8825Jul                                       5.5000-5.7825Aug NC                                    5.5000-5.6750Guaranteed maximum 10.5 pct proteinApr                                       5.4000-5.8500May                                       5.7800-5.9000Jun                                       5.7800-5.8825Jul                                       5.6000-5.7825Aug NC                                    5.6000-5.6750—US 1 White Club Wheat - delivered by Unit Trains and BargesOrdinary proteinApr                                       5.4500-5.8500Guaranteed maximum 10.5 pct proteinApr                                       5.4500-5.8500—US 1 Hard Red Winter Wheat - (Exporter bids-falling numbers of 300 orbetter)Ordinary protein                            5.3425-5.492511 pct protein                              5.9425-6.242511.5 pct proteinApr                                       6.2425-6.4925May                                       6.2425-6.4925Jun                                       6.3775-6.5275Jul                                       6.3575-6.4775Aug NC                                    NA12 pct protein                              6.3925-6.642513 pct protein                              6.6925-6.9425—US 1 Dark Northern Spring Wheat (with a minimum of 300 falling numbers, a maximumof 0.5 part per million vomitoxin, and a maximum of one percent total damage)13 pct protein                              6.5050-6.835014 pct proteinApr                                       6.9850-7.2850May                                       7.1350-7.2850Jun                                       7.1225-7.3225Jul                                       7.1225-7.3225Aug NC                                    NA15 pct protein                              7.3050-7.605016 pct protein                              7.6250-7.9250—US 2 Yellow CornShuttle trains-Delivered full coast Pacific Northwest-BNApr                                       4.9850-5.0750May                                       4.9650-4.9950Jun                                       5.0000-5.0600Jul                                       4.8500-5.0000Aug                                       NASep                                       NA—US 1 Yellow SoybeansShuttle trains-Delivered full coast Pacific Northwest-BNApr                                       11.2650-11.3150May                                       11.3650Jun                                       11.4750-11.5250Jul                                       11.4750-11.5450Aug                                       NAOct                                       11.3900-11.4600—US 2 Heavy White Oats **                      3.4825** Not well tested.Exporter Bids Portland Rail/Barge             Feb 2018Averages in Dollars per bushelUS 1 Soft White by Unit Trains and Barges   5.4300US 1 Hard Red Winter (Ordinary protein)     5.4100US 1 Hard Red Winter (11.5% protein)        6.3200US 1 Dark Northern Spring (14% protein)     7.2900Source:    USDA Market News Service, Portland, ORNiki Davila 503-535-5001  Portland.LPGMN@ams.usda.gov24 Hour Market Report  503-535-5005www.ams.usda.gov/mnreports/jo—gr110.txtwww.ams.usda.gov/lpsmarketnewspage8:45 P nd