BC-BOT Table,1st Ld
BC-BOT Table,1st Ld

The Associated Press

CHICAGO




CHICAGO (AP) — Noon trading on the Chicago Board of Trade Tue.:
OpenHighLowNoonChg.WHEAT5,000 bu minimum; cents per bushelMay448½463½448¼460½+14¼Jul465½480¼465½476¾+13¼Sep482496½482493½+12¾Dec505½517¾504½514¾+12¾Mar521½533¼520¾530½+12½May529½540½529¼540½+13¼Jul534¼545½533½544+13Sep550552¼550550+10½Dec560½560½560½560½+7Est. sales 132,883.  Mon.'s sales 121,876Mon.'s open int 515,963,  up 6,396CORN5,000 bu minimum; cents per bushelMay387392386¾388¾+1½Jul395¾400½395¼397+1¼Sep402½407402¼403¾+1Dec411415¼410½412+¾Mar418421¾417½418¾+½May422425¾421¾423+½Jul426429¼425¼426½+¼Sep411¾415411½413¼+1¼Dec414417¼413¾415+¾Mar424¼425423¼424½+2Dec415418415416+½Est. sales 317,888.  Mon.'s sales 466,814Mon.'s open int 1,864,403,  up 18,629OATS5,000 bu minimum; cents per bushelMay232¾234½231½231½—¼Jul242243239½239½—1½Sep246¾247¾246¾247¾+1¼Est. sales 677.  Mon.'s sales 1,641Mon.'s open int 6,760,  up 669SOYBEANS5,000 bu minimum; cents per bushelMay1036¼1048¾1035¾1043+7½Jul10471059¾1046½1054+7¾Aug1049½1062¼1049½1056½+7½Sep10451055¾10451050¼+7Nov10401051¼1039½1045¾+5¾Jan1042105310421048¼+5½Mar10381046¾10381042½+4½May1038¾1043¾1038½1041½+5½Jul1044¾1044¾1039½1039½+2¼Nov9971002¾997997½+1¼Nov984992984992+15½Est. sales 192,577.  Mon.'s sales 244,701Mon.'s open int 901,884,  up 10,585SOYBEAN OIL60,000 lbs; cents per lbMay32.0132.7331.9532.31+.27Jul32.2633.0032.2232.58+.28Aug32.4333.1232.3432.70+.27Sep32.6233.2532.4932.85+.29Oct32.6833.3632.6132.99+.30Dec32.9533.6232.8733.22+.27Jan33.1733.8333.1333.45+.28Mar33.4534.0133.3933.81+.39May33.9534.1933.9534.19+.55Jul34.1534.3734.1534.37+.53Dec34.4534.5134.4434.51+.53Est. sales 159,434.  Mon.'s sales 82,717Mon.'s open int 512,679SOYBEAN MEAL100 tons; dollars per tonMay378.00384.00377.30381.60+4.30Jul381.00387.30380.40385.00+4.60Aug378.90384.80378.70382.70+4.20Sep376.10381.70375.80379.70+4.00Oct372.60377.60372.60376.00+4.00Dec370.30376.10370.30374.40+4.10Jan368.80371.60368.30370.30+3.70Mar360.90361.80359.30360.90+1.90May356.80356.80354.00355.40+1.30Jul355.50355.90352.80355.10+1.80Dec337.60338.30337.00337.00+1.10Est. sales 108,268.  Mon.'s sales 99,282Mon.'s open int 470,427,  up 4,516