BC-BOT Table,1st Ld
BC-BOT Table,1st Ld

The Associated Press

CHICAGO




CHICAGO (AP) — Noon trading on the Chicago Board of Trade Tue.:
Open  High  Low  Noon    Chg.WHEAT                                   5,000 bu minimum; cents per bushel    May      448½  463½  448¼  460½  +14¼Jul      465½  480¼  465½  476¾  +13¼Sep      482    496½  482    493½  +12¾Dec      505½  517¾  504½  514¾  +12¾Mar      521½  533¼  520¾  530½  +12½May      529½  540½  529¼  540½  +13¼Jul      534¼  545½  533½  544    +13  Sep      550    552¼  550    550    +10½Dec      560½  560½  560½  560½   +7  Est. sales 132,883.  Mon.'s sales 121,876Mon.'s open int 515,963,  up 6,396     CORN                                     5,000 bu minimum; cents per bushel    May      387    392    386¾  388¾   +1½Jul      395¾  400½  395¼  397     +1¼Sep      402½  407    402¼  403¾   +1  Dec      411    415¼  410½  412     + ¾Mar      418    421¾  417½  418¾   + ½May      422    425¾  421¾  423     + ½Jul      426    429¼  425¼  426½   + ¼Sep      411¾  415    411½  413¼   +1¼Dec      414    417¼  413¾  415     + ¾Mar      424¼  425    423¼  424½   +2  Dec      415    418    415    416     + ½Est. sales 317,888.  Mon.'s sales 466,814Mon.'s open int 1,864,403,  up 18,629  OATS                                      5,000 bu minimum; cents per bushel    May      232¾  234½  231½  231½   — ¼Jul      242    243    239½  239½   —1½Sep      246¾  247¾  246¾  247¾   +1¼Est. sales 677.  Mon.'s sales 1,641    Mon.'s open int 6,760,  up 669         SOYBEANS                               5,000 bu minimum; cents per bushel    May     1036¼ 1048¾ 1035¾ 1043     +7½Jul     1047   1059¾ 1046½ 1054     +7¾Aug     1049½ 1062¼ 1049½ 1056½   +7½Sep     1045   1055¾ 1045   1050¼   +7  Nov     1040   1051¼ 1039½ 1045¾   +5¾Jan     1042   1053   1042   1048¼   +5½Mar     1038   1046¾ 1038   1042½   +4½May     1038¾ 1043¾ 1038½ 1041½   +5½Jul     1044¾ 1044¾ 1039½ 1039½   +2¼Nov      997   1002¾  997    997½   +1¼Nov      984    992    984    992    +15½Est. sales 192,577.  Mon.'s sales 244,701Mon.'s open int 901,884,  up 10,585    SOYBEAN OIL                            60,000 lbs; cents per lb                 May      32.01  32.73  31.95  32.31   +.27Jul      32.26  33.00  32.22  32.58   +.28Aug      32.43  33.12  32.34  32.70   +.27Sep      32.62  33.25  32.49  32.85   +.29Oct      32.68  33.36  32.61  32.99   +.30Dec      32.95  33.62  32.87  33.22   +.27Jan      33.17  33.83  33.13  33.45   +.28Mar      33.45  34.01  33.39  33.81   +.39May      33.95  34.19  33.95  34.19   +.55Jul      34.15  34.37  34.15  34.37   +.53Dec      34.45  34.51  34.44  34.51   +.53Est. sales 159,434.  Mon.'s sales 82,717Mon.'s open int 512,679                SOYBEAN MEAL                         100 tons; dollars per ton                May     378.00 384.00 377.30 381.60  +4.30Jul     381.00 387.30 380.40 385.00  +4.60Aug     378.90 384.80 378.70 382.70  +4.20Sep     376.10 381.70 375.80 379.70  +4.00Oct     372.60 377.60 372.60 376.00  +4.00Dec     370.30 376.10 370.30 374.40  +4.10Jan     368.80 371.60 368.30 370.30  +3.70Mar     360.90 361.80 359.30 360.90  +1.90May     356.80 356.80 354.00 355.40  +1.30Jul     355.50 355.90 352.80 355.10  +1.80Dec     337.60 338.30 337.00 337.00  +1.10Est. sales 108,268.  Mon.'s sales 99,282Mon.'s open int 470,427,  up 4,516