BC-Merc Table
BC-Merc Table

The Associated Press

CHICAGO




CHICAGO (AP) — Futures trading on the Chicago Mercantile Exchange Tue:
OpenHighLowSettleChg.CATTLE40,000 lbs.; cents per lb.Apr112.65113.35111.77111.97—.43Jun100.95101.8299.5599.62—1.33Aug100.62101.4299.6099.90—.70Oct105.20105.97104.25104.65—.57Dec109.92110.52108.97109.22—.68Feb111.90112.52111.00111.30—.65Apr112.67113.02112.22112.42—.25Jun106.70107.10106.42106.50—.20Aug105.57105.72105.22105.52—.13Est. sales 78,232.  Mon.'s sales 72,446Mon.'s open int 356,314FEEDER CATTLE50,000 lbs.; cents per lb.Apr132.02132.92130.37130.52—1.35May132.47133.55130.80130.97—1.40Aug139.00140.15137.00137.17—1.78Sep140.12141.12138.42138.72—1.40Oct140.50141.50139.02139.32—1.25Nov140.40141.35139.20139.47—.98Jan137.15137.15135.50135.95—.30Mar133.27—.30Est. sales 17,439.  Mon.'s sales 16,649Mon.'s open int 55,765,  up 2,496HOGS,LEAN40,000 lbs.; cents per lb.Apr54.3554.4051.3551.67—2.60May64.7564.8760.5061.20—3.62Jun73.3573.5570.9071.65—1.90Jul74.5074.6572.5273.32—1.38Aug74.7774.8572.8573.62—1.28Oct63.8564.0262.5063.35—.52Dec58.7058.8258.1058.62—.13Feb62.8563.0062.5062.80—.10Apr66.8266.8266.1066.22—.65May71.5271.7571.4071.75—.57Jun75.6776.1275.6776.05—.52Jul76.37—.35Est. sales 68,503.  Mon.'s sales 36,557Mon.'s open int 235,092,  up 606PORK BELLIES40,000 lbs.; cents per lb.No open contracts.