Open
Open

The Associated Press

CHICAGO




CHICAGO (AP) — Early trading on the Chicago Board of Trade Tue.:
OpenHighLowLastChg.WHEAT5,000 bu minimum; cents per bushelMay448½458448¼458+11¾Jul465½474½465½474¼+10¾Sep482491482490¾+10Dec505½512¼504½512+10Mar521½528¼520¾528¼+10¼May529½536529¼536+8¾Jul534¼539533½539+8Dec560½560½560½560½+7Est. sales 74,538.  Mon.'s sales 116,828Mon.'s open int 515,963,  up 6,396CORN5,000 bu minimum; cents per bushelMay387390¾386¾390¼+3Jul395¾399½395¼399+3¼Sep402½406¼402¼405¾+3Dec411414½410½413¾+2½Mar418421¼417½420¾+2½May422425421¾424¼+1¾Jul426429425¼428¾+2½Sep411¾414¼411½414+2Dec414417413¾416+1¾Mar424¼425423¼425+2½Dec415418415418+2½Est. sales 149,773.  Mon.'s sales 430,978Mon.'s open int 1,864,403,  up 18,629OATS5,000 bu minimum; cents per bushelMay232¾234¼232233½+1¾Jul242243241½242+1Sep246¾247¾246¾247¾+1¼Est. sales 323.  Mon.'s sales 1,432Mon.'s open int 6,231,  up 140SOYBEANS5,000 bu minimum; cents per bushelMay1036¼1047½1035¾1044+8½Jul10471058¼1046½1054½+8¼Aug1049½1060½1049½1056¾+7¾Sep10451053¼10451051¼+8Nov10401049¼1039½1047+7Jan10421050¾10421049+6¼Mar10381045¾10381043½+5½May1038¾1043½1038½1041½+5½Jul1044¾1044¾10411041+3¾Nov9971002¾997999+2¾Nov984984984984+7½Est. sales 77,486.  Mon.'s sales 230,665Mon.'s open int 901,886,  up 10,587SOYBEAN OIL60,000 lbs; cents per lbMay32.0132.4031.9532.33+.29Jul32.2632.6732.2232.60+.30Aug32.4332.7732.3432.75+.32Sep32.6232.9132.4932.87+.31Oct32.6833.0332.6132.99+.30Dec32.9533.3132.8733.24+.29Jan33.1733.5233.1333.50+.33Mar33.4533.7633.3933.76+.34May33.9533.9533.9533.95+.31Jul34.1534.1634.1534.16+.32Est. sales 76,154.  Mon.'s sales 78,687Mon.'s open int 512,679SOYBEAN MEAL100 tons; dollars per tonMay378.00381.40377.30378.80+1.50Jul381.00384.60380.40382.30+1.90Aug378.90382.10378.70380.60+2.10Sep376.10379.40375.80377.40+1.70Oct372.60375.70372.60373.40+1.40Dec370.30374.00370.30372.50+2.20Jan368.80369.80368.60368.60+2.00Mar360.90361.60360.90360.90+1.90May356.80356.80356.70356.80+2.70Jul355.50355.50355.50355.50+2.20Est. sales 55,167.  Mon.'s sales 92,507Mon.'s open int 470,427,  up 4,516