BC-USDA-Natl Sheep
BC-USDA-Natl Sheep

The Associated Press



SA—LS850San Angelo, TX    Tue Apr 03, 2018    USDA Market NewsNational Sheep Summary for Tuesday, April 03, 2018Compared to last week at New Holland, PA slaughter lambs 20.00-40.00higher; slaughter ewes steady to 20.00 higher.  At San Angelo, TXslaughter lambs 10.00-20.00 higher; slaughter ewes weak in light test;feeder lambs not well tested.  2300 head estimated for today.Slaughter Lambs:  Choice and Prime 2-3 90-150 lbs:San Angelo:    shorn and wooled 130-165 lbs 115.00-122.00.New Holland:   shorn and wooled 90-110 lbs 285.00-310.00; 110-130 lbs270.00-297.00; 130-150 lbs 235.00-245.00; 150-200 lbs190.00-220.00.Virginia:      wooled 90-110 lbs 180.00-185.00; 110-130 lbs 182.50-194.00.Billings, MT:  no test.Slaughter Lambs:  Choice and Prime 1-2:San Angelo:    40-60 lbs 224.00-249.50; 60-70 lbs 220.00-240.00, few242.00-250.00; 70-80 lbs 210.00-225.00, few 228.00;80-90 lbs 200.00-218.00; 90-100 lbs 196.00-200.00.New Holland:   40-50 lbs 280.00-330.00, few 330.00-245.00; 50-60 lbs312.00-345.00, few 345.00-355.00; 60-70 lbs 290.00-330.00, few 330.00-355.00; 70-80 lbs 265.00-300.00, few310.00-325.00; 80-90 lbs 275.00-297.00, few 297.00-315.00.Virginia:      30-60 lbs 225.00-269.00, mostlt 255.00-269.00; 60-80 lbs205.00-256.00, mostlt 227.00-256.00; 80-110 lbs 210.00-247.50.Billings, MT:  no test.Slaughter Ewes:San Angelo:    Good 3-4 (very fleshy) no test; Good 2-3 (fleshy)70.00-82.00; Utility and Good 1-3 (medium flesh) 82.00-88.00; Utility 1-2 (thin) 70.00-76.00; Cull and Utility1-2 (very thin) 60.00-68.00; Cull 1 40.00-50.00.New Holland:   Good 3-4 (very fleshy) 70.00-87.00; Good 2-3 (fleshy)90.00-150.00; Utility 1-2 (thin) no test; Cull 1no test.Billings:      Good 3-4 (very fleshy) no test; Good 2-3 (fleshy)no test; Utility 1-2 (thin) no test; Cull andUtility 1-2 (very thin) no test; Cull 1 no test.Virginia:      Good 2-4 85.00-115.00; Utility 1-2 70.00-82.50; Cull 155.00-65.00.Feeder Lambs:     Medium and Large 1-2:San Angelo:    no test.Virginia:      no test.Billings:      no test.Replacement Ewes: Medium and Large 1-2:San Angelo:    mixed age hair ewes 80-135 lbs 90.00-126.00 cwt.Billings:      no test.Virginia:      no test.Sheep and lamb slaughter under federal inspection for the week to datetotaled 16,000 compared w1th 18,000 last week and 17,000 last year.Source:  USDA Market News Service, San Angelo, TexasRebecca Sauder 325-653-1778www.ams.usda.gov/mnreports/SA—LS850.txtwww.ams.usda.gov/LSMarketNews1600c    rs