BC-USDA-Opening Bids KY Grain Elevs
BC-USDA-Opening Bids KY Grain Elevs

The Associated Press



SV—GR110Frankfort, KY     Tue, Apr 03, 2018     USDA-KY Dept of Ag Market NewsKentucky Daily Grain Elevators Bids:Bids as of 4:00 est, cash prices by elevators/mills to producers:US NO 2 YELLOW CORNBids           Change          Basis           ChangePurchase        3.7350-3.7550  DN 0.75-UP 1.25   -15K to -13K     DN 2-UNCHGreen River         3.7150         UP 1.25           -17K            UNCHPennyrile           3.8350         UP 1.25           -5K             UNCHLouisville      3.5650-3.6350  UP 1.25-UP 8.25   -32K to -25K     UNCH-UP 7Bluegrass       3.5000-3.6850    DN 5-UP 1.25   -38.5K to -20K   DN 6.25-UNCHUS NO 2 WHITE CORNBids           ChangePennyrile             NA              NAUS NO 1 YELLOW SOYBEANSBids           Change          Basis           ChangePurchase           10.0300          UP 3.5           -35K            UP 1Green River         9.9000          UP 2.5           -48K            UNCHPennyrile           9.7800         UP 12.5           -60K           UP 10Louisville      9.4700-9.9600   UP 2.5-UP 51.5   -91K to -42K     UNCH-UP 49Bluegrass       9.6000-9.8300    UP 5-UP 2.5     -78K to -55K    UP 2.5-UNCHUS NO 2 SOFT RED WINTER WHEATBids           Change          Basis           ChangePurchase              NA              NA              NA              NAGreen River           NA              NA              NA              NAPennyrile           4.3250         UP 11.25          -25K            UNCH (Milling Qlty)     4.5750         UP 11.25          OptK            UNCHLouisville      4.0150-4.6950      UP 11.25      -56K to 12K         UNCHBluegrass           4.4000          UP 13           -17.5K         UP 1.75US NO 2 MILO EXTRA HEAVYBids           Change          Basis           ChangePurchase              NA              NA              NA              NALouisville     NA              NA              NA              NAPennyrile      NA              NA              NA              NAUS NO 2 FEED BARLEYBids            ChangePennyrile      NA              NA------------------------------------------------------------------------------Opening Contract Prices for Fall (Jul Wheat) deliveryUS NO 2 YELLOW CORNBids           Change          Basis           ChangePurchase        3.9025-3.9225        UP 1        -22Z to -20Z        UNCHGreen River         3.8925           UP 1            -23Z            UNCHPennyrile       3.8725-4.0225        UP 1        -25Z to -10Z        UNCHLouisville     NA              NA              NA              NABluegrass      3.8225          UP 1            -30Z            UNCHUS NO 2 WHITE CORNBids            ChangePennyrile      4.4200          UNCHUS NO 1 YELLOW SOYBEANSBids           Change          Basis           ChangePurchase           10.1725     UP 2.25-DN 2.75       -25X         UNCH-DN 5Green River        10.1025         UP 2.25           -32X            UNCHPennyrile      10.0225-10.0725     UP 2.25       -40X to -35X        UNCHLouisville     NA              NA              NA              NABluegrass      9.8725          UP 2.25         -55X            UNCHUS NO 2 SOFT RED WINTER WHEATBids           Change          Basis           ChangePurchase        4.6600-4.7400      UP 10.5       -8N to OptN         UNCHGreen River         4.5900         UP 10.5           -15N            UNCHPennyrile       4.4900-4.5400      UP 10.5       -25N to -20N        UNCH (Milling Qlty)     4.7900         UP 10.5            5N             UNCHLouisville     4.7600          UP 12.5         2N              UP 2Bluegrass      4.4900          UP 10.5         -25N            UNCHUS NO 2 MILO EXTRA HEAVYBids            Change          Basis           ChangePurchase       NA              NA              NA              NALouisville     4.2225          UP 1            10Z             UNCHPennyrile      NA              NA              NA              NAUS NO 2 FEED BARLEYBids            ChangePennyrile      NA              NAPurchase- Inland elevators west of Tennesse RiverGreen River- Inland elevators near the Green RiverPennyrile- South west KY East of Tennessee River, west of I-65Louisville-Elevators near the Louisville areaBluegrass- Central Kentucky/Lexington areaSource: USDA-KY Dept of Ag Market News Service, Frankfort, KYJodee Inman  502-782-4138??????? www.ams.usda.gov/mnreports/SV—GR110.txt??????? www.ams.usda.gov/LPSMarketNewsPage1549Ekdb