Open
Open

The Associated Press

CHICAGO




CHICAGO (AP) — Early trading on the Chicago Board of Trade Wed.:
OpenHighLowLastChg.WHEAT5,000 bu minimum; cents per bushelMay457461½447455—2½Jul473½478463¾471½—2½Sep489½494½480¾488½—2¼Dec512516502¾510½—2Mar527¼532518¾526¾—1½May537538529538+½Jul541¼544532539¾—1½Dec561561561561—1¾Est. sales 98,187.  Tue.'s sales 166,744Tue.'s open int 498,866CORN5,000 bu minimum; cents per bushelMay388389372381¾—6¾Jul396½397½380½390½—6¾Sep403½404¼387¾397½—6¾Dec411½412½396405½—6¾Mar418¼419¼403¼412½—6½May422½422½408½417—6¼Jul426426¾412421—6Sep405405½403¾403¾—9¼Dec414414½404409½—5Mar413¾418413¾418—4½Jul426½427¼426½427¼—3¼Dec414414410412¾—3½Est. sales 481,570.  Tue.'s sales 411,907Tue.'s open int 1,865,937,  up 1,534OATS5,000 bu minimum; cents per bushelMay234234¾224½228¼—4¼Jul242242232¼236¼—4Sep244244238238¼—7Est. sales 591.  Tue.'s sales 1,210Tue.'s open int 6,312SOYBEANS5,000 bu minimum; cents per bushelMay1038¾1041¾983½1006¾—31¼Jul1049½1052¾994½1018¼—31Aug10521055997½1021½—30Sep1045½1049996¾1017—28½Nov10421045¾997¾1014¾—27½Jan10451048¼10021018¼—27Mar1041½104510011016¼—26May1038¾10421000¼1016—23Jul1038¼10411004¾1018½—20¾Aug1008¾1009¼1008¼1008½—23Nov997½998¾969¾980¼—16Jan975975975975—25¼Nov978½979¼967¾979¼—7¼Jul981981981981—5½Nov975975975975—11½Est. sales 481,947.  Tue.'s sales 273,584Tue.'s open int 906,219,  up 4,335SOYBEAN OIL60,000 lbs; cents per lbMay32.3432.4331.3731.73—.61Jul32.6032.7031.6532.00—.62Aug32.6932.8231.7832.15—.60Sep32.8932.9031.9232.26—.64Oct33.0833.0832.0732.37—.64Dec33.2433.3532.3132.67—.62Jan33.4633.4932.5832.92—.58Mar33.0933.2032.8333.13—.63May34.0034.0033.2533.31—.67Jul34.0334.0333.8533.85—.34Aug33.8733.8733.8733.87—.35Sep33.8833.8833.8833.88—.35Dec34.1834.1833.4433.75—.58Jul34.6634.6634.6634.66—.08Dec34.6634.6634.6634.66—.04Est. sales 96,056.  Tue.'s sales 191,110Tue.'s open int 517,457,  up 4,778SOYBEAN MEAL100 tons; dollars per tonMay380.50382.60363.70376.70—3.30Jul383.30385.80367.00380.10—3.20Aug381.10383.00364.60377.70—3.20Sep378.30380.30362.20373.90—4.20Oct374.30376.50359.00369.40—5.00Dec372.90374.80357.40368.50—4.10Jan369.50371.00357.10365.10—4.00Mar362.20362.20347.70355.20—5.60May346.10353.20345.00353.20—1.90Jul345.60348.90344.30348.50—5.20Sep340.50340.50340.50340.50—5.40Oct331.10334.20330.60330.60—6.20Dec335.00336.80329.70336.80+.90Dec330.00330.00323.10323.40—9.30Est. sales 172,901.  Tue.'s sales 149,726Tue.'s open int 477,478,  up 7,051