Close
Close

The Associated Press

CHICAGO




CHICAGO (AP) — Futures trading on the Chicago Board of Trade Wed.:
OpenHighLowSettleChg.WHEAT5,000 bu minimum; cents per bushelMay457461½447455¾—1¾Jul473½478463¾473—1Sep489½494½480¾490—¾Dec512516502¾512¼—¼Mar527¼532518¾529+¾May537538¼529538¼+¾Jul541¼544532542+¾Sep548549547549+¼Dec561563¼561563¼+½Mar572½+½May572¼+½Jul556½+½Est. sales 164,374.  Tue.'s sales 121,876Tue.'s open int 515,963CORN5,000 bu minimum; cents per bushelMay388389372381—7½Jul396½397½380½389¾—7½Sep403½404¼387¾396¾—7½Dec411½412½396405—7¼Mar418¼419¼403¼412¼—6¾May422½422½408½416½—6¾Jul426426¾412420½—6½Sep405407½403¾406¾—6¼Dec414414½404409—5½Mar413¾418413¾417½—5May421¼—5Jul426½427¼425425½—5Sep416—5Dec414414410411¾—4½Jul420—4½Dec418½418½418418½—2¼Est. sales 765,865.  Tue.'s sales 466,814Tue.'s open int 1,864,403OATS5,000 bu minimum; cents per bushelMay234234¾224½230—2½Jul242242232¼237¾—2½Sep244244238242½—2¾Mar256¾—1½May260½—1½Jul265½—1½Sep266¾—1½Dec266¾—1½Mar266¾—1½Jul265¼—1½Sep265¼—1½Est. sales 888.  Tue.'s sales 1,641Tue.'s open int 6,760SOYBEANS5,000 bu minimum; cents per bushelMay1038¾1041¾983½1015¼—22¾Jul1049½1052¾994½1026½—22¾Aug10521055997½1028¾—22¾Sep1045½1049996¾1022¾—22¾Nov10421045¾997¾1019—23¼Jan10451048¼10021022¼—23Mar1041½104510011020¾—21½May1038¾10421000¼1020¼—18¾Jul1038¼10411004¾1023½—15¾Aug1008¾1017½10071016¾—14¾Sep999¾—14¾Nov997½998¾969¾984¾—11½Jan975988975988—12¼Mar988½—12¼May993½—12¼Jul994—12¼Aug986½—12¼Sep982¾—12¼Nov978½979¼967¾978¼—8¼Jul981981981981—5½Nov975981975981—5½Est. sales 728,539.  Tue.'s sales 244,701Tue.'s open int 901,884SOYBEAN OIL60,000 lbs; cents per lbMay32.3432.4331.3731.68—.66Jul32.6032.7031.6531.96—.66Aug32.6932.8231.7832.08—.67Sep32.8932.9031.9232.23—.67Oct33.0833.0832.0732.36—.65Dec33.2433.3532.3132.65—.64Jan33.4633.4932.5832.90—.60Mar33.0933.2432.8333.16—.60May34.0034.0033.2133.39—.59Jul34.0334.0333.4333.61—.58Aug33.8733.8733.6633.66—.56Sep33.8833.8833.6533.68—.55Oct33.64—.54Dec34.1834.1833.4433.79—.54Jan33.94—.50Mar34.13—.54May34.27—.31Jul34.6634.6634.4434.44—.30Aug34.43—.30Sep34.43—.30Oct34.43—.30Dec34.6634.6634.3934.39—.31Jul34.39—.31Oct34.39—.31Dec34.39—.31Est. sales 163,201.  Tue.'s sales 82,717Tue.'s open int 512,679SOYBEAN MEAL100 tons; dollars per tonMay380.50383.80363.70381.80+1.80Jul383.30386.70367.00384.90+1.60Aug381.10383.30364.60381.80+.90Sep378.30380.30362.20378.50+.40Oct374.30376.50359.00374.50+.10Dec372.90374.80357.40372.10—.50Jan369.50371.00357.10368.50—.60Mar362.20362.20347.70358.90—1.90May346.10353.20345.00352.70—2.40Jul345.60352.00344.30351.50—2.20Aug348.50—2.20Sep340.50344.00340.50344.00—1.90Oct331.10337.40330.60337.10+.30Dec335.00336.80329.70336.70+.80Jan337.40+.80Mar338.20+.80May338.20+.80Jul336.70+.80Aug336.70+.80Sep336.70+.80Oct336.70+.80Dec330.00333.50323.10333.50+.80Jul333.50+.80Oct333.50+.80Dec343.60+.80Est. sales 267,408.  Tue.'s sales 99,282Tue.'s open int 470,427