BC-BOT Table,1st Ld
BC-BOT Table,1st Ld

The Associated Press

CHICAGO




CHICAGO (AP) — Noon trading on the Chicago Board of Trade Wed.:
OpenHighLowNoonChg.WHEAT5,000 bu minimum; cents per bushelMay457461½447453¾—3¾Jul473½478463¾470½—3½Sep489½494½480¾487½—3¼Dec512516502¾509¾—2¾Mar527¼532518¾525½—2¾May537538529536¾—¾Jul541¼544532539½—1¾Sep548548547¼547¼—1½Dec561561561561—1¾Est. sales 131,757.  Tue.'s sales 121,876Tue.'s open int 515,963CORN5,000 bu minimum; cents per bushelMay388389372381¼—7¼Jul396½397½380½390—7¼Sep403½404¼387¾396¾—7½Dec411½412½396405—7¼Mar418¼419¼403¼412—7May422½422½408½416½—6¾Jul426426¾412420¼—6¾Sep405407½403¾406¼—6¾Dec414414½404408½—6Mar413¾418413¾418—4½Jul426½427¼425425—5½Dec414414410413¼—3Dec418½418½418418—2¾Est. sales 671,677.  Tue.'s sales 466,814Tue.'s open int 1,864,403OATS5,000 bu minimum; cents per bushelMay234234¾224½229¾—2¾Jul242242232¼235¾—4½Sep244244238241—4¼Est. sales 786.  Tue.'s sales 1,641Tue.'s open int 6,760SOYBEANS5,000 bu minimum; cents per bushelMay1038¾1041¾983½1004¼—33¾Jul1049½1052¾994½1015½—33¾Aug10521055997½1017¾—33¾Sep1045½1049996¾1012¼—33¼Nov10421045¾997¾1010—32¼Jan10451048¼10021012¾—32½Mar1041½104510011011½—30¾May1038¾10421000¼1011¼—27¾Jul1038¼10411004¾1012—27¼Aug1008¾1009¼1008¼1008½—23Nov997½998¾969¾977½—18¾Jan975975975975—25¼Nov978½979¼967¾979¼—7¼Jul981981981981—5½Nov975975975975—11½Est. sales 625,998.  Tue.'s sales 244,701Tue.'s open int 901,884SOYBEAN OIL60,000 lbs; cents per lbMay32.3432.4331.3731.62—.72Jul32.6032.7031.6531.90—.72Aug32.6932.8231.7832.02—.73Sep32.8932.9031.9232.17—.73Oct33.0833.0832.0732.30—.71Dec33.2433.3532.3132.58—.71Jan33.4633.4932.5832.82—.68Mar33.0933.2132.8333.08—.68May34.0034.0033.2533.31—.67Jul34.0334.0333.5533.59—.60Aug33.8733.8733.8733.87—.35Sep33.8833.8833.8833.88—.35Dec34.1834.1833.4433.71—.62Jul34.6634.6634.6634.66—.08Dec34.6634.6634.6634.66—.04Est. sales 131,206.  Tue.'s sales 82,717Tue.'s open int 512,679SOYBEAN MEAL100 tons; dollars per tonMay380.50383.80363.70379.80—.20Jul383.30386.70367.00382.60—.70Aug381.10383.30364.60379.20—1.70Sep378.30380.30362.20375.80—2.30Oct374.30376.50359.00371.50—2.90Dec372.90374.80357.40369.50—3.10Jan369.50371.00357.10365.60—3.50Mar362.20362.20347.70356.40—4.40May346.10353.20345.00349.70—5.40Jul345.60350.80344.30350.80—2.90Sep340.50340.50340.50340.50—5.40Oct331.10337.40330.60337.40+.60Dec335.00336.80329.70336.50+.60Dec330.00330.00323.10323.40—9.30Est. sales 231,689.  Tue.'s sales 99,282Tue.'s open int 470,427