BC-USDA-Calif Veggies
BC-USDA-Calif Veggies

The Associated Press



LOS ANGELES Terminal Prices as of 04-APR-2018Provided by:  Specialty Crops Market NewsFederal - State Market News Service, USDA.Phone:  (213) 894-3077     Fax:  (213) 894-2898Weather at 7:00 a.m. MIST 55Yesterday's high 70https://www.ams.usda.gov/market-news/fruits-vegetablesHC—FV020VEGETABLES---ARTICHOKES: OFFERINGS LIGHT.   cartons CA Central Coast California GlobeThorned green 12s 22.00 18s 22.00 24s 22.00 Thornless green med lse 32.00 smllse 36.00---ASPARAGUS:  MARKET STEADY.  11 lb cartons bunched CA Imperial ValleyCalifornia Green lge 22.00-24.00 MX Baja District Green jbo 22.00-24.00 exlge22.00-24.00 lge 22.00-24.00 std 18.00-20.00 PE AIR White lge 21.00-22.00 15 lbcartons bunched MX Baja District Green Tips lge 17.00-18.00---BEANS:  MARKET STEADY.  bushel crates MX Baja District Fava 34.00-36.00 10lb cartons MX Baja District Dragon Tongue Offerings insufficient to quote.Haricot Vert (French Type) 16.00 Wax Type Yellow Offerings insufficient toquote. 15 lb cartons CA Cranberry Type Offerings insufficient to quote. MX BajaDistrict Italian Type 32.00 15 lb crates MX Baja District Italian Type 28.00 30lb cartons MX Baja District Round Green Type Handpicked 15.00 30 lb reusableplastic containers (RPC) MX Round Green Type Handpicked 14.00-16.00 few high as22.00---BEETS:  MARKET STEADY.  cartons bunched MX Baja District Red Type 12s8.00-11.00 25 lb film bags CA Red Type med 10.00-11.50 lge 10.00-11.00 GoldType med-lge 16.00-17.00 few 18.00---BROCCOLI:  MARKET ABOUT STEADY.  cartons CA Central Coast California bchd14s 10.00-11.00 few 12.00 fr qual 6.00-8.00 Baby Hybrid Type bchd 18s23.50-24.00 20 lb cartons loose CA Central Coast California Crown Cut12.00-13.00 few 14.00 fr qual 9.00-10.00---BRUSSELS SPROUTS: OFFERINGS LIGHT.   25 lb cartons CA Central CoastCalifornia med 20.00-22.00 few 18.00---CABBAGE:  MARKET GREEN & SAVOY LOWER, RED ABOUT STEADY.  50 lb cartons CACentral Coast California Round Green Type med 11.00-11.50 lge 9.00-10.00 RedType med 17.00-18.00 45 lb cartons CA Central Coast California Savoy Typemed-lge 13.00-14.00---CARROTS:  MARKET STEADY.  sacks 48 1-lb film bags CA Kern DistrictCalifornia med-lge 16.50-17.00 sacks 24 2-lb film bags CA Kern DistrictCalifornia med-lge 16.00-17.00 sacks 10 5-lb film bags CA Kern DistrictCalifornia med-lge 16.00-17.00 50 lb sacks loose CA Kern District CaliforniaJuice Type 14.00-15.00 25 lb sacks loose CA Kern District California med10.00-10.50 jbo 12.00-13.00 few 14.00 cartons 20 1-lb film bags CA KernDistrict California Baby Peeled med-lge 20.00-21.00---CAULIFLOWER:  MARKET ABOUT STEADY.  cartons film wrapped CA Central CoastCalifornia White 9s 10.00 12s 14.00-15.00 fr qual 12.00-12.50 16s 13.00-14.00fr qual 11.00-11.50 Orange 6s 19.00 8s 19.00 12s 22.50 Purple 6s 19.00 8s 19.0012s 22.50 Romanesco 12s 22.00 16s 22.00---CELERY:  MARKET ABOUT STEADY.  cartons CA Central Coast California 2 dz13.00-14.00 fr qual 11.00-11.50 2 1/2 dz 13.00-14.00 fr qual 11.00-11.50filmbags 30s 13.00 cartons film bags CA Central Coast California Hearts 18s10.00---CORN-SWEET: OFFERINGS GOOD QUALITY & CONDITION LIGHT.   cartons CA ImperialValley California Yellow 4 dz Insufficient to quote. White 4 dz 30.00-32.00 MXWhite 4 dz 28.00-32.00---CUCUMBERS:  MARKET STEADY.  1 1/9 bushel cartons MX med 16.00-18.00 fr qual12.00-14.00 ord qual 8.00-10.00 lge 15.00-16.00 fr qual 12.00-13.00 BajaDistrict med 10.00 cartons MX 36s 8.00-9.00 fr qual 6.00-6.50 40 lb plasticcontainers MX Pickles 200-300s 18.00-20.00 300-400s 18.00-20.00 4/7 bushelcartons MX Baja District Pickles sml-med 13.00-14.00 sml 13.00-14.00 GREENHOUSEcartons film wrapped MX Long Seedless 12s 13.00-13.50 16s 14.00-14.50 22 lbcartons MX Baja District Persian med 10.00-12.00 sml-med 13.00-14.00 sml13.00-14.00 10 lb cartons CA Japanese med 23.00---EGGPLANT:  MARKET STEADY.  1 bu, 1 1/9 bu, 1 1/6 bu cartons wrapped MX 18s15.00-16.00 fr qual 12.00-12.50 24s 15.00-16.00 fr qual 12.00-12.50 30 lbcartons MX Chinese med-lge 12.00-15.00 occas higher/lower Italian sml-med18.00-22.50 occas lower Japanese sml-med 22.00-25.00 occas best higher Indianmed 15.00-20.00 mostly 15.00-17.00 occas higher/lower---ENDIVE:  MARKET STEADY.  cartons CA Central Coast California 24s 12.00-13.00fr qual 10.00-10.50 10 lb cartons BL AIR Witloof 20.00-21.50 CA Central CoastCalifornia Witloof 18.00-18.50 8 lb cartons CA Central Coast California WitloofRed Type 43.00 3 kg cartons NL AIR Witloof Red Type 43.00---ESCAROLE:  MARKET STEADY.  cartons CA Central Coast California 24s13.00-14.00---GARLIC: OFFERINGS LIGHT.   30 lb cartons AG White #6 52.00 #7 72.00 CACentral Coast California White jbo 60.00 giant 45.00 CQ White netted 5s 46.00Purple netted 5s 46.00 10 lb cartons CA Central Coast California elephant32.00-32.50 cartons 4 5-lb plastic jars CQ Peeled 11.00-12.00 cartons 4 5-lbfilm bags CQ Peeled 10.00-11.00---GREENS:  MARKET STEADY.  cartons bunched CA Central Coast California Collard24s 15.00-16.00 few high as 18.00 Kale green 24s 11.00-12.00 fr qual 9.00-9.50Lacinato (Tuscan) 24s 20.00-22.00 Kale, Multicolor 24s 23.00-24.00 MustardCurly 24s 16.00-17.00 Flat 24s 17.00-18.00 Swiss Chard 12s 12.00-13.00 red 12s12.00-13.00 Broccoli Rabe (Rappini) 20s 43.00-45.00 Dandelion green 12s11.00-12.00 red 12s 11.00-12.00---LETTUCE-ICEBERG:  MARKET STEADY.  cartons CA Central Coast California 24s11.00-11.50 fr qual 9.50-10.00 flm lined 24s 12.00-13.00 24s flmwrpd13.00-14.00---LETTUCE-OTHER:  MARKET STEADY.  cartons CA Central Coast California Boston24s 14.00-15.00 fr qual 12.00-12.50 Green Leaf 24s 13.00-14.00 fr qual11.00-11.50 Red Leaf 24s 12.00-13.00 fr qual 10.00-11.00 flats 1 layer CACentral Coast California Frisee 24s 16.00-16.50 12s 8.50-9.00 2 lb cartons CACentral Coast California Lolla Rossa 24s 8.50-9.00 Red Oak Leaf 24s 8.50-9.00Green Oak Leaf 24s 8.50-9.00 3 lb cartons CA Central Coast California MesculinMix 5.50-6.50 cartons 3 1-lb film bags CA Central Coast California Mesculin Mix5.50-6.50---LETTUCE-ROMAINE:  MARKET STEADY.  cartons CA Central Coast California 24s17.00-18.00 fr qual 15.00-15.50 cartons 12 3-count packages CA Central CoastCalifornia Hearts 28.00-30.00 fr qual 24.00-25.00 cartons film lined CA CentralCoast California Hearts 24s 30.00-32.00---MUSHROOMS:  MARKET STEADY.  10 lb cartons CA Central Coast California Whitelge 18.00-19.00 med 17.00-18.00 sml 17.00-18.00 Cremini 22.00-23.00 CD BritishColumbia White lge 19.00-20.00 med 18.00 sml 18.00 PA White lge 19.00-20.00 med18.00 sml 18.00 Cremini 22.00-23.00 5 lb cartons CA Central Coast CaliforniaShiitake fr qual 15.00-16.00 Oyster 16.00-17.00 Portobella lge 16.00-17.00 med16.00-17.00 Woodear 20.00 CQ Shiitake med 20.00 cartons 12 1-lb trays filmwrapped CA Central Coast California White Sliced 12.00-12.50 cartons 12 8-oztrays film wrapped CA Central Coast California White 14.00-14.50 cartons 8 1-lbtrays film wrapped CA Central Coast California White 21.00---OKRA: OFFERINGS LIGHT.   1/2 bushel cartons GU AIR sml 24.00---ONIONS GREEN:  MARKET STEADY.  cartons bunched CA Central Coast California48s med 9.00-10.00 48s sml 7.00-8.00 few low as 6.00 MX Baja District 48s med9.00-10.00 few 11.00 48s sml 7.00-8.00 few low as 6.00 Bulb Type 24s 8.00-9.00CA Central Coast California Leeks med 20.00-22.00 MX Baja District Leeks med18.00-20.00---PARSLEY:  MARKET STEADY.  cartons bunched CA Central Coast California Curly60s 12.00-13.00 few 14.00 fr qual 10.00-10.50 poorer quality and condition8.50-9.00 Plain 60s 12.50-13.00 few 14.00 fr qual 10.50-11.00 poorer qualityand condition 9.50---PARSNIPS: OFFERINGS LIGHT. MARKET STEADY.  20 lb film bags loose CA24.00-27.00 few 28.00-30.00 cartons 12 1-lb film bags CA 24.00-27.00---PEAS GREEN: OFFERINGS LIGHT.   1 1/9 bushel cartons MX Baja District English60.00 10 lb cartons GU AIR Snow Peas Decalyxed 13.00-14.00 MX Baja DistrictSnow Peas Decalyxed 13.00-14.00 GU AIR Sugar Snap Peas Decalyxed 16.00-18.00 MXBaja District Sugar Snap Peas Decalyxed 13.00-14.00---PEAS OTHER: OFFERINGS LIGHT.   bushel crates MX Baja District Blackeye 35.00(marked 30lbs)---PEPPERS, BELL TYPE:  MARKET STEADY.  1 1/9 bushel cartons CA Imperial ValleyCalifornia Green irreg sz 11.00 MX Green exlge 17.00-18.00 lge 15.00-16.00 med13.00-14.00 irreg sz 11.00-12.00 fr qual 9.00-9.50 Red exlge 24.00-26.00 lge24.00-26.00 irreg sz 22.00-24.00 fr qual 18.00-20.00 Yellow exlge 24.00 lge24.00 irreg sz 18.00-20.00 fr qual 15.00-16.00 Orange med 14.00 irreg sz 14.0015 lb cartons MX Red exlge 15.00 25 lb cartons place pack MX Green exlge20.00-22.00 GREENHOUSE 5 kg/11 lb cartons MX Red exlge-lge 17.00-18.00 fr qual8.00-9.00 Yellow exlge-lge 17.00-18.00 fr qual 7.00-8.00 Orange exlge-lge17.00-18.00 fr qual 7.00-8.00---PEPPERS, OTHER:  MARKET STEADY.  1 1/9 bushel cartons/crates per lb MX BajaDistrict Anaheim .50-.55 Habanero orange 1.80-2.00 cartons/crates per lb MXBaja District Jalapeno .30-.35 Manzano 3.00-3.50 Pasilla .50-.55 Serrano.50-.60 Yellow Chile .50-.60---RADISHES:  MARKET STEADY.  cartons topped 30 6-oz film bags CA Central CoastCalifornia Red 12.00-14.00 25 lb film bags topped CA Central Coast CaliforniaRed 17.00-18.00 MX Baja District Red 16.00-18.00 cartons bunched CA CentralCoast California Red 48s 18.00-20.00 MX Baja District Red 48s 17.00-18.00---RHUBARB: OFFERINGS LIGHT.   GREENHOUSE 15 lb cartons WA WAExFcy 55.00 6 kgcontainers NL AIR 50.00---RUTABAGAS: OFFERINGS FAIRLY LIGHT.   25 lb film bags CA med 22.00-24.00 MXBaja District med 20.00-22.00---SPINACH:  MARKET FLAT BUNCHED 24S LOWER, OTHERS STEADY.  cartons bunched CACentral Coast California Flat 24s 13.00-14.00 fr qual 11.00-11.50 cartons 1210-oz film bags CA Central Coast California 10.00-12.00 few 13.00 cartons 42-1/2 lb film bags CA Central Coast California 10.50-12.50---SQUASH: OFFERINGS WINTER TYPES LIGHT. MARKET YELLOW STRAIGHTNECK FIRM,OTHERS ABOUT STEADY.  4/7 bushel cartons MX Zucchini Green sml 11.00-12.00 frqual 9.00-9.50 sml-med 10.00-11.00 fr qual 8.00-8.50 med 9.00-10.00 fr qual7.00-7.50 Yellow Straightneck sml 12.00-13.00 few 15.00 fr qual 10.00-10.50sml-med 12.00-13.00 few 15.00 fr qual 10.00-10.50 med 10.00-11.00 few 13.00 frqual 8.00-8.50 Grey sml 9.00-10.00 sml-med 9.00-10.00 med 8.00-9.00 bushelcartons MX Acorn Green med 16.00-18.00 few 19.00 Butternut med fr appear22.00-24.00 lge fr appear 22.00-24.00 Kabocha med-lge 22.00-24.00 fr appear16.00 Spaghetti med-lge 18.00-20.00 fr appear 14.00 1 1/9 bushel crates MXZucchini Green lge 12.00-14.00---SWEET POTATOES:  MARKET STEADY.  40 lb cartons CA Atwater LivingstonCalifornia U.S. No. 1 Orange Types 25.00-28.00 Red Types 25.00-28.00 WhiteTypes 32.00-35.00 Japanese Types 35.00-38.00 No Grade Marks Orange Types med18.00-20.00 jbo 20.00-23.00 Red Types med 18.00-20.00 jbo 21.00-24.00 WhiteTypes med 17.00-18.00 few 20.00 jbo 18.00-20.00---TOMATOES:  MARKET STEADY.  ADAPTED ENVIRONMENT 25 lb cartons loose MX VineRipes light red 5x6 sz 13.00 few 15.00 6x6 sz 14.00 few 15.00 flats 2 layer MXVine Ripes light red 4x4s 12.00-14.00 few high as 16.00 fr qual fr cond10.00-10.50 4x5s 12.00-14.00 few high as 15.00 fr qual fr cond 10.00-10.50 5x5s11.00-12.00 few high as 14.00 fr qual fr cond 9.00-9.50 5x6s 11.00-12.00 fewhigh as 14.00 fr qual fr cond 9.00-9.50 Baja District Vine Ripes light red 4x4s12.00-13.00 4x5s 12.00-13.00 5x5s 11.00-12.00 5x6s 11.00-12.00 CONTROLLEDENVIRONMENT 5 kg/11 lb flats on the vine MX Vine Ripes red 4-5 count 9.00-10.00few 11.00 cartons 8 1-lb containers with lids MX Baja District Vine Ripe -Campari Type 18.00-18.50 GREENHOUSE 5 kg/11 lb flats on the vine CA Vine Ripesred 4-5 count 11.00-12.00---TOMATOES, CHERRY:  MARKET STEADY.  ADAPTED ENVIRONMENT flats 12 1-pt basketsMX light red-red 12.00-13.00 Baja District light red-red 13.00-14.00 flats 121/2-pt cups with lids MX Baja District Pear Type red 40.00 yellow 40.00 cartons12 10.5-oz containers with lids MX Baja District Heirloom Varieties yellow med28.50---TOMATOES, GRAPE TYPE:  MARKET STEADY.  ADAPTED ENVIRONMENT flats 12 1-ptcontainers with lids MX Baja District red 10.00-11.00 fr qual 8.00-8.50 flats15 1-pt containers with lids MX Baja District yellow 28.50 20 lb cartons looseMX Baja District red 15.00-16.00---TOMATOES, PLUM TYPE:  MARKET STEADY.  ADAPTED ENVIRONMENT 25 lb cartonsloose MX Roma light red-red exlge 11.00-12.00 few 13.00 fr qual fr cond9.00-9.50 lge 11.00-12.00 few 13.00 fr qual fr cond 9.00-9.50 med 10.00-11.00few 12.00 fr qual fr cond 8.00-8.50 Baja District Roma light red-red exlge11.00-12.00 lge 11.00-12.00---TURNIPS:  MARKET STEADY.  25 lb film bags CA Purple Top lge 13.00-14.00 med13.00-14.00 MX Baja District Purple Top lge 14.00 med 13.00-14.00---VEGETABLES OTHER: OFFERINGS LIGHT.   5 lb film bags CA Central CoastCalifornia Alfalfa Sprouts 12.00-13.00 cartons 12 4-oz packages CA CentralCoast California Alfalfa Sprouts 16.00-17.00 35 lb crates MX Baja DistrictCactus Leaf (Nopales) 17.00-18.00 10 lb cartons Local Repack JerusalemArtichokes 20.00 20 lb film bags CA Jerusalem Artichokes 35.00 cartons 12 1-lbtrays film wrapped CA Jerusalem Artichokes 36.00 1 layer containers CA CentralCoast California Radicchio 9s 13.00-13.50 12s 13.00-13.50 Treviso 9s 18.50 12s18.50ORGANICVEGETABLES---BEETS: cartons bunched MX Baja District Red Type 12s 17.00 25 lb film bagsMX Baja District Red Type med 21.00-22.00---BROCCOLI: cartons CA Central Coast California bchd 14s 29.00---CABBAGE: 50 lb cartons CA Central Coast California Round Green Type med26.00 (wrapped) Red Type med 25.00---CARROTS: sacks 48 1-lb film bags CA Kern District California med-lge 26.00sacks 24 2-lb film bags CA Kern District California med-lge 26.00 sacks 10 5-lbfilm bags CA Kern District California med-lge 26.00 25 lb sacks loose CA KernDistrict California jbo 16.00 cartons 20 1-lb film bags CA Kern DistrictCalifornia Baby Peeled med-lge 26.00 cartons 4 5-lb film bags CA Kern DistrictCalifornia Baby Peeled med-lge 26.00---CAULIFLOWER: cartons film wrapped CA Central Coast California White 12s12.00---CELERY: cartons CA Central Coast California 24s 22.00 30s 22.00---EGGPLANT: 1 bu, 1 1/9 bu, 1 1/6 bu cartons wrapped MX 12s 15.00---GREENS: cartons bunched CA Central Coast California Collard 24s 18.00 Kalegreen 24s 22.00 Lacinato (Tuscan) 24s 18.00 Swiss Chard 12s 22.00 Mixed Colors12s 18.00 Red 12s 22.00---LETTUCE-ICEBERG: cartons CA Central Coast California 24s flmwrpd Offeringsinsufficient to quote.---LETTUCE-OTHER: cartons CA Central Coast California Green Leaf 24s 25.00 RedLeaf 24s 25.00---LETTUCE-ROMAINE: cartons CA Central Coast California 24s 36.00 cartons 123-count packages CA Central Coast California Hearts 36.00---MUSHROOMS: 5 lb cartons CA Central Coast California Shiitake 25.50 fr qual16.00 Oyster 17.00 cartons 24 3 1/2-oz film packages CA Central CoastCalifornia Hen Of The Woods 2.50 Beech (Honshimeji) brown 2.00 white 2.00---ONIONS GREEN: cartons bunched MX Baja District Leeks med 43.25---PARSLEY: cartons bunched CA Central Coast California Curly 30s 22.00 Plain30s 22.00---RADISHES: cartons bunched MX Baja District Red 24s Offerings insufficient toquote.---SPINACH: cartons bunched CA Central Coast California Flat 24s 25.00---SQUASH: 4/7 bushel cartons MX Zucchini Green med 29.00 bushel cartons MXButternut lge 22.00---TOMATOES, GRAPE TYPE: ADAPTED ENVIRONMENT flats 12 1-pt containers with lidsMX red 18.00