BC-US--Grain Prices, US
BC-US--Grain Prices, US

The Associated Press

CHICAGO




CHICAGO (AP) — Futures trading on the Chicago Board of Trade Wednesday.:
SettleWHEAT (5,000 bu ; cents per bushel)May             455 3-4Jul             473    Sep             490    Dec             512 1-4Mar             529    May             538 1-4Jul             542    Sep             549    Dec             563 1-4Mar             572 1-2May             572 1-4Jul             556 1-2CORN (5,000 bu ; cents per bushel)May             381    Jul             389 3-4Sep             396 3-4Dec             405    Mar             412 1-4May             416 1-2Jul             420 1-2Sep             406 3-4Dec             409    Mar             417 1-2May             421 1-4Jul             425 1-2Sep             416    Dec             411 3-4Jul             420    Dec             418 1-2OATS (5,000 bu ; cents per bushel)May             230    Jul             237 3-4Sep             242 1-2Mar             256 3-4May             260 1-2Jul             265 1-2Sep             266 3-4Dec             266 3-4Mar             266 3-4Jul             265 1-4Sep             265 1-4SOYBEANS (5,000 bu ; cents per bushel)May            1015 1-4Jul            1026 1-2Aug            1028 3-4Sep            1022 3-4Nov            1019    Jan            1022 1-4Mar            1020 3-4May            1020 1-4Jul            1023 1-2Aug            1016 3-4Sep             999 3-4Nov             984 3-4Jan             988    Mar             988 1-2May             993 1-2Jul             994    Aug             986 1-2Sep             982 3-4Nov             978 1-4Jul             981    Nov             981    SOYBEAN OIL (60,000 lbs; cents per lb)May             31.68Jul             31.96Aug             32.08Sep             32.23Oct             32.36Dec             32.65Jan             32.90Mar             33.16May             33.39Jul             33.61Aug             33.66Sep             33.68Oct             33.64Dec             33.79Jan             33.94Mar             34.13May             34.27Jul             34.44Aug             34.43Sep             34.43Oct             34.43Dec             34.39Jul             34.39Oct             34.39Dec             34.39SOYBEAN MEAL (100 tons; dollars per ton)May            381.80Jul            384.90Aug            381.80Sep            378.50Oct            374.50Dec            372.10Jan            368.50Mar            358.90May            352.70Jul            351.50Aug            348.50Sep            344.00Oct            337.10Dec            336.70Jan            337.40Mar            338.20May            338.20Jul            336.70Aug            336.70Sep            336.70Oct            336.70Dec            333.50Jul            333.50Oct            333.50Dec            343.60