BC-Cash Prices, 1st Ld-Writethru,0342
BC-Cash Prices, 1st Ld-Writethru,0342

The Associated Press

NEW YORK




NEW YORK (AP) — Wholesale cash prices Wednesday
?                                      ??Wed.???????Tue.
F
Foods

?Broilers national comp wtd av           ?1.0859?????1.0859
?Eggs large white NY Doz.                ???2.32???????2.52
?Flour hard winter KC cwt                ??15.40??????15.10
?Cheddar Cheese Chi. 40 block per lb.    ?2.1350?????2.2025
?Coffee parana ex-dock NY per lb.        ?1.1725?????1.1873
?Coffee medlin ex-dock NY per lb.        ?1.3825?????1.3881
?Cocoa beans Ivory Coast $ metric ton    ???2834???????2834
?Cocoa butter African styl $ met ton     ???7558???????7558
?Hogs Iowa/Minn barrows & gilts wtd av   ??45.18??????46.08
?Feeder cattle 500-550 lb Okl av cwt     ?165.00?????165.00
?Pork loins 13-19 lb FOB Omaha av cwt    ??81.46??????83.58
Grains
?Corn No. 2 yellow Chi processor bid     ?4.80????????3.87½
?Soybeans No. 1 yellow                   ?9.90¼??????10.13?
?Soybean Meal Cen Ill 48pct protein-ton  383.50??????380.80
?Wheat No. 2  Chi soft                   ?4.55¾???????4.57½
?Wheat N. 1 dk  14pc-pro Mpls.           ?7.01¾???????7.23½
?Oats No. 2 heavy or Better              ?2.45????????2.40?
Fats & Oils
?Corn oil crude wet/dry mill Chi. lb.    ?.28??????????.28?
?Soybean oil crude Decatur lb.           ?.30¾?????????.30½
Metals
?Aluminum per lb LME                     0.9116??????0.9057
?Antimony in warehouse per ton           ??8580????????8580
?Copper Cathode full plate               3.0643??????3.0321
?Gold Handy & Harman                     1337.30????1333.45
?Silver Handy & Harman                   ?16.301?????16.422
?Lead per metric ton LME                 2400.00????2411.00
?Molybdenum per metric ton LME           ?15,500?????15,500
?Platinum per troy oz. Handy & Harman    ?919.00?????927.00
?Platinum Merc spot per troy oz.         ?912.10?????925.30
?Zinc (HG) delivered per lb.             ?1.4897??????1.5113
Textiles, Fibers and Miscellaneous
?Cotton 1-1-16 in. strict low middling   ??76.35??????78.76
Raw Products
?Coal Central Appalachia $ per short ton ??63.00??????63.00
?Natural Gas  Henry Hub, $ per mmbtu     ???2.70???????2.72
b-bid a-asked
n-Nominal
r-revised
n.q.-not quoted<29
n.a.-not available