Preclosing
Preclosing

The Associated Press

CHICAGO




CHICAGO (AP) — Futures trading on the Chicago Board of Trade Wed:
OpenHighLowLastChg.WHEAT5,000 bu minimum; cents per bushelMay457461½447455½—2Jul473½478463¾472½—1½Sep489½494½480¾489½—1¼Dec512516502¾511¼—1¼Mar527¼532518¾525½—2¾May537538529536¾—¾Jul541¼544532540¼—1Sep548548547547—1¾Dec561561561561—1¾Est. sales 138,860.  Tue.'s sales 121,876Tue.'s open int 515,963CORN5,000 bu minimum; cents per bushelMay388389372381—7½Jul396½397½380½390—7¼Sep403½404¼387¾397—7¼Dec411½412½396405—7¼Mar418¼419¼403¼412¼—6¾May422½422½408½416½—6¾Jul426426¾412420¼—6¾Sep405407½403¾406—7Dec414414½404408¾—5¾Mar413¾418413¾418—4½Jul426½427¼425425—5½Dec414414410413¼—3Dec418½418½418418—2¾Est. sales 696,646.  Tue.'s sales 466,814Tue.'s open int 1,864,403OATS5,000 bu minimum; cents per bushelMay234234¾224½229½—3Jul242242232¼237¼—3Sep244244238241—4¼Est. sales 826.  Tue.'s sales 1,641Tue.'s open int 6,760SOYBEANS5,000 bu minimum; cents per bushelMay1038¾1041¾983½1005¼—32¾Jul1049½1052¾994½1016½—32¾Aug10521055997½1019—32½Sep1045½1049996¾1013¼—32¼Nov10421045¾997¾1009—33¼Jan10451048¼10021012½—32¾Mar1041½104510011010—32¼May1038¾10421000¼1009½—29½Jul1038¼10411004¾1006—33¼Aug1008¾1009¼1008¼1008½—23Nov997½998¾969¾977½—18¾Jan975975975975—25¼Nov978½979¼967¾968½—18Jul981981981981—5½Nov975975975975—11½Est. sales 669,076.  Tue.'s sales 244,701Tue.'s open int 901,884