Open
Open

The Associated Press

CHICAGO




CHICAGO (AP) — Early trading on the Chicago Board of Trade Thu.:
OpenHighLowLastChg.WHEAT5,000 bu minimum; cents per bushelMay458466456½463¾+8Jul475½482½473¾480¼+7¼Sep492½498¾490¾496¾+6¾Dec514521513519½+7¼Mar531536½530¾536+7May541¾546541½546+7¾Jul545¼549½544¾549¼+7¼Sep552552552552+3Dec565½570565¼570+6¾Est. sales 59,603.  Wed.'s sales 164,374Wed.'s open int 505,685CORN5,000 bu minimum; cents per bushelMay382385¾380¾385+4Jul390¾394¼389¾393½+3¾Sep397¾401½396¾400¾+4Dec406410¼405409+4Mar413¼417½412¼416¾+4½May418421½418421½+5Jul421¾425½420¾425+4½Sep409409409409+2¼Dec410414¼409¼412¾+3¾Mar420½423420½423+5½Dec412418412417+5¼Est. sales 258,502.  Wed.'s sales 765,865Wed.'s open int 1,874,354,  up 9,951OATS5,000 bu minimum; cents per bushelMay230233¾230231½+1½Jul238241¾238241+3¼Sep242¼242¼242¼242¼—¼Est. sales 212.  Wed.'s sales 888Wed.'s open int 6,395SOYBEANS5,000 bu minimum; cents per bushelMay1015½10241011¾1018½+3¼Jul1026½103510231029½+3Aug102910371025½1032+3¼Sep1023¼10311019¾1027½+4¾Nov1019102810161025¼+6¼Jan1023¾10311019¼1029+6¾Mar1019¾1028¼1017½1026¼+5½May1019¾10271017½1024¾+4½Jul1024¾10291024¾1027½+4Aug1012½1021¼1012½1020½+3¾Nov985992¼985989¾+5Est. sales 138,844.  Wed.'s sales 728,539Wed.'s open int 901,812SOYBEAN OIL60,000 lbs; cents per lbMay31.7831.8231.5231.65—.03Jul32.0432.0931.8031.93—.03Aug32.1632.2031.9432.04—.04Sep32.3532.3532.0832.18—.05Oct32.5032.5032.2132.32—.04Dec32.7832.7832.4932.61—.04Jan32.8432.9532.7632.86—.04Mar33.2633.2633.0433.11—.05May33.4133.4133.4133.41+.02Jul33.7033.7033.5833.58—.03Dec33.7533.8533.7533.76—.03Est. sales 60,888.  Wed.'s sales 163,211Wed.'s open int 527,343,  up 14,664SOYBEAN MEAL100 tons; dollars per tonMay382.00384.90379.00380.20—1.60Jul385.00387.70382.20383.30—1.60Aug381.80384.20379.00379.60—2.20Sep378.30380.60376.40376.40—2.10Oct373.30375.30372.90372.90—1.60Dec371.10373.70369.50371.20—.90Jan368.40369.50366.90367.10—1.40Mar358.20359.70357.10357.30—1.60May353.20353.50352.90352.90+.20Jul351.30352.40350.70350.90—.60Oct338.30338.30336.80336.80—.30Dec336.90337.30335.70335.90—.80Est. sales 63,302.  Wed.'s sales 267,439Wed.'s open int 483,444,  up 13,017