BC-BOT Table,1st Ld
BC-BOT Table,1st Ld

The Associated Press

CHICAGO




CHICAGO (AP) — Noon trading on the Chicago Board of Trade Thu.:
OpenHighLowNoonChg.WHEAT5,000 bu minimum; cents per bushelMay458466456½463¼+7½Jul475½482½473¾479¾+6¾Sep492½499490¾496½+6½Dec514521513518½+6¼Mar531537¼530¾535¾+6¾May541¾546½541½545+6¾Jul545¼550544¾548¼+6¼Sep552552552552+3Dec565½570565¼570+6¾Est. sales 90,843.  Wed.'s sales 167,365Wed.'s open int 505,685CORN5,000 bu minimum; cents per bushelMay382388½380¾388+7Jul390¾397389¾396½+6¾Sep397¾404396¾403½+6¾Dec406412½405412+7Mar413¼419½412¼419¼+7May418424418423¾+7¼Jul421¾427¾420¾427½+7Sep409410¾409410¾+4Dec410414¾409¼414¾+5¾Mar420½423420½423+5½Dec412418412416+4¼Est. sales 379,563.  Wed.'s sales 799,302Wed.'s open int 1,874,354,  up 9,951OATS5,000 bu minimum; cents per bushelMay230233¾228½232¼+2¼Jul238241¾236½239½+1¾Sep242¼245242¼245+2½Est. sales 490.  Wed.'s sales 892Wed.'s open int 6,918,  up 158SOYBEANS5,000 bu minimum; cents per bushelMay1015½1033½1011¾1032+16¾Jul1026½1043¾10231042½+16Aug10291045¼1025½1044+15¼Sep1023¼1037¼1019¾1036½+13¾Nov10191033¼10161032¼+13¼Jan1023¾1036¼1019¼1035¼+13Mar1019¾10321017½1031½+10¾May1019¾10311017½1030+9¾Jul1024¾1033½1024¾1033+9½Aug1012½1021¼1012½1020¼+3½Nov985993985992½+7¾Est. sales 352,191.  Wed.'s sales 764,033Wed.'s open int 901,812SOYBEAN OIL60,000 lbs; cents per lbMay31.7831.8231.5231.68Jul32.0432.0931.8031.95—.01Aug32.1632.2031.9432.07—.01Sep32.3532.3532.0832.21—.02Oct32.5032.5032.2132.37+.01Dec32.7832.7832.4932.64—.01Jan32.8432.9532.7632.92+.02Mar33.2633.2633.0433.20+.04May33.4133.4133.3633.37—.02Jul33.7033.7033.5333.65+.04Dec33.7533.8533.7033.85+.06Est. sales 92,133.  Wed.'s sales 170,430Wed.'s open int 527,343,  up 14,664SOYBEAN MEAL100 tons; dollars per tonMay382.00384.90379.00384.40+2.60Jul385.00387.90382.20387.30+2.40Aug381.80384.20379.00383.60+1.80Sep378.30380.60375.90379.90+1.40Oct373.30376.00372.00375.30+.80Dec371.10373.70369.50372.30+.20Jan368.40369.50365.80368.50Mar358.20359.70355.90358.10—.80May353.20353.50350.50351.10—1.60Jul351.30352.40350.30350.40—1.10Aug347.70347.70347.40347.40—1.10Oct338.30338.30336.00336.00—1.10Dec336.90337.30334.90334.90—1.80Est. sales 104,548.  Wed.'s sales 275,216Wed.'s open int 483,444,  up 13,017