BC-USDA-Portland Grain
BC-USDA-Portland Grain

The Associated Press



JO—GR110Portland, OR    Thu Apr 05, 2018    USDA Market NewsPortland Daily Grain ReportBids as of 12:00 p.m. Pacific time; Subject to changeMay wheat futures trended nine to 13 cents per bushel higher compared toWednesday?s noon closes.Bids for US 1 Soft White Wheat delivered to Portland in unit trains andbarges for April delivery ordinary protein trended steady to 6.75 cents perbushel higher compared to Wednesday?s noon bids for the same deliveryperiod.  Some exporters were not issuing bids for nearby delivery.  Bidsfor guaranteed maximum 10.5 percent protein trended steady to 6.75 centsper bushel higher compared to Wednesday?s noon bids for nearby delivery.Some exporters are not issuing bids for nearby delivery.Bids for 11.5 percent US 1 Hard Red Winter Wheat for April deliverytrended 12.50 cents per bushel higher than Wednesday?s noon bids for thesame delivery period.  Some exporters were not issuing bids for nearbydelivery.Bids for 14 percent protein US 1 Dark Northern Spring Wheat for Aprildelivery trended 13 cents per bushel higher than Wednesday?s noon bids forthe same delivery period.  Some exporters were not issuing bids for nearbydelivery.Bids for US 2 Yellow Corn delivered full coast in 110 car shuttle trainsfor April delivery were 8.50 cents per bushel lower compared to Wednesday?snoon bids for the same delivery period.  Some exporters were not issuingbids for nearby delivery.Bids for US 1 Yellow Soybeans delivered full coast in 110 car shuttletrains for April delivery were 16 cents per bushel higher compared toWednesday?s noon bids for the same delivery period.  Some exporters werenot issuing bids for nearby delivery.All bids in dollars per bushelUS 1 Soft White Wheat - delivered by Unit Trains and BargesOrdinary proteinApr                                       5.4000-5.8175    unch-up 6.75May                                       5.6500-5.8475    unch-up 6.75Jun                                       5.7000-5.8625    unch-up 7.25Jul                                       5.5000-5.7125    unch-up 4.25Aug NC                                    5.5000-5.6800    unch-up 8.00Guaranteed maximum 10.5 pct proteinApr                                       5.4000-5.8175    unch-up 6.75May                                       5.7800-5.8475    up 0.25-6.75Jun                                       5.7800-5.8625    unch-up 7.25Jul                                       5.6000-5.7125    unch-up 8.25Aug NC                                    5.6000-5.6800    unch-up 8.00—US 1 White Club Wheat - delivered by Unit Trains and BargesOrdinary proteinApr                                       5.4500-5.8175    unch-up 6.75Guaranteed maximum 10.5 pct proteinApr                                       5.4500-5.8175    unch-up 6.75—US 1 Hard Red Winter Wheat - (Exporter bids-falling numbers of 300 orbetter)Ordinary protein                            5.4350-5.5850    up 12.5011 pct protein                              6.0350-6.3350    up 12.5011.5 pct proteinApr                                       6.3350-6.5850    up 12.50May                                       6.3350-6.5850    up 12.50Jun                                       6.4650-6.6150    up 12.25Jul                                       6.4450-6.5650    up 12.25Aug NC                                    6.3450           up 11.7512 pct protein                              6.4850-6.7350    up 12.5013 pct protein                              6.7850-7.0350    up 12.50—US 1 Dark Northern Spring Wheat (with a minimum of 300 falling numbers, a maximumof 0.5 part per million vomitoxin, and a maximum of one percent total damage)13 pct protein                              6.5675-6.8975    up 13.0014 pct proteinApr                                       7.0475-7.3475    up 13.00May                                       7.1975-7.3475    up 13.00Jun                                       7.2125-7.4125    up 14.00Jul                                       7.2125-7.4125    up 14.00Aug NC                                    7.3950-7.4450    up 14.50 15 pct protein                               7.3675-7.6675    up 13.00 16 pct protein                               7.6875-7.9875    up 13.00—US 2 Yellow CornShuttle trains-Delivered full coast Pacific Northwest-BNApr                                       5.0150           up 8.50May                                       4.9950-5.0150    up 8.50Jun                                       5.0225-5.0325    up 8.50Jul                                       5.0025-5.0125    up 8.50Aug                                       4.8975           up 8.00Sep                                       NA—US 1 Yellow SoybeansShuttle trains-Delivered full coast Pacific Northwest-BNApr                                       11.2625          up 16.00May                                       11.2825          up 16.00Jun                                       11.3700          up 15.50Jul                                       11.3900          up 15.50Aug                                       NAOct                                       11.2900          up 15.00—US 2 Heavy White Oats **                      3.4825           unch** Not well tested.Exporter Bids Portland Rail/Barge             Mar 2018Averages in Dollars per bushelUS 1 Soft White by Unit Trains and Barges   5.5600US 1 Hard Red Winter (Ordinary protein)     5.5300US 1 Hard Red Winter (11.5% protein)        6.4700US 1 Dark Northern Spring (14% protein)     7.3300Source:    USDA Market News Service, Portland, ORNiki Davila 503-535-5001  Portland.LPGMN@ams.usda.gov24 Hour Market Report  503-535-5005www.ams.usda.gov/mnreports/jo—gr110.txtwww.ams.usda.gov/lpsmarketnewspage11:53P nd