BC-USDA-Catl Actn
BC-USDA-Catl Actn

The Associated Press



.SA—LS150San Angelo, TX    Thu Apr 05, 2018    USDA Market NewsProducers Livestock Auction Co Report, San Angelo, TexasCattle and Calf Auction:Close and Weekly:Total Receipts:  879    Last Week:   556    Year Ago:  840Compared to last week steer and heifer calves and yearlings steady.Slaughter cows and slaughter bulls weak to 2.00 lower.  Stock cows andpairs steady.  Trading and demand moderate.  Quality mostly average toplain.  Supply included 11 percent slaughter cows, 1 percent slaughterbulls, 85 percent feeders, 3 percent stock cows and pairs ? of thefeeders 50 percent were steers and bulls ? 35 percent weighed over 600lbs.FEEDER STEERS:Medium and Large 1 200 lbs 204.00; 300-400 lbs 198.00-206.00; 400-500lbs 193.00-194.00; 500-600 170.00-177.00, few 187.00; 600-650 lbs 169.00-172.00; 710 lbs 141.00.Medium and Large 1-2 305 lbs 192.50; 400-500 lbs 179.00-189.00; 500-600 lbs 155.00-166.00; 600-700 lbs 145.00-153.00.Medium and Large 2 300-400 lbs 170.00-173.00; 400-500 lbs 160.00-175.00; 500-600 lbs 143.00-153.00; 600-700 lbs 136.00-137.00; 700-800 lbs120.00.FEEDER BULLS:Medium and Large 2 450-500 lbs 154.00-158.00; 500-600 lbs 130.00-140.00; 600-700 lbs 120.00-129.00; 700-900 lbs 107.00-118.00.FEEDER HEIFERS:Medium and Large 1 500-600 lbs 143.00-146.00; 725 lbs 129.00.Medium and Large 1-2 200-250 lbs 174.00-182.00; 300-400 lbs 160.00-166.00; 400-500 lbs 153.00-163.00; 500-600 lbs 132.00-141.00; 600-700 lbs129.00-138.00; 747 lbs 120.00.Medium and Large 2 264 lbs 160.00; 300-400 lbs 142.00-154.00; 400-500lbs 134.00-147.00; 500-600 lbs 120.00-130.50; 600-700 lbs 122.00-127.00;700-750 lbs 115.00.SLAUGHTER COWS:%Lean   weight         avg dress      hi-dress      low-dressBreakers  75-80  1300-1800 lbs   55.00-62.00Boners    80-85   950-1475 lbs   62.00-71.00      75.00Lean      85-90   850-1400 lbs   60.00-70.00   77.00-79.00   55.00-60.0085-90   600-900  lbs                               50.00-55.00SLAUGHTER BULLS:  Yield Grade 1 1500-2000 lbs 81.00-88.00; high-yielding90.00-92.00; low-yielding 1150-1600 lbs 73.00-82.00.PREGNANCY TESTED STOCK COWS AND HEIFERS:  All sold by the head.Medium and Large 1Medium and Large 1-2   1100.00-1150.00.Medium and Large 2     1000.00-1025.00.COW/CALF PAIRS:    All sold by the pair.  All have 150-350 lbs calves.Medium and Large 1     1400.00.Medium and Large 1-2   1275.00.Medium and Large 2      800.00-1050.00.STOCKER AND FEEDER COWS:Medium and Large 1-2 (young) 800-1000 90.00-104.00 cwt; (young andmiddle age) 800-1100 lbs 80.00-88.00 cwt; (middle age) 900-1450 lbs70.00-77.00 cwt; (thin &/or aged) 800-1300 lbs 60.00-67.00 cwt.Source:  USDA Market News Service, San Angelo, TexasRebecca Sauder 325-653-1778www.ams.usda.gov/mnreports/SA—LS150.txtwww.ams.usda.gov/LSMarketNews1620c  rs