BC-Merc Table
BC-Merc Table

The Associated Press






BC-Merc Table,
CHICAGO (AP) — Futures trading on the Chicago Mercantile Exchange Thu:
OpenHighLowSettleChg.CATTLE40,000 lbs.; cents per lb.Apr113.70114.45113.30114.30+1.28Jun103.20105.17102.82105.05+2.73Aug103.55105.00102.97104.87+2.27Oct107.40108.80106.95108.62+1.82Dec111.00112.62110.67112.40+1.83Feb111.85113.67111.75113.50+1.75Apr113.22114.50112.85114.37+1.32Jun107.42108.97107.42108.67+.67Aug107.00107.62107.00107.60+1.20Est. sales 79,515.  Wed.'s sales 117,621Wed.'s open int 357,274,  up 960FEEDER CATTLE50,000 lbs.; cents per lb.Apr135.02138.37134.80137.47+2.97May136.00138.95135.40138.05+2.93Aug140.70143.20140.37142.67+2.45Sep142.40144.37142.02143.95+2.35Oct143.42144.70142.72144.45+2.28Nov142.72144.52142.60144.27+2.17Jan138.52140.60138.52140.15+1.98Mar137.27+1.77Est. sales 18,401.  Wed.'s sales 25,739Wed.'s open int 52,904HOGS,LEAN40,000 lbs.; cents per lb.Apr53.1753.3252.3252.45—.62May62.6565.8762.6265.85+2.98Jun73.1574.2573.0273.82+.55Jul75.0575.9574.9075.75+.58Aug75.6276.4775.3576.37+.72Oct64.6765.1064.3264.77+.05Dec60.0060.2559.0759.37—.68Feb63.8564.3063.2063.55—.47Apr67.3067.8066.9567.25—.55May72.77—.55Jun75.60—.55Jul75.50—.50Est. sales 41,438.  Wed.'s sales 58,280Wed.'s open int 240,227,  up 5,135PORK BELLIES40,000 lbs.; cents per lb.No open contracts.