BC-USDA-Opening Bids KY Grain Elevs
BC-USDA-Opening Bids KY Grain Elevs

The Associated Press



SV—GR110Frankfort, KY     Fri, Apr 06, 2018     USDA-KY Dept of Ag Market NewsKentucky Daily Grain Elevators Bids:Bids as of 4:00 est, cash prices by elevators/mills to producers:US NO 2 YELLOW CORNBids           Change          Basis           ChangePurchase        3.7550-3.8350     DN 1-UP 7      -13K to -5K      UNCH-UP 8Green River         3.7650           UP 2            -12K            UP 3Pennyrile           3.8350           DN 1            -5K             UNCHLouisville      3.6350-3.7150     UNCH-UP 7      -25K to -17K     UP 1-UP 8Bluegrass       3.6850-4.1965  UP 17.5-UP 49.65 -20K to 31.15K UP 18.5-UP 50.65US NO 2 WHITE CORNBids           ChangePennyrile             NA              NAUS NO 1 YELLOW SOYBEANSBids           Change          Basis           ChangePurchase       10.0375-10.1875  UP 2.5-UP 12.5   -30K to -15K     UNCH-UP 10Green River        10.0375          UP 7.5           -30K            UP 5Pennyrile           9.8375         UP 12.5           -50K           UP 10Louisville      9.6575-9.9175   UP 16.5-UP 2.5   -68K to -42K     UP 14-UNCHBluegrass       9.6300-9.8875    UP 13-UP 7.5  -70.75K to -45K   UP 10.5-UP 5US NO 2 SOFT RED WINTER WHEATBids           Change          Basis           ChangePurchase              NA              NA              NA              NAGreen River           NA              NA              NA              NAPennyrile           4.4725          UP 7.5           -25K            UNCH (Milling Qlty)     4.7225          UP 7.5           OptK            UNCHLouisville      4.1325-4.8425   UP 9.5-UP 7.5    -59K to 12K      UP 2-UNCHBluegrass           4.5700           UP 8          -15.25K          UP 0.5US NO 2 MILO EXTRA HEAVYBids           Change          Basis           ChangePurchase              NA              NA              NA              NALouisville     NA              NA              NA              NAPennyrile      NA              NA              NA              NAUS NO 2 FEED BARLEYBids            ChangePennyrile      NA              NA------------------------------------------------------------------------------Opening Contract Prices for Fall (Jul Wheat) deliveryUS NO 2 YELLOW CORNBids           Change          Basis           ChangePurchase        3.9050-3.9550  UP 2.25-UP 4.25   -22Z to -17Z     UP 3-UP 5Green River         3.8950         DN 0.75           -23Z            UNCHPennyrile       3.8750-4.0250      DN 0.75       -25Z to -10Z        UNCHLouisville     NA              NA              NA              NABluegrass      3.8250          DN 0.75         -30Z            UNCHUS NO 2 WHITE CORNBids            ChangePennyrile      4.4300          UNCHUS NO 1 YELLOW SOYBEANSBids           Change          Basis           ChangePurchase           10.0825         DN 0.75           -25X            UNCHGreen River        10.0125         DN 0.75           -32X            UNCHPennyrile       9.9325-9.9825      DN 0.75       -40X to -35X        UNCHLouisville     NA              NA              NA              NABluegrass      9.7825          DN 0.75         -55X            UNCHUS NO 2 SOFT RED WINTER WHEATBids           Change          Basis           ChangePurchase        4.8050-4.8850      UP 7.25       -8N to OptN         UNCHGreen River         4.7350         UP 7.25           -15N            UNCHPennyrile       4.6350-4.6850      UP 7.25       -25N to -20N        UNCH (Milling Qlty)     4.9350         UP 7.25            5N             UNCHLouisville     4.9050          UP 7.25         2N              UNCHBluegrass      4.6350          UP 7.25         -25N            UNCHUS NO 2 MILO EXTRA HEAVYBids            Change          Basis           ChangePurchase       NA              NA              NA              NALouisville     4.2250          DN 0.75         10Z             UNCHPennyrile      NA              NA              NA              NAUS NO 2 FEED BARLEYBids            ChangePennyrile      NA              NAPurchase- Inland elevators west of Tennesse RiverGreen River- Inland elevators near the Green RiverPennyrile- South west KY East of Tennessee River, west of I-65Louisville-Elevators near the Louisville areaBluegrass- Central Kentucky/Lexington areaSource: USDA-KY Dept of Ag Market News Service, Frankfort, KYJodee Inman  502-782-4138??????? www.ams.usda.gov/mnreports/SV—GR110.txt??????? www.ams.usda.gov/LPSMarketNewsPage1555Ekdb