BC-Merc Table
BC-Merc Table

The Associated Press

CHICAGO




CHICAGO (AP) — Futures trading on the Chicago Mercantile Exchange Fri:
OpenHighLowSettleChg.CATTLE40,000 lbs.; cents per lb.Apr114.00114.15111.95112.22—2.08Jun104.15104.37102.05102.32—2.73Aug104.00104.35102.25102.77—2.10Oct107.90108.45106.30106.70—1.92Dec111.97112.25110.42111.15—1.25Feb113.25113.35111.80112.55—.95Apr113.75114.07112.82113.32—1.05Jun108.27108.27107.30107.65—1.02Aug106.87—.73Est. sales 66,820.  Thu.'s sales 81,730Thu.'s open int 356,178FEEDER CATTLE50,000 lbs.; cents per lb.Apr136.90137.15134.55135.32—2.15May137.07137.75134.97135.62—2.43Aug141.92142.55140.57141.45—1.22Sep143.17143.50141.45142.30—1.65Oct143.95144.05141.80142.62—1.83Nov143.50143.80141.70142.60—1.67Jan139.30139.30137.65138.85—1.30Mar135.97—1.30Est. sales 21,070.  Thu.'s sales 18,535Thu.'s open int 50,840HOGS,LEAN40,000 lbs.; cents per lb.Apr52.6552.7052.0552.12—.33May65.3065.9064.3264.47—1.38Jun73.3073.7572.3573.27—.55Jul75.2575.5774.5075.45—.30Aug75.7076.4275.4076.15—.22Oct64.4264.8264.0264.55—.22Dec59.2259.5258.8759.20—.17Feb63.2263.5563.0263.12—.43Apr66.9567.0566.8066.90—.35May72.47—.30Jun75.3575.3575.3575.35—.25Jul75.25—.25Est. sales 47,557.  Thu.'s sales 42,345Thu.'s open int 240,348,  up 121PORK BELLIES40,000 lbs.; cents per lb.No open contracts.