BC-US--Grain Prices, US
BC-US--Grain Prices, US

The Associated Press

CHICAGO




CHICAGO (AP) — Futures trading on the Chicago Board of Trade Friday.:
SettleWHEAT (5,000 bu ; cents per bushel)May             472 1-4Jul             488 1-2Sep             505 1-2Dec             528 1-4Mar             546 1-4May             554 1-2Jul             558    Sep             565    Dec             578 1-2Mar             587 3-4May             587 1-2Jul             571 3-4CORN (5,000 bu ; cents per bushel)May             388 1-2Jul             397    Sep             404    Dec             412 1-2Mar             420    May             424 1-2Jul             429 1-4Sep             415    Dec             417    Mar             425 1-4May             427 3-4Jul             432 1-2Sep             421 3-4Dec             419    Jul             427 1-4Dec             421 1-4OATS (5,000 bu ; cents per bushel)May             233 1-4Jul             241    Sep             244 3-4Mar             259 3-4May             263 1-2Jul             268 1-2Sep             269 3-4Dec             269 3-4Mar             269 3-4Jul             268 1-4Sep             268 1-4SOYBEANS (5,000 bu ; cents per bushel)May            1033 3-4Jul            1044 3-4Aug            1046    Sep            1038 1-4Nov            1033 1-4Jan            1037    Mar            1028 3-4May            1027    Jul            1030 1-4Aug            1025 3-4Sep            1008 3-4Nov             993    Jan             995    Mar             995 1-2May             999 1-2Jul            1000    Aug             992 1-2Sep             988 3-4Nov             984 1-4Jul             987    Nov             987    SOYBEAN OIL (60,000 lbs; cents per lb)May             31.53Jul             31.81Aug             31.93Sep             32.08Oct             32.22Dec             32.53Jan             32.80Mar             33.08May             33.32Jul             33.58Aug             33.62Sep             33.64Oct             33.61Dec             33.77Jan             33.89Mar             34.11May             34.14Jul             34.32Aug             34.31Sep             34.31Oct             34.31Dec             34.28Jul             34.28Oct             34.28Dec             34.28SOYBEAN MEAL (100 tons; dollars per ton)May            386.30Jul            390.10Aug            386.60Sep            383.00Oct            379.10Dec            376.20Jan            372.20Mar            360.30May            354.90Jul            353.70Aug            350.30Sep            345.70Oct            339.50Dec            338.90Jan            339.60Mar            340.40May            340.40Jul            338.90Aug            338.90Sep            338.90Oct            338.90Dec            335.70Jul            335.70Oct            335.70Dec            345.80