Close
Close

The Associated Press

CHICAGO




CHICAGO (AP) — Futures trading on the Chicago Board of Trade Fri.:
Open  High  Low  Settle   Chg.WHEAT                                   5,000 bu minimum; cents per bushel    May      461½  472¾  459¼  472¼   +7½Jul      477    489    475½  488½   +7¼Sep      495    505½  492½  505½   +7½Dec      516    528¾  514¾  528¼   +8  Mar      532½  546¼  532½  546¼   +9  May      542½  554½  542½  554½   +8  Jul      546    558    545    558     +7¾Sep      556¼  565    556¼  565     +7¼Dec      574¾  578½  573    578½   +6½Mar                           587¾   +6½May                           587½   +6½Jul                           571¾   +6½Est. sales 132,167.  Thu.'s sales 131,200Thu.'s open int 501,775                CORN                                     5,000 bu minimum; cents per bushel    May      382    390    382    388½   —1  Jul      392    398½  390¾  397     —1¼Sep      398½  405¼  397½  404     — ¾Dec      407¾  413½  406    412½   — ¾Mar      414¼  420¾  413¼  420     — ½May      420¼  425    420    424½   — ½Jul      422½  429½  422½  429¼        Sep      411¾  415    411½  415     + ¼Dec      412¾  417¼  412¾  417     + ¼Mar      421    425¼  421    425¼   + ½May                           427¾   — ¾Jul      428½  432½  428½  432½   — ¼Sep                           421¾   — ¼Dec      419    420    417½  419     — ¾Jul                           427¼   — ¾Dec      421    421¼  421    421¼   + ¼Est. sales 609,698.  Thu.'s sales 574,180Thu.'s open int 1,880,806,  up 6,452    OATS                                      5,000 bu minimum; cents per bushel    May      231    234½  230¼  233¼   + ½Jul      240¼  241¾  237¾  241     + ½Sep                           244¾   + ¼Mar                           259¾   — ¾May                           263½   — ¾Jul                           268½   — ¾Sep                           269¾   — ¾Dec                           269¾   — ¾Mar                           269¾   — ¾Jul                           268¼   — ¾Sep                           268¼   — ¾Est. sales 336.  Thu.'s sales 818      Thu.'s open int 6,849                  SOYBEANS                               5,000 bu minimum; cents per bushel    May     1003   1037¼ 1003   1033¾   +2½Jul     1022   1048   1014   1044¾   +2¾Aug     1026½ 1049   1017¼ 1046     +2½Sep     1021½ 1040½ 1013½ 1038¼   +1¼Nov     1016   1035½ 1010   1033¼   — ¾Jan     1016½ 1038   1013¾ 1037     + ¼Mar     1013¼ 1030¼ 1008¼ 1028¾   —2¾May     1008   1028   1008   1027     —3¼Jul     1020½ 1030½ 1016½ 1030¼   —3½Aug     1012¾ 1025¾ 1011¾ 1025¾   —2½Sep                          1008¾   —2½Nov      985¼  993¾  975¼  993     + ½Jan      993¾  995    993¾  995     — ½Mar                           995½   — ½May                           999½   — ½Jul                          1000     — ½Aug                           992½   — ½Sep                           988¾   — ½Nov      983    984¼  983    984¼   — ½Jul                           987     — ½Nov                           987     — ½Est. sales 329,627.  Thu.'s sales 468,225Thu.'s open int 911,363,  up 9,551     SOYBEAN OIL                            60,000 lbs; cents per lb                 May      31.63  31.77  31.46  31.53   —.25Jul      31.90  32.04  31.73  31.81   —.24Aug      31.98  32.14  31.85  31.93   —.24Sep      32.13  32.25  32.00  32.08   —.24Oct      32.20  32.39  32.15  32.22   —.24Dec      32.56  32.73  32.44  32.53   —.22Jan      32.81  32.96  32.70  32.80   —.21Mar      33.09  33.23  32.99  33.08   —.22May      33.48  33.48  33.31  33.32   —.22Jul      33.54  33.58  33.54  33.58   —.22Aug                           33.62   —.21Sep                           33.64   —.21Oct                           33.61   —.20Dec      33.90  33.96  33.75  33.77   —.23Jan                           33.89   —.23Mar                           34.11   —.23May                           34.14   —.24Jul                           34.32   —.18Aug                           34.31   —.18Sep                           34.31   —.18Oct                           34.31   —.18Dec                           34.28   —.17Jul                           34.28   —.17Oct                           34.28   —.17Dec                           34.28   —.17Est. sales 113,060.  Thu.'s sales 142,760Thu.'s open int 527,008                SOYBEAN MEAL                         100 tons; dollars per ton                May     379.00 387.30 375.50 386.30  +2.70Jul     382.50 391.00 379.00 390.10  +3.10Aug     378.90 387.00 374.80 386.60  +3.50Sep     375.30 383.40 371.80 383.00  +3.90Oct     370.00 379.40 367.60 379.10  +4.50Dec     367.40 376.50 364.90 376.20  +4.50Jan     363.40 372.20 363.40 372.20  +4.10Mar     350.80 360.30 350.80 360.30  +3.80May     348.60 355.20 348.60 354.90  +3.80Jul     345.00 354.90 345.00 353.70  +3.70Aug                          350.30  +3.20Sep                          345.70  +2.00Oct                          339.50  +3.90Dec     331.10 338.90 331.00 338.90  +4.40Jan                          339.60  +4.40Mar                          340.40  +4.40May                          340.40  +4.40Jul                          338.90  +4.40Aug                          338.90  +4.40Sep                          338.90  +4.40Oct                          338.90  +4.40Dec                          335.70  +4.40Jul                          335.70  +4.40Oct                          335.70  +4.40Dec                          345.80  +4.40Est. sales 147,525.  Thu.'s sales 169,570Thu.'s open int 485,386,  up 1,942