BC-Wheat KX
BC-Wheat KX

The Associated Press

CHICAGO




CHICAGO (AP) — Winter Wheat futures on the Chicago Board of Trade Fri:
OpenHighLowSettleChg.WHEAT5,000 bu minimum; cents per bushelMay496½507¼491¼506¾+8¼Jul515525¾509525½+9Sep531½544¼527¾544¼+9¾Dec554567550567+10Mar571580¾567¾580¾+10May575½589¾575½589¾+11Jul585595585595+10½Sep600604600604+9½Dec610616¼610616¼+7¼Mar621¾+7¼May621¾+7¼Jul613+9Est. sales 68,804.  Thu.'s sales 55,553Thu.'s open int 289,399