BC-US--Grain Prices, US
BC-US--Grain Prices, US

The Associated Press

CHICAGO




CHICAGO (AP) — Futures trading on the Chicago Board of Trade Monday.:
SettleWHEAT (5,000 bu ; cents per bushel)May             490 3-4Jul             506    Sep             522 1-2Dec             544 3-4Mar             562    May             570 3-4Jul             572 1-4Sep             579 1-4Dec             592 1-2Mar             601 3-4May             601 1-2Jul             585 3-4CORN (5,000 bu ; cents per bushel)May             390 3-4Jul             399    Sep             406    Dec             414 3-4Mar             422    May             426 1-4Jul             430 1-4Sep             415 1-4Dec             416 1-4Mar             424 1-4May             428    Jul             432 1-4Sep             421 1-2Dec             418    Jul             426 1-4Dec             421 1-2OATS (5,000 bu ; cents per bushel)May             237 1-4Jul             243 1-2Sep             247 1-4Dec             255 3-4Mar             262 1-2May             266 1-4Jul             271 1-4Sep             272 1-2Dec             272 1-2Mar             272 1-2Jul             271    Sep             271    SOYBEANS (5,000 bu ; cents per bushel)May            1047    Jul            1057 1-2Aug            1058 1-2Sep            1048 1-2Nov            1043 1-4Jan            1046 1-2Mar            1036 1-2May            1033 1-2Jul            1035 1-4Aug            1030 1-4Sep            1013 1-4Nov             997 1-2Jan            1000    Mar             998 1-4May             999 3-4Jul            1006    Aug             998 1-2Sep             994 3-4Nov             980 3-4Jul             983 1-2Nov             983 1-2SOYBEAN OIL (60,000 lbs; cents per lb)May             31.52Jul             31.79Aug             31.93Sep             32.09Oct             32.24Dec             32.57Jan             32.84Mar             33.13May             33.41Jul             33.67Aug             33.71Sep             33.73Oct             33.68Dec             33.84Jan             33.95Mar             34.18May             34.20Jul             34.34Aug             34.33Sep             34.33Oct             34.33Dec             34.29Jul             34.29Oct             34.29Dec             34.29SOYBEAN MEAL (100 tons; dollars per ton)May            389.60Jul            393.70Aug            391.20Sep            388.00Oct            384.40Dec            382.00Jan            377.40Mar            364.50May            358.70Jul            357.90Aug            354.10Sep            349.10Oct            342.50Dec            341.70Jan            342.40Mar            343.20May            343.20Jul            341.70Aug            341.70Sep            341.70Oct            341.70Dec            338.50Jul            338.50Oct            338.50Dec            348.60