BC-BOT Table,1st Ld
BC-BOT Table,1st Ld

The Associated Press

CHICAGO




CHICAGO (AP) — Noon trading on the Chicago Board of Trade Mon.:
OpenHighLowNoonChg.WHEAT5,000 bu minimum; cents per bushelMay478493¾474¾493+20¾Jul494¼508¼491¼507¾+19¼Sep511524½508524¼+18¾Dec534546¾531¼546+17¾Mar550563¼549¼563¼+17May561½572557¾571½+17Jul561¼573560¾573+15Sep570579½569¾579½+14½Dec582593582593+14½Est. sales 178,024.  Fri.'s sales 145,812Fri.'s open int 496,403CORN5,000 bu minimum; cents per bushelMay389¾392½388¾391¾+3¼Jul398¾400¾397¼400½+3½Sep405¼408404¼407+3Dec413¼416½412¾415½+3Mar420¾423½420422¼+2¼May425¾427½425426¼+1¾Jul429¾431½429430½+1¼Sep415¾416¼415½416+1Dec416½418½416¼416¼—¾Mar426426½426426½+1¼May428428428428+¼Dec420420420420+1Dec421421421421—¼Est. sales 325,139.  Fri.'s sales 650,717Fri.'s open int 1,874,477OATS5,000 bu minimum; cents per bushelMay236¾238¼235¾238+4¾Jul245¼246¼243¼244½+3½Sep248¼248¼248¼248¼+3½Dec255½256¾255½256¾+3¾Est. sales 702.  Fri.'s sales 336Fri.'s open int 6,849SOYBEANS5,000 bu minimum; cents per bushelMay1038¼1056¾1037½1045+11¼Jul1048½1067½1048½1055½+10¾Aug1050½1068½1050¼1056½+10½Sep10421057¼10421047½+9¼Nov10381050¾10371043¾+10½Jan1041¼1053¼1040¾1046½+9½Mar1031½1042¾1031¼1036+7¼May1031¼10401030½1034+7Jul10351042¼10321035½+5¼Nov9951003¾995998¼+5¼Nov985985985985+¾Est. sales 259,904.  Fri.'s sales 359,335Fri.'s open int 921,133,  up 9,770SOYBEAN OIL60,000 lbs; cents per lbMay31.5331.7531.2931.47—.06Jul31.8332.0231.5631.75—.06Aug31.9332.1431.7031.89—.04Sep32.0932.2731.8532.08Oct32.3032.3932.0232.20—.02Dec32.5532.7332.3232.51—.02Jan32.8832.9232.6132.78—.02Mar33.0933.2732.9133.06—.02May33.3533.3633.1833.33+.01Jul33.5833.6533.5433.65+.07Dec33.7933.9033.6133.90+.13Est. sales 166,010.  Fri.'s sales 120,496Fri.'s open int 538,933,  up 11,925SOYBEAN MEAL100 tons; dollars per tonMay386.80393.30385.00390.50+4.20Jul390.80397.00389.10394.20+4.10Aug386.70393.20385.90391.30+4.70Sep385.40390.00382.90387.90+4.90Oct384.00386.50379.00384.20+5.10Dec376.60383.90376.10381.30+5.10Jan377.80379.20372.00377.10+4.90Mar361.90365.70359.00363.80+3.50May358.10360.20352.80358.20+3.30Jul357.70358.90352.10357.00+3.30Dec340.00343.50337.10341.70+2.80Est. sales 148,641.  Fri.'s sales 158,507Fri.'s open int 492,884,  up 7,498