BC-USDA-Slghtr Catl
BC-USDA-Slghtr Catl

The Associated Press



SJ—LS110 St Joseph, MO    Mon  Apr  9,  2018    USDA-MO Dept of Ag Market NewsSt Joseph Stockyards - St Joseph, MOLivestock Weighted Average Report for 4/9/2018 AUCTION                         Receipts          Last Reported          Year Ago(3/28/2018)-------------------------------------------------------------------------------- Total Receipts:                    250                 1,621                 0-------------------------------------------------------------------------------- Feeder Cattle:                       0(0             1,621(100%)           0(0%) Slaughter Cattle:                  250(100               0(0%)             0(0%)--------------------------------------------------------------------------------***OPEN*** Compared to two weeks ago, slaughter cows are selling 2.00 to 3.00 higher.  Slaughter bulls are selling steady on a light test.--------------------------------------------------------------------------------SLAUGHTER CATTLE-------------------------------------------------------------------------------- COWS - Breaker 75-80%  (Per Cwt / Actual Wt) Head      Wt Range    Avg Wt     Price Range   Avg Price Dressing6      1445-1890     1606      57.00-68.00      60.71    Average1         1385       1385         67.00         67.00       High COWS - Boner 80-85%  (Per Cwt / Actual Wt) Head      Wt Range    Avg Wt     Price Range   Avg Price Dressing13      1085-1485     1265      55.00-65.50      60.38    Average4      1165-1455     1315      67.00-70.00      68.93       High COWS - Lean 85-90%  (Per Cwt / Actual Wt) Head      Wt Range    Avg Wt     Price Range   Avg Price Dressing5       905-1140      998      50.00-55.00      52.87    Average2       995-1080     1037      62.00-62.50      62.26       High6       915-1305     1064      40.00-50.00      42.23        Low BULLS -  1-2 (Per Cwt / Actual Wt) Head      Wt Range    Avg Wt     Price Range   Avg Price Dressing3      1460-1890     1720      75.00-83.00      80.39    Average1         1225       1225         87.50         87.50       High1         1655       1655         70.00         70.00        LowPlease Note:The above USDA LPGMN price report is reflective of the majority of classes and grades of livestock offered for sale.  There may be instances where some salesdo not fit within reporting guidelines and therefore will not be included in the report.  Prices are reported on an FOB basis, unless otherwise noted.Explanatory Notes: Source:  USDA-MO Dept of Ag Market News ServiceJOSEPH TOENISKOETTER, Market Reporter, (816) 676-700024 Hour Market Report 1-573-522-9244www.ams.usda.gov/mnreports/SJ—LS110.txtwww.ams.usda.gov/market-news/livestock-poultry-grain