BC-USDA-Okla City Catl Actn
BC-USDA-Okla City Catl Actn

The Associated Press



KO—LS150 Oklahoma City, OK    Mon  Apr  9,  2018    USDA-OK Dept of Ag Market NewsOklahoma National Stockyards - Oklahoma City, OKLivestock Auction Report for 4/9/2018 AUCTION                          Receipts           Week Ago             Year Ago--------------------------------------------------------------------------------- Total Receipts:                  4,400                 1,912              8,209------------------------------------------------------------------------------ Feeder Cattle:                   4,400(100           1,912(100%)        8,209(100%)---------------------------------------------------------------------------------***  Open ***Compared to last Monday:  All classes of feeder cattle and calves under900 lbs are trading sharply higher in early rounds , over 900 lbs 1.00- 3.00 higher.  Demand very good for all classes. Quality mostly average.Feeder cattle supply included 63 percent Steers, 7 percent Dairy Steers, 28 percent Heifers, and  2 percent Bulls. Feeder cattle supply over 600lbs was 86 percent.--------------------------------------------------------------------------------FEEDER CATTLE--------------------------------------------------------------------------------Feeder Steers(Per CWT):  Medium and Large 1 400-500 lbs 178.00-189.00, ThinFleshed 192.00-203.00; 537 lbs 173.00, 521 lbs Thin Fleshed 182.00; 600-700 lbs149.50-164.00; 700-800 lbs 137.50-156.50; 800-900 lbs 128.50-136.75; 900-1000lbs 119.00-122.25, 920 lbs Fleshy 119.00, 996 lbs Full 116.00; 1027 lbs 117.25;1168 lbs 111.00. Medium and Large 1-2 600-700 lbs 140.50-149.00; 740 lbs 139.00;800-900 lbs 121.00-127.00; 936 lbs 120.00.Feeder Dairy Steers(Per CWT):  Large 3 740 lbs 80.00.Feeder Heifers(Per CWT):  Medium and Large 1 455 lbs 158.00; 500-600 lbs142.50-155.00; 600-700 lbs 130.00-139.00, 666 lbs Fancy 143.00; 700-800 lbs127.00-130.00; 800-900 lbs 116.00-118.00; 900-1000 lbs 113.50. Medium and Large1-2 617 lbs 136.00; 894 lbs Fleshy 112.00; 954 lbs Fleshy 109.50.Feeder Bulls(Per CWT):  Medium and Large 1 517 lbs Fleshy 163.00; 600-700lbs Calves 134.00-145.00. Medium and Large 1-2 818 lbs 122.50.Please Note:The above USDA LPGMN price report is reflective of the majority of classes and grades of livestock offered for sale.  There may be instances where some salesdo not fit within reporting guidelines and therefore will not be included in the report.  Prices are reported on an FOB basis, unless otherwise noted. Source:  USDA-OK Dept of Ag Market News ServiceTina Colby, Market Reporter, N/A24 Hour Market Report 1-573-522-9244www.ams.usda.gov/mnreports/KO—LS150.txtwww.ams.usda.gov/market-news/livestock-poultry-grain