Preclosing
Preclosing

The Associated Press

CHICAGO




CHICAGO (AP) — Futures trading on the Chicago Board of Trade Mon:
OpenHighLowLastChg.WHEAT5,000 bu minimum; cents per bushelMay478493¾474¾489½+17¼Jul494¼508½491¼504¾+16¼Sep511524¾508521+15½Dec534546¾531¼542½+14¼Mar550563½549¼560+13¾May561½572557¾568¼+13¾Jul561¼573¼560¾570+12Sep570579½569¾576¼+11¼Dec582593582592¼+13¾Est. sales 200,040.  Fri.'s sales 145,812Fri.'s open int 496,403CORN5,000 bu minimum; cents per bushelMay389¾392½388¾390¼+1¾Jul398¾400¾397¼398¾+1¾Sep405¼408404¼405¾+1¾Dec413¼416½412¾414¼+1¾Mar420¾423½420421¼+1¼May425¾427½425425¼+¾Jul429¾431½429429½+¼Sep415¾416¼415½416+1Dec416½418½416416—1Mar426426½426426½+1¼May428428428428+¼Dec420420419419Dec421421421421—¼Est. sales 364,621.  Fri.'s sales 650,717Fri.'s open int 1,874,477OATS5,000 bu minimum; cents per bushelMay236¾238¼235¾237¾+4½Jul245¼246¼243¼244+3Sep248¼248¼248¼248¼+3½Dec255½256¾255½256¾+3¾Est. sales 806.  Fri.'s sales 336Fri.'s open int 6,849SOYBEANS5,000 bu minimum; cents per bushelMay1038¼1056¾1037½1044¾+11Jul1048½1067½1048½1055½+10¾Aug1050½1068½1050¼1056+10Sep10421057¼10421046½+8¼Nov10381050¾10371042¾+9½Jan1041¼1053¼1040¾1045+8Mar1031½1042¾1031¼1034½+5¾May1031¼10401030½1032+5Jul10351042¼10321033½+3¼Nov9951003¾995996¾+3¾Nov985985985985+¾Est. sales 281,533.  Fri.'s sales 359,335Fri.'s open int 921,133,  up 9,770