BC-USDA-Iowa Elev Grain Prcs
BC-USDA-Iowa Elev Grain Prcs

The Associated Press



NW—GR110Des Moines, IA   Mon Apr 9, 2018    IA Dept of Ag-USDA Market NewsIA Dept. of Ag-USDA Market News Interior Iowa Daily Grain PricesClosing cash grain bids offered to producers as of 1:30 p.m.Dollars per bushel, delivered to Interior Iowa Country Elevators.US 2 Yellow Corn Prices were generally 2 to 3 cents higher for a state average of 3.48.US 1 Yellow Soybean Prices were generally 13 to 15 cents higher for a state average of 9.70.Iowa Regions       #2 Yellow Corn          #1 Yellow SoybeansRange       Avg        Range         AvgNorthwest        3.42 ? 3.59   3.49       9.61 ?  9.69   9.65North Central    3.44 ? 3.49   3.47       9.59 ?  9.71   9.64Northeast        3.36 ? 3.56   3.48       9.65 ?  9.94   9.74Southwest        3.37 ? 3.53   3.47       9.57 ?  9.71   9.65South Central    3.43 ? 3.56   3.48       9.67 ?  9.77   9.71Southeast        3.28 ? 3.65   3.47       9.72 ? 10.03   9.88Corn basis to STATE AVERAGE PRICE for the CBOT MAY contract is -.43Soybean basis to STATE AVERAGE PRICE for the CBOT MAY contract is -.77This report was prepared by the Marketing Bureau, Iowa Department ofAgriculture and Land Stewardship.Source:  USDA Market News Des Moines, Iowa515-284-4460www.ams.usda.gov/mnreports/nw—gr110.txtIowa Dept. of Agriculture and Land Stewardship515-281-8604www.iowaagriculture.gov/agMarketing/dailyGrainPrices.asp16:19 ja