BC-USDA-Okla City Catl Actn
BC-USDA-Okla City Catl Actn

The Associated Press



 KO—LS150  ****  Correction released on Tue  Apr  10,  2018  **** Oklahoma City, OK    Tue  Apr  10,  2018    USDA-OK Dept of Ag Market NewsOklahoma National Stockyards - Oklahoma City, OKLivestock Auction Report for 4/9/2018 AUCTION                          Receipts           Week Ago             Year Ago--------------------------------------------------------------------------------- Total Receipts:                  4,295                 1,912              8,209------------------------------------------------------------------------------ Feeder Cattle:                   4,295(100           1,912(100%)        8,209(100%)---------------------------------------------------------------------------------*** Add Close Updating with Actual Receipts***Compared to the last test two weeks ago:  Feeder steers and heifers 2.00-6.00 higher, instance 10.00 higher.  Stocker cattle and calves steady to 3.00 higher.  Demand very good for all classes. Quality mostly average.The talk of heavy supplies pushed cattle futures lower the past few weeks.   A few Northern buyers available this week helping to improve demand.  Feeder cattle supply included 56 percent Steers, 3 percent Dairy Steers, 41 percent Heifers, and  1 percent Bulls. Feeder cattle supplyover 600 lbs was 85 percent.--------------------------------------------------------------------------------FEEDER CATTLE--------------------------------------------------------------------------------Feeder Steers(Per CWT):  Medium and Large 1 326 lbs Fleshy 180.00, 348 lbsThin Fleshed 214.00; 400-500 lbs 178.00-189.00, Fleshy 162.00-179.00, ThinFleshed 192.00-206.50; 500-600 lbs 161.00-174.00, 541 lbs Fleshy 172.00, 521 lbsThin Fleshed 182.00; 600-700 lbs 149.50-164.00, Fleshy 141.00-148.00, ThinFleshed 165.00-169.75; 700-800 lbs 143.00-156.50; 800-900 lbs 124.00-136.75;900-1000 lbs 119.00-124.00, Fleshy 115.75-119.00, Full 116.00; 1000-1100 lbs112.50-117.75; 1168 lbs 111.00. Medium and Large 1-2 500-600 lbs 165.00-168.50;600-700 lbs 140.50-158.00, 633 lbs Calves 147.00, 603 lbs Thin Fleshed 162.00;700-800 lbs 134.00-147.75; 800-900 lbs 121.00-134.00; 900-1000 lbs 119.25-120.00, 916 lbs Full 116.00. Medium and Large 2 294 lbs 198.00; 400-500 lbs 154.00-160.00; 500-600 lbs 162.00-164.00; 741 lbs 130.00; 819 lbs Thin Fleshed 128.50.Feeder Dairy Steers(Per CWT):  Large 3 300-400 lbs 74.00-81.00; 740 lbs80.00.Feeder Heifers(Per CWT):  Medium and Large 1 345 lbs Thin Fleshed 179.00;400-500 lbs 155.00-159.00, Thin Fleshed 161.00-166.00; 500-600 lbs 150.00-155.00, 576 lbs Fleshy 135.00; 600-700 lbs 133.50-143.00, 666 lbs Fancy 143.00, 606lbs Fleshy 135.50; 700-800 lbs 123.00-136.00; 800-900 lbs 118.00-119.50, Fleshy113.00-119.50; 900-1000 lbs 113.25-113.50. Medium and Large 1-2 500-600 lbs142.50-152.50; 600-700 lbs 130.00-138.00, 637 lbs Calves 129.00; 700-800 lbs122.00-134.00, 796 lbs Fleshy 122.00; 800-900 lbs Fleshy 112.00; 901 lbs 110.00,954 lbs Fleshy 109.50. Medium and Large 2 500-600 lbs 135.00-139.00.Feeder Bulls(Per CWT):  Medium and Large 1 339 lbs Fleshy 177.00; 466 lbs167.00; 517 lbs Fleshy 163.00; 600-700 lbs Calves 134.00-145.00; 847 lbs 115.00.Medium and Large 1-2 818 lbs 122.50.Please Note:The above USDA LPGMN price report is reflective of the majority of classes and grades of livestock offered for sale.  There may be instances where some salesdo not fit within reporting guidelines and therefore will not be included in the report.  Prices are reported on an FOB basis, unless otherwise noted. Source:  USDA-OK Dept of Ag Market News ServiceTina Colby/Joe Massey, Market Reporter24 Hour Market 405-636-2691www.ams.usda.gov/mnreports/KO—LS150.txtwww.ams.usda.gov/market-news/livestock-poultry-grain