BC-Wheat KX
BC-Wheat KX

The Associated Press

CHICAGO




CHICAGO (AP) — Winter Wheat futures on the Chicago Board of Trade Tue:
OpenHighLowSettleChg.WHEAT5,000 bu minimum; cents per bushelMay522½525¼513¾521¾—1Jul542544¼532½540½—1¼Sep562¼562¾551559½—¾Dec582¼585¾573¼583+¼Mar596½598¾586½597+1May602¼606596¼603¾+¾Jul602608¼599607Sep615615613613½—1½Dec625626¾620626½—1Mar632—1May632—1Jul625625625625Est. sales 87,198.  Mon.'s sales 77,969Mon.'s open int 276,029