BC-USDA-Portland Grain
BC-USDA-Portland Grain

The Associated Press



JO—GR110Portland, OR    Tue Apr 10, 2018    USDA Market NewsPortland Daily Grain ReportBids as of 9:30 a.m. Pacific time; Subject to changeAll Bids in dollars per bushel.  Bids are limited and not fullyestablished in early trading.Bids for grains delivered to Portland, Oregon in dollars per bushel.In early trading May wheat futures trended mixed, from 2.25 cents lowerto 1.25 cents per bushel higher than Monday?s noon closes, with thegreatest decline in Chicago soft red wheat and the advance in Minneapolisdark northern spring wheat.Bids for US 1 Soft White Wheat delivered to Portland in unit trains andbarges for April delivery for ordinary protein were not well tested inearly trading, but bids were indicated as mixed compared to Monday?s noonbids for the same delivery period.  Some exporters were not issuing bidsfor nearby delivery.  Bids for guaranteed maximum 10.5 percent protein werewell tested in early trading, but bids were indicated as mixed compared toMonday?s noon bids for the same delivery period.  Some exporters were notissuing bids for nearby delivery.Bids for 11.5 percent protein US 1 Hard Red Winter Wheat for Aprildelivery were not well tested in early trading but bids were indicated asmixed compared to Monday?s bids for the same delivery period.  Someexporters were not issuing bids for nearby delivery.Bids for 14 percent protein US 1 Dark Northern Spring Wheat for Aprildelivery were not well tested in early trading but bids were indicated ashigher compared to Monday?s noon bids for the same delivery period.Some exporters are not issuing bids for nearby delivery.Bids for US 2 Yellow Corn delivered full coast in 110 car shuttle trainsduring April were not well tested in early trading, but bids were indicatedas mixed compared to Monday?s noon bids for the same delivery period.Some exporters were not issuing bids for nearby delivery.Bids for US 1 Yellow Soybeans delivered full coast in 110 car shuttletrains during April were not available in early trading as most exporterswere not issuing bids for nearby delivery.All wheat bids in dollars per bushelUS 1 Soft White Wheat - delivered by Unit Trains and BargesOrdinary proteinApr                                       5.7500-5.9550May                                       5.7500-5.9550Jun                                       5.7500-5.9650Jul                                       5.6700-5.8450Aug NC                                    5.5000-5.7950Guaranteed maximum 10.5 pct proteinApr                                       5.8000-5.9550May                                       5.8300-5.9550Jun                                       5.8500-5.9650Jul                                       5.7500-5.8450Aug NC                                    5.5000-5.7950—US 1 White Club Wheat - delivered by Unit Trains and BargesOrdinary proteinApr                                       5.7500-5.9550Guaranteed maximum 10.5 pct proteinApr                                       5.8000-5.9550—US 1 Hard Red Winter Wheat - (Exporter bids-falling numbers of 300 orbetter)Ordinary protein                            5.8075-6.057511 pct protein                              6.4075-6.557511.5 pct proteinApr                                       6.6575-6.8075May                                       6.6575-6.8075Jun                                       6.6975-6.8475Jul                                       6.6275-6.7975Aug NC                                    NA12 pct protein                              6.7575-6.957513 pct protein                              6.9575-7.2575—US 1 Dark Northern Spring Wheat (with a minimum of 300 falling numbers, a maximumof 0.5 part per million vomitoxin, and a maximum of one percent total damage)13 pct protein                              7.2275-7.327514 pct proteinApr                                       7.6275-7.7275May                                       7.5775-7.7275Jun                                       7.5750-7.7750Jul                                       7.5750-7.7750Aug NC                                    NA15 pct protein                              7.8675-7.967516 pct protein                              8.1075-8.2075—US 2 Yellow CornShuttle trains-Delivered full coast Pacific Northwest-BNApr                                       5.0575-5.0875May                                       5.0475-5.0575Jun                                       5.0375-5.0775Jul                                       5.0175-5.0475Aug                                       4.9950-5.0350Sep                                       NA—US 1 Yellow SoybeansShuttle trains-Delivered full coast Pacific Northwest-BNApr                                       NAMay                                       NAJun                                       NAJul                                       NAAug                                       NAOct                                       11.4250-11.4450—US 2 Heavy White Oats **                      3.6300** Not well tested.Exporter Bids Portland Rail/Barge             Mar 2018Averages in Dollars per bushelUS 1 Soft White by Unit Trains and Barges   5.5600US 1 Hard Red Winter (Ordinary protein)     5.5300US 1 Hard Red Winter (11.5% protein)        6.4700US 1 Dark Northern Spring (14% protein)     7.3300Source:    USDA Market News Service, Portland, ORNiki Davila 503-535-5001  Portland.LPGMN@ams.usda.gov24 Hour Market Report  503-535-5005www.ams.usda.gov/mnreports/jo—gr110.txtwww.ams.usda.gov/lpsmarketnewspage8:42 P nd