BC-USDA-Calif Fruit
BC-USDA-Calif Fruit

The Associated Press



LOS ANGELES Terminal Prices as of 10-APR-2018Provided by:  Specialty Crops Market NewsFederal - State Market News Service, USDA.Phone:  (213) 894-3077     Fax:  (213) 894-2898WEATHER AT 7:00 AM: CLEAR: 64YESTERDAY'S WEATHER: 95https://www.ams.usda.gov/mnreports/hc—fv010.txtHC—FV010CITRUS FRUITS---CLEMENTINES: OFFERINGS LIGHT. MARKET STEADY.  flat cartons 10 3-lb mesh bagsCA 40 sz 35.00-39.00 mostly 36.00-38.00 cartons 4 5-lb containers CA 32 sz22.00-24.00 one label 24.50 1/2 bushel cartons CA mam 21.50-22.50 jbo21.50-22.50 lge 21.50-22.50---GRAPEFRUIT: OFFERINGS LIGHT. MARKET STEADY.  7/10 bushel cartons CA Shprs1st Grade Star Ruby 23s 22.00-23.00 mostly 22.00-22.50 27s 22.00-24.00 mostly22.00-23.50 32s 19.00-21.00 mostly 19.50-20.50 36s 19.00-21.00 mostly19.50-20.50 40s 19.50-22.00 48s 17.00-18.00 56s 13.00-14.00 mostly 13.00-13.50Shprs Choice Star Ruby 27s 15.50-16.50 36s 14.50-15.50 40s 14.50-15.50 MX NoGrade Marks Red 23s 14.00-15.00 occas higher 27s 16.00-17.00 32s 16.00-17.0036s 17.00-18.00 40s 17.00-18.00 48s 14.00-15.00 TX Texas Fancy Marked Rio Star18s 22.00-23.00 23s 22.00-25.00 mostly 23.00-24.00 occas lower 27s 22.00-25.00mostly 23.00-24.00 occas lower 32s 22.00-25.00 mostly 23.00-24.00 36s21.00-22.00 40s 20.00-23.00 mostly 20.00-22.00 few high as 25.00 48s19.00-20.00 occas higher/lower---LEMONS:  MARKET STEADY.  7/10 bushel cartons CA Shprs 1st Grade 75s33.00-36.00 mostly 34.00-35.50 95s 33.00-36.00 mostly 34.00-35.00 one label37.50 115s 33.00-36.00 mostly 34.00-35.00 one label 37.50 140s 33.00-36.00mostly 34.00-35.00 one label 37.50 165s 33.00-36.00 mostly 34.00-35.00 onelabel 37.50 200s 36.00-38.00 mostly 36.00-37.50 235s 33.00-34.00 mostly33.00-33.50 Shprs Choice 75s 24.00-26.00 mostly 24.00-25.00 95s 28.00-31.00mostly 29.00-30.00 occas lower 115s 28.00-31.00 mostly 29.00-30.00 occas lower140s 30.00-33.00 mostly 31.00-32.00 165s 30.00-33.00 mostly 31.00-32.00 200s33.00-35.00 mostly 33.00-34.00 occas lower 235s 29.00-32.00 mostly 30.00-31.00occas lower Uncl (Standard) 95s 19.00-20.00 115s 19.00-20.00 few 22.00 140s19.00-20.00 few 22.00 165s 19.00-20.00---LIMES: OFFERINGS VERY LIGHT. MARKET ABOUT STEADY. Wide range in quality andappearance. 40 lb containers MX Seedless Type 175s 53.00-56.00 mostly54.00-55.00 few high as 58.00 200s 53.00-56.00 mostly 54.00-55.00 few high as58.00 230s 42.00-45.00 mostly 43.00-44.00 occas higher 250s 38.00-40.00 mostly38.00-39.00 poorer quality and conditon all sizes lower 35-36 lb cartons MXSeeded Types 300s 36.00-38.00 500s 32.00-34.00---MISC CITRUS:  MARKET CA SHIPPERS FIRST GRADE PUMMELO 14S SLIGHTLY LOWER,OTHERS ABOUT STEADY.  1/2 bushel cartons w/ stems/leaves CA Satsuma irreg sz23.00-25.00 mostly 24.00 occas higher/lower 1/2 cartons CA Shprs 1st GradeBlood Orange Moro 44s 12.50-13.50 48s 12.50-13.50 68s 12.50-13.50 7/10 bushelcartons CA Meyer Lemon 115s 19.00-20.00 140s 19.00-20.00 165s 19.00-20.00 SweetLime mam 43.00-45.00 jbo 33.00-35.00 Shprs 1st Grade Pummelo 14s 19.00-21.00Oro Blanco 27s 17.25-18.25 10 lb cartons CA Kumquats 23.00-25.00 Meyer Lemonmed 13.00-15.00 mostly 13.00-14.00 few 18.00---ORANGES: OFFERINGS OF CARA CARA LIGHT. MARKET STEADY.  7/10 bushel cartonsCA Shprs 1st Grade Navel 48s 23.00-26.00 mostly 24.00-25.00 56s 23.00-26.00mostly 24.00-25.00 72s 23.00-26.00 mostly 24.00-25.50 one label 28.00 88s24.00-27.00 mostly 25.00-26.00 one label 28.00 113s 26.00-29.00 mostly27.00-28.50 138s 26.00-29.00 mostly 27.00-28.50 Cara Cara 56s 26.00-28.00mostly 26.00-27.00 113s 24.50-25.50 138s 24.50-25.50 Shprs Choice Navel 48s19.00-23.00 mostly 20.00-21.00 occas lower 56s 20.00-23.00 mostly 21.00-22.00occas lower 72s 20.00-24.00 mostly 22.00-23.00 occas lower 88s 21.00-24.00mostly 22.00-23.00 one label higher 113s 22.00-24.00 mostly 23.00-24.00 onelabel higher 138s 22.00-24.00 mostly 22.00-23.00 one label higher TX U.S.Combination Marr 72s 25.00-27.00 mostly 25.00-26.00 occas lower 88s 25.00-27.00occas lower 113s 25.00-27.00 occas lower---TANGELOS: OFFERINGS LIGHT. MARKET STEADY.  7/10 bushel cartons CA Shprs 1stGrade Minneola 64s 26.00-27.00 80s 20.00-21.00 100s 22.00-23.00 125s21.00-23.00 occas lower 150s 15.00-16.00---TANGERINES: OFFERINGS VERY LIGHT. MARKET STEADY.  4/5 bushel cartons FL U.S.No. 1 Honey 80s 45.00-46.00 120s offerings insufficient to quote. 1/2 bushelcartons CA Golden Nugget col 22.00-25.00 few high as 29.00 mam 28.00-30.00occas lower lge 23.00-25.00 med 19.00-21.00 w/ stems/leaves CA Golden Nuggetirreg sz 22.50-23.50 25 lb cartons CA Pixie jbo 40.00-42.00BERRIES---BLUEBERRIES: OFFERINGS CHILE LIGHT. MARKET STEADY.  flats 12 6-oz cups withlids CA San Diego County, California med 32.00-34.00 mostly 32.00-33.00 onelabel 36.00 CL BOAT med 12.00-15.00 mostly 13.00-14.00 occas lower MX med17.00-20.00 mostly 19.00-20.00 few high as 22.00 poorer condition lower BajaDistrict lge 36.00 (one label)---MISC BERRIES:  MARKET STEADY.  flats 12 6-oz cups with lids MX Blackberrieslge 12.00-16.00 mostly 14.00-15.00 occas higher/lower one label 24.00---RASPBERRIES: OFFERINGS LIGHT. MARKET STEADY.  flats 12 6-oz cups with lidsCA Oxnard District California Red lge 28.00-32.00 mostly 29.00-31.00 occashigher MX Baja District Red lge 32.00-35.00 mostly 33.00-34.00 one label 38.00---STRAWBERRIES: OFFERINGS LIGHT. MARKET MXB/CASMD 1-LB CONTAINERS WITH LIDSSLIGHTLY LOWER, OTHERS ABOUT STEADY. Wide range in quality, condition andappearance. flats 12 1-pt containers with lids CA Oxnard District Californiamed-lge 20.00-22.00 poorer quality and condition lower flats 8 1-lb containerswith lids CA Oxnard District California lge-exlge 18.00-20.00 one label high as26.00 Santa Maria District lge-exlge 15.00-18.00 mostly 16.00 one label 19.00MX Baja District med 15.00-18.00 mostly 15.00-16.00 flats 4 1-lb containerswith lids CA Oxnard District California With Stems lge-exlge 22.00-24.00 mostly23.00-24.00 one label 28.00 Santa Maria District With Stems lge-exlge24.00-26.00 occas higher/lower flats 4 2-lb containers with lids CA Santa MariaDistrict med-lge 22.00-24.00MELONS---CANTALOUPS: OFFERINGS HONDURAS LIGHT. MARKET STEADY.  1/2 cartons CR BOAT 9s13.00-16.00 mostly 14.00-15.00 12s 13.00-16.00 mostly 14.00-15.00 GU BOAT 9s13.00-15.00 mostly 13.00-14.00 12s 12.00-15.00 mostly 13.00-14.00 oversized 1/2cartons GU BOAT 9s (6 size) 13.00-16.00 mostly 14.00-15.00 occas higher HD BOAT9s (6 size) 13.00-16.00 mostly 14.00-15.00 occas higher---HONEYDEWS: OFFERINGS LIGHT.   2/3 cartons GU BOAT 5s 12.00-14.00 mostly12.00-13.00 MX 5s 13.00-16.00 mostly 14.00-15.00 6s 13.00-16.00 mostly14.00-15.00 8s 12.00-15.00 mostly 13.00-14.00 oversized 2/3 cartons GU BOAT 5s(4 size) 14.00-16.00 mostly 15.00 MX 5s (4 size) 14.00-16.00 mostly 15.00---MISC MELONS: OFFERINGS VERY LIGHT. MARKET STEADY.  flat cartons HD BOATGalia 9s 17.00-18.00 11s 13.00-14.00---WATERMELONS: OFFERINGS BINS VERY LIGHT. MARKET ABOUT STEADY. Wide range inquality and appearance. cartons MX Red Flesh Seedless Type 5s 23.00-26.00mostly 24.00-25.00 few 30.00- 32.00 6s 23.00-26.00 mostly 24.00-25.00 few30.00-32.00 flat cartons MX Red Flesh Seedless Miniature 6s 18.00-22.00 occashigher/lower 8s 18.00-22.00 occas higher/lower 9s 18.00-22.00 occashigher/lower 24 inch bins MX Red Flesh Seedless Type 60s 255.00-260.00NON-CITRUS FRUITS---APPLES:  MARKET ABOUT STEADY.  cartons tray pack CD CDExFcy Spartan 88s44.00-45.00 WA WAExFcy Red Delicious 56s 16.00-18.00 64s 16.00-18.00 72s16.00-18.00 fineappear 21.00-22.00 88s 18.00-20.00 100s fineappear 19.00-20.00113s 18.00-20.00 125s 16.00-18.00 138s 16.00-18.00 163s 16.00-18.00 GoldenDelicious 64s fineappear 36.00-38.00 72s fineappear 36.00-38.00 88s fineappear33.00-35.00 100s fineappear 24.00-26.00 125s fineappear 23.00-25.00 138sfineappear 22.00-24.00 Fuji 56s 36.00-38.00 64s 36.00-38.00 72s 28.00-30.00 88s26.00-28.00 100s 22.00-24.00 113s 22.00-24.00 125s 20.00-22.00 138s 23.00-25.00163s 23.00-25.00 Granny Smith 64s 30.00-32.00 occas higher/lower 72s32.00-34.00 mostly 32.00-33.00 88s 30.00-32.00 occas higher/lower 100s25.00-27.00 occas higher/lower 113s 24.00-26.00 occas higher/lower 125s22.00-24.00 occas higher/lower 138s 22.00-24.00 occas higher/lower 163s22.00-24.00 occas higher/lower Gala 64s 26.00-28.00 72s 26.00-28.00 88s26.00-28.00 100s 22.00-24.00 113s 22.00-24.00 125s 22.00-24.00 138s 22.00-24.00163s 20.00-22.00 198S 20.00-22.00 Braeburn 64s fineappear 24.00 72s 23.00-24.00Jonagold 64s 24.00-26.00 Honeycrisp 72s 28.00-30.00 88s 28.00-30.00 PinkLady/Cripps Pink 100s 31.00-33.00 cartons 12 3-lb film bags WA WAExFcy RedDelicious 2 1/2" min 14.00-15.00 Fuji 15.00-16.00 Granny Smith 2 1/2" min15.50-16.50---AVOCADOS: OFFERINGS CALIFORNIA LIGHT. MARKET CA CARTONS 2 LAYER 60S SLIGHTLYHIGHER, OTHERS ABOUT STEADY.  cartons 2 layer CA Hass 48s 40.00-43.00 mostly41.00-42.00 occas higher/lower 60s 39.00-42.00 mostly 40.00-41.00 MX Hass 32s40.00-43.00 mostly 41.00-42.00 occas higher 36s 40.00-43.00 mostly 41.00-42.00occas higher 40s 35.00-38.00 mostly 36.00-37.00 occas higher 48s 38.00-41.00mostly 39.00-40.00 occas higher 60s 36.00-39.00 mostly 37.00-38.00 70s29.00-32.00 mostly 30.00-31.00 few high as 33.00 84s 25.00-28.00 mostly26.00-27.00---BANANAS:  MARKET STEADY.  40 lb cartons EC BOAT 18.00-20.00 mostly19.00-19.50 GU BOAT 14.00-17.00 mostly 15.00-16.50 MX 15.00-16.50 few secondlabels 14.00 Burro 14.00-16.50 mostly 15.00 40 lb cartons institutional pack ECBOAT petite 15.00-18.00 mostly 16.00-17.50 GU BOAT petite 15.00-18.00 mostly16.00-17.50 20 lb cartons CB BOAT Manzano 21.00-22.00 EC BOAT Red 12.00-13.50Manzano 17.00-18.00 15 lb cartons EC BOAT Baby 11.00-13.00 mostly 11.50-12.00---FRUITS OTHER: OFFERINGS LIGHT. MARKET ABOUT STEADY.  11 lb cartons loose CADates Medjool lge 24.00-29.00 mostly 25.00-27.00 cartons 1 layer CL BOAT ApplePears Hosui 12s 17.00-18.00 18s 17.00-18.00 flat cartons EC AIR Pepino 15s16.00-16.50 16s 16.00-16.50 20s 16.00-16.50 cartons 1 layer TW AIR Carambola -Star Fruit 9s 20.00-22.50 10s 20.00-22.50 12s 20.00-22.50 cartons 1 layer traypack CA Cherimoya 8s 59.00-60.00 10s 59.00-60.00 12s 59.00-60.00 14s59.00-60.00 Passion Fruit 33s 46.00-52.00 39s 46.00-52.00 34-36s 46.00-52.00 CLAIR Kiwano 12s 40.50 NZ AIR Kiwano 12s 38.00-38.50 Passion Fruit 33s50.00-52.00 39s 50.00-52.00 34-36s 50.00-52.00 flats 1 layer MX Figs BlackMission 54s 34.00-36.00 cartons 2 layer tray pack CA Quince 30s 70.00 (markedgolden) CL BOAT Quince 20s 37.00-38.00 occas lower 10 lb cartons CA Cherimoyamed-lge 52.00-52.50 flats 12 1-pt baskets MX Figs Black Mission 46.00-48.00flats 12 8-oz containers with lids CL AIR Figs Black Mission 44.00-45.00 MXFigs Black Mission 43.00-45.00 18 kg containers wrapped CQ Apple Pears Yali 64s21.00-22.00 13 lb cartons MX Guava 14.00-16.00 occas higher/lower---GRAPES:  MARKET STEADY.  18 lb containers bagged CL BOAT Thompson Seedlessjbo 38.00-40.00 occas higher/lower Crimson Seedless exlge 24.00-26.00 BlackSeedless exlge 32.00-34.00 occas higher/lower PE BOAT White Seedless Type lge22.00-24.00 occas higher/lower Red Seedless jbo 30.00-32.00 occas higher/lowerRed Globe jbo 22.00-24.00 occas higher/lower 19 lb containers bagged CL BOATFlame Seedless lge 20.00-22.00 16 lb containers bagged PE BOAT Muscat Seedlessmed-lge 38.00-40.00---KIWIFRUIT: OFFERINGS LIGHT.   flats 1 layer CA Hayward 27s 10.00-11.00 20 lbcartons loose CA Hayward 27 sz 27.00-31.00 mostly 28.00-30.00 36 sz 25.00-27.00flats 12 4.4-oz cups with lids CL AIR Kiwi Berries (Baby Kiwi) 32.00 NZ AIRKiwi Berries (Baby Kiwi) 30.00-32.00 bins CA Hayward 45 sz 130.00 9 kg (19.8lb) containers loose GR Hayward 30 sz 26.00-28.00 39 sz 23.00-24.00---MANGOES: OFFERINGS HADEN VERY LIGHT. MARKET STEADY.  flats 1 layer GU BOATTommy Atkins 12s 7.00 occas higher Ataulfo 12s 5.00-6.00 14s 5.00-6.00 16s5.00-5.50 18s 5.00-5.50 MX Haden 10s 6.50-7.00 Tommy Atkins 6s 6.00-7.00 mostly6.00-6.50 few 8.00 7s 6.00-7.00 few 8.00 8s 6.00-7.00 few 8.00 9s 6.00-7.00 few8.00 10s 6.00-7.00 mostly 6.00-6.50 occas higher 12s 4.00-6.00 mostly 5.00-6.00occas higher Ataulfo 12s 6.00-8.00 mostly 7.00-7.50 one label 10.50-11.00 14s6.00-8.00 mostly 7.00-8.00 one label 10.00 16s 6.50-7.50 one label 8.00-8.50 frqual 1.00-3.00 mostly 1.00-2.00 18s 5.50-6.50 one label 7.00-7.50 fr qual1.00-3.00 mostly 1.00-2.00 20s 5.00-6.00 few 6.50 fr qual 1.00-3.00 mostly1.00-2.00---NECTARINES: OFFERINGS VERY LIGHT. MARKET ABOUT STEADY.  cartons 1 layer traypack CL BOAT Various Yellow Flesh Varieties 32s 16.00-18.50 9 kg containersloose CL BOAT Various Yellow Flesh Varieties 60 sz 16.00-18.00 Arctic Queen 60sz offerings insufficient to quote.---PAPAYA:  MARKET STEADY.  10 lb cartons HI AIR Solo Type Yellow Flesh 8s22.00-25.00 mostly 23.00-24.00 occas lower 9s 22.00-25.00 mostly 23.00-24.00occas lower 10s 22.00-25.00 mostly 23.00-24.00 occas lower 30 lb cartons MXMaradol Type 12s 16.00-18.00 mostly 17.00-18.00 occas higher/lower 35 lbcartons MX Green Cooking Type 17.00-18.00 (approx 20 count)---PEARS:  MARKET ABOUT STEADY.  4/5 bushel cartons wrapped CL BOAT Bartlett80s 34.00-36.00 90s 32.00-34.00 135s 24.00-26.00 Bosc Golden 110s 31.00-33.00Forelle 120s 42.00-44.00 WA U.S. One D'Anjou 80s 30.00-32.00 90s 30.00-32.00110s 30.00-32.00 120s 34.00-36.00 135s 33.00-35.00 Bosc Golden 80s 36.00-38.0090s 36.00-38.00 2/5 bushel cartons wrapped CL BOAT Forelle 55s 31.00-32.00 WAU.S. One Red D'Anjou 40s 16.00-18.00 Comice 40s 16.00---PINEAPPLES:  MARKET STEADY.  cartons 1 layer CR BOAT golden ripe 5s11.00-13.00 mostly 11.00-12.00 occas higher 6s 11.00-13.00 mostly 11.00-12.00occas higher fr qual 6.00-7.00 7s 11.00-12.00 occas higher fr qual 6.00-7.00 SFAIR Baby Type 10s 26.00---PLANTAINS:  MARKET STEADY.  50 lb cartons CB BOAT 26.00-28.00 mostly27.00-28.00 GU BOAT 26.00-27.00 MX 25.00-26.00---PLUMS: OFFERINGS VERY LIGHT. MARKET ABOUT STEADY.  cartons 2 layer tray packCL BOAT Black Giant 32s offerings insufficient to quote. Marked Black Plum 30s22.25-24.25 40s 19.00-20.00 Marked Red Plum 30s 24.00-26.50 9 kg containersloose CL BOAT Marked Black Plum 60 sz 18.00-20.00 Marked Red Plum 60 sz18.00-20.00ORGANICBERRIES---BLUEBERRIES: flats 12 6-oz cups with lids MX med 28.00 (one label)26.00-27.00 cartons 12 18-oz containers with lids MX med 36.00---MISC BERRIES: flats 12 6-oz cups with lids MX Blackberries lge 22.00-24.00one label 26.00-28.00---STRAWBERRIES: flats 8 1-lb containers with lids MX Baja District med-lge22.00-24.00NON-CITRUS FRUITS---APPLES: cartons 12 3-lb film bags WA WAExFcy Red Delicious 2 1/2" min32.00-32.50 Fuji 2 1/2" min 32.00-32.50 Granny Smith 2 1/2" min 32.00-32.50Gala 2 1/2" min 32.00-32.50---BANANAS: 40 lb cartons EC BOAT 24.00-26.50 PE BOAT 22.00-24.50