BC-Merc Table
BC-Merc Table

The Associated Press

CHICAGO




CHICAGO (AP) — Futures trading on the Chicago Mercantile Exchange Tue:
OpenHighLowSettleChg.CATTLE40,000 lbs.; cents per lb.Apr112.65113.67112.15112.80+.78Jun103.07104.20101.67102.10—.40Aug103.25104.12101.82102.30—.45Oct107.20108.02105.90106.45—.27Dec111.02112.15110.12110.90Feb112.85113.67111.92112.62+.25Apr114.07114.50112.90113.32Jun108.12108.65106.85107.30—.17Aug107.45107.45106.40106.40—.35Est. sales 55,110.  Mon.'s sales 52,982Mon.'s open int 348,088FEEDER CATTLE50,000 lbs.; cents per lb.Apr135.12136.37133.50134.82+.37May136.07137.65134.32135.27—.25Aug141.57142.85140.07140.62—.43Sep142.95144.25141.40142.32—.10Oct143.47144.67141.85142.97Nov143.30144.32141.55142.72Jan139.37140.25137.32138.70—.05Mar135.82—.05Est. sales 16,398.  Mon.'s sales 17,269Mon.'s open int 49,976,  up 218HOGS,LEAN40,000 lbs.; cents per lb.Apr53.2554.1053.2553.50+.60May67.4068.7767.3567.45+.13Jun76.0077.0074.9275.05—.82Jul78.3579.2777.7277.82—.43Aug78.8279.6578.1078.22—.65Oct66.7067.3565.9566.20—.65Dec61.3061.8560.6260.87—.43Feb65.4765.5064.7264.80—.37Apr68.7268.8068.2268.32—.30May74.0074.0073.7573.75—.25Jun76.42—.23Jul75.77—.23Est. sales 51,372.  Mon.'s sales 58,401Mon.'s open int 241,217PORK BELLIES40,000 lbs.; cents per lb.No open contracts.