BC-USDA-Onion and Pots
BC-USDA-Onion and Pots

The Associated Press



IDAHO FALLS Shipping Point Prices as of 10-APR-2018Provided by:  Specialty Crops Market NewsFederal - State Market News Service, USDA.Phone:  (208) 525-0166     Fax:  (208) 525-5546Prices represent open (spot) market sales by first handlers on product ofgenerally good quality and condition unless otherwise stated and may includepromotional allowances or other incentives.  No consideration is given toafter-sale adjustments unless otherwise stated.  Brokerage fees paid by theshipper are included in the price reported. Delivered Sales, Shipping PointBasis excludes all charges for freight.IF—FV130The Following Terms when used by Market News will be interpreted as meaning:Occasional-1 to 5%, Few-6 to 10%, Some-11 to 25%, Many-26 to 50%,Mostly-51 to 90%, Generally-91 to 100%Moses Lake, WA Partly Cloudy 44/63Pasco, WA Partly Cloudy 44/65Mount Vernon, WA Overcast 46/56 Rain/WindyOntario, OR Mostly Cloudy 38/68Twin Falls, Partly Cloudy 34/68Idaho Falls, ID Partly Cloudy 31/64 WindyMonte Vista, CO Clear 19/68Stevens Point, WI Mostly Cloudy 23/40Antigo, WI Mostly Cloudy 9/37Grand Forks, ND Partly Cloudy 28/41Fort Myers, FL Partly Cloudy 74/85 WindyTampico, Mexico Overcast 72/76 ThunderstormsMcAllen, TX Mostly Cloudy 65/77 WindyCENTRAL WISCONSINSales F.O.B. Shipping Point and/or Delivered Sales, Shipping Point Basis2017 Season---POTATOES: DEMAND MODERATE. MARKET RUSSET CARTONS 40S-70S SLIGHTLY HIGHER,OTHERS ABOUT STEADY.Russet Norkotah U.S. Onebaled 5 10-lb film bags sz A 8.00-9.25 mostly 8.50-8.75 occas lowerbaled 10 5-lb film bags sz A 9.00-10.25 mostly 9.50-9.75 occas lower50 lb cartons40s 14.00-16.00 mostly 15.00-16.0050s 14.00-16.00 mostly 15.00-16.0060s 14.00-16.00 mostly 15.00-16.0070s 14.00-16.00 mostly 15.00-16.0080s 11.50-16.00 mostly 12.50-14.0090s 10.00-13.00 mostly 11.00100s 10.00-12.50 mostly 10.00-11.00COLUMBIA BASIN WASHINGTON & UMATILLA BASIN OREGONSales F.O.B. Shipping Point and/or Delivered Sales, Shipping Point Basis2017 Season---ONIONS DRY: DEMAND MODERATE. MARKET REDS HIGHER,OTHERS ABOUT STEADY.Yellow Hybrid 50 lb sackscol 8.00-10.00jbo 6.00-7.00 mostly 6.50med 3.50-5.50 mostly 4.50-5.00Red Globe Type 25 lb sacksjbo 5.00-5.50 mostly 5.50med 5.00-6.00 mostly 5.50-6.00COLUMBIA BASIN WASHINGTON & UMATILLA BASIN OREGONSales F.O.B. Shipping Point and/or Delivered Sales, Shipping Point Basis2017 Season---POTATOES: DEMAND CARTON 40S-70S FAIRLY GOOD, OTHERS MODERATE. MARKET ABOUTSTEADY.Russet Norkotah U.S. One 2" or 4-oz Minbaled 5 10-lb film bags non sz A 5.50-6.00 mostly 6.00 occas lower & higherbaled 10 5-lb film bags non sz A 6.50-7.00 mostly 7.00 occas lower & higher50 lb cartons40s 8.50-10.00 mostly 9.00-10.00 occas lower50s 11.50-13.00 mostly 12.00-13.00 few as high as 13.5060s 12.00-14.00 mostly 12.50-13.5070s 12.00-13.00 few as high as 13.5080s 10.00-12.00 mostly 10.00-11.00 few high as 13.0090s 9.00-10.00 mostly 9.50-10.00100s 8.00-10.00 mostly 8.50-9.00U.S. Two 50 lb sacks10 oz min 5.50-6.50 mostly 5.50-6.00 occas higherFLORIDASales F.O.B. Shipping Point and/or Delivered Sales, Shipping Point Basis2018 Season---POTATOES: SUPPLY YELLOW TYPE AND ROUND WHITE FAIRLY LIGHT. DEMAND YELLOWTYPE AND ROUND WHITE GOOD, ROUND RED FAIRLY LIGHT. MARKET ROUND WHITE SZ A &YELLOW TYPE SZ A HIGHER, ROUND RED SZ A LOWER, OTHERS ABOUT STEADY.Round Red U.S. One50 lb cartonssz A 12.50-14.50 mostly 12.50-13.00sz B 22.00-24.50 mostly 22.00-22.50 occas lowerCreamers 3/4-1 5/8" 36.75-40.75 mostly 38.75-40.7550 lb sackssz A 10.75-12.75 mostly 10.75-11.50sz B 20.25-22.75 mostly 20.50-20.75tote bags approx 2000 lbs per cwtsz A 17.00-26.00 mostly 20.50sz B 40.00-44.50 mostly 41.50-44.50 few lowerU.S. Two 50 lb sackssz A 9.75-10.75sz B 14.50-16.75Round White U.S. One50 lb cartonssz A 18.00-20.50 mostly 20.00-20.50sz B 12.00-18.50 mostly 14.50-16.5050 lb sackssz A 16.25-18.75 mostly 18.50-18.75sz B 10.25-16.75 mostly 12.75-14.75tote bags approx 2000 lbs per cwtsz A 29.00-36.50 mostly 32.50-36.50U.S. Two 50 lb sackssz A 10.75-18.50 mostly 10.75-12.75sz B 6.75-12.50 mostly 8.75-10.75Yellow Type U.S. One50 lb cartonssz A 22.50-24.00 occas lowersz B 12.00-18.00 mostly 12.50Creamers 3/4-1 5/8" 45.75-50.75 mostly 50.50-50.7550 lb sackssz A 20.75-22.50 occas lowersz B 10.25-16.50 mostly 10.75tote bags approx 2000 lbs per cwtsz A 32.00-44.00 mostly 38.50-40.00U.S. Two 50 lb sackssz A 10.00-12.75 mostly 10.75sz B 6.75-10.50 mostly 6.75-8.75IDAHO AND MALHEUR COUNTY, OREGONSales F.O.B. Shipping Point and/or Delivered Sales, Shipping Point Basis2017 Season---ONIONS DRY: DEMAND MODERATE. MARKET ABOUT STEADY.Yellow Spanish Hybrid U.S. One 50 lb sacksSuper Col 9.00-10.00col 7.00-9.00jbo 6.00-7.00 mostly 6.50med 4.00-5.50 mostly 4.50-5.00Red Globe Type U.S. One 25 lb sacksjbo 6.00-7.00med 5.00-6.00 mostly 6.00 occas higherLOWER RIO GRANDE VALLEY, TEXASSales F.O.B. Shipping Point and/or Delivered Sales, Shipping Point Basis2018 Season---ONIONS DRY: DEMAND MODERATE. MARKET YELLOW AND WHITE SACKS HIGHER, OTHERSSTEADY.Yellow Grano 50 lb sackscol 8.00-10.00 mostly 9.00 occas lowerjbo 7.00-9.50 mostly 8.00-8.50med 7.00-9.00 mostly 7.00 occas lowerGrano - Marked Sweet 40 lb cartonsjbo 14.00-16.00 mostly 16.00 occas higherWhite 50 lb sacksjbo 7.00-9.50 mostly 8.00-9.00 occas highermed 8.00-9.50 mostly 8.00-9.00 occas higherRed Globe Type 25 lb sacksjbo 7.00-8.00 mostly 7.00med 6.00-8.00 mostly 7.00-8.00MEXICO CROSSINGS THROUGH SOUTH TEXASSales F.O.B. Shipping Point and/or Delivered Sales, Shipping Point Basis2018 Season---ONIONS DRY: DEMAND MODERATE. MARKET YELLOW COLOSSAL AND JUMBO SACKS HIGHER,OTHERS STEADY.Yellow Grano 50 lb sackscol 8.00-10.00 mostly 8.00-9.00 occas higherjbo 7.00-8.50 mostly 8.00med 6.00-9.00 mostly 7.00-8.00 few 10.00 occas lowerGrano - Marked Sweet 40 lb cartonsjbo 12.00-14.00 mostly 12.00White 50 lb sacksjbo 8.00-10.00 mostly 8.00 occas lower fine appear 12.00med 8.00-10.00 mostly 8.00 occas lower fine appear 12.00Red Globe Type 25 lb sacksjbo 7.00-8.00 mostly 7.00med 6.00-8.00 mostly 7.00MINNESOTA-NORTH DAKOTA (RED RIVER VALLEY)Sales F.O.B. Shipping Point and/or Delivered Sales, Shipping Point Basis2017 Season---POTATOES: DEMAND FAIRLY LIGHT. MARKET ABOUT STEADY.Round Red U.S. Onebaled 10 5-lb film bags sz A 7.00-9.00 mostly 7.50-8.25 occas higher50 lb cartonssz A 7.00-9.00 mostly 7.50-8.25 occas highersz B 15.50-18.00 mostly 15.50-16.50 few high as 19.00Creamers 3/4-1 5/8" 25.00-30.0050 lb sackssz A 5.50-7.50 mostly 6.00-6.75 occas highersz B 14.00-16.50 mostly 14.00-15.00 few high as 17.50tote bags approx 2000 lbs per cwtsz A 8.00-12.00 mostly 9.00-10.50 occas highersz B 25.00-30.00 mostly 25.00-27.00 few high as 32.00U.S. Two 50 lb sackssz A 3.50-4.50sz B 7.00-8.50 mostly 8.00 occas lower & higherNORTHWESTERN WASHINGTONSales F.O.B. Shipping Point and/or Delivered Sales, Shipping Point Basis2017 Season---POTATOES: DEMAND MODERATE. MARKET STEADY.Round Red U.S. One50 lb cartonssz A 12.00-16.00 mostly 14.00-15.00 fair appearance 8.00-12.00sz B 14.00-18.00 mostly 16.00 fair appearance 12.00-16.00Creamers 3/4-1 5/8" 34.00-38.00 mostly 35.00-36.00 occas higherU.S. Two 50 lb sacks 5.50-7.00 mostly 6.00Yellow Type U.S. One50 lb cartonssz A 17.00-20.00 mostly 18.00-20.00 fair appearance 10.00-16.00sz B 8.00-14.00 mostly 10.00-12.00Creamers 3/4-1 5/8" 34.00-40.00 mostly 36.00U.S. Two 50 lb sacks 6.00-7.00SAN LUIS VALLEY COLORADOSales F.O.B. Shipping Point and/or Delivered Sales, Shipping Point Basis2017 Season---POTATOES: DEMAND FAIRLY LIGHT. MARKET STEADY.Russet Norkotah/Other Varieties U.S. Onebaled 5 10-lb film bags sz A 8.00-8.50 mostly 8.00baled 10 5-lb film bags sz A 8.50-9.50 mostly 9.0050 lb cartons40s 11.00-13.50 mostly 12.00 occas lower50s 13.00-14.0060s 13.00-14.0070s 13.00-14.0080s 11.00-13.00 mostly 12.00-12.5090s 11.00-12.50 mostly 11.00100s 11.00-12.00 mostly 11.00U.S. Twobaled 5 10-lb film bags 6.00-7.00 mostly 6.00-6.50 occas lower50 lb sacks 10 oz min 7.00-9.00 occas lowerU.S. Coml bulk per cwt 9.00-11.00 mostly 10.50Round Red U.S. Onebaled 10 5-lb film bags sz A 13.00-15.00 occas lowerYellow Type U.S. Onebaled 10 5-lb film bags sz A 10.00-12.00UPPER VALLEY, TWIN FALLS-BURLEY DISTRICT IDAHOSales F.O.B. Shipping Point and/or Delivered Sales, Shipping Point Basis2017 Season---POTATOES: DEMAND BALES AND U.S. TWOS MODERATE, OTHERS GOOD. MARKET ABOUTSTEADY.Russet Burbank U.S. One 2" or 4-oz Minbaled 5 10-lb mesh sacks non sz A 4.50-6.00 mostly 5.00baled 5 10-lb film bags non sz A 4.00-6.00 mostly 4.50baled 10 5-lb mesh sacks non sz A 5.50-7.00 mostly 6.00baled 10 5-lb film bags non sz A 5.00-6.50 mostly 5.5050 lb cartons40s 11.0050s 11.00-11.50 mostly 11.0060s 12.50-13.0070s 12.50-14.00 mostly 12.50-13.0080s 12.00-14.00 mostly 12.50-13.0090s 9.50-13.00 mostly 11.00100s 8.50-10.00 mostly 9.50-10.00 occas lowerU.S. Two 50 lb sacks6 oz min 6.00-6.5010 oz min 7.00-8.00 mostly 7.50Norkotah U.S. One 2" or 4-oz Minbaled 5 10-lb mesh sacks non sz A 4.50-5.50 mostly 5.00baled 5 10-lb film bags non sz A 4.00-5.00 mostly 4.50baled 10 5-lb mesh sacks non sz A 5.50-6.50 mostly 6.00baled 10 5-lb film bags non sz A 5.00-6.00 mostly 5.5050 lb cartons40s 10.00-11.0050s 11.00-11.5060s 12.00-12.5070s 12.00-12.5080s 11.50-12.5090s 9.50100s 8.00U.S. Two 50 lb sacks6 oz min 3.00-5.0010 oz min 5.00-7.00 mostly 7.00