BC-USDA-Natl Sheep
BC-USDA-Natl Sheep

The Associated Press



SA—LS850San Angelo, TX    Tue Apr 10, 2018    USDA Market NewsNational Sheep Summary for Tuesday, April 10, 2018Compared to last week at New Holland, PA slaughter lambs over 60 lbs10.00-20.00 higher, lighter lambs steady; slaughter ewes firm.  At SanAngelo, TX slaughter lambs under 70 lbs weak to 10.00 lower, over 70 lbsfirm to 10.00 higher; slaughter ewes steady in light test; no comparisonon feeder lambs.  5700 head estimated for today.Slaughter Lambs:  Choice and Prime 2-3 90-150 lbs:San Angelo:    shorn and wooled 110-155 lbs 122.00-132.00.New Holland:   shorn and wooled 90-110 lbs 310.00-320.00; 110-130 lbs280.00-300.00; 130-150 lbs 240.00-260.00; 150-200 lbs215.00-245.00.Virginia:      no test.Billings, MT:  no test.Slaughter Lambs:  Choice and Prime 1-2:San Angelo:    40-60 lbs 217.00-236.00; 60-70 lbs 216.00-230.00; 70-80lbs 210.00-226.00; 80-90 lbs 210.00-230.00; 90-100 lbs194.00-214.00, few 224.00.New Holland:   40-50 lbs 285.00-330.00; 50-60 lbs 285.00-335.00; 60-70lbs 290.00-325.00; 70-80 lbs 285.00-325.00, few 330.00-340.00; 80-90 lbs 290.00-310.00, few 315.00-325.00; 90-110 lbs 270.00-285.00.Virginia:      60-90 lbs 287.50.Billings, MT:  no test.Slaughter Ewes:San Angelo:    Good 3-4 (very fleshy) no test; Good 2-3 (fleshy)68.00-81.00; Utility and Good 1-3 (medium flesh) 81.00-88.00; Utility 1-2 (thin) 70.00-80.00; Cull and Utility1-2 (very thin) 60.00-66.00; Cull 1 30.00-55.00.New Holland:   Good 3-4 (very fleshy) 75.00-125.00; Good 2-3 (fleshy)95.00-155.00; Utility 1-2 (thin) 80.00-125.00; Cull 1no test.Billings:      Good 3-4 (very fleshy) no test; Good 2-3 (fleshy)no test; Utility 1-2 (thin) no test; Cull andUtility 1-2 (very thin) no test; Cull 1 no test.Virginia:      Good 2-4 102.50-105.00; Utility 1-2 84.00.Feeder Lambs:     Medium and Large 1-2:San Angelo:    50-60 lbs 230.00; 60-90 lbs 196.00-228.00.Virginia:      no test.Billings:      no test.Replacement Ewes: Medium and Large 1-2:San Angelo:    mixed age hair ewes 80-135 lbs 94.00-134.00 cwt.Billings:      no test.Virginia:      no test.Sheep and lamb slaughter under federal inspection for the week to datetotaled 16,000 compared w1th 16,000 last week and 22,000 last year.Source:  USDA Market News Service, San Angelo, TexasRebecca Sauder 325-653-1778www.ams.usda.gov/mnreports/SA—LS850.txtwww.ams.usda.gov/LSMarketNews1600c    rs