Preclosing
Preclosing

The Associated Press

CHICAGO




CHICAGO (AP) — Futures trading on the Chicago Board of Trade Wed:
OpenHighLowLastChg.WHEAT5,000 bu minimum; cents per bushelMay491492483488¼—3¾Jul508508½500504¾—3¾Sep525¾525¾518522¼—3½Dec546548¼541545½—3Mar565565¾558¾564½—1¼May572½573¼567573¼—1Jul572¼574¼568¼571½—3Sep578578¼576577¾—3¼Dec588592588592—1¾Mar600¼600¼600600—2¾Jul585585585585—¾Est. sales 135,806.  Tue.'s sales 276,473Tue.'s open int 467,838CORN5,000 bu minimum; cents per bushelMay389¼390½385¾386¼—3Jul398399394¼395—2¾Sep404¾405¾401½402—2¾Dec413¾415410½411—3Mar421422¼418418½—3May426¼426¼422¾422¾—3¼Jul429¼430½426¼426¾—3¼Sep415415414¾414¾+¼Dec415416½413½413¾—1¾Mar424¼424¾424¼424¾+1¼Dec416417416417+½Est. sales 232,149.  Tue.'s sales 623,286Tue.'s open int 1,882,013OATS5,000 bu minimum; cents per bushelMay236¾239235238+1½Jul243245½240¾244¾+2Sep247¼248¾247¼248¾+1½Dec254½261254½259+2¾Est. sales 567.  Tue.'s sales 749Tue.'s open int 6,735SOYBEANS5,000 bu minimum; cents per bushelMay1050¾1058¾10491049¼—¾Jul1060¼10691059¾1060¼Aug1061¾1069½1060¼1060½—¾Sep1052106010521052¾+¼Nov10481056¾1047½1048¼+¼Jan1051¼106010511051—½Mar1042½1048¾1039¾1039¾—2¾May1037¾104410361036—2½Jul1039¼104610381039¼—1½Aug10341037¼10341037¼+2Nov1002¾10091001½1004½+1¼Est. sales 218,367.  Tue.'s sales 391,815Tue.'s open int 936,447,  up 14,852