BC-Merc Table
BC-Merc Table

The Associated Press






BC-Merc Table,
CHICAGO (AP) — Futures trading on the Chicago Mercantile Exchange Wed:
OpenHighLowSettleChg.CATTLE40,000 lbs.; cents per lb.Apr113.25114.00113.07113.50+.70Jun102.62103.37101.20101.57—.53Aug102.77103.45101.80102.37+.07Oct106.85107.57106.10106.60+.15Dec111.30111.95110.45110.92+.02Feb112.77113.52112.15112.57—.05Apr114.05114.27113.05113.15—.17Jun108.02108.05106.95107.15—.15Aug105.95106.30105.95106.30—.10Est. sales 50,210.  Tue.'s sales 56,344Tue.'s open int 348,516,  up 428FEEDER CATTLE50,000 lbs.; cents per lb.Apr135.30136.72134.75135.27+.45May135.92137.10134.90135.55+.28Aug141.15142.30140.20140.70+.08Sep142.85143.90141.82142.27—.05Oct143.42144.47142.55142.92—.05Nov143.47144.00142.30142.65—.07Jan139.17140.17138.22139.12+.42Mar136.20+.38Est. sales 12,724.  Tue.'s sales 16,943Tue.'s open int 50,549,  up 573HOGS,LEAN40,000 lbs.; cents per lb.Apr53.8053.9053.2753.30—.20May67.8568.8567.4267.92+.47Jun74.9076.6574.9075.77+.72Jul77.6579.1277.6278.32+.50Aug78.0579.4278.0578.67+.45Oct66.1067.2266.0767.05+.85Dec60.9761.9760.9061.82+.95Feb65.3065.6565.1065.42+.62Apr68.8569.2068.7069.05+.73May74.0074.0074.0074.00+.25Jun77.4777.4777.4777.47+1.05Jul76.92+1.15Est. sales 38,088.  Tue.'s sales 53,083Tue.'s open int 240,460PORK BELLIES40,000 lbs.; cents per lb.No open contracts.