BC-USDA-Portland Grain
BC-USDA-Portland Grain

The Associated Press



JO—GR110Portland, OR    Wed Apr 11, 2018    USDA Market NewsPortland Daily Grain ReportBids as of 9:30 a.m. Pacific time; Subject to changeAll Bids in dollars per bushel.  Bids are limited and not fullyestablished in early trading.Bids for grains delivered to Portland, Oregon in dollars per bushel.In early trading May wheat futures trended 0.50 of a cent to 4.50 centsper bushel lower than Tuesday?s noon closes.Bids for US 1 Soft White Wheat delivered to Portland in unit trains andbarges for April delivery for ordinary protein were not well tested inearly trading, but bids were indicated as steady compared to Tuesday?s noonbids for the same delivery period.  Some exporters were not issuing bidsfor nearby delivery.  Bids for guaranteed maximum 10.5 percent protein werewell tested in early trading, but bids were indicated as steady compared toTuesday?s noon bids for the same delivery period.  Some exporters were notissuing bids for nearby delivery.Bids for 11.5 percent protein US 1 Hard Red Winter Wheat for Aprildelivery were not well tested in early trading but bids were indicated aslower compared to Tuesday?s bids for the same delivery period.  Someexporters were not issuing bids for nearby delivery.Bids for 14 percent protein US 1 Dark Northern Spring Wheat for Aprildelivery were not well tested in early trading but bids were indicated aslower compared to Tuesday?s noon bids for the same delivery period.Some exporters are not issuing bids for nearby delivery.Bids for US 2 Yellow Corn delivered full coast in 110 car shuttle trainsduring April were not well tested in early trading, but bids were indicatedas mixed compared to Tuesday?s noon bids for the same delivery period.Some exporters were not issuing bids for nearby delivery.Bids for US 1 Yellow Soybeans delivered full coast in 110 car shuttletrains during April were not well tested in early trading and had no recentprice comparison available.  Some exporters were not issuing bids fornearby delivery.All wheat bids in dollars per bushelUS 1 Soft White Wheat - delivered by Unit Trains and BargesOrdinary proteinApr                                       5.7500-5.9000May                                       5.7500-5.9275Jun                                       5.7500-5.9900Jul                                       5.6700-5.8700Aug NC                                    5.5000-5.8275Guaranteed maximum 10.5 pct proteinApr                                       5.8000-5.9000May                                       5.8300-5.9275Jun                                       5.8900-5.9900Jul                                       5.8000-5.8700Aug NC                                    5.5000-5.8275—US 1 White Club Wheat - delivered by Unit Trains and BargesOrdinary proteinApr                                       5.7500-5.9775Guaranteed maximum 10.5 pct proteinApr                                       5.8000-5.9775—US 1 Hard Red Winter Wheat - (Exporter bids-falling numbers of 300 orbetter)Ordinary protein                            5.7725-6.022511 pct protein                              6.3725-6.522511.5 pct proteinApr                                       6.6225-6.7725May                                       6.6225-6.7725Jun                                       6.6625-6.8125Jul                                       6.5925-6.7625Aug NC                                    NA12 pct protein                              6.7225-6.922513 pct protein                              6.9225-7.2225—US 1 Dark Northern Spring Wheat (with a minimum of 300 falling numbers, a maximumof 0.5 part per million vomitoxin, and a maximum of one percent total damage)13 pct protein                              7.2100-7.310014 pct proteinApr                                       7.6100-7.7100May                                       7.5600-7.7100Jun                                       7.5600-7.7600Jul                                       7.5600-7.7600Aug NC                                    NA15 pct protein                              7.8500-7.950016 pct protein                              8.0900-8.1900—US 2 Yellow CornShuttle trains-Delivered full coast Pacific Northwest-BNApr                                       5.0225-5.1025May                                       5.0225-5.0725Jun                                       5.0275-5.0475Jul                                       5.0275Aug                                       5.0025-5.0225Sep                                       NA—US 1 Yellow SoybeansShuttle trains-Delivered full coast Pacific Northwest-BNApr                                       11.4700May                                       11.4700Jun                                       11.5775Jul                                       11.5775Aug                                       NAOct                                       11.4675—US 2 Heavy White Oats **                      3.6300** Not well tested.Exporter Bids Portland Rail/Barge             Mar 2018Averages in Dollars per bushelUS 1 Soft White by Unit Trains and Barges   5.5600US 1 Hard Red Winter (Ordinary protein)     5.5300US 1 Hard Red Winter (11.5% protein)        6.4700US 1 Dark Northern Spring (14% protein)     7.3300Source:    USDA Market News Service, Portland, ORNiki Davila 503-535-5001  Portland.LPGMN@ams.usda.gov24 Hour Market Report  503-535-5005www.ams.usda.gov/mnreports/jo—gr110.txtwww.ams.usda.gov/lpsmarketnewspage8:42 P nd