BC-USDA-Iowa-Daily Hogs
BC-USDA-Iowa-Daily Hogs

The Associated Press



LM—HG206Des Moines, Iowa                Wed, Apr 11, 2018               USDA Market NewsIOWA/MINNESOTA DAILY DIRECT AFTERNOON HOG REPORT BASED ON STATE OF ORIGINPLANT DELIVERED PURCHASE DATA FOR Wednesday, April 11, 2018(Includes information from 1:30 PM to 1:30 PM.)CURRENT VOLUME BY PURCHASE TYPEBARROWS & GILTS LIVE AND CARCASS BASISEstimated     Actual     Actual     ActualToday      Today   Week Ago   Year AgoProducer SoldNegotiated                                5,229      5,229     13,016      9,885Other Market Formula (Futures/Options)   15,608     15,608     14,574     11,274Swine or Pork Market Formula             71,240     71,240     73,132     70,598Other Purchase Arrangement               30,461     30,461     27,378     25,314Negotiated Formula                            0          0          0          0Packer Sold (all purchase types)          4,739      4,739      5,643      7,708--------------------------------------------------------------------------------NEGOTIATED PURCHASE (Including Packer Sold)Barrows & Gilts (carcass basis): 4,915Compared to Prior Day's closing weighted average (LM—HG204), 1.36 higherBase Price Rng $43.00 - $49.00, Wtd Avg $48.45, 5 Day Rolling Avg $46.90--------------------------------------------------------------------------------NEGOTIATED FORMULA PURCHASE (Including Packer Sold)Barrows & Gilts (carcass basis): 0                     5 Day Rolling Avg $----------------------------------------------------------------------------------COMBINED NEGOTIATED & NEGOTIATED FORMULA PURCHASE (Including Packer Sold)Barrows & Gilts (carcass basis): 4,915*Price not reported due to confidentiality* 5 Day Rolling Avg $----------------------------------------------------------------------------------IOWA/MINNESOTA DAILY DIRECT NEGOTIATED HOG PURCHASE MATRIXREPRESENTING INDIVIDUAL PACKER CARCASS MERIT BUYING PROGRAMSbased on both Fat and Muscle Measurements for a 200 lb Carcass Basis*Price not reported due to confidentiality*--------------------------------------------------------------------------------CARCASS WEIGHT DIFFERENTIALS145#   -30.00 -8.78          175#   -3.00  1.00          205#    0.00  3.00155#   -30.00 -4.88          185#   -0.25  2.00          215#   -0.25  3.00165#   -15.00 -2.93          195#    0.00  3.00          225#   -2.25  2.00--------------------------------------------------------------------------------MEASUREMENTS BASED ON SLAUGHTER DATA SUBMITTED*Price not reported due to confidentiality*--------------------------------------------------------------------------------SWINE OR PORK MARKET FORMULA PURCHASE (Including Packer Sold)Barrows & Gilts (carcass basis): 85,469Base Price Range $44.28 - $62.63, Weighted Average $50.87--------------------------------------------------------------------------------NEGOTIATED PURCHASE (Including Packer Sold)Barrows & Gilts (live basis, 240-320 lbs): 360*Price not reported due to confidentiality* 5 Day Rolling Avg $36.73--------------------------------------------------------------------------------NEGOTIATED FORMULA PURCHASE (Including Packer Sold)Barrows & Gilts (live basis, 240-320 lbs): 587*Price not reported due to confidentiality* 5 Day Rolling Avg $----------------------------------------------------------------------------------COMBINED NEGOTIATED & NEGOTIATED FORMULA PURCHASE (Including Packer Sold)Barrows & Gilts (live basis, 240-320 lbs): 947*Price not reported due to confidentiality* 5 Day Rolling Avg $----------------------------------------------------------------------------------BARROWS & GILTS PURCHASE BY STATE OF ORIGINIowa                103,614               Minnesota             47,576--------------------------------------------------------------------------------*Price not reported due to confidentiality, for more information visit:www.ams.usda.gov/sites/default/files/media/ConfidentialityGuidelines.pdf*Base Price is the price from which no discounts are subtracted and no premiumsare added.Source:    USDA Livestock, Poultry & Grain Market News Division, Des Moines, IA515-284-4460      email:  desm.lpgmn@ams.usda.gov24 Hour recorded market information 515-284-4830www.ams.usda.gov/market-news/livestock-poultry-grain1500C.