BC-Merc Early
BC-Merc Early

The Associated Press

CHICAGO




CHICAGO (AP) — Early trading on the Chicago Mercantile Exchange Thu:
OpenHighLowLastChg.CATTLE40,000 lbs.; cents per lb.Apr113.85115.00113.85114.85+1.35Jun102.27102.60101.85102.32+.75Aug102.97103.52102.80103.37+1.00Oct107.10107.65107.02107.52+.92Dec111.37111.85111.20111.70+.78Feb113.00113.52112.80113.32+.75Apr113.72114.15113.67114.15+1.00Jun107.75108.00107.75107.90+.75Est. sales 17,496.  Wed.'s sales 50,210Wed.'s open int 346,693FEEDER CATTLE50,000 lbs.; cents per lb.Apr135.97137.60135.97137.47+2.20May136.50137.90136.37137.80+2.25Aug141.47142.92141.25142.77+2.07Sep143.02144.12142.95144.00+1.73Oct143.52144.57143.40144.45+1.53Nov143.45144.30143.30144.30+1.65Jan139.90140.10139.82139.90+.78Est. sales 5,448.  Wed.'s sales 12,724Wed.'s open int 51,026,  up 477HOGS,LEAN40,000 lbs.; cents per lb.Apr53.7554.0053.6053.77+.47May68.0068.5067.7268.10+.18Jun75.9076.9075.5775.92+.15Jul78.3778.9778.0778.30—.02Aug78.5779.1778.3778.57—.10Oct67.0067.6566.9067.22+.17Dec61.7262.2061.7061.92+.10Feb65.9065.9565.7765.85+.43Apr69.5069.5069.2269.22+.17May74.0074.0074.0074.00Jun77.7777.8077.7777.80+.33Est. sales 12,001.  Wed.'s sales 38,088Wed.'s open int 240,610,  up 150PORK BELLIES40,000 lbs.; cents per lb.No open contracts.