Preclosing
Preclosing

The Associated Press

CHICAGO




CHICAGO (AP) — Futures trading on the Chicago Board of Trade Thu:
OpenHighLowLastChg.WHEAT5,000 bu minimum; cents per bushelMay483½484¾474¾479—8¼Jul500½501½492496½—7¾Sep518¾519¾510¼515—7¾Dec541¾542¾533¼538—7¾Mar560¼560¼550¾555¾—7¾May567¼567½561¼564—7¾Jul567¾568560½564¾—7Sep571573½567½567½—11½Dec585½585½582¾584¾—7½Mar595595590¾590¾—10Est. sales 124,466.  Wed.'s sales 225,886Wed.'s open int 465,249CORN5,000 bu minimum; cents per bushelMay386½389¼385388+1Jul395397¾393¾396½+¾Sep402404¾400¾403½+¾Dec411413¾410412¾+¾Mar418¾421¼417¾420¼+½May424425½422424¼Jul427½429¼425¾428—¼Sep413413½413413½+¼Dec414½416¼413½415—¼Mar424424424424+½Dec417418417418+½Est. sales 347,013.  Wed.'s sales 360,309Wed.'s open int 1,873,881OATS5,000 bu minimum; cents per bushelMay238¾241237237¾+¼Jul245¾247243¾244¼+¼Sep250250250250+½Dec261½262260260Est. sales 605.  Wed.'s sales 829Wed.'s open int 6,571SOYBEANS5,000 bu minimum; cents per bushelMay1047¾1061½1047¼1059+11¼Jul1058¾10721058¼1069¾+11Aug1058¾1071½1058½1069+10Sep10511061¾1049½1059¼+8¼Nov1045½1056½10441052¾+6¼Jan1047½1059¼1047½1055½+5¾Mar1037¾1045¾1036½1041+2¼May1033¼1039¾10331035¼+1¼Jul1036¾1041¾1036¾1038½+1½Nov1001¼10081001¼1002¼—½Est. sales 323,870.  Wed.'s sales 281,824Wed.'s open int 951,086,  up 14,639