Close
Close

The Associated Press

CHICAGO




CHICAGO (AP) — Futures trading on the Chicago Board of Trade Thu.:
OpenHighLowSettleChg.WHEAT5,000 bu minimum; cents per bushelMay483½484¾474¾481—6¼Jul500½501½492498¼—6Sep518¾519¾510¼516¾—6Dec541¾542¾533¼540—5¾Mar560¼560¼550¾557¾—5¾May567¼567½561¼566¼—5½Jul567¾568560½566¼—5½Sep571573½567½573—6Dec585½586582¾586—6¼Mar595595590¾594—6¾May593¾—6¾Jul576¾—6¾Est. sales 169,339.  Wed.'s sales 225,886Wed.'s open int 465,249CORN5,000 bu minimum; cents per bushelMay386½389¼385388¾+1¾Jul395397¾393¾397¼+1½Sep402404¾400¾404¼+1½Dec411413¾410413½+1½Mar418¾421¼417¾421¼+1½May424425½422425¼+1Jul427½429½425¾429½+1¼Sep413413¾413413¾+½Dec414½416¼413½415¾+½Mar424424423¾423¾+¼May427¼Jul431½+½Sep420¾+½Dec417419417419+1½Jul427¼+1½Dec421½Est. sales 422,056.  Wed.'s sales 360,309Wed.'s open int 1,873,881OATS5,000 bu minimum; cents per bushelMay238¾241237237½Jul245¾247243¾243¾—¼Sep250250249¾249¾+¼Dec261½262260260Mar266¾May270½Jul275½Sep276¾Dec276¾Mar276¾Jul275¼Sep275¼Est. sales 637.  Wed.'s sales 829Wed.'s open int 6,571SOYBEANS5,000 bu minimum; cents per bushelMay1047¾1061¾1047¼1060¾+13Jul1058¾1072½1058¼1071¾+13Aug1058¾1071½1058½1070½+11½Sep10511061¾1049½1060½+9½Nov1045½1056½10441053½+7Jan1047½1059¼1047½1056¾+7Mar1037¾1045¾1036½1041+2¼May1033¼1039¾10331034½+½Jul1036¾1041¾1035¼1036—1Aug1031¼Sep1014¼Nov1001¼1008999½1000¼—2½Jan1002½—2¾Mar1000—2½May1001¼—2½Jul1008¼—2½Aug1000¾—2½Sep997—2½Nov984½—2½Jul987¼—2½Nov987¼—2½Est. sales 396,038.  Wed.'s sales 281,824Wed.'s open int 951,086,  up 14,639SOYBEAN OIL60,000 lbs; cents per lbMay31.5331.7331.4031.63+.10Jul31.8131.9931.6731.90+.09Aug31.9632.1431.8132.03+.07Sep32.1332.3032.0032.20+.05Oct32.3232.4532.1532.35+.05Dec32.6732.8332.5132.74+.06Jan32.9633.1032.8033.02+.06Mar33.2633.3933.1233.30+.04May33.5533.6733.4933.58+.03Jul33.8433.9433.8033.83+.02Aug34.0134.0133.8933.89+.02Sep33.90—.04Oct33.88—.01Dec34.0834.1034.0034.03+.02Jan34.15+.02Mar34.35May34.37+.02Jul34.50+.02Aug34.49+.02Sep34.49+.02Oct34.49+.02Dec34.45+.01Jul34.45+.01Oct34.45+.01Dec34.45+.01Est. sales 134,565.  Wed.'s sales 212,951Wed.'s open int 531,437SOYBEAN MEAL100 tons; dollars per tonMay380.60384.70378.40383.40+3.20Jul384.30388.50382.10387.40+3.10Aug383.50387.30381.20385.80+2.50Sep381.70384.70380.00383.40+2.20Oct378.80381.50376.90380.30+1.70Dec376.90379.60375.10378.30+1.40Jan373.30375.50371.10374.60+1.40Mar362.30363.30361.60362.80+.30May356.30358.20356.20357.50—.40Jul356.90357.50356.10357.10—.60Aug354.20—.70Sep352.40353.40350.20351.00+.70Oct343.50343.50343.10343.10—2.20Dec344.90344.90341.80342.20—2.60Jan342.90—2.60Mar343.70—2.60May343.70—2.60Jul342.20—2.60Aug342.20—2.60Sep342.20—2.60Oct342.20—2.60Dec339.00—2.60Jul339.00—2.60Oct339.00—2.60Dec349.10—2.60Est. sales 122,723.  Wed.'s sales 181,794Wed.'s open int 508,671,  up 4,513