BC-Cash Prices, 1st Ld-Writethru,0342
BC-Cash Prices, 1st Ld-Writethru,0342

The Associated Press

NEW YORK




NEW YORK (AP) — Wholesale cash prices Thursday
?                                      ??Thu.???????Wed.
F
Foods

?Broilers national comp wtd av           ?1.0874?????1.0874
?Eggs large white NY Doz.                ???1.36???????1.44
?Flour hard winter KC cwt                ??16.10??????16.20
?Cheddar Cheese Chi. 40 block per lb.    ?2.1550?????2.1550
?Coffee parana ex-dock NY per lb.        ?1.1894?????1.1995
?Coffee medlin ex-dock NY per lb.        ?1.3971?????1.4019
?Cocoa beans Ivory Coast $ metric ton    ???2834???????2834
?Cocoa butter African styl $ met ton     ???7558???????7558
?Hogs Iowa/Minn barrows & gilts wtd av   ??50.14??????48.45
?Feeder cattle 500-550 lb Okl av cwt     ?167.50?????167.50
?Pork loins 13-19 lb FOB Omaha av cwt    ??78.58??????79.23
Grains
?Corn No. 2 yellow Chi processor bid     ?3.71¾???????3.70?
?Soybeans No. 1 yellow                   10.35¾??????10.17¾
?Soybean Meal Cen Ill 48pct protein-ton  384.70??????388.40
?Wheat No. 2  Chi soft                   ?4.81????????4.87¼
?Wheat N. 1 dk  14pc-pro Mpls.           ?7.68????????7.59?
?Oats No. 2 heavy or Better              ?2.52½???????2.52½
Fats & Oils
?Corn oil crude wet/dry mill Chi. lb.    ?.31??????????.31?
?Soybean oil crude Decatur lb.           ?.30??????????.30¼
Metals
?Aluminum per lb LME                     1.0219??????0.9849
?Antimony in warehouse per ton           ??8500????????8500
?Copper Cathode full plate               3.1435??????3.1242
?Gold Handy & Harman                     1341.35????1350.75
?Silver Handy & Harman                   ?16.530?????16.807
?Lead per metric ton LME                 2388.00????2401.00
?Molybdenum per metric ton LME           ?15,500?????15,500
?Platinum per troy oz. Handy & Harman    ?928.00?????933.00
?Platinum Merc spot per troy oz.         ?929.00?????928.80
?Zinc (HG) delivered per lb.             ?1.4680??????1.4695
Textiles, Fibers and Miscellaneous
?Cotton 1-1-16 in. strict low middling   ??79.81??????80.06
Raw Products
?Coal Central Appalachia $ per short ton ??61.10??????61.10
?Natural Gas  Henry Hub, $ per mmbtu     ???2.69???????2.69
b-bid a-asked
n-Nominal
r-revised
n.q.-not quoted<29
n.a.-not available