BC-Merc Table
BC-Merc Table

The Associated Press

CHICAGO




CHICAGO (AP) — Futures trading on the Chicago Mercantile Exchange Thu:
OpenHighLowSettleChg.CATTLE40,000 lbs.; cents per lb.Apr113.85116.17113.85115.75+2.25Jun102.27104.47101.85103.70+2.13Aug102.97104.92102.80104.27+1.90Oct107.10109.02107.02108.52+1.92Dec111.37112.97111.20112.55+1.63Feb113.00114.60112.80114.30+1.73Apr113.72115.22113.67114.95+1.80Jun107.75109.17107.75108.95+1.80Aug106.90108.00106.90108.00+1.70Est. sales 57,959.  Wed.'s sales 51,665Wed.'s open int 346,693FEEDER CATTLE50,000 lbs.; cents per lb.Apr135.97139.50135.97138.87+3.60May136.50140.05136.37139.97+4.42Aug141.47145.10141.25144.95+4.25Sep143.02146.40142.95146.15+3.88Oct143.52146.62143.40146.25+3.33Nov143.45146.00143.30145.55+2.90Jan139.90142.72139.82142.40+3.28Mar139.47+3.27Est. sales 20,753.  Wed.'s sales 13,708Wed.'s open int 51,026,  up 477HOGS,LEAN40,000 lbs.; cents per lb.Apr53.7554.3753.6054.30+1.00May68.0069.5067.5069.32+1.40Jun75.9077.5075.2577.25+1.48Jul78.3779.6777.6279.40+1.08Aug78.5779.6578.0279.25+.58Oct67.0068.1766.7267.90+.85Dec61.7262.3261.4562.17+.35Feb65.9065.9765.3065.90+.48Apr69.5069.5568.9069.52+.47May74.0074.2574.0074.05+.05Jun77.7777.8077.5077.70+.23Jul77.30+.38Est. sales 54,990.  Wed.'s sales 40,438Wed.'s open int 240,610,  up 150PORK BELLIES40,000 lbs.; cents per lb.No open contracts.