BC-USDA-Iowa-Daily Hogs
BC-USDA-Iowa-Daily Hogs

The Associated Press



LM—HG206Des Moines, Iowa                Thu, Apr 12, 2018               USDA Market NewsIOWA/MINNESOTA DAILY DIRECT AFTERNOON HOG REPORT BASED ON STATE OF ORIGINPLANT DELIVERED PURCHASE DATA FOR Thursday, April 12, 2018(Includes information from 1:30 PM to 1:30 PM.)CURRENT VOLUME BY PURCHASE TYPEBARROWS & GILTS LIVE AND CARCASS BASISEstimated     Actual     Actual     ActualToday      Today   Week Ago   Year AgoProducer SoldNegotiated                                6,488      6,488      3,163      4,587Other Market Formula (Futures/Options)   12,253     12,253     13,523      7,837Swine or Pork Market Formula             70,761     70,761     70,606     66,223Other Purchase Arrangement               23,322     23,322     27,819     22,589Negotiated Formula                            0          0        230        170Packer Sold (all purchase types)          4,934      4,934      5,447     10,776--------------------------------------------------------------------------------NEGOTIATED PURCHASE (Including Packer Sold)Barrows & Gilts (carcass basis): 7,170Compared to Prior Day's closing weighted average (LM—HG204), 1.52 higherBase Price Rng $43.00 - $52.00, Wtd Avg $50.14, 5 Day Rolling Avg $47.84--------------------------------------------------------------------------------NEGOTIATED FORMULA PURCHASE (Including Packer Sold)Barrows & Gilts (carcass basis): 0                     5 Day Rolling Avg $----------------------------------------------------------------------------------COMBINED NEGOTIATED & NEGOTIATED FORMULA PURCHASE (Including Packer Sold)Barrows & Gilts (carcass basis): 7,170*Price not reported due to confidentiality* 5 Day Rolling Avg $----------------------------------------------------------------------------------IOWA/MINNESOTA DAILY DIRECT NEGOTIATED HOG PURCHASE MATRIXREPRESENTING INDIVIDUAL PACKER CARCASS MERIT BUYING PROGRAMSbased on both Fat and Muscle Measurements for a 200 lb Carcass Basis*Price not reported due to confidentiality*--------------------------------------------------------------------------------CARCASS WEIGHT DIFFERENTIALS145#   -27.75 -9.18          175#   -3.25  0.00          205#    0.00  2.00155#   -27.75 -5.10          185#   -1.50  2.00          215#   -0.25  2.00165#   -15.00 -3.06          195#    0.00  2.00          225#   -2.25  2.00--------------------------------------------------------------------------------MEASUREMENTS BASED ON SLAUGHTER DATA SUBMITTED*Price not reported due to confidentiality*--------------------------------------------------------------------------------SWINE OR PORK MARKET FORMULA PURCHASE (Including Packer Sold)Barrows & Gilts (carcass basis): 81,052Base Price Range $44.78 - $62.37, Weighted Average $51.57--------------------------------------------------------------------------------NEGOTIATED PURCHASE (Including Packer Sold)Barrows & Gilts (live basis, 240-320 lbs): 432*Price not reported due to confidentiality* 5 Day Rolling Avg $36.73--------------------------------------------------------------------------------NEGOTIATED FORMULA PURCHASE (Including Packer Sold)Barrows & Gilts (live basis, 240-320 lbs): 797*Price not reported due to confidentiality* 5 Day Rolling Avg $----------------------------------------------------------------------------------COMBINED NEGOTIATED & NEGOTIATED FORMULA PURCHASE (Including Packer Sold)Barrows & Gilts (live basis, 240-320 lbs): 1,229*Price not reported due to confidentiality* 5 Day Rolling Avg $----------------------------------------------------------------------------------BARROWS & GILTS PURCHASE BY STATE OF ORIGINIowa                 93,044               Minnesota             44,995--------------------------------------------------------------------------------*Price not reported due to confidentiality, for more information visit:www.ams.usda.gov/sites/default/files/media/ConfidentialityGuidelines.pdf*Base Price is the price from which no discounts are subtracted and no premiumsare added.Source:    USDA Livestock, Poultry & Grain Market News Division, Des Moines, IA515-284-4460      email:  desm.lpgmn@ams.usda.gov24 Hour recorded market information 515-284-4830www.ams.usda.gov/market-news/livestock-poultry-grain1500C.