BC-US--Grain Prices, US
BC-US--Grain Prices, US

The Associated Press

CHICAGO




CHICAGO (AP) — Futures trading on the Chicago Board of Trade Thursday.:
SettleWHEAT (5,000 bu ; cents per bushel)May             481    Jul             498 1-4Sep             516 3-4Dec             540    Mar             557 3-4May             566 1-4Jul             566 1-4Sep             573    Dec             586    Mar             594    May             593 3-4Jul             576 3-4CORN (5,000 bu ; cents per bushel)May             388 3-4Jul             397 1-4Sep             404 1-4Dec             413 1-2Mar             421 1-4May             425 1-4Jul             429 1-2Sep             413 3-4Dec             415 3-4Mar             423 3-4May             427 1-4Jul             431 1-2Sep             420 3-4Dec             419    Jul             427 1-4Dec             421 1-2OATS (5,000 bu ; cents per bushel)May             237 1-2Jul             243 3-4Sep             249 3-4Dec             260    Mar             266 3-4May             270 1-2Jul             275 1-2Sep             276 3-4Dec             276 3-4Mar             276 3-4Jul             275 1-4Sep             275 1-4SOYBEANS (5,000 bu ; cents per bushel)May            1060 3-4Jul            1071 3-4Aug            1070 1-2Sep            1060 1-2Nov            1053 1-2Jan            1056 3-4Mar            1041    May            1034 1-2Jul            1036    Aug            1031 1-4Sep            1014 1-4Nov            1000 1-4Jan            1002 1-2Mar            1000    May            1001 1-4Jul            1008 1-4Aug            1000 3-4Sep             997    Nov             984 1-2Jul             987 1-4Nov             987 1-4SOYBEAN OIL (60,000 lbs; cents per lb)May             31.63Jul             31.90Aug             32.03Sep             32.20Oct             32.35Dec             32.74Jan             33.02Mar             33.30May             33.58Jul             33.83Aug             33.89Sep             33.90Oct             33.88Dec             34.03Jan             34.15Mar             34.35May             34.37Jul             34.50Aug             34.49Sep             34.49Oct             34.49Dec             34.45Jul             34.45Oct             34.45Dec             34.45SOYBEAN MEAL (100 tons; dollars per ton)May            383.40Jul            387.40Aug            385.80Sep            383.40Oct            380.30Dec            378.30Jan            374.60Mar            362.80May            357.50Jul            357.10Aug            354.20Sep            351.00Oct            343.10Dec            342.20Jan            342.90Mar            343.70May            343.70Jul            342.20Aug            342.20Sep            342.20Oct            342.20Dec            339.00Jul            339.00Oct            339.00Dec            349.10