BC-Cotton
BC-Cotton

The Associated Press

NEW YORK




NEW YORK (AP) — Cotton No. 2 Futures on the IntercontinentalExchange (ICE) Thursday:
OpenHighLowSettleChg.COTTON 250,000 lbs.; cents per lb.May83.8383.9783.1783.69—.14Jul83.5783.5782.7183.00—.41Sep78.83+.20Oct79.1979.2979.1979.29—.35Nov78.83+.20Dec78.6078.9178.2178.83+.20Jan78.91+.17Mar78.7578.9478.4578.91+.17May78.5678.8678.4478.86+.12Jul78.3678.6078.1678.57+.13Sep73.42+.20Oct75.62+.18Nov73.42+.20Dec73.2773.4273.2773.42+.20Jan73.48+.20Mar73.48+.20May73.90+.20Jul73.98+.20Sep72.32+.20Oct73.55+.20Nov72.32+.20Dec72.32+.20Jan72.36+.20Mar72.36+.20Est. sales 48,849.  Wed.'s sales 53,410Wed.'s open int 274,269