BC-USDA-SC Clsng Grain Bids
BC-USDA-SC Clsng Grain Bids

The Associated Press



CO—GR110Columbia, SC     Friday, April 13, 2018 USDA-SC Dept Ag Market NewsSouth Carolina closing cash grain bids as of 3:00 P.M.  Prices deliveredto country elevators or processors. New crop bids noted with (*).US 2 Yellow Corn was 2 to 3 cents lower.US 1 Yellow Soybeans were 6 to 7 cents lower.US 2 Soft Red Wheat were mostly 9 cents lower; one location steady.New Crop US 2 Yellow Corn was 3 cents lower.New Crop US 1 Yellow Soybeans was 4 to 5 cents lower.New Crop US 2 Soft Red Wheat was mostly 9 cents lower.CORN: Country Elevators---4.46 at Anderson; 3.71 and *4.01 at Kingstree;4.16 and *4.26 at Hamer; 3.71 and *4.01 at Lynchburg; 3.71 and *4.01 atConway; 3.71 and *4.01 at Estill; Processors---4.26 at Orangeburg; 4.64and *4.66 at Monetta; 4.51 and *4.56 at Sumter; *4.51 at Cassatt.SOYBEANS: Country Elevators---10.04 at Anderson; 9.89 and *9.94 atKingstree; 9.89 and *10.04 at Hamer; 9.89 and *9.94 at Lynchburg; 9.89and *9.94 at Conway; 9.89 and *9.94 at Estill; Processors---10.54 and*10.29 at Kershaw; Export---10.54 and *10.39 at Mt. Pleasant.WHEAT: Country Elevators---4.72 and *4.49 at Anderson; *3.89 atKingstree; 4.64 and *4.64 at Hamer; *3.89 at Lynchburg; *3.89 at Conway;*3.89 at Estill; Processors---No Bid at Monetta; No Bid at Sumter; *4.54Cassatt; 5.25 at Columbia; Export---No Bid at Mt. Pleasant.COUNTRY ELEVATORS    US 2 Yellow       US 1 Yellow       US 2 Soft RedCorn             Soybeans           WheatCash  New Crop    Cash  New Crop    Cash  New CropAnderson             4.46             10.04              4.72     4.49Kingstree            3.71   4.01       9.89     9.94              3.89Hamer                4.16   4.26       9.89    10.04     4.64     4.64Lynchburg            3.71   4.01       9.89     9.94              3.89Conway               3.71   4.01       9.89     9.94              3.89Estill               3.71   4.01       9.89     9.94              3.89PROCESSORSOrangeburg           4.26Monetta              4.64   4.66Sumter               4.51   4.56Cassatt                     4.51                                  4.54Kershaw                               10.54    10.29Columbia                                                 5.25EXPORTMt. Pleasant                          10.54    10.39Source: South Carolina Dept. of Ag-USDA Market News, Columbia, SC803-737-4671. For more info check out the internet athttp://www.ams.usda.gov/mnreports/co—gr110.txt15:09 ts