BC-US--Grain Prices, US
BC-US--Grain Prices, US

The Associated Press

CHICAGO




CHICAGO (AP) — Futures trading on the Chicago Board of Trade Friday.:
SettleWHEAT (5,000 bu ; cents per bushel)May             472 1-2Jul             489 1-4Sep             507 3-4Dec             531 1-4Mar             549    May             557 1-4Jul             558 1-2Sep             566 3-4Dec             580    Mar             588 1-2May             588 1-4Jul             571 1-4CORN (5,000 bu ; cents per bushel)May             386 1-4Jul             394 1-2Sep             401 1-2Dec             410 3-4Mar             418 1-4May             422 1-2Jul             426 1-2Sep             411 1-2Dec             414 1-4Mar             422 1-2May             426 1-2Jul             430    Sep             419 1-4Dec             418 3-4Jul             427    Dec             421    OATS (5,000 bu ; cents per bushel)May             234 1-4Jul             241 1-2Sep             248 1-2Dec             257 3-4Mar             264 1-2May             268 1-4Jul             273 1-4Sep             274 1-2Dec             274 1-2Mar             274 1-2Jul             273    Sep             273    SOYBEANS (5,000 bu ; cents per bushel)May            1054 1-4Jul            1065    Aug            1064 1-2Sep            1055 1-2Nov            1049 1-2Jan            1052 3-4Mar            1037 1-4May            1031 1-4Jul            1034    Aug            1028 3-4Sep            1011 3-4Nov             998 1-4Jan            1000 3-4Mar             997 1-2May             998 3-4Jul            1006 1-4Aug             998 3-4Sep             995    Nov             980 3-4Jul             983 1-2Nov             983 1-2SOYBEAN OIL (60,000 lbs; cents per lb)May             31.48Jul             31.75Aug             31.89Sep             32.06Oct             32.20Dec             32.57Jan             32.84Mar             33.13May             33.40Jul             33.67Aug             33.70Sep             33.70Oct             33.68Dec             33.88Jan             34.00Mar             34.20May             34.22Jul             34.35Aug             34.34Sep             34.34Oct             34.34Dec             34.31Jul             34.31Oct             34.31Dec             34.31SOYBEAN MEAL (100 tons; dollars per ton)May            382.80Jul            386.80Aug            385.50Sep            383.00Oct            379.80Dec            378.20Jan            374.60Mar            362.40May            357.30Jul            357.00Aug            354.30Sep            351.10Oct            343.30Dec            342.30Jan            343.00Mar            343.80May            343.80Jul            342.30Aug            342.30Sep            342.30Oct            342.30Dec            339.10Jul            339.10Oct            339.10Dec            349.20