BC-Merc Table
BC-Merc Table

The Associated Press

CHICAGO




CHICAGO (AP) — Futures trading on the Chicago Mercantile Exchange Fri:
OpenHighLowSettleChg.CATTLE40,000 lbs.; cents per lb.Apr116.25117.07115.85116.55+.80Jun104.05104.37103.22103.65—.05Aug104.50104.90103.75104.27Oct108.80109.22108.12108.72+.20Dec112.75113.22112.32112.95+.40Feb114.50115.00114.32114.80+.50Apr115.47115.55114.97115.45+.50Jun109.27109.35108.57108.80—.15Aug108.00108.00107.85107.85—.15Est. sales 39,587.  Thu.'s sales 61,279Thu.'s open int 345,866FEEDER CATTLE50,000 lbs.; cents per lb.Apr139.37139.97138.10139.37+.50May140.67141.37139.42140.37+.40Aug145.60146.22144.22145.10+.15Sep146.35147.30145.55146.57+.42Oct146.95147.40145.87146.90+.65Nov146.25146.65145.25146.25+.70Jan142.85142.85141.50142.10—.30Mar139.37—.10Est. sales 15,919.  Thu.'s sales 21,659Thu.'s open int 51,003HOGS,LEAN40,000 lbs.; cents per lb.Apr54.2054.2553.7553.85—.45May69.5570.1269.1269.70+.38Jun77.7778.1076.9077.65+.40Jul79.7779.9778.9579.57+.17Aug79.6079.9078.9579.42+.17Oct68.2568.5067.7268.35+.45Dec62.2062.3561.8262.12—.05Feb65.8566.0065.6565.90Apr69.5269.6069.2569.52May74.25+.20Jun77.55—.15Jul77.15—.15Est. sales 40,090.  Thu.'s sales 56,408Thu.'s open int 244,065,  up 3,455PORK BELLIES40,000 lbs.; cents per lb.No open contracts.