Open
Open

The Associated Press

CHICAGO




CHICAGO (AP) — Early trading on the Chicago Board of Trade Fri.:
OpenHighLowLastChg.WHEAT5,000 bu minimum; cents per bushelMay480¼481¼472¾476½—4½Jul496¾498½489¾493½—4¾Sep516516508½511½—5¼Dec539¾539¾531½535—5Mar554¼554¼549¼552¾—5May560560558¼558¾—7½Jul562½562½558559½—6¾Dec578¾578¾578¾578¾—7¼Est. sales 60,834.  Thu.'s sales 169,339Thu.'s open int 471,595,  up 6,346CORN5,000 bu minimum; cents per bushelMay388½389¼386¾387—1¾Jul396¾397½395395¼—2Sep403¾404¼402402¼—2Dec413413½411411¼—2¼Mar420½421418½418½—2¾May424¾425422¾423—2¼Jul428½429426½426½—3Sep414½414½411½411½—2¼Dec416½416½414¼414½—1¼Mar423¾424¾423¾424¾+1Est. sales 187,570.  Thu.'s sales 422,056Thu.'s open int 1,884,883,  up 11,002OATS5,000 bu minimum; cents per bushelMay239239¼236236¼—1¼Jul245245¼242½243—¾Dec260¼261260260¾+¾Est. sales 273.  Thu.'s sales 637Thu.'s open int 6,532SOYBEANS5,000 bu minimum; cents per bushelMay1060¼1067¼1052½1052¾—8Jul107110781063¼1063¾—8Aug1069½1076¼1063¼1063¾—6¾Sep1059¾10651054½1055—5½Nov105310581048½1049¼—4¼Jan1055¾106110521052½—4¼Mar1041¼1043¼1037¼1037¼—3¾May10351036¾1032¼1032¼—2¼Jul1035¼1038½1034¾1035¼—¾Nov1000¼1001998½999¼—1Est. sales 117,864.  Thu.'s sales 396,067Thu.'s open int 968,982,  up 17,896SOYBEAN OIL60,000 lbs; cents per lbMay31.6831.8131.5931.70+.07Jul31.9432.0831.8531.96+.06Aug32.0832.2232.0032.10+.07Sep32.1932.3732.1732.30+.10Oct32.3632.5032.3632.42+.07Dec32.7332.8932.6932.79+.05Jan33.0933.1632.9933.06+.04Mar33.2933.4033.2833.36+.06May33.6033.6033.5533.58Jul33.8333.8333.7833.81—.02Est. sales 32,613.  Thu.'s sales 134,623Thu.'s open int 532,274,  up 837SOYBEAN MEAL100 tons; dollars per tonMay383.40387.60380.20380.80—2.60Jul387.20391.30384.10384.70—2.70Aug385.60389.50383.10383.50—2.30Sep383.20386.90381.20381.80—1.60Oct381.40383.70378.50378.60—1.70Dec378.20381.60376.70377.10—1.20Jan375.70377.90373.50373.50—1.10Mar363.20365.20362.20362.20—.60May359.30359.30357.70357.70+.20Jul358.50358.50357.50357.50+.40Aug355.30355.30355.30355.30+1.10Dec343.50343.50343.50343.50+1.30Est. sales 43,922.  Thu.'s sales 122,767Thu.'s open int 517,907,  up 9,236