BC-Wheat KX
BC-Wheat KX

The Associated Press

CHICAGO




CHICAGO (AP) — Winter Wheat futures on the Chicago Board of Trade Fri:
OpenHighLowSettleChg.WHEAT5,000 bu minimum; cents per bushelMay507507490¾495¾—11¾Jul525¾525¾509¾515—11Sep545½545½529½534½—11¼Dec570½570½554¾559½—11¼Mar585585570¾575½—11May588589¾583¾584½—10¼Jul591¾593¼585½589½—9Sep593½596¼591½596¼—10½Dec610610606609¾—9Mar615¼—9May615¼—9Jul608½—9Est. sales 82,106.  Thu.'s sales 85,993Thu.'s open int 268,974