BC-Merc Early
BC-Merc Early

The Associated Press

CHICAGO




CHICAGO (AP) — Early trading on the Chicago Mercantile Exchange Fri:
OpenHighLowLastChg.CATTLE40,000 lbs.; cents per lb.Apr116.25116.95115.87115.87+.12Jun104.05104.37103.35103.40—.30Aug104.50104.90104.00104.02—.25Oct108.80109.22108.35108.40—.12Dec112.75113.12112.55112.57+.02Feb114.50114.75114.37114.42+.12Apr115.47115.47115.02115.05+.10Jun109.27109.35108.75108.75—.20Aug108.00108.00108.00108.00Est. sales 15,326.  Thu.'s sales 57,959Thu.'s open int 345,866FEEDER CATTLE50,000 lbs.; cents per lb.Apr139.37139.97138.10138.10—.77May140.67141.37139.42139.47—.50Aug145.60146.22144.25144.30—.65Sep146.35147.30145.65145.65—.50Oct146.95147.40145.90145.90—.35Nov146.25146.65145.62145.77+.22Jan142.85142.85142.02142.02—.38Est. sales 5,195.  Thu.'s sales 20,753Thu.'s open int 51,003HOGS,LEAN40,000 lbs.; cents per lb.Apr54.2054.2554.1054.12—.18May69.5569.9269.2769.72+.40Jun77.7777.9577.0577.75+.50Jul79.7779.9579.2579.57+.17Aug79.6079.8579.2579.65+.40Oct68.2568.2567.7268.10+.20Dec62.2062.3561.8562.22+.05Feb65.8565.9765.6765.97+.07Apr69.5269.5269.3069.30—.22Est. sales 8,847.  Thu.'s sales 54,990Thu.'s open int 244,065,  up 3,455PORK BELLIES40,000 lbs.; cents per lb.No open contracts.