BC-BOT Table,1st Ld
BC-BOT Table,1st Ld

The Associated Press

CHICAGO




CHICAGO (AP) — Noon trading on the Chicago Board of Trade Mon.:
OpenHighLowNoonChg.WHEAT5,000 bu minimum; cents per bushelMay466½470¼461½464¼—8¼Jul483¼487478480¼—9Sep501¾505496½498¼—9½Dec525528¼520521½—9¾Mar543546538¼539—10May551½554½546¾548¾—8½Jul554½558549¾550¼—8¼Sep559¼559¼558¼558¼—8½Dec576576¼572576¼—3¾Est. sales 136,104.  Fri.'s sales 145,692Fri.'s open int 474,669,  up 3,074CORN5,000 bu minimum; cents per bushelMay385386¼382¼383½—2¾Jul393½394½390½391¾—2¾Sep400½401½397¾399—2½Dec410410¾406½407¾—3Mar417¾418¼414½415½—2¾May422422418¾420½—2Jul425½426¼422½423¾—2¾Sep410411½408¾408¾—2¾Dec413¼414¼410¾411¾—2½Dec416416416416—2¾Est. sales 290,511.  Fri.'s sales 501,303Fri.'s open int 1,871,342OATS5,000 bu minimum; cents per bushelMay233½234¼225½231—3¼Jul240¾241¾232½237¼—4¼Sep242½244½240243¼—5¼Dec254256¾254256¾—1Est. sales 718.  Fri.'s sales 973Fri.'s open int 6,541,  up 9SOYBEANS5,000 bu minimum; cents per bushelMay1054¼1058¾1046¼1047—7¼Jul10651069½1057½1058¼—6¾Aug1064¾1068¼1057¾1058¾—5¾Sep1055½1058¾10501051—4½Nov10501052½1044¼1045—4½Jan10531055½1047½1048¼—4½Mar1035¼1038½10331034¼—3May1031¾1033¼1029¼1030¾—½Jul10331035¾1032¼1032½—1½Nov1000¼1000½997¼999½+1¼Est. sales 176,902.  Fri.'s sales 281,940Fri.'s open int 970,204,  up 1,224SOYBEAN OIL60,000 lbs; cents per lbMay31.4831.5831.1631.25—.23Jul31.7531.8431.4331.50—.25Aug31.8931.9631.5731.65—.24Sep32.0532.0931.7431.80—.26Oct32.2532.2731.9031.98—.22Dec32.5732.6432.2732.32—.25Jan32.8532.8532.5532.73—.11Mar33.1433.1732.8332.87—.26May33.4033.4033.1033.30—.10Jul33.6933.6933.4233.59—.08Dec33.9033.9033.6033.86—.02Est. sales 97,237.  Fri.'s sales 82,971Fri.'s open int 530,466SOYBEAN MEAL100 tons; dollars per tonMay383.30384.30379.10380.50—2.30Jul387.00388.30383.20384.60—2.20Aug385.40386.80382.40383.80—1.70Sep382.80384.20380.40381.80—1.20Oct379.00380.90377.60378.80—1.00Dec377.80379.50376.00376.60—1.60Jan374.10375.50372.60372.90—1.70Mar362.50363.20360.90360.90—1.50May358.00358.20356.60356.60—.70Jul356.20356.20356.10356.10—.90Dec342.90342.90341.10341.10—1.20Est. sales 98,099.  Fri.'s sales 101,585Fri.'s open int 516,142