Close
Close

The Associated Press

CHICAGO




CHICAGO (AP) — Futures trading on the Chicago Board of Trade Mon.:
Open  High  Low  Settle   Chg.WHEAT                                   5,000 bu minimum; cents per bushel    May      466½  470¼  461½  462¼  —10¼Jul      483¼  487    478    479    —10¼Sep      501¾  505    496½  497½  —10¼Dec      525    528¼  520    520¾  —10½Mar      543    546    537½  538½  —10½May      551½  554½  546¾  547½   —9¾Jul      554½  558    549    550¼   —8¼Sep      559¼  559¼  557    558½   —8¼Dec      576    576¼  572    572¾   —7¼Mar                           581¼   —7¼May                           581     —7¼Jul                           564     —7¼Est. sales 189,156.  Fri.'s sales 145,692Fri.'s open int 474,669,  up 3,074      CORN                                     5,000 bu minimum; cents per bushel    May      385    386¼  382    382½   —3¾Jul      393½  394½  390½  391     —3½Sep      400½  401½  397½  398¼   —3¼Dec      410    410¾  406½  407¼   —3½Mar      417¾  418¼  414¼  415     —3¼May      422    422    418¾  419¼   —3¼Jul      425½  426¼  422½  423     —3½Sep      410    411½  407¾  408     —3½Dec      413¼  414¼  410½  410¾   —3½Mar                           419     —3½May                           422¾   —3¾Jul                           426½   —3½Sep                           415¾   —3½Dec      416    416    415¼  415¼   —3½Jul                           423½   —3½Dec                           421½   + ½Est. sales 359,008.  Fri.'s sales 501,303Fri.'s open int 1,871,342               OATS                                      5,000 bu minimum; cents per bushel    May      233½  234¼  225½  230½   —3¾Jul      240¾  241¾  232½  236¾   —4¾Sep      242½  244½  240    244½   —4  Dec      254    257    254    256¼   —1½Mar                           263     —1½May                           266¾   —1½Jul                           271¾   —1½Sep                           273     —1½Dec                           273     —1½Mar                           273     —1½Jul                           271½   —1½Sep                           271½   —1½Est. sales 870.  Fri.'s sales 973       Fri.'s open int 6,541,  up 9            SOYBEANS                               5,000 bu minimum; cents per bushel    May     1054¼ 1058¾ 1041½ 1042    —12¼Jul     1065   1069½ 1052½ 1053¼  —11¾Aug     1064¾ 1068¼ 1053   1053½  —11  Sep     1055½ 1058¾ 1045¾ 1045¾   —9¾Nov     1050   1052½ 1039¼ 1040¼   —9¼Jan     1053   1055½ 1042¼ 1043¼   —9½Mar     1035¼ 1038½ 1028½ 1030¼   —7  May     1031¾ 1033¼ 1025¼ 1026¼   —5  Jul     1033   1035¾ 1027¾ 1029¾   —4¼Aug                          1025     —3¾Sep                          1008     —3¾Nov     1000¼ 1000½  994    995½   —2¾Jan                           997¾   —3  Mar                           992½   —5  May                           993¾   —5  Jul                          1003¾   —2½Aug                           996¼   —2½Sep                           992½   —2½Nov                           978½   —2¼Jul                           981¼   —2¼Nov                           981¼   —2¼Est. sales 233,900.  Fri.'s sales 281,940Fri.'s open int 970,204,  up 1,224      SOYBEAN OIL                            60,000 lbs; cents per lb                 May      31.48  31.58  31.14  31.18   —.30Jul      31.75  31.84  31.41  31.45   —.30Aug      31.89  31.96  31.54  31.58   —.31Sep      32.05  32.09  31.71  31.76   —.30Oct      32.25  32.27  31.86  31.91   —.29Dec      32.57  32.64  32.22  32.28   —.29Jan      32.85  32.85  32.48  32.55   —.29Mar      33.14  33.17  32.74  32.80   —.33May      33.40  33.40  33.01  33.07   —.33Jul      33.69  33.69  33.32  33.34   —.33Aug                           33.41   —.29Sep                           33.48   —.22Oct                           33.47   —.21Dec      33.90  33.90  33.51  33.61   —.27Jan                           33.76   —.24Mar                           33.95   —.25May                           34.06   —.16Jul                           34.24   —.11Aug                           34.23   —.11Sep                           34.23   —.11Oct                           34.23   —.11Dec                           34.20   —.11Jul                           34.20   —.11Oct                           34.20   —.11Dec                           34.20   —.11Est. sales 124,547.  Fri.'s sales 82,971 Fri.'s open int 530,466                 SOYBEAN MEAL                         100 tons; dollars per ton                May     383.30 384.30 377.40 377.80  —5.00Jul     387.00 388.30 381.60 382.00  —4.80Aug     385.40 386.80 380.90 381.40  —4.10Sep     382.80 384.20 379.00 379.30  —3.70Oct     379.00 380.90 376.30 376.60  —3.20Dec     377.80 379.50 374.70 374.90  —3.30Jan     374.10 375.50 370.90 371.20  —3.40Mar     362.50 363.20 359.40 359.60  —2.80May     358.00 358.20 354.10 354.40  —2.90Jul     356.20 356.20 353.30 353.90  —3.10Aug                          351.40  —2.90Sep     350.20 350.20 348.20 348.20  —2.90Oct                          341.50  —1.80Dec     342.90 342.90 340.40 340.70  —1.60Jan                          341.40  —1.60Mar                          342.20  —1.60May                          342.20  —1.60Jul                          340.70  —1.60Aug                          340.70  —1.60Sep                          340.70  —1.60Oct                          340.70  —1.60Dec                          337.50  —1.60Jul                          337.50  —1.60Oct                          337.50  —1.60Dec                          347.60  —1.60Est. sales 132,116.  Fri.'s sales 101,585Fri.'s open int 516,142