BC-US--Grain Prices, US
BC-US--Grain Prices, US

The Associated Press

CHICAGO




CHICAGO (AP) — Futures trading on the Chicago Board of Trade Monday.:
SettleWHEAT (5,000 bu ; cents per bushel)May             462 1-4Jul             479    Sep             497 1-2Dec             520 3-4Mar             538 1-2May             547 1-2Jul             550 1-4Sep             558 1-2Dec             572 3-4Mar             581 1-4May             581    Jul             564    CORN (5,000 bu ; cents per bushel)May             382 1-2Jul             391    Sep             398 1-4Dec             407 1-4Mar             415    May             419 1-4Jul             423    Sep             408    Dec             410 3-4Mar             419    May             422 3-4Jul             426 1-2Sep             415 3-4Dec             415 1-4Jul             423 1-2Dec             421 1-2OATS (5,000 bu ; cents per bushel)May             230 1-2Jul             236 3-4Sep             244 1-2Dec             256 1-4Mar             263    May             266 3-4Jul             271 3-4Sep             273    Dec             273    Mar             273    Jul             271 1-2Sep             271 1-2SOYBEANS (5,000 bu ; cents per bushel)May            1042    Jul            1053 1-4Aug            1053 1-2Sep            1045 3-4Nov            1040 1-4Jan            1043 1-4Mar            1030 1-4May            1026 1-4Jul            1029 3-4Aug            1025    Sep            1008    Nov             995 1-2Jan             997 3-4Mar             992 1-2May             993 3-4Jul            1003 3-4Aug             996 1-4Sep             992 1-2Nov             978 1-2Jul             981 1-4Nov             981 1-4SOYBEAN OIL (60,000 lbs; cents per lb)May             31.18Jul             31.45Aug             31.58Sep             31.76Oct             31.91Dec             32.28Jan             32.55Mar             32.80May             33.07Jul             33.34Aug             33.41Sep             33.48Oct             33.47Dec             33.61Jan             33.76Mar             33.95May             34.06Jul             34.24Aug             34.23Sep             34.23Oct             34.23Dec             34.20Jul             34.20Oct             34.20Dec             34.20SOYBEAN MEAL (100 tons; dollars per ton)May            377.80Jul            382.00Aug            381.40Sep            379.30Oct            376.60Dec            374.90Jan            371.20Mar            359.60May            354.40Jul            353.90Aug            351.40Sep            348.20Oct            341.50Dec            340.70Jan            341.40Mar            342.20May            342.20Jul            340.70Aug            340.70Sep            340.70Oct            340.70Dec            337.50Jul            337.50Oct            337.50Dec            347.60