BC-USDA-Okla City Catl Actn
BC-USDA-Okla City Catl Actn

The Associated Press



KO—LS150 Oklahoma City, OK    Mon  Apr  16,  2018    USDA-OK Dept of Ag Market NewsOklahoma National Stockyards - Oklahoma City, OKLivestock Auction Report for 4/16/2018 AUCTION                          Receipts           Week Ago             Year Ago--------------------------------------------------------------------------------- Total Receipts:                  8,100                 4,295              5,699------------------------------------------------------------------------------ Feeder Cattle:                   8,100(100           4,295(100%)        5,699(100%)---------------------------------------------------------------------------------***Close ***Compared to last week:  Feeder steers and heifers traded steady to 3.00 higher.  Steer calves 500-600 lbs. traded steady to 2.00 higher,lighter weights as well as heifer calves lightly tested with a higher undertone noted.  Demand good for all classes.  Quality average to attractive.  Many larger lots on offer today compared to the last fewweeks and buyers taking advantage of the opportunities to fill trucks and pens.  Feeder cattle supply included 58 percent Steers, 40 percent Heifers, and  1 percent Bulls. Feeder cattle supply over 600 lbs was 81percent.--------------------------------------------------------------------------------FEEDER CATTLE--------------------------------------------------------------------------------Feeder Steers(Per CWT):  Medium and Large 1 260 lbs 227.00; 300-400 lbs196.00-206.00, Thin Fleshed 221.00-228.00; 400-500 lbs 181.00-198.00; 500-600lbs 164.00-183.00, 540 lbs Fleshy 166.50, Thin Fleshed 175.50; 600-700 lbs151.00-166.50, Calves 142.00-159.50, 691 lbs Fleshy 147.00; 700-800 lbs 142.00-154.00, 782 lbs Fleshy 141.00, 776 lbs Thin Fleshed 154.25; 800-900 lbs 124.50-141.50, 867 lbs Fancy 138.25; 900-1000 lbs 121.00-130.00, Fleshy 115.00-118.00;1000-1100 lbs 112.00-118.25. Medium and Large 1-2 500-600 lbs 150.50-169.00; 600-700 lbs 145.00-157.00, Calves 140.00-147.00, 616 lbs Thin Fleshed 160.00; 700-800 lbs 135.00-142.50, Thin Fleshed 141.50-144.00; 800-900 lbs 125.00-130.00,815 lbs Thin Fleshed 131.00; 900-1000 lbs 116.50-121.00, Thin Fleshed 122.00;1022 lbs 114.00. Medium and Large 2 430 lbs 163.00; 549 lbs 152.00, 595 lbsBrahman X 139.00; 600-700 lbs 131.00-142.00; 700-800 lbs 134.50-138.00.Feeder Heifers(Per CWT):  Medium and Large 1 214 lbs 202.50, 289 lbs ThinFleshed 211.00; 300-400 lbs 176.00-180.50, 399 lbs Fleshy 164.50, 322 lbs ThinFleshed 198.00; 400-500 lbs 157.00-168.50; 500-600 lbs 153.00-160.00, Fleshy144.00-147.00; 600-700 lbs 136.00-149.00, 641 lbs Calves 136.00, 679 lbs ThinFleshed 151.50; 700-800 lbs 126.50-136.00; 800-900 lbs 118.00-126.50, 809 lbsFleshy 120.00; 900-1000 lbs 114.25-119.50. Medium and Large 1-2 300-400 lbs157.00-163.00; 489 lbs 155.00; 500-600 lbs 139.00-153.00, Thin Fleshed 150.00-154.00; 600-700 lbs 131.00-138.00, 659 lbs Calves 138.25, Thin Fleshed 132.00-141.00; 700-800 lbs 122.00-135.00, 763 lbs Thin Fleshed 124.00; 800-900 lbs114.50-118.00; 900-1000 lbs 105.00-116.00; 1000-1100 lbs 99.00-104.00. Mediumand Large 2 456 lbs 140.00, 465 lbs Thin Fleshed 151.00; 651 lbs 110.00; 800-900lbs 104.50-115.00.Feeder Bulls(Per CWT):  Medium and Large 1 261 lbs Thin Fleshed 213.00; 384lbs 188.00, 334 lbs Thin Fleshed 226.00; 432 lbs 175.00, 427 lbs Thin Fleshed199.00; 500-600 lbs 160.00-167.00; 619 lbs 148.50. Medium and Large 1-2 344 lbsFleshy 165.00; 528 lbs 155.50; 605 lbs 135.00.Please Note:The above USDA LPGMN price report is reflective of the majority of classes and grades of livestock offered for sale.  There may be instances where some salesdo not fit within reporting guidelines and therefore will not be included in the report.  Prices are reported on an FOB basis, unless otherwise noted. Source:  USDA-OK Dept of Ag Market News ServiceJoe Massey/Bartley Brogan Market Reporters24 Hour Market Report 1-405-636-2691www.ams.usda.gov/mnreports/KO—LS150.txtwww.ams.usda.gov/market-news/livestock-poultry-grain