BC-Merc Table
BC-Merc Table

The Associated Press






BC-Merc Table,
CHICAGO (AP) — Futures trading on the Chicago Mercantile Exchange Tue:
OpenHighLowSettleChg.CATTLE40,000 lbs.; cents per lb.Apr117.37118.70117.37118.05+.90Jun104.25106.17104.25104.90+.73Aug104.25105.47103.67104.45+.25Oct108.60109.47108.10108.80+.20Dec112.77113.62112.45112.92+.12Feb114.70115.47114.45114.75—.05Apr115.67116.02115.20115.57+.17Jun109.32109.37108.75108.97+.20Aug107.95107.95107.75107.75+.15Est. sales 50,122.  Mon.'s sales 51,851Mon.'s open int 344,605FEEDER CATTLE50,000 lbs.; cents per lb.Apr139.22140.10138.22138.72—.50May140.30141.85139.52140.25—.12Aug144.70146.20144.15145.07+.30Sep146.25147.40145.67146.50+.23Oct146.20147.67146.07146.92+.22Nov146.00147.20145.62146.55+.20Jan143.15143.57141.80143.10+.75Mar140.60140.60140.60140.60—.15Est. sales 13,219.  Mon.'s sales 13,760Mon.'s open int 50,646HOGS,LEAN40,000 lbs.; cents per lb.May68.4068.7067.6067.90—.27Jun77.1077.4276.3076.75—.05Jul78.9079.3778.3279.22+.55Aug78.6279.1578.2078.97+.60Oct67.4068.0567.0567.92+.52Dec61.3762.2061.2762.05+.63Feb65.2265.7765.2265.70+.45Apr68.9269.2568.8569.25+.55May74.00Jun77.40+.10Jul77.00+.10Aug76.60+.10Est. sales 31,670.  Mon.'s sales 34,185Mon.'s open int 245,696PORK BELLIES40,000 lbs.; cents per lb.No open contracts.