BC-USDA-Portland Grain
BC-USDA-Portland Grain

The Associated Press



JO—GR110Portland, OR    Tue Apr 17, 2018    USDA Market NewsPortland Daily Grain ReportBids as of 9:30 a.m. Pacific time; Subject to changeAll Bids in dollars per bushel.  Bids are limited and not fullyestablished in early trading.Bids for grains delivered to Portland, Oregon in dollars per bushel.In early trading May wheat futures trended four to six cents per bushelhigher than Monday?s noon closes.Bids for US 1 Soft White Wheat delivered to Portland in unit trains andbarges for April delivery for ordinary protein were not well tested inearly trading, but bids were indicated as steady to higher compared toMonday?s noon bids for the same delivery period.  Some exporters were notissuing bids for nearby delivery.  Bids for guaranteed maximum 10.5 percentprotein were well tested in early trading, but bids were indicated assteady to higher compared to Monday?s noon bids for the same deliveryperiod.  Some exporters were not issuing bids for nearby delivery.Bids for 11.5 percent protein US 1 Hard Red Winter Wheat for Aprildelivery were not well tested in early trading but bids were indicated ashigher compared to Monday?s bids for the same delivery period.  Someexporters were not issuing bids for nearby delivery.Bids for 14 percent protein US 1 Dark Northern Spring Wheat for Aprildelivery were not well tested in early trading but bids were indicated ashigher compared to Monday?s noon bids for the same delivery period.  Someexporters are not issuing bids for nearby delivery.Bids for US 2 Yellow Corn delivered full coast in 110 car shuttle trainsduring April were not well tested in early trading, but bids were indicatedas lower compared to Monday?s noon bids for the same delivery period.Some exporters were not issuing bids for nearby delivery.Bids for US 1 Yellow Soybeans delivered full coast in 110 car shuttletrains during April were not well tested in early trading, but bids wereindicated as higher compared to Monday?s noon bids for the same deliveryperiod.  Some exporters were not issuing bids for nearby delivery.All wheat bids in dollars per bushelUS 1 Soft White Wheat - delivered by Unit Trains and BargesOrdinary proteinApr                                       5.7925-5.9000May                                       5.8200-5.9000Jun                                       5.8500-5.8975Jul                                       5.7500-5.8700Aug NC                                    5.5000-5.7500Guaranteed maximum 10.5 pct proteinApr                                       5.7925-5.9000May                                       5.8200-5.9000Jun                                       5.8500-5.8975Jul                                       5.7500-5.8275Aug NC                                    5.5000-5.7500—US 1 White Club Wheat - delivered by Unit Trains and BargesOrdinary proteinApr                                       5.7925-5.9000Guaranteed maximum 10.5 pct proteinApr                                       5.7925-5.9000—US 1 Hard Red Winter Wheat - (Exporter bids-falling numbers of 300 orbetter)Ordinary protein                            5.4250-5.675011 pct protein                              6.0250-6.175011.5 pct proteinApr                                       6.2750-6.4250May                                       6.2750-6.4250Jun                                       6.3150-6.4650Jul                                       6.2450-6.3150Aug NC                                    6.2175-6.317512 pct protein                              6.3750-6.575013 pct protein                              6.5750-6.8750—US 1 Dark Northern Spring Wheat (with a minimum of 300 falling numbers, a maximumof 0.5 part per million vomitoxin, and a maximum of one percent total damage)13 pct protein                              7.0575-7.307514 pct proteinApr                                       7.4575-7.7075May                                       7.4075-7.6075Jun                                       7.6025Jul                                       7.5025-7.6025Aug NC                                    NA15 pct protein                              7.6975-7.947516 pct protein                              7.9375-8.1875—US 2 Yellow CornShuttle trains-Delivered full coast Pacific Northwest-BNApr                                       5.0075-5.0575May                                       4.9775-5.0375Jun                                       5.0050-5.0250Jul                                       4.9850-5.0050Aug                                       5.0275Sep                                       NA—US 1 Yellow SoybeansShuttle trains-Delivered full coast Pacific Northwest-BNApr                                       11.3650-11.4350May                                       11.3650-11.3850Jun                                       11.4450-11.4750Jul                                       11.4450-11.4650Aug                                       NAOct                                       11.3575-11.3675—US 2 Heavy White Oats **                      3.6300** Not well tested.Exporter Bids Portland Rail/Barge             Mar 2018Averages in Dollars per bushelUS 1 Soft White by Unit Trains and Barges   5.5600US 1 Hard Red Winter (Ordinary protein)     5.5300US 1 Hard Red Winter (11.5% protein)        6.4700US 1 Dark Northern Spring (14% protein)     7.3300Source:    USDA Market News Service, Portland, ORNiki Davila 503-535-5001  Portland.LPGMN@ams.usda.gov24 Hour Market Report  503-535-5005www.ams.usda.gov/mnreports/jo—gr110.txtwww.ams.usda.gov/lpsmarketnewspage8:45 P nd