BC-USDA-Kingsport Catl Actn
BC-USDA-Kingsport Catl Actn

The Associated Press



NV—LS140Nashville, TN      Tue Apr 17, 2018     USDA-TN Dept of Ag Market NewsAthens Stockyard, Athens, TNWeighted Average Report for Tuesday Apr 17, 2018Cattle Receipts:  924          Last week: 1240           Last year: not reportedCompared to last week, feeder steers measuring 5.00 to 7.00 lower, feederheifers 3.00 to 5.00 lower, and feeder bulls 2.00 to 3.00 lower with lowerquality offerings noted.  All classes of slaughter cattle gauging 1.00 to 2.00higher.Feeder: 680				Slaughter: 171			Replacement: 73Slaughter cows made up 16 percent of the offering, slaughter bulls 3 percent,replacement cows 5 percent, and feeders 76 percent.  The feeder supply included19 percent steers, 39 percent heifers, and 42 percent bulls. Near 20 percent ofthe run weighed over 600 lbs.Please Note:The below USDA LPGMN price report is reflective of the majority of classes andgrades of livestock offered for sale.  There may be instances where some salesdo not fit within reporting guidelines and therefore will not be included in thereport.  Prices are reported on a per cwt. basis, unless otherwise noted.Feeder Steers                Medium and Large 1 - 2 Head   Wt Range   Avg Wt    Price Range   Avg Price1    285-285    285       182.00         182.002    305-315    310    159.00-162.50     160.785    350-393    375    159.00-173.00     165.654    435-445    440    151.00-160.00     156.266    450-490    468    150.00-161.00     157.402    458-458    458       175.00         175.00   Fancy10    500-545    539    140.00-155.00     146.732    505-505    505    161.00-165.00     163.00   Fancy11    550-598    585    135.00-151.00     146.121    555-555    555       161.00         161.00   Fancy1    580-580    580       134.00         134.00   Brahman X14    600-646    633    130.00-146.00     142.536    670-695    675    131.00-140.00     135.207    705-745    717    121.00-135.00     127.8310    787-787    787       124.00         124.001    835-835    835       118.00         118.001   1110-1110  1110       100.00         100.00Small and Medium 1 - 22    348-348    348       148.00         148.001    365-365    365       139.00         139.001    505-505    505       133.00         133.00Medium and Large 2 - 31    415-415    415       132.00         132.001    510-510    510       125.00         125.001    580-580    580       128.00         128.00Holstein Large 31    625-625    625        80.00          80.001   1340-1340  1340        61.00          61.00Feeder Heifers                Medium and Large 1 - 2 Head   Wt Range   Avg Wt    Price Range   Avg Price4    215-245    226    145.00-161.00     153.004    255-280    265    150.00-162.50     154.503    265-285    272    171.00-174.00     172.46   Fancy8    305-345    323    150.00-165.00     158.573    305-345    318    170.00-172.00     171.28   Fancy2    343-343    343       148.00         148.00   Brahman X14    355-393    382    146.00-161.00     156.662    350-370    360    165.00-171.00     167.92   Fancy19    400-445    421    143.00-158.00     148.752    418-418    418       161.00         161.00   Fancy25    450-495    475    131.00-151.00     140.191    455-455    455       154.00         154.00   Fancy23    500-548    527    128.00-139.00     134.761    510-510    510       144.00         144.00   Fancy27    550-590    568    124.00-137.00     132.287    615-645    628    122.00-134.00     128.9610    655-685    669    115.00-123.00     121.713    705-725    717    105.00-113.00     108.964    755-780    769    107.00-111.00     108.50Small and Medium 1 - 21    245-245    245       140.00         140.003    320-340    327    125.00-139.00     129.861    380-380    380       132.00         132.006    405-433    422    120.00-128.00     126.052    455-455    455       121.00         121.00Medium and Large 2 - 34    358-380    364    140.00-142.50     141.485    400-435    423    128.00-138.00     134.421    460-460    460       124.00         124.001    520-520    520       120.00         120.001    555-555    555       118.00         118.00Feeder Bulls                Medium and Large 1 - 2 Head   Wt Range   Avg Wt    Price Range   Avg Price2    240-245    243    162.50-172.50     167.554    250-285    261    157.00-167.50     160.432    280-280    280       188.00         188.00   Fancy6    315-340    325    155.00-167.50     162.241    330-330    330       180.00         180.00   Fancy7    350-395    376    150.00-163.00     155.492    355-355    355    171.00-179.00     175.00   Fancy6    363-363    363       174.00         174.00   Value Added28    400-445    419    150.00-168.00     158.532    440-445    443    171.00-174.00     172.49   Fancy7    447-447    447       176.00         176.00   Value Added19    450-495    467    147.00-166.00     157.502    450-455    453    169.00-170.00     169.50   Fancy20    500-548    524    142.00-159.00     150.574    500-520    513    163.00-169.00     166.48   Fancy24    550-595    566    134.00-150.00     142.778    567-576    573    155.00-156.00     155.63   Value Added10    600-645    627    124.00-139.00     132.482    600-625    613    142.00-144.00     142.98   Fancy2    603-603    603       146.00         146.00   Value Added5    650-690    675    120.00-133.00     126.332    650-675    663    135.00-138.00     136.47   Fancy4    715-730    725    115.00-123.00     119.491    795-795    795       111.00         111.001    800-800    800       106.00         106.001    950-950    950       100.00         100.00Small and Medium 1 - 21    220-220    220       157.50         157.502    280-295    288    140.00-145.00     142.431    345-345    345       140.00         140.007    365-395    383    126.00-145.00     137.269    400-448    425    130.00-145.00     134.053    465-495    480    124.00-131.00     128.341    515-515    515       130.00         130.001    590-590    590       128.00         128.00Medium and Large 2 - 33    495-498    497    135.00-142.00     137.323    510-525    518    131.00-132.00     131.333    555-595    580    120.00-124.00     121.713    620-645    637    121.00-122.00     121.32Bred Cows                  Medium and Large 1 - 2 Young Head   Wt Range   Avg Wt    Price Range   Avg Price1    850-850    850       810.00         810.00   Per Head  4-6 Months Bred5    900-1100   970    820.00-975.00     915.82   Per Head  4-6 Months Bred2   1300-1400  1350    900.00-965.00     933.70   Per Head  4-6 Months Bred2   1000-1050  1025    850.00-885.00     867.07   Per Head  7-9 Months Bred1   1200-1200  1200       970.00         970.00   Per Head  7-9 Months BredMedium and Large 1 - 2 Middle Aged1   1300-1300  1300       870.00         870.00   Per Head  1-3 Months Bred1   1550-1550  1550       825.00         825.00   Per Head  1-3 Months Bred5   1350-1400  1390    825.00-975.00     891.47   Per Head  4-6 Months Bred2   1700-1800  1750    850.00-880.00     864.57   Per Head  4-6 Months BredMedium and Large 1 - 2 Aged2    850-850    850    600.00-675.00     637.50   Per Head  4-6 Months Bred3   1100-1150  1117    525.00-600.00     573.66   Per Head  4-6 Months BredSmall and Medium 1 - 2 Young1    800-800    800       675.00         675.00   Per Head  1-3 Months Bred2    750-800    775    650.00-775.00     714.52   Per Head  4-6 Months Bred1    800-800    800       675.00         675.00   Per Head  7-9 Months BredSmall and Medium 1 - 2 Middle Aged1    850-850    850       750.00         750.00   Per Head  7-9 Months BredSlaughter Cows                Breaker 70-80% Lean Head   Wt Range   Avg Wt    Price Range   Avg Price4   1090-1325  1230     53.50-54.00       53.8719   1435-1935  1683     51.00-58.00       54.702   1670-1945  1808     60.50-62.00       61.31   High Dressing2   1450-1530  1490     48.00-49.50       48.77   Low Dressing1   2005-2005  2005        57.50          57.50Boner 80-85% Lean2    885-890    888     46.00-48.00       47.00   Low Dressing20   1005-1385  1246     54.00-63.00       57.672   1320-1395  1358     64.00-69.50       66.83   High Dressing12    945-1370  1168     48.00-53.50       51.06   Low Dressing23   1410-1780  1537     54.00-63.00       58.323   1405-1525  1447     63.50-67.50       65.15   High Dressing1   1425-1425  1425        50.00          50.00   Low DressingLean 85-90% Lean10    865-1285  1075     46.00-53.50       49.755    825-1345  1038     39.50-42.00       40.82   Low DressingSlaughter Bulls                Yield Grade 1 Head   Wt Range   Avg Wt    Price Range   Avg Price4   1315-1460  1406     75.00-84.00       79.7413   1500-2170  1767     75.00-85.00       80.551   1955-1955  1955        92.00          92.00   High DressingSource: TN Dept of Ag-USDA Market News Service, Nashville, TNKristy Tippins, Market Reporter  502-782-4139www.ams.usda.gov/lsmnpubsNV—LS140.txt