BC-Cash Prices, 1st Ld-Writethru,0342
BC-Cash Prices, 1st Ld-Writethru,0342

The Associated Press

NEW YORK




NEW YORK (AP) — Wholesale cash prices Tuesday
?                                      ??Tue.???????Mon.
F
Foods

?Broilers national comp wtd av           ?1.0834?????1.0834
?Eggs large white NY Doz.                ???1.36???????1.36
?Flour hard winter KC cwt                ??15.35??????15.90
?Cheddar Cheese Chi. 40 block per lb.    ?2.1570?????2.1570
?Coffee parana ex-dock NY per lb.        ?1.1925?????1.1953
?Coffee medlin ex-dock NY per lb.        ?1.3973?????1.4009
?Cocoa beans Ivory Coast $ metric ton    ???2834???????2834
?Cocoa butter African styl $ met ton     ???7558???????7558
?Hogs Iowa/Minn barrows & gilts wtd av   ??52.70??????51.68
?Feeder cattle 500-550 lb Okl av cwt     ?173.50?????167.50
?Pork loins 13-19 lb FOB Omaha av cwt    ??82.56??????81.87
Grains
?Corn No. 2 yellow Chi processor bid     ?3.62¼???????3.65½
?Soybeans No. 1 yellow                   10.21???????10.17?
?Soybean Meal Cen Ill 48pct protein-ton  382.30??????390.80
?Wheat No. 2  Chi soft                   ?4.66¼???????4.62¼
?Wheat N. 1 dk  14pc-pro Mpls.           ?7.57½???????7.51¾
?Oats No. 2 heavy or Better              ?2.43¾???????2.45½
Fats & Oils
?Corn oil crude wet/dry mill Chi. lb.    ?.28??????????.28?
?Soybean oil crude Decatur lb.           ?.29½?????????.30?
Metals
?Aluminum per lb LME                     1.0697??????1.0545
?Antimony in warehouse per ton           ??8475????????8500
?Copper Cathode full plate               3.0895??????3.0979
?Gold Handy & Harman                     1342.10????1349.35
?Silver Handy & Harman                   ?16.767?????16.725
?Lead per metric ton LME                 2341.50????2329.00
?Molybdenum per metric ton LME           ?26,000?????26,000
?Platinum per troy oz. Handy & Harman    ?925.00?????930.00
?Platinum Merc spot per troy oz.         ?933.90?????925.70
?Zinc (HG) delivered per lb.             ?1.4133??????1.4156
Textiles, Fibers and Miscellaneous
?Cotton 1-1-16 in. strict low middling   ??79.18??????79.46
Raw Products
?Coal Central Appalachia $ per short ton ??61.45??????61.45
?Natural Gas  Henry Hub, $ per mmbtu     ???2.82???????2.77
b-bid a-asked
n-Nominal
r-revised
n.q.-not quoted<29
n.a.-not available