Close
Close

The Associated Press

CHICAGO




CHICAGO (AP) — Futures trading on the Chicago Board of Trade Wed.:
OpenHighLowSettleChg.WHEAT5,000 bu minimum; cents per bushelMay466¼476465½475¼+9Jul481½490½480½489¼+7¾Sep499½508¼498½507+7¾Dec522¾531¼521¾530½+7¾Mar542¼549542549+8May553558½553558½+8¼Jul552560552560+7½Sep563¼567¾562¼567¾+7¼Dec578¾581¾578¾581¾+7¼Mar587590½586590½+7½May590¼+7½Jul565½573¼565½573¼+7½Est. sales 130,620.  Tue.'s sales 142,821Tue.'s open int 471,652CORN5,000 bu minimum; cents per bushelMay380¾383½380383+2¾Jul389½392¼388¾391¾+2½Sep397399¾396¼399¼+2½Dec406409405¼408½+2½Mar414416¾413½416+2¼May417½420¼417½420¼+2Jul422¼424½421¾424¼+2¼Sep408¼408¾407¼408¾+1Dec410412½410411¾+1½Mar418¼420418¼420+1½May423¾+1½Jul426½428426½428+1½Sep417¼+1½Dec416416½416416½+1¾Jul424¾+1¾Dec421½Est. sales 365,764.  Tue.'s sales 554,140Tue.'s open int 1,854,949OATS5,000 bu minimum; cents per bushelMay228¾236¼228½236+7¼Jul235240235238¾+3Sep244½246244½246+2½Dec255¾257¾254½256¾+2Mar263¼+2May267+2Jul272+2Sep273¼+2Dec273¼+2Mar273¼+2Jul271¾+2Sep271¾+2Est. sales 1,220.  Tue.'s sales 538Tue.'s open int 6,411SOYBEANS5,000 bu minimum; cents per bushelMay1046¼1052½10391041¾—4¼Jul1057¼1063¾1050½1053¼—4Aug1058¾1065¼1052½1055—3½Sep1051¼10571046¼1049—2Nov1044¾1052¾10421045¾+½Jan104710551045¾1049¾+1½Mar103610421034½1040+3¼May1032¾10381030¾1036¾+4½Jul10361041¾1035¾1040¾+4½Aug1035¾+4¼Sep1018¾+4¼Nov996¾1003½996¼1002½+4¾Jan1004¾+4Mar999½+4¾May999¾+4¾Jul1007¾+1¾Aug1000¼+1¾Sep996½+1¾Nov982¾+2¾Jul985½+2¾Nov985½+2¾Est. sales 249,894.  Tue.'s sales 211,352Tue.'s open int 970,469SOYBEAN OIL60,000 lbs; cents per lbMay31.2531.4331.1631.43+.24Jul31.4831.7031.4131.69+.24Aug31.5931.8231.5531.82+.23Sep31.7631.9931.7131.99+.23Oct31.9132.1431.8932.13+.24Dec32.3332.5032.2432.49+.23Jan32.6532.7732.5532.76+.24Mar32.9033.0232.7933.02+.23May33.1533.2933.1133.29+.22Jul33.4033.5433.4033.54+.20Aug33.61+.20Sep33.67+.20Oct33.64+.21Dec33.5533.7733.5533.77+.22Jan33.89+.22Mar34.11+.15May34.14+.20Jul34.28+.18Aug34.27+.18Sep34.27+.18Oct34.27+.18Dec34.23+.17Jul34.23+.17Oct34.23+.17Dec34.23+.17Est. sales 117,738.  Tue.'s sales 114,989Tue.'s open int 526,302SOYBEAN MEAL100 tons; dollars per tonMay381.10382.90375.70376.60—4.50Jul385.70387.60380.30381.20—4.20Aug385.10387.10380.80381.90—3.20Sep383.30385.00379.60380.80—2.40Oct380.60381.80377.20378.60—2.00Dec378.40380.00375.70377.20—1.60Jan374.30376.10372.70374.10—.90Mar364.30365.00362.50363.90+.20May358.90360.00357.80359.70+1.40Jul358.60359.80357.30359.50+1.80Aug356.20357.10356.20357.10+2.20Sep352.10354.20352.10353.50+1.90Oct346.60347.10346.10346.10+2.50Dec343.70346.00343.70345.10+2.60Jan345.80+2.60Mar346.60+2.60May346.60+2.60Jul345.10+2.60Aug345.10+2.60Sep345.10+2.60Oct345.10+2.60Dec341.90+2.60Jul341.90+2.60Oct341.90+2.60Dec352.00+2.60Est. sales 183,497.  Tue.'s sales 118,915Tue.'s open int 523,756,  up 2,854