BC-US--Grain Prices, US
BC-US--Grain Prices, US

The Associated Press

CHICAGO




CHICAGO (AP) — Futures trading on the Chicago Board of Trade Wednesday.:
SettleWHEAT (5,000 bu ; cents per bushel)May             475 1-4Jul             489 1-4Sep             507    Dec             530 1-2Mar             549    May             558 1-2Jul             560    Sep             567 3-4Dec             581 3-4Mar             590 1-2May             590 1-4Jul             573 1-4CORN (5,000 bu ; cents per bushel)May             383    Jul             391 3-4Sep             399 1-4Dec             408 1-2Mar             416    May             420 1-4Jul             424 1-4Sep             408 3-4Dec             411 3-4Mar             420    May             423 3-4Jul             428    Sep             417 1-4Dec             416 1-2Jul             424 3-4Dec             421 1-2OATS (5,000 bu ; cents per bushel)May             236    Jul             238 3-4Sep             246    Dec             256 3-4Mar             263 1-4May             267    Jul             272    Sep             273 1-4Dec             273 1-4Mar             273 1-4Jul             271 3-4Sep             271 3-4SOYBEANS (5,000 bu ; cents per bushel)May            1041 3-4Jul            1053 1-4Aug            1055    Sep            1049    Nov            1045 3-4Jan            1049 3-4Mar            1040    May            1036 3-4Jul            1040 3-4Aug            1035 3-4Sep            1018 3-4Nov            1002 1-2Jan            1004 3-4Mar             999 1-2May             999 3-4Jul            1007 3-4Aug            1000 1-4Sep             996 1-2Nov             982 3-4Jul             985 1-2Nov             985 1-2SOYBEAN OIL (60,000 lbs; cents per lb)May             31.43Jul             31.69Aug             31.82Sep             31.99Oct             32.13Dec             32.49Jan             32.76Mar             33.02May             33.29Jul             33.54Aug             33.61Sep             33.67Oct             33.64Dec             33.77Jan             33.89Mar             34.11May             34.14Jul             34.28Aug             34.27Sep             34.27Oct             34.27Dec             34.23Jul             34.23Oct             34.23Dec             34.23SOYBEAN MEAL (100 tons; dollars per ton)May            376.60Jul            381.20Aug            381.90Sep            380.80Oct            378.60Dec            377.20Jan            374.10Mar            363.90May            359.70Jul            359.50Aug            357.10Sep            353.50Oct            346.10Dec            345.10Jan            345.80Mar            346.60May            346.60Jul            345.10Aug            345.10Sep            345.10Oct            345.10Dec            341.90Jul            341.90Oct            341.90Dec            352.00