BC-Merc Table
BC-Merc Table

The Associated Press






BC-Merc Table,
CHICAGO (AP) — Futures trading on the Chicago Mercantile Exchange Wed:
OpenHighLowSettleChg.CATTLE40,000 lbs.; cents per lb.Apr118.57119.07118.47118.97+.92Jun105.30105.97104.95105.27+.37Aug104.72105.30104.65105.15+.70Oct109.05109.50109.00109.47+.67Dec113.37113.67113.17113.55+.63Feb115.25115.57114.95115.22+.47Apr116.00116.40115.85116.10+.53Jun109.37109.97109.37109.57+.60Aug108.00108.75108.00108.45+.70Est. sales 39,940.  Tue.'s sales 51,465Tue.'s open int 344,649,  up 44FEEDER CATTLE50,000 lbs.; cents per lb.Apr138.92139.32138.32138.75+.03May140.60141.40140.00140.67+.42Aug145.35146.35145.12146.05+.98Sep146.80147.55146.42147.30+.80Oct147.25148.20146.97147.97+1.05Nov147.07147.87146.62147.60+1.05Jan143.82144.00143.30144.00+.90Mar141.50141.50141.10141.10+.50Est. sales 10,762.  Tue.'s sales 13,285Tue.'s open int 49,750HOGS,LEAN40,000 lbs.; cents per lb.May68.0069.9767.8569.85+1.95Jun76.8078.9576.7778.52+1.77Jul79.4081.3079.3581.05+1.83Aug79.0581.0079.0580.55+1.58Oct67.9568.9267.9268.72+.80Dec62.1062.8562.1062.77+.72Feb65.7566.4065.7566.37+.67Apr69.2269.8569.2269.80+.55May74.0074.4074.0074.40+.40Jun78.0078.2078.0078.20+.80Jul77.65+.65Aug77.25+.65Est. sales 51,423.  Tue.'s sales 32,003Tue.'s open int 240,464PORK BELLIES40,000 lbs.; cents per lb.No open contracts.