BC-USDA-Fdr Catl
BC-USDA-Fdr Catl

The Associated Press



SJ—LS150 St Joseph, MO    Wed  Apr  18,  2018    USDA-MO Dept of Ag Market NewsSt Joseph Stockyards - St Joseph, MOLivestock Auction Report for 4/18/2018 AUCTION                          Receipts           Week Ago             Year Ago--------------------------------------------------------------------------------- Total Receipts:                  2,400                 2,362              2,283------------------------------------------------------------------------------ Feeder Cattle:                   2,400(100           2,362(100%)        2,283(100%)---------------------------------------------------------------------------------***MID-SESSION***Compared to last week steers under 500 lbs soldsteady; over 500 lbs steady to 5.00 higher; steers 700-750 lbs traded14.00 higher. Heifers were mostly steady to 3.00 higher on comparable sales, instances 7.00 higher on 700-750 lbs.  Feeder cattle supply included 49 percent Steers, 45 percent Heifers, 0 percent Cows, and  6percent Bulls. Feeder cattle supply over 600 lbs was 43 percent.--------------------------------------------------------------------------------FEEDER CATTLE--------------------------------------------------------------------------------Feeder Steers(Per CWT):  Medium and Large 1 300-400 lbs 186.25-199.50; 400-500 lbs 178.00-188.50, 498 lbs Fleshy 170.00; 500-600 lbs 171.00-188.00, 595 lbsFleshy 158.00; 600-700 lbs 156.00-177.75, 620 lbs Fleshy 151.00, 639 lbs ThinFleshed 173.50; 700-800 lbs 145.00-170.00, Fleshy 142.50-145.00; 800-900 lbs139.25-154.00, 820 lbs Fleshy 123.25; 901 lbs Fleshy 126.25. Medium and Large 1-2 300-400 lbs 166.00-181.50; 400-500 lbs 161.00-183.00; 500-600 lbs 163.00-170.00, 501 lbs Thin Fleshed 170.00; 600-700 lbs 141.00-155.00; 700-800 lbs136.50-151.25; 959 lbs 120.25. Large 1-2 413 lbs 172.75.Feeder Heifers(Per CWT):  Medium and Large 1 300-400 lbs 170.00-183.00; 400-500 lbs 150.25-176.50, Fleshy 140.00-152.00; 500-600 lbs 145.25-159.50, Fleshy134.50-145.00; 600-700 lbs 134.25-151.00, 613 lbs Calves 138.25, Fleshy 121.00-137.50, 617 lbs Thin Fleshed 163.25; 700-800 lbs 127.50-149.00, Fleshy 110.00-133.50. Medium and Large 1-2 273 lbs 169.00; 300-400 lbs 160.00-169.00; 400-500lbs 139.00-151.50; 500-600 lbs 134.25-146.50; 600-700 lbs 134.25-143.00, 648 lbsFleshy 125.00; 808 lbs 122.00. Medium 2 400-500 lbs 135.50-168.00. Medium 2-3372 lbs 152.00.Feeder Cows(Per CWT):  Medium and Large 1 514 lbs Fleshy 143.50.Feeder Bulls(Per CWT):  Medium and Large 1 390 lbs 175.00; 500-600 lbs153.00-158.50; 624 lbs 143.00; 839 lbs 115.00. Medium and Large 1-2 300-400 lbs162.00-177.00; 500-600 lbs 145.00-151.75; 699 lbs 132.50; 722 lbs 125.00; 863lbs 127.00.Please Note:The above USDA LPGMN price report is reflective of the majority of classes and grades of livestock offered for sale.  There may be instances where some salesdo not fit within reporting guidelines and therefore will not be included in the report.  Prices are reported on an FOB basis, unless otherwise noted. Source:  USDA-MO Dept of Ag Market News ServiceBaldemar Ortiz, Market Reporter, (816) 676-700024 Hour Market Report 1-573-522-9244www.ams.usda.gov/mnreports/SJ—LS150.txtwww.ams.usda.gov/market-news/livestock-poultry-grain