BC-USDA-SC Clsng Grain Bids
BC-USDA-SC Clsng Grain Bids

The Associated Press



CO—GR110Columbia, SC     Wednesday, April 18, 2018 USDA-SC Dept Ag Market NewsSouth Carolina closing cash grain bids as of 3:00 P.M.  Prices deliveredto country elevators or processors. New crop bids noted with (*).US 2 Yellow Corn was 3 cents higher.US 1 Yellow Soybeans were 4 to 5 cents lower.US 2 Soft Red Wheat were mostly 7 to 9 higher; one location steady.New Crop US 2 Yellow Corn was 2 to 3 cents higher.New Crop US 1 Yellow Soybeans was steady to 1 cent higher.New Crop US 2 Soft Red Wheat was 3 to 8 cents higher.CORN: Country Elevators---4.03 at Anderson; 3.68 and *3.99 at Kingstree;4.13 and *4.24 at Hamer; 3.68 and *3.99 at Lynchburg; 3.68 and *3.99 atConway; 3.68 and *3.99 at Estill; Processors---4.23 at Orangeburg; 4.61and *4.64 at Monetta; 4.48 and *4.54 at Sumter; *4.49 at Cassatt.SOYBEANS: Country Elevators---9.91 at Anderson; 9.76 and *9.90 atKingstree; 9.77 and *10.01 at Hamer; 9.76 and *9.90 at Lynchburg; 9.76and *9.90 at Conway; 9.76 and *9.90 at Estill; Processors---10.52 and*10.26 at Kershaw; Export---10.42 and *10.36 at Mt. Pleasant.WHEAT: Country Elevators---4.75 and *4.49 at Anderson; *3.89 atKingstree; 4.64 and *4.64 at Hamer; *3.89 at Lynchburg; *3.89 at Conway;*3.89 at Estill; Processors---No Bid at Monetta; No Bid at Sumter; *4.52Cassatt; 5.25 at Columbia; Export---No Bid at Mt. Pleasant.COUNTRY ELEVATORS    US 2 Yellow       US 1 Yellow       US 2 Soft RedCorn             Soybeans           WheatCash  New Crop    Cash  New Crop    Cash  New CropAnderson             4.03              9.91              4.75     4.49Kingstree            3.68   3.99       9.76     9.90              3.89Hamer                4.13   4.24       9.77    10.01     4.64     4.64Lynchburg            3.68   3.99       9.76     9.90              3.89Conway               3.68   3.99       9.76     9.90              3.89Estill               3.68   3.99       9.76     9.90              3.89PROCESSORSOrangeburg           4.23Monetta              4.61   4.64Sumter               4.48   4.54Cassatt                     4.49                                  4.52Kershaw                               10.52    10.26Columbia                                                 5.25EXPORTMt. Pleasant                          10.42    10.36Source: South Carolina Dept. of Ag-USDA Market News, Columbia, SC803-737-4671. For more info check out the internet athttp://www.ams.usda.gov/mnreports/co—gr110.txt15:03 ts