BC-USDA-Fdr Catl
BC-USDA-Fdr Catl

The Associated Press



 SJ—LS150  ****  Correction released on Wed  Apr  18,  2018  **** St Joseph, MO    Wed  Apr  18,  2018    USDA-MO Dept of Ag Market NewsSt Joseph Stockyards - St Joseph, MOLivestock Auction Report for 4/18/2018 AUCTION                          Receipts           Week Ago             Year Ago--------------------------------------------------------------------------------- Total Receipts:                  2,398                 2,362              2,283------------------------------------------------------------------------------ Feeder Cattle:                   2,398(100           2,362(100%)        2,283(100%)---------------------------------------------------------------------------------***CLOSED***Compared to last week steers under 500 lbs sold steady;over 500 lbs steady to 5.00 higher; steers 700-750 lbs traded 14.00higher. Heifers were mostly steady to 3.00 higher on comparable sales, instances 7.00 higher on 700-750 lbs.  Trade active, demand good especially for long weaned calves.  The higher cattle futures lend support to the feeder trade.  Feeder cattle supply included 47 percent Steers, 44 percent Heifers, 0 percent Cows, and  8 percent Bulls. Feeder cattlesupply over 600 lbs was 41 percent.--------------------------------------------------------------------------------FEEDER CATTLE--------------------------------------------------------------------------------Feeder Steers(Per CWT):  Medium and Large 1 300-400 lbs 186.25-199.50; 400-500 lbs 178.00-188.50, Fleshy 162.00-170.00; 500-600 lbs 170.00-188.00, 595 lbsFleshy 158.00; 600-700 lbs 155.00-177.75, Fleshy 141.00-151.00; 700-800 lbs145.00-170.00, Fleshy 142.50-145.00; 815 lbs 154.00, 820 lbs Fleshy 123.25; 901lbs Fleshy 126.25. Medium and Large 1-2 300-400 lbs 168.00-181.50; 400-500 lbs166.00-184.00; 500-600 lbs 163.00-170.00; 600-700 lbs 141.00-157.00; 700-800 lbs136.50-151.25; 800-900 lbs 125.75-139.25; 959 lbs 120.25. Medium and Large 2 524lbs 154.25.Feeder Heifers(Per CWT):  Medium and Large 1 300-400 lbs 170.00-183.00; 400-500 lbs 151.00-176.50, 491 lbs Fleshy 140.00; 500-600 lbs 145.00-159.50, Fleshy134.50-148.00; 600-700 lbs 134.25-151.00, 613 lbs Calves 138.25, 673 lbs Fleshy137.50, 617 lbs Thin Fleshed 163.25; 700-800 lbs 127.50-149.00, Fleshy 121.00-133.50. Medium and Large 1-2 200-300 lbs 169.00-189.00; 300-400 lbs 160.00-175.00; 400-500 lbs 139.00-159.00; 500-600 lbs 134.25-146.50; 600-700 lbs 134.25-143.00, Fleshy 121.00-125.00; 700-800 lbs 133.00-133.50; 808 lbs 122.00. Medium1 458 lbs 168.00. Medium 2 480 lbs 135.50. Medium 2-3 372 lbs 152.00.Feeder Cows(Per CWT):  Medium and Large 1 514 lbs Fleshy 143.50. Medium 2393 lbs 140.00.Feeder Bulls(Per CWT):  Medium and Large 1 300-400 lbs 175.00-180.00; 400-500 lbs 171.00-174.00; 500-600 lbs 145.50-158.50; 600-700 lbs 130.00-143.00;839 lbs 115.00. Medium and Large 1-2 300-400 lbs 162.00-177.00; 499 lbs 150.00;500-600 lbs 136.00-151.75; 600-700 lbs 132.50-137.00; 722 lbs 125.00; 863 lbs127.00.Please Note:The above USDA LPGMN price report is reflective of the majority of classes and grades of livestock offered for sale.  There may be instances where some salesdo not fit within reporting guidelines and therefore will not be included in the report.  Prices are reported on an FOB basis, unless otherwise noted. Source:  USDA-MO Dept of Ag Market News ServiceBaldemar Ortiz, Market Reporter, (816) 676-700024 Hour Market Report 1-573-522-9244www.ams.usda.gov/mnreports/SJ—LS150.txtwww.ams.usda.gov/market-news/livestock-poultry-grain