BC-Wheat KX
BC-Wheat KX

The Associated Press

CHICAGO




CHICAGO (AP) — Winter Wheat futures on the Chicago Board of Trade Thu:
OpenHighLowSettleChg.WHEAT5,000 bu minimum; cents per bushelMay492496¾489½495¼+6½Jul511½516508½514½+6¾Sep533¼534¾527½533½+6¼Dec557560½553¾559¾+5½Mar574¾578572577¼+5May587½588583½586¾+4¾Jul591591½587½591+4¾Sep599+4½Dec611¾613¼611¾613¼+4Mar618¾+4May618¾+4Jul612+4Est. sales 53,878.  Wed.'s sales 52,250Wed.'s open int 265,297