BC-USDA-Catl Actn
BC-USDA-Catl Actn

The Associated Press



.SA—LS150San Angelo, TX    Thu Apr 19, 2018    USDA Market NewsProducers Livestock Auction Co Report, San Angelo, TexasSpecial Cow Sale in conjunction with Cattle and Calf Auction:Close and Weekly:Total Receipts:  1614    Last Week:   951    Year Ago:  1198Compared to last week steer calves and yearlings 1.00-3.00 lower;heifer calves and yearlings steady.  Slaughter cows and slaughter bulls2.00-4.00 lower.  Stock cows and pairs moderately lower.  Trading anddemand moderate.  Quality mostly average to plain.  Supply included 15percent slaughter cows, 1 percent slaughter bulls, 64 percent feeders,20 percent stock cows and pairs ? of the feeders 45 percent were steersand bulls ? 30 percent weighed over 600 lbs.FEEDER STEERS:Medium and Large 1 225 lbs 202.00; 509 lbs 171.00.Medium and Large 1-2 227 lbs 192.00; 300-400 lbs 182.00-185.00; 400-500 lbs 176.00-182.00; 500-600 lbs 154.00-166.00; 600-700 lbs 143.00-147.00.Medium and Large 2 200-300 lbs 175.00-186.00; 300-400 lbs 170.00-182.00; 400-500 lbs 155.00-175.00; 500-600 lbs 142.00-152.00; 600-700 lbs131.00-139.00; 700-800 lbs 122.00-129.00.FEEDER BULLS:Medium and Large 2 500-600 lbs 133.00-140.00; 600-700 lbs 124.00-132.00; 700-800 lbs 100.00-107.50.FEEDER HEIFERS:Medium and Large 1 400-450 lbs 164.00-167.00; 500-600 lbs 144.00-153.00.Medium and Large 1-2 200-300 lbs 176.00-182.50; 300-400 lbs 164.00-170.00; 400-500 lbs 153.00-161.00; 500-600 lbs 134.00-143.00; 600-700 lbs130.00-139.00; 700-800 lbs 121.00-125.00.Medium and Large 2 300-400 lbs 146.00-155.00; 400-500 lbs 140.00-154.00; 500-700 lbs 120.00-128.00; 700-900 lbs 108.00-119.00.SLAUGHTER COWS:%Lean   weight         avg dress      hi-dress      low-dressBreakers  75-80  1300-1725 lbs   55.00-62.00Boners    80-85   950-1500 lbs   62.00-72.00      74.00Lean      85-90   850-1400 lbs   59.00-65.00                 50.00-59.5085-90   600-900  lbs                               45.00-54.00SLAUGHTER BULLS:  Yield Grade 1 1500-2000 lbs 79.00-85.00; low-yielding1150-1600 lbs 70.00-77.00.PREGNANCY TESTED STOCK COWS AND HEIFERS:  All sold by the head.Medium and Large 1Medium and Large 1-2   1025.00-1100.00.Medium and Large 2      800.00-1000.00.COW/CALF PAIRS:    All sold by the pair.  All have 150-350 lbs calves.Medium and Large 1     baby tooth cows    1750.00-1925.00.solid mouth cows   1625.00.Medium and Large 1-2   baby tooth cows    1350.00-1550.00.solid mouth cows   1100.00-1280.00.Medium and Large 2                         800.00-1125.00.STOCKER AND FEEDER COWS:Medium and Large 1-2 (young) 800-1050 93.00-106.50 cwt; (young andmiddle age) 800-1100 lbs 81.00-90.00 cwt; (middle age) 900-1450 lbs70.00-75.00 cwt; (thin &/or aged) 800-1300 lbs 65.00-69.00 cwt.BREEDING BULLS:1250.00-2300.00 per head.Source:  USDA Market News Service, San Angelo, TexasRebecca Sauder 325-653-1778www.ams.usda.gov/mnreports/SA—LS150.txtwww.ams.usda.gov/LSMarketNews1620c  rs