BC-BOT Table,1st Ld
BC-BOT Table,1st Ld

The Associated Press

CHICAGO




CHICAGO (AP) — Noon trading on the Chicago Board of Trade Thu.:
Open  High  Low  Noon    Chg.WHEAT                                   5,000 bu minimum; cents per bushel    May      477½  480    471¾  475     — ¼Jul      491¾  494    485    488¾   — ½Sep      509½  511½  503    506¼   — ¾Dec      532    535    526½  529¾   — ¾Mar      550½  553¼  545¼  547¾   —1¼May      560    561¾  554    555     —3½Jul      563    563¼  555¾  557¾   —2¼Sep      571¼  571¼  569¾  569¾   +2  Dec      584¾  584¾  579    579     —2¾Est. sales 96,343.  Wed.'s sales 142,821Wed.'s open int 471,652                CORN                                     5,000 bu minimum; cents per bushel    May      382¾  383½  380¾  381½   —1½Jul      391¾  392½  389¾  390½   —1¼Sep      399    399¾  397¼  398     —1¼Dec      408    409    406¼  407¼   —1¼Mar      416    416½  414¼  414¾   —1¼May      420¼  420½  418½  418¾   —1½Jul      423¾  424½  422¼  422¾   —1½Sep      408½  409¾  408    408     — ¾Dec      412¾  412¾  411    411¾        Dec      417¾  418½  417¾  418     +1½Est. sales 219,303.  Wed.'s sales 554,140Wed.'s open int 1,854,949              OATS                                      5,000 bu minimum; cents per bushel    May      235¾  236¾  233¼  235     —1  Jul      239    239½  237    238     — ¾Sep      245½  245½  245¼  245½   — ½Dec      255½  256¼  255½  256¼   — ½Est. sales 1,405.  Wed.'s sales 538    Wed.'s open int 6,411                  SOYBEANS                               5,000 bu minimum; cents per bushel    May     1041¾ 1044¾ 1032¾ 1034½   —7¼Jul     1053¼ 1056¼ 1044¼ 1046     —7¼Aug     1054¾ 1057½ 1046¼ 1047¾   —7¼Sep     1048¾ 1051¼ 1041½ 1042¼   —6¾Nov     1045   1047¾ 1037¾ 1040     —5¾Jan     1047   1051¼ 1042¼ 1044½   —5¼Mar     1040   1041½ 1034   1035½   —4½May     1036   1039   1032½ 1034¼   —2½Jul     1040½ 1043½ 1037   1039¼   —1½Nov     1004¼ 1004¾ 1000¼ 1001¾   — ¾Est. sales 176,950.  Wed.'s sales 211,352Wed.'s open int 970,469                SOYBEAN OIL                            60,000 lbs; cents per lb                 May      31.41  31.57  31.33  31.41   —.02Jul      31.62  31.83  31.60  31.66   —.03Aug      31.77  31.95  31.73  31.79   —.03Sep      31.94  32.11  31.90  31.92   —.07Oct      32.05  32.24  32.05  32.11   —.02Dec      32.45  32.63  32.39  32.47   —.02Jan      32.76  32.89  32.66  32.71   —.05Mar      33.10  33.16  32.96  33.02        May      33.28  33.39  33.22  33.22   —.07Jul      33.56  33.56  33.44  33.44   —.10Dec      33.79  33.79  33.79  33.79   +.02Est. sales 68,377.  Wed.'s sales 114,989Wed.'s open int 526,302                SOYBEAN MEAL                         100 tons; dollars per ton                May     376.50 377.90 373.00 373.20  —3.40Jul     381.10 382.40 377.40 377.60  —3.60Aug     381.70 382.50 378.10 378.30  —3.60Sep     380.40 381.60 377.80 378.00  —2.80Oct     378.60 378.80 376.40 376.60  —2.00Dec     376.90 378.30 375.20 375.50  —1.70Jan     375.00 375.00 372.00 372.30  —1.80Mar     364.70 364.70 361.80 362.60  —1.30May     358.90 359.30 358.00 358.00  —1.70Jul     359.00 359.00 357.00 357.70  —1.80Dec     345.00 345.90 344.50 344.50   —.60Est. sales 105,121.  Wed.'s sales 118,915Wed.'s open int 523,756