Preclosing
Preclosing

The Associated Press

CHICAGO




CHICAGO (AP) — Futures trading on the Chicago Board of Trade Thu:
OpenHighLowLastChg.WHEAT5,000 bu minimum; cents per bushelMay477½480471¾476¾+1½Jul491¾494485490½+1¼Sep509½511½503508½+1½Dec532535526½531¾+1¼Mar550½553¼545¼550+1May560561¾554558¾+¼Jul563563¼555¾561+1Sep571¼571¼568568+¼Dec584¾584¾579579—2¾Est. sales 106,048.  Wed.'s sales 142,821Wed.'s open int 471,652CORN5,000 bu minimum; cents per bushelMay382¾383½380¾381¾—1¼Jul391¾392½389¾390¾—1Sep399399¾397¼398¼—1Dec408409406¼407½—1Mar416416½414¼415¼—¾May420¼420½418½419¼—1Jul423¾424½422¼423¼—1Sep408½409¾408409½+¾Dec412¾412¾411412¼+½Dec417¾418½417¾418+1½Est. sales 244,092.  Wed.'s sales 554,140Wed.'s open int 1,854,949OATS5,000 bu minimum; cents per bushelMay235¾236¾233¼234½—1½Jul239239½237238½—¼Sep245½245½245¼245¼—¾Dec255½256¼255½256—¾Est. sales 1,476.  Wed.'s sales 538Wed.'s open int 6,411SOYBEANS5,000 bu minimum; cents per bushelMay1041¾1044¾1032¾1036½—5¼Jul1053¼1056¼1044¼1047¾—5½Aug1054¾1057½1046¼1049¾—5¼Sep1048¾1051¼1041¼1043½—5½Nov10451047¾1037¾1040¾—5Jan10471051¼1042¼1045¾—4Mar10401041½10341037—3May103610391032½1035—1¾Jul1040½1043½10371040—¾Nov1004¼1004¾1000¼1002½Est. sales 197,767.  Wed.'s sales 211,352Wed.'s open int 970,469