BC-Merc Table
BC-Merc Table

The Associated Press






BC-Merc Table,
CHICAGO (AP) — Futures trading on the Chicago Mercantile Exchange Thu:
OpenHighLowSettleChg.CATTLE40,000 lbs.; cents per lb.Apr119.05119.50117.60117.80—1.17Jun105.15105.42102.57103.00—2.27Aug104.97105.15102.60103.12—2.03Oct109.27109.40107.25107.65—1.82Dec113.55113.55111.52112.10—1.45Feb115.07115.17113.10113.65—1.57Apr115.90116.10114.25114.57—1.53Jun109.32109.90108.07108.37—1.20Aug108.00108.75107.25107.25—1.20Est. sales 65,805.  Wed.'s sales 51,465Wed.'s open int 344,649FEEDER CATTLE50,000 lbs.; cents per lb.Apr138.50138.52136.90137.22—1.53May140.50140.72138.07138.42—2.25Aug146.05146.27143.35143.70—2.35Sep147.30147.50144.60145.00—2.30Oct147.87148.17145.15145.70—2.27Nov147.57147.80144.82145.32—2.28Jan143.97144.02141.52141.80—2.20Mar141.47141.47139.60140.00—1.10Est. sales 15,581.  Wed.'s sales 13,285Wed.'s open int 49,750HOGS,LEAN40,000 lbs.; cents per lb.May69.9770.3569.3770.15+.30Jun78.8079.1077.5078.07—.45Jul81.1081.3280.1780.70—.35Aug80.8780.9579.5780.02—.53Oct68.9268.9267.5568.22—.50Dec62.9062.9061.7562.50—.27Feb66.4266.4565.6566.15—.22Apr69.8769.8769.2569.60—.20May74.20—.20Jun78.00—.20Jul77.45—.20Aug77.05—.20Est. sales 42,570.  Wed.'s sales 32,003Wed.'s open int 240,464PORK BELLIES40,000 lbs.; cents per lb.No open contracts.