BC-USDA-Calif Veggies
BC-USDA-Calif Veggies

The Associated Press



LOS ANGELES Terminal Prices as of 19-APR-2018Provided by:  Specialty Crops Market NewsFederal - State Market News Service, USDA.Phone:  (213) 894-3077     Fax:  (213) 894-2898Weather at 7:00 a.m. OVERCAST 53Yesterday's high 72https://www.ams.usda.gov/market-news/fruits-vegetablesHC—FV020VEGETABLES---ARTICHOKES: OFFERINGS LIGHT. MARKET STEADY.  cartons CA Central CoastCalifornia Globe Thorned green 12s 32.00 18s 36.00 24s 36.00 Thornless greenmed lse 32.00 sml lse 36.00---ASPARAGUS:  MARKET STEADY.  pyramid cartons 28 lb bunched CA Stockton DeltaDistrict Green lge 18.00 some lower std 18.00 some lower MX Baja District Greenlge 18.00 some lower 11 lb cartons bunched CA Stockton Delta District Green lge14.00 holdovers 10.00 MX Baja District Green jbo 14.00 holdovers 10.00 exlge14.00 holdovers 10.00 lge 14.00 holdovers 10.00 std 14.00 holdovers 10.00 PEAIR White lge 25.50-26.50 15 lb cartons bunched MX Baja District Green Tips lge10.00---BEANS:  MARKET ABOUT STEADY.  bushel crates MX Baja District Fava24.00-26.00 few high as 32.50 10 lb cartons MX Baja District Haricot Vert(French Type) 16.00 15 lb cartons MX Baja District Italian Type 32.00 15 lbcrates MX Baja District Italian Type 28.00 30 lb cartons CA Desert DistrictCalifornia Round Green Type Handpicked 28.00 MX Baja District Round Green TypeHandpicked 20.00 30 lb reusable plastic containers (RPC) MX Round Green TypeHandpicked 18.00-20.00 few high as 26.00 fr qual 14.00-15.00---BEETS:  MARKET STEADY.  cartons bunched MX Baja District Red Type 12s8.00-11.00 25 lb film bags CA Red Type med 10.00-12.00 lge 10.00-12.00 GoldType med-lge 17.50-18.50 few 19.50---BROCCOLI:  MARKET STEADY.  cartons CA Central Coast California bchd 14s10.00-11.00 few 12.00 fr qual 6.00-8.00 Baby Hybrid Type bchd 18s 23.50-24.0020 lb cartons loose CA Central Coast California Crown Cut 12.00-13.00 few 14.00fr qual 8.50-10.00---BRUSSELS SPROUTS: OFFERINGS LIGHT.   25 lb cartons CA Central CoastCalifornia 22.00-24.00 med 20.00-22.00 few 18.00---CABBAGE:  MARKET STEADY.  50 lb cartons CA Central Coast California RoundGreen Type med 10.00-11.00 lge 8.50-9.00 Red Type med 14.00-15.00 45 lb cartonsCA Central Coast California Savoy Type med-lge 16.00-17.00---CARROTS:  MARKET STEADY.  sacks 48 1-lb film bags CA Kern DistrictCalifornia med-lge 16.50-17.00 sacks 24 2-lb film bags CA Kern DistrictCalifornia med-lge 16.00-17.00 sacks 10 5-lb film bags CA Kern DistrictCalifornia med-lge 16.00-17.00 50 lb sacks loose CA Kern District CaliforniaJuice Type 14.00-15.00 25 lb sacks loose CA Kern District California med10.00-10.50 jbo 12.00-13.00 few 14.00 cartons 20 1-lb film bags CA KernDistrict California Baby Peeled med-lge 20.00-21.00---CAULIFLOWER:  MARKET STEADY.  cartons film wrapped CA Central CoastCalifornia White 9s 10.00 12s 14.00-15.00 fr qual 12.00-12.50 16s 13.00-14.00fr qual 11.00-11.50 Orange 6s 19.00 8s 19.00 12s 22.50 Purple 6s 19.00 8s 19.0012s 22.50 Romanesco 12s 22.50 16s 22.50---CELERY:  MARKET STEADY.  cartons CA Central Coast California 2 dz12.00-13.00 fr qual 10.00-10.50 2 1/2 dz 12.00-13.00 fr qual 10.00-10.50filmbags 30s 13.00 cartons film bags CA Central Coast California Hearts 18s10.00---CORN-SWEET:  MARKET STEADY.  wirebound crates FL Yellow 4 dz fr appear16.00-18.00 White 4 dz fr appear 16.00-18.00 cartons CA Desert DistrictCalifornia Yellow 4 dz 24.00-27.00 White 4 dz 22.00-25.00---CUCUMBERS:  MARKET STEADY.  1 1/9 bushel cartons MX med 18.00-20.00 fr qual15.00-16.00 ord qual 12.00-13.00 poorer qualitiy and condition 10.00 lge 18.00fr qual 15.00-16.00 Baja District lge 18.00 cartons MX 36s 9.00 fr qual BajaDistrict 36s 11.00 40 lb plastic containers MX Pickles 200-300s 18.00-20.00300-400s 18.00-20.00 4/7 bushel cartons MX Baja District Pickles sml-med13.00-14.00 sml 13.00-14.00 GREENHOUSE cartons film wrapped MX Long Seedless12s 13.00-13.50 16s 14.00-14.50 22 lb cartons MX Baja District Persian med10.00-12.00 sml-med 12.00-13.00 sml 12.00-13.00 10 lb cartons CA Japanese med22.00-24.00---EGGPLANT:  MARKET MEXICAN 18S & 24S LOWER, OTHERS ABOUT STEADY.  1 1/9bushel cartons CA Desert District California 18s 15.00 24s 13.00 1 bu, 1 1/9bu, 1 1/6 bu cartons wrapped MX 18s 12.00-13.00 fr qual fr cond 7.00-8.00 somelower 24s 11.00-12.00 fr qual fr cond 6.00-7.00 some lower 30 lb cartons MXChinese med-lge 14.00-16.50 mostly 14.00-15.00 occas higher/lower Italiansml-med 18.00-22.50 occas lower Japanese sml-med 22.00-25.00 occas best higherIndian med 16.00-19.00 mostly 16.00-18.00 occas higher/lower---ENDIVE:  MARKET STEADY.  cartons CA Central Coast California 24s 12.00-13.00fr qual 10.00-10.50 10 lb cartons BL AIR Witloof 20.00-21.50 CA Central CoastCalifornia Witloof 18.00-18.50 8 lb cartons CA Central Coast California WitloofRed Type 43.00 3 kg cartons NL AIR Witloof Red Type 43.00---ESCAROLE:  MARKET STEADY.  cartons CA Central Coast California 24s13.00-14.00---GARLIC: OFFERINGS LIGHT.   30 lb cartons AG White #6 52.00 #7 72.00 CACentral Coast California White jbo 60.00 giant 45.00 CQ White netted 5s 46.00Purple netted 5s 46.00 10 lb cartons CA Central Coast California elephant32.00-32.50 cartons 4 5-lb plastic jars CQ Peeled 11.00-12.00 cartons 4 5-lbfilm bags CQ Peeled 10.00-11.00---GREENS:  MARKET STEADY.  cartons bunched CA Central Coast California Collard24s 15.50-16.00 Kale green 24s 11.00-12.00 fr qual 9.00-9.50 Lacinato (Tuscan)24s 20.00-22.00 Kale, Multicolor 24s 23.00-24.00 Mustard Curly 24s 15.50-16.00Flat 24s 15.50-16.00 Swiss Chard 12s 12.50-13.00 red 12s 12.50-13.00 BroccoliRabe (Rappini) 20s 43.00-45.00 Dandelion green 12s 11.00-12.00 red 12s11.00-12.00---LETTUCE-ICEBERG:  MARKET STEADY.  cartons CA Central Coast California 24s11.50-12.00 fr qual 9.50-10.00 flm lined 24s 12.00-12.50 24s flmwrpd12.50-13.00---LETTUCE-OTHER:  MARKET STEADY.  cartons CA Central Coast California Boston24s 15.00-16.00 fr qual 13.00-13.50 Green Leaf 24s 18.00-20.00 fr qual15.00-16.00 Red Leaf 24s 15.00-16.00 fr qual 13.00-13.50 flats 1 layer CACentral Coast California Frisee 24s 16.00-16.50 12s 8.50-9.00 2 lb cartons CACentral Coast California Lolla Rossa 24s 8.50-9.00 Red Oak Leaf 24s 8.50-9.00Green Oak Leaf 24s 8.50-9.00 3 lb cartons CA Central Coast California MesculinMix 5.50-6.50 cartons 3 1-lb film bags CA Central Coast California Mesculin Mix5.50-6.50---LETTUCE-ROMAINE:  MARKET STEADY.  cartons CA Central Coast California 24s19.00-20.00 fr qual 16.50-17.50 cartons 12 3-count packages CA Central CoastCalifornia Hearts 24.00-26.00 fr qual 20.00-21.00 cartons film lined CA CentralCoast California Hearts 24s 30.00-32.00---MUSHROOMS:  MARKET STEADY.  10 lb cartons CA Central Coast California Whitelge 18.00-19.00 med 17.00-18.00 sml 17.00-18.00 Cremini 22.00-23.00 CD BritishColumbia White lge 19.00-20.00 med 18.00 sml 18.00 PA White lge 19.00-20.00 med18.00 sml 18.00 Cremini 22.00-23.00 5 lb cartons CA Central Coast CaliforniaShiitake fr qual 15.00-16.00 Oyster 16.00-17.00 Portobella lge 16.00-17.00 med16.00-17.00 Woodear 20.00 CQ Shiitake med 20.00 cartons 12 1-lb trays filmwrapped CA Central Coast California White Sliced 12.00-12.50 cartons 12 8-oztrays film wrapped CA Central Coast California White 14.00-14.50 cartons 8 1-lbtrays film wrapped CA Central Coast California White 21.00---OKRA: OFFERINGS LIGHT.   1/2 bushel cartons MX Baja District sml 24.00---ONIONS GREEN:  MARKET STEADY.  cartons bunched CA Central Coast California48s med 9.00-10.00 48s sml 7.00-8.00 few low as 6.00 MX Baja District 48s med9.00-10.00 few 11.00 48s sml 7.00-8.00 few low as 6.00 Bulb Type 24s 8.00-9.00few 10.00 CA Central Coast California Leeks med 21.00-23.00 MX Baja DistrictLeeks med 18.00-20.00---PARSLEY:  MARKET STEADY.  cartons bunched CA Central Coast California Curly60s 13.00-14.00 fr qual 10.00-10.50 Plain 60s 12.50-13.00 few 14.00 fr qual10.50-11.00---PARSNIPS: OFFERINGS LIGHT. MARKET ABOUT STEADY.  20 lb film bags loose CA24.00-26.00 cartons 12 1-lb film bags CA 24.00-26.00---PEAS GREEN: OFFERINGS LIGHT. MARKET STEADY.  1 1/9 bushel cartons MX BajaDistrict English 60.00 10 lb cartons GU AIR Snow Peas Decalyxed 13.00-14.00 MXBaja District Snow Peas Decalyxed 14.00-15.50 GU AIR Sugar Snap Peas Decalyxed16.00-18.00 MX Baja District Sugar Snap Peas Decalyxed 14.00-15.50---PEAS OTHER: OFFERINGS LIGHT.   bushel crates MX Baja District Blackeye 35.00(marked 30lbs)---PEPPERS, BELL TYPE:  MARKET STEADY.  1 1/9 bushel cartons CA Desert DistrictCalifornia Green irreg sz 10.00-12.00 MX Green exlge 15.00-16.00 lge14.00-15.00 med 12.00-13.00 irreg sz 10.00-10.50 fr qual 8.00-8.50 Red exlge24.00-25.00 lge 24.00-25.00 med 22.00-23.00 irreg sz 20.00 fr qual 15.00-16.00Yellow exlge 20.00-21.00 lge 20.00-21.00 irreg sz 14.00-15.00 fr qual10.00-12.00 Orange med 14.00 irreg sz 14.00 15 lb cartons MX Red exlge20.00-21.00 fr qual 15.00-16.00 25 lb cartons place pack MX Green exlge 20.00lge 20.00 GREENHOUSE 5 kg/11 lb cartons MX Red exlge-lge 17.00-18.00 fr qual8.00-9.00 Yellow exlge-lge 19.00-20.00 fr qual 7.00-8.00 Orange exlge-lge16.00-17.00 fr qual 7.00-8.00 NL AIR Red exlge 20.00 Yellow exlge 20.00 Orangeexlge 20.00---PEPPERS, OTHER:  MARKET STEADY.  1 1/9 bushel cartons/crates per lb MX BajaDistrict Anaheim .50-.55 Habanero orange 1.80-2.00 bushel cartons FL Cubanelles28.00-30.00 20 lb cartons CA Shishito 30.00 MX Baja District Shishito 25.00 frappear 20.00 cartons 12 1-lb film bags MX Mixed Mini Sweet Types 12.00cartons/crates per lb MX Baja District Jalapeno .38-.40 Manzano 3.00-3.50Pasilla .40-.45 Serrano .40-.50 Yellow Chile .45-.55---RADISHES:  MARKET STEADY.  cartons topped 30 6-oz film bags CA Central CoastCalifornia Red 12.00-14.00 25 lb film bags topped CA Central Coast CaliforniaRed 17.00-18.00 MX Baja District Red 16.00-18.00 cartons bunched CA CentralCoast California Red 48s 14.00-15.00 MX Baja District Red 48s 13.00-14.00---RHUBARB: OFFERINGS LIGHT. MARKET STEADY.  GREENHOUSE 15 lb cartons WAWAExFcy 44.00 6 kg containers NL AIR 50.00---RUTABAGAS: OFFERINGS FAIRLY LIGHT.   25 lb film bags CA med 22.00-24.00 MXBaja District med 20.00-22.00---SPINACH:  MARKET STEADY.  cartons bunched CA Central Coast California Flat24s 13.00-14.00 fr qual 11.00-11.50 cartons 12 10-oz film bags CA Central CoastCalifornia 10.00-12.00 few 13.00 cartons 4 2-1/2 lb film bags CA Central CoastCalifornia 10.50-12.50---SQUASH: OFFERINGS WINTER TYPES LIGHT. MARKET STEADY.  4/7 bushel cartons MXZucchini Green sml 13.00-14.00 fr qual holdovers 11.00-11.50 sml-med11.00-12.00 fr qual holdovers 9.00-9.50 med 11.00-12.00 fr qual holdovers9.00-9.50 Yellow Straightneck sml 13.00-14.00 fr qual 11.50-12.00 sml-med13.00-14.00 fr qual 11.00-11.50 med 12.00 fr qual 9.50-10.00 Grey sml9.00-10.00 sml-med 9.00-10.00 med 8.00-9.00 bushel cartons MX Acorn Green med16.00-18.00 few 19.00 Butternut sml 22.00-24.00 lge 30.00-32.00 Kabocha med-lge17.00-18.00 fr appear 13.00-14.00 Spaghetti med-lge 18.00-20.00 fr appear12.00-13.00 1 1/9 bushel crates MX Zucchini Green lge 14.00-15.00 22 lb cartonsCA Desert District California Yellow Straightneck sml-med 10.00 med 8.00 MXBaja District Round Zucchini Light Green sml-med 10.00 Scallop Yellow med 18.0022-26 lb cartons CA Desert District California Scallop Yellow sml 18.00-20.00sml-med 18.00-20.00---SWEET POTATOES:  MARKET STEADY.  40 lb cartons CA Atwater LivingstonCalifornia U.S. No. 1 Orange Types 25.00-28.00 Red Types 25.00-28.00 WhiteTypes 32.00-36.00 Japanese Types 30.00-35.00 No Grade Marks Orange Types med18.00-20.00 jbo 20.00-23.00 Red Types med 18.00-20.00 jbo 22.00-24.00 WhiteTypes med 18.00-20.00 jbo 18.00-20.00 30 lb cartons HI BOAT U.S. No. 1 OkinawanType 58.50---TOMATOES:  MARKET 25 LB LOOSE & 2 LAYERS LOWER, OTHERS STEADY.  25 lbcartons loose FL 85% U.S. One or Better Mature Greens breakers-turning 5x6 sz9.00-10.00 6x6 sz 9.00-10.00 ADAPTED ENVIRONMENT 25 lb cartons loose MX VineRipes light red 5x6 sz 10.00-12.00 6x6 sz 10.00-12.00 flats 2 layer MX VineRipes light red 4x4s 10.00-12.00 4x5s 10.00-12.00 5x5s 10.00-12.00 5x6s10.00-12.00 Baja District Vine Ripes light red 4x5s 10.00-12.00 5x5s10.00-12.00 5x6s 10.00-12.00 CONTROLLED ENVIRONMENT 5 kg/11 lb flats on thevine MX Vine Ripes red 4-5 count 9.00-10.00 few 11.00 cartons 8 1-lb containerswith lids MX Baja District Vine Ripe - Campari Type 18.00-18.50 GREENHOUSE 5kg/11 lb flats on the vine CA Vine Ripes red 4-5 count 11.00-12.00---TOMATOES, CHERRY:  MARKET STEADY.  ADAPTED ENVIRONMENT flats 12 1-pt basketsMX light red-red 11.00-12.00 Baja District light red-red 12.00-13.00 flats 121/2-pt cups with lids MX Baja District Pear Type red 40.00 yellow 40.00 cartons12 10.5-oz containers with lids MX Baja District Heirloom Varieties yellow med28.50---TOMATOES, GRAPE TYPE:  MARKET STEADY.  ADAPTED ENVIRONMENT flats 12 1-ptcontainers with lids MX Baja District red 10.00-11.00 fr qual 8.00-8.50 flats15 1-pt containers with lids MX Baja District yellow 28.50 20 lb cartons looseMX Baja District red 15.00-16.00---TOMATOES, PLUM TYPE:  MARKET STEADY.  ADAPTED ENVIRONMENT 25 lb cartonsloose MX Roma light red-red exlge 10.00-11.00 lge 10.00-11.00 med 9.00-10.00Baja District Roma light red-red exlge 12.00-13.00 lge 11.00-12.00---TURNIPS:  MARKET STEADY.  25 lb film bags CA Purple Top lge 13.00-14.00 med13.00-14.00 MX Baja District Purple Top lge 14.00 med 13.00-14.00---VEGETABLES OTHER: OFFERINGS LIGHT. MARKET STEADY.  5 lb film bags CA CentralCoast California Alfalfa Sprouts 12.00-13.00 cartons 12 4-oz packages CACentral Coast California Alfalfa Sprouts 16.00-17.00 35 lb crates MX BajaDistrict Cactus Leaf (Nopales) 17.00-18.00 10 lb cartons Local Repack JerusalemArtichokes 25.00 20 lb film bags CA Jerusalem Artichokes 48.00 cartons 12 1-lbtrays film wrapped CA Jerusalem Artichokes 36.00 1 layer containers CA CentralCoast California Radicchio 9s 13.00-13.50 12s 13.00-13.50 Treviso 9s 18.50 12s18.50ORGANICVEGETABLES---BEETS: cartons bunched MX Baja District Red Type 12s 18.00-20.00 Gold Type12s 18.00-20.00 25 lb film bags MX Baja District Red Type med 21.00-23.00 GoldType med 21.00-23.00---BROCCOLI: cartons CA Central Coast California bchd 14s 18.00 fr cond 7.00 20lb cartons loose CA Central Coast California Crown Cut fr cond 7.00---CABBAGE: 50 lb cartons CA Central Coast California Round Green Type med28.00-30.00 (wrapped) Red Type med 25.00---CARROTS: sacks 48 1-lb film bags CA Kern District California med-lge 26.00sacks 24 2-lb film bags CA Kern District California med-lge 30.00-32.00 sacks10 5-lb film bags CA Kern District California med-lge 26.00 25 lb sacks looseCA Kern District California jbo 16.00-16.50 cartons 20 1-lb film bags CA KernDistrict California Baby Peeled med-lge 26.00-26.50 cartons 4 5-lb film bags CAKern District California Baby Peeled med-lge 26.00-26.50---CAULIFLOWER: cartons film wrapped CA Central Coast California White 12s29.00---CELERY: cartons CA Central Coast California 24s Offerings insufficient toquote.---EGGPLANT: 1 bu, 1 1/9 bu, 1 1/6 bu cartons wrapped MX 12s 15.00---GREENS: cartons bunched CA Central Coast California Collard 24s 18.00 Kalegreen 24s 22.00 Lacinato (Tuscan) 24s 18.00-20.00 Swiss Chard 12s 18.00-20.00Mixed Colors 12s 20.00-22.00 Red 12s 18.00-20.00---LETTUCE-ICEBERG: cartons CA Central Coast California 24s Offeringsinsufficient to quote.---LETTUCE-OTHER: cartons CA Central Coast California Green Leaf 24s 24.00 RedLeaf 24s 24.00---LETTUCE-ROMAINE: cartons CA Central Coast California 24s 32.00 cartons 123-count packages CA Central Coast California Hearts 36.00---MUSHROOMS: 5 lb cartons CA Central Coast California Shiitake 25.50 fr qual16.00 Oyster 17.00 cartons 24 3 1/2-oz film packages CA Central CoastCalifornia Hen Of The Woods 2.50 Beech (Honshimeji) brown 2.00 white 2.00---ONIONS GREEN: cartons bunched MX Baja District Leeks med 43.25---PARSLEY: cartons bunched CA Central Coast California Curly 30s 22.00 Plain30s 22.00---SPINACH: cartons bunched CA Central Coast California Flat 24s 38.00---SQUASH: 4/7 bushel cartons MX Zucchini Green med 10.00 bushel cartons MXButternut lge 22.00 22-26 lb cartons MX Baja District Grey sml-med 10.00---TOMATOES, GRAPE TYPE: ADAPTED ENVIRONMENT flats 12 1-pt containers with lidsMX red 18.00