BC-USDA-Natl Sheep
BC-USDA-Natl Sheep

The Associated Press



SA—LS850San Angelo, TX    Thu Apr 19, 2018    USDA Market NewsNational Sheep Summary for Thursday, April 19, 2018Compared to last week at Ft. Collins, CO and Kalona, IA slaughterlambs were uneven, Ft. Collins 8.00-9.00 higher and 10.00-16.00 lowerat Kalona; slaughter ewes steady to 3.00 lower; feeder lambs not welltested.  Equity Electronic Auction sold 1200 slaughter lambs inCalifornia.Slaughter Lambs:  Choice and Prime 2-3 90-150 lbs:Ft. Collins:    wooled 145-175 lbs 130.00-160.00.Kalona, IA:     no test.Virginia:       wooled 90-110 lbs 188.00.Equity Elec:    shorn 145-165 lbs 143.50.Slaughter Lambs:  Choice and Prime 1-2:Ft. Collins:    40-60 lbs 220.00-250.00; 60-80 lbs 230.00-240.00; 80-90 lbs 235.00-255.00; 100-105 lbs 230.00-232.50.Kalona, IA:     40-50 lbs 222.50-250.00; 50-60 lbs 220.00-235.00; 60-70 lbs 220.00-235.00; 70-80 lbs 225.00-234.00; 80-90lbs 224.00-236.00.Virginia:       30-60 lbs 240.00; 60-80 lbs 221.00-238.00; 80-110 lbs189.00-213.00.Slaughter Ewes:Ft. Collins:    Good 3-5 (very fleshy) 77.50-88.50; Good 2-3 (fleshy)80.00-92.50; Utility 1-2 (thin) 55.00-57.50; Cull 1(extremely thin) no test.Kalona, IA:     Good 3-4 (very fleshy) no test; Good 2-3 (fleshy)60.00-82.50; Utility and Good 1-3 (medium flesh) 65.00-73.00; Utility 1-2 (thin) 58.00-74.00; Cull 1 no test.Virginia:       Good 2-4 84.00-94.00; Utility 1-2 82.00; Cull 1 64.00.Feeder Lambs:     Medium and Large 1-2:Ft. Collins:    no test.Kalona, IA:     25-30 lbs 255.00-280.00; 30-35 lbs 257.50-270.00.Replacement Ewes:  Medium and Large 1-2:Ft. Collins:    no test.Kalona:         no test.Sheep and lamb slaughter under federal inspection for the week to datetotaled 31,000 compared with 31,000 last week and 26,000 for last year.Source:  USDA Market News Service, San Angelo, TexasRebecca Sauder 325-653-1778www.ams.usda.gov/mnreports/SA—LS850.txtwww.ams.usda.gov/LSMarketNews1520c  rs