BC-Cotton
BC-Cotton

The Associated Press

NEW YORK




NEW YORK (AP) — Cotton No. 2 Futures on the IntercontinentalExchange (ICE) Thursday:
OpenHighLowSettleChg.COTTON 250,000 lbs.; cents per lb.May82.7183.1682.5682.97+.23Jul82.4182.9682.2782.82+.21Sep78.59+.27Oct79.9080.6679.9080.66+1.90Nov78.59+.27Dec78.3278.7478.1978.59+.27Jan78.55+.13Mar78.4778.6778.3678.55+.13May78.6078.6778.4578.54+.05Jul78.4378.4378.3578.35+.01Sep73.81+.13Oct75.44+.02Nov73.81+.13Dec73.5173.8873.5173.81+.13Jan74.11+.14Mar74.11+.14May74.53+.14Jul74.61+.14Sep72.95+.14Oct74.18+.14Nov72.95+.14Dec72.95+.14Jan72.99+.14Mar72.99+.14Est. sales 22,417.  Wed.'s sales 26,467Wed.'s open int 259,889