Close
Close

The Associated Press

CHICAGO




CHICAGO (AP) — Futures trading on the Chicago Board of Trade Thu.:
OpenHighLowSettleChg.WHEAT5,000 bu minimum; cents per bushelMay477½480471¾476¾+1½Jul491¾494485490¾+1½Sep509½511½503508½+1½Dec532535526½532¼+1¾Mar550½553¼545¼550¾+1¾May560561¾554559¾+1¼Jul563563¼555¾561¼+1¼Sep571¼571¼568569+1¼Dec584¾584¾579583¼+1½Mar592+1½May591¾+1½Jul575+1¾Est. sales 124,418.  Wed.'s sales 142,821Wed.'s open int 471,652CORN5,000 bu minimum; cents per bushelMay382¾383½380¾382—1Jul391¾392½389¾391—¾Sep399399¾397¼398½—¾Dec408409406¼408—½Mar416416½414¼415½—½May420¼420½418½419¾—½Jul423¾424½422¼423¼—1Sep408½409¾408409¾+1Dec412¾413411412¾+1Mar420¾+¾May424½+¾Jul429+1Sep418¼+1Dec417¾418½417¾418½+2Jul426¾+2Dec421—½Est. sales 270,687.  Wed.'s sales 554,140Wed.'s open int 1,854,949OATS5,000 bu minimum; cents per bushelMay235¾236¾233¼234½—1½Jul239239½237238½—¼Sep245½245½245¼245¼—¾Dec255½256¼255½255¾—1Mar262¼—1May266—1Jul271—1Sep272¼—1Dec272¼—1Mar272¼—1Jul270¾—1Sep270¾—1Est. sales 1,593.  Wed.'s sales 538Wed.'s open int 6,411SOYBEANS5,000 bu minimum; cents per bushelMay1041¾1044¾1032¾1037¼—4½Jul1053¼1056¼1044¼1049—4¼Aug1054¾1057½1046¼1050½—4½Sep1048¾1051¼1041¼1044½—4½Nov10451047¾1037¾1042½—3¼Jan10471051¼1042¼1047¼—2½Mar10401041½10341038—2May103610391032½1036—¾Jul1040½1043½10371040¾Aug1036¼+½Sep1019¼+½Nov1004¼1004¾1000¼1004+1½Jan1006¼+1½Mar1000¾+1¼May1001+1¼Jul1007¾Aug1000¼Sep996½Nov982982¼982982¼—½Jul985—½Nov985—½Est. sales 237,843.  Wed.'s sales 211,352Wed.'s open int 970,469SOYBEAN OIL60,000 lbs; cents per lbMay31.4131.5731.3331.41—.02Jul31.6231.8331.6031.68—.01Aug31.7731.9531.7331.81—.01Sep31.9432.1131.9031.99Oct32.0532.2432.0532.14+.01Dec32.4532.6332.3932.49Jan32.7632.8932.6632.74—.02Mar33.1033.1632.9633.02May33.2833.3933.2233.30+.01Jul33.5633.5633.4433.55+.01Aug33.62+.01Sep33.68+.01Oct33.65+.01Dec33.7933.8133.7633.76—.01Jan33.88—.01Mar34.10—.01May34.13—.01Jul34.25—.03Aug34.24—.03Sep34.24—.03Oct34.24—.03Dec34.21—.02Jul34.21—.02Oct34.21—.02Dec34.21—.02Est. sales 90,893.  Wed.'s sales 114,989Wed.'s open int 526,302SOYBEAN MEAL100 tons; dollars per tonMay376.50377.90372.80373.30—3.30Jul381.10382.40377.40377.80—3.40Aug381.70382.50377.90378.30—3.60Sep380.40381.60377.60378.00—2.80Oct378.60378.80376.10376.60—2.00Dec376.90378.30374.90375.30—1.90Jan375.00375.00372.00372.40—1.70Mar364.70364.70361.80362.30—1.60May358.90359.30358.00358.10—1.60Jul359.00359.00357.00357.90—1.60Aug355.50—1.60Sep351.90—1.60Oct345.80—.30Dec345.00345.90344.50344.90—.20Jan345.60—.20Mar346.40—.20May346.40—.20Jul344.90—.20Aug344.90—.20Sep344.90—.20Oct344.90—.20Dec341.70—.20Jul341.70—.20Oct341.70—.20Dec351.80—.20Est. sales 133,774.  Wed.'s sales 118,915Wed.'s open int 523,756