BC-BOT Table,1st Ld
BC-BOT Table,1st Ld

The Associated Press

CHICAGO




CHICAGO (AP) — Noon trading on the Chicago Board of Trade Fri.:
OpenHighLowNoonChg.WHEAT5,000 bu minimum; cents per bushelMay476¼476¾466½467—9¾Jul489¾491479¾480¼—10½Sep508508½498¼498¾—9¾Dec531¾532¼522¼523—9¼Mar549¾550541¼541¼—9½May555¼555¼549551¼—8½Jul557557552552¼—9Sep561¾561¾561¼561¼—7¾Dec575¼579573¾573¾—9½Est. sales 98,672.  Thu.'s sales 131,756Thu.'s open int 478,937,  up 7,285CORN5,000 bu minimum; cents per bushelMay381¼381¾377¼378—4Jul390¼390¾386386¾—4¼Sep398398393¾394¼—4¼Dec407¼407½403403½—4½Mar414¾415410¾411½—4May418418415415¾—4Jul422¾422¾419¼419½—3¾Sep408408¼406406—3¾Dec412412409¼409¼—3½Dec418418417¼417¼—1¼Est. sales 261,185.  Thu.'s sales 301,347Thu.'s open int 1,849,879OATS5,000 bu minimum; cents per bushelMay236236232233½—1Jul238¾240235½237¼—1¼Sep244244242¾242¾—2½Dec252½254252½253¾—2Est. sales 428.  Thu.'s sales 1,593Thu.'s open int 6,173SOYBEANS5,000 bu minimum; cents per bushelMay10371038½1027¾1029¼—8Jul1048¾10501039½1040¾—8¼Aug1050½1051¾1041½1042½—8Sep1044½1045¾10361038½—6Nov1042½10441033¾1035¾—6¾Jan104710491038¾1040—7¼Mar10371039¾10301030¼—7¾May1034¾1036½10291029—7Jul104010411033½1033¾—7Aug1033½10341032½1033¾—2½Nov10031005999999½—4½Nov982982982982—¼Est. sales 173,596.  Thu.'s sales 263,902Thu.'s open int 954,391SOYBEAN OIL60,000 lbs; cents per lbMay31.4231.4931.2531.36—.05Jul31.6831.7531.5031.61—.07Aug31.8531.8731.6331.74—.07Sep32.0032.0331.7931.88—.11Oct32.1832.1931.9732.02—.12Dec32.5132.5532.3132.39—.10Jan32.7932.8132.5832.63—.11Mar33.0633.1032.8632.91—.11May33.3533.3733.1933.19—.11Jul33.5033.6233.5033.62+.07Dec33.6633.6633.6633.66—.10Est. sales 141,200.  Thu.'s sales 96,314Thu.'s open int 522,627SOYBEAN MEAL100 tons; dollars per tonMay373.30376.30370.40373.70+.40Jul377.80381.00375.00378.30+.50Aug378.10380.40375.50378.30Sep377.20379.20374.90377.20—.80Oct376.50377.60373.70375.60—1.00Dec375.20376.20372.20374.40—.90Jan372.40373.30369.50371.90—.50Mar362.20363.80360.60362.70+.40May358.30359.30357.00358.70+.60Jul358.60359.20356.80358.30+.40Oct342.80344.10342.50344.10—1.70Dec342.30345.80342.30345.00+.10Est. sales 120,643.  Thu.'s sales 143,169Thu.'s open int 521,480