Preclosing
Preclosing

The Associated Press

CHICAGO




CHICAGO (AP) — Futures trading on the Chicago Board of Trade Fri:
OpenHighLowLastChg.WHEAT5,000 bu minimum; cents per bushelMay476¼476¾466½467—9¾Jul489¾491479¾481—9¾Sep508508½498¼499¼—9¼Dec531¾532¼522¼523—9¼Mar549¾550541¼541½—9¼May555¼555¼549550¼—9½Jul557557552552¼—9Sep561¾561¾561¼561¼—7¾Dec575¼579573¾573¾—9½Est. sales 107,981.  Thu.'s sales 131,756Thu.'s open int 478,937,  up 7,285CORN5,000 bu minimum; cents per bushelMay381¼381¾377¼377¾—4¼Jul390¼390¾386386½—4½Sep398398393¾394¼—4¼Dec407¼407½403403¼—4¾Mar414¾415410¾411¼—4¼May418418415415—4¾Jul422¾422¾419419¼—4Sep408408¼406407—2¾Dec412412409¼409½—3¼Dec418418417¼417¼—1¼Est. sales 308,009.  Thu.'s sales 301,347Thu.'s open int 1,849,879OATS5,000 bu minimum; cents per bushelMay236236231½231½—3Jul238¾240235¼235¼—3¼Sep244244242¾242¾—2½Dec252½254252½252¾—3Est. sales 498.  Thu.'s sales 1,593Thu.'s open int 6,173SOYBEANS5,000 bu minimum; cents per bushelMay10371038½1027¾1029½—7¾Jul1048¾10501039½1041¼—7¾Aug1050½1051¾1041½1042¾—7¾Sep1044½1045¾10361038½—6Nov1042½10441033¾1036—6½Jan104710491038¾1040½—6¾Mar10371039¾10301030¾—7¼May1034¾1036½10291029—7Jul104010411033½1034½—6¼Aug1033½10341032½1033¾—2½Nov100310059991000¾—3¼Nov982982982982—¼Est. sales 188,963.  Thu.'s sales 263,902Thu.'s open int 954,391