BC-USDA-Portland Grain
BC-USDA-Portland Grain

The Associated Press



JO—GR110Portland, OR    Fri Apr 20, 2018    USDA Market NewsPortland Daily Grain ReportBids as of 9:30 a.m. Pacific time; Subject to changeAll Bids in dollars per bushel.  Bids are limited and not fullyestablished in early trading.Bids for grains delivered to Portland, Oregon in dollars per bushel.In early trading May wheat futures trended nine to 9.75 cents per bushellower than Thursday?s noon closes.Bids for US 1 Soft White Wheat delivered to Portland in unit trains andbarges for April delivery for ordinary protein were not well tested inearly trading, but bids were indicated as steady to lower compared toThursday?s noon bids for the same delivery period.  Some exporters were notissuing bids for nearby delivery.  Bids for guaranteed maximum 10.5 percentprotein were well tested in early trading, but bids were indicated assteady to lower compared to Thursday?s noon bids for the same deliveryperiod.  Some exporters were not issuing bids for nearby delivery.Bids for 11.5 percent protein US 1 Hard Red Winter Wheat for Aprildelivery were not well tested in early trading but bids were indicated aslower compared to Thursday?s bids for the same delivery period.  Someexporters were not issuing bids for nearby delivery.Bids for 14 percent protein US 1 Dark Northern Spring Wheat for Aprildelivery were not well tested in early trading but bids were indicated aslower compared to Thursday?s noon bids for the same delivery period.  Someexporters are not issuing bids for nearby delivery.Bids for US 2 Yellow Corn delivered full coast in 110 car shuttle trainsduring April were not well tested in early trading, but bids were indicatedas lower compared to Thursday?s noon bids for the same delivery period.Some exporters were not issuing bids for nearby delivery.Bids for US 1 Yellow Soybeans delivered full coast in 110 car shuttletrains during April were not available in early trading as most exporterswere not issuing bids for nearby delivery.All wheat bids in dollars per bushelUS 1 Soft White Wheat - delivered by Unit Trains and BargesOrdinary proteinApr                                       5.7275-5.9000May                                       5.7275-5.9000Jun                                       5.7800-5.8700Jul                                       5.7300-5.8700Aug NC                                    5.5000-5.7500Guaranteed maximum 10.5 pct proteinApr                                       5.7275-5.9000May                                       5.7275-5.9000Jun                                       5.7800-5.8500Jul                                       5.7300-5.7500Aug NC                                    5.5000-5.7500—US 1 White Club Wheat - delivered by Unit Trains and BargesOrdinary proteinApr                                       5.7275-5.9000Guaranteed maximum 10.5 pct proteinApr                                       5.7275-5.9000—US 1 Hard Red Winter Wheat - (Exporter bids-falling numbers of 300 orbetter)Ordinary protein                            5.4550-5.705011 pct protein                              6.0550-6.205011.5 pct proteinApr                                       6.3050-6.4550May                                       6.3050-6.4550Jun                                       6.3475-6.4975Jul                                       6.2775-6.3475Aug NC                                    6.2350-6.335012 pct protein                              6.4050-6.605013 pct protein                              6.6050-6.9050—US 1 Dark Northern Spring Wheat (with a minimum of 300 falling numbers, a maximumof 0.5 part per million vomitoxin, and a maximum of one percent total damage)13 pct protein                              6.9900-7.240014 pct proteinApr                                       7.3900-7.6400May                                       7.3400-7.5400Jun                                       7.4975Jul                                       7.3975-7.4975Aug NC                                    NA15 pct protein                              7.6300-7.880016 pct protein                              7.8700-8.1200—US 2 Yellow CornShuttle trains-Delivered full coast Pacific Northwest-BNApr                                       5.0300-5.1300May                                       4.9800-5.0800Jun                                       4.9875-5.0175Jul                                       4.9675-5.0175Aug                                       4.8950-5.0150Sep                                       NA—US 1 Yellow SoybeansShuttle trains-Delivered full coast Pacific Northwest-BNApr                                       NAMay                                       11.2325-11.2825Jun                                       11.2975-11.3475Jul                                       11.2975-11.3475Aug                                       NAOct                                       11.3250-11.3550—US 2 Heavy White Oats **                      3.6300** Not well tested.Exporter Bids Portland Rail/Barge             Mar 2018Averages in Dollars per bushelUS 1 Soft White by Unit Trains and Barges   5.5600US 1 Hard Red Winter (Ordinary protein)     5.5300US 1 Hard Red Winter (11.5% protein)        6.4700US 1 Dark Northern Spring (14% protein)     7.3300Source:    USDA Market News Service, Portland, ORNiki Davila 503-535-5001  Portland.LPGMN@ams.usda.gov24 Hour Market Report  503-535-5005www.ams.usda.gov/mnreports/jo—gr110.txtwww.ams.usda.gov/lpsmarketnewspage8:44 P nd