BC-USDA-Calif Fruit
BC-USDA-Calif Fruit

The Associated Press



LOS ANGELES Terminal Prices as of 20-APR-2018Provided by:  Specialty Crops Market NewsFederal - State Market News Service, USDA.Phone:  (213) 894-3077     Fax:  (213) 894-2898WEATHER AT 7:00 AM: OVERCAST: 55YESTERDAY'S WEATHER: 6324 HOUR RAINFALL: 0.02"https://www.ams.usda.gov/mnreports/hc—fv010.txtHC—FV010CITRUS FRUITS---CLEMENTINES: OFFERINGS LIGHT. MARKET STEADY.  flat cartons 10 3-lb mesh bagsCA 40 sz 36.00-39.00 mostly 37.00-38.00 cartons 4 5-lb containers CA 32 sz22.00-24.50 one label 25.50 1/2 bushel cartons CA jbo 23.50-24.50 lge23.50-24.50---GRAPEFRUIT: OFFERINGS LIGHT. MARKET STEADY.  7/10 bushel cartons CA Shprs1st Grade Star Ruby 23s 22.00-23.00 mostly 22.00-22.50 27s 22.00-24.00 mostly22.00-23.50 32s 20.00-23.00 mostly 21.00-22.00 36s 19.00-21.00 mostly19.50-20.50 40s 19.50-21.00 mostly 19.50-20.00 48s 17.00-18.00 56s 13.00-14.00mostly 13.00-13.50 Shprs Choice Star Ruby 27s 15.50-16.50 36s 14.50-15.50 40s14.50-15.50 MX No Grade Marks Red 23s 14.00-15.00 occas higher 27s 16.00-17.0032s 16.00-17.00 36s 17.00-18.00 40s 17.00-18.00 48s 14.00-15.00 TX Texas FancyMarked Rio Star 18s 22.00-23.00 23s 22.00-25.00 mostly 23.00-24.00 occas lower27s 22.00-25.00 mostly 23.00-24.00 occas lower 32s 22.00-25.00 mostly23.00-24.00 36s 21.00-22.00 40s 20.00-23.00 mostly 20.00-22.00 few high as25.00 48s 19.00-20.00 occas higher/lower---LEMONS:  MARKET STEADY.  7/10 bushel cartons CA Shprs 1st Grade 75s33.00-36.00 mostly 34.00-35.50 95s 33.00-36.00 mostly 34.00-35.00 one label37.50 115s 33.00-36.00 mostly 34.00-35.00 one label 37.50 140s 33.00-36.00mostly 34.00-35.00 one label 37.50 165s 33.00-36.00 mostly 34.00-35.00 onelabel 37.50 200s 36.00-38.00 mostly 36.00-37.50 235s 33.00-34.00 mostly33.00-33.50 Shprs Choice 75s 24.00-26.00 mostly 24.00-25.00 95s 28.00-31.00mostly 29.00-30.00 occas lower 115s 28.00-31.00 mostly 29.00-30.00 occas lower140s 30.00-33.00 mostly 31.00-32.00 165s 31.00-34.00 mostly 32.00-33.00 200s32.00-35.00 mostly 33.00-34.00 occas lower 235s 29.00-32.00 mostly 30.00-31.00occas lower Uncl (Standard) 95s 19.00-20.00 115s 19.00-20.00 few 22.00-23.00140s 19.00-20.00 few 24.00 165s 19.00-20.00---LIMES: OFFERINGS VERY LIGHT. MARKET ABOUT STEADY. Wide range in quality andappearance. 40 lb containers MX Seedless Type 175s 50.00-55.00 mostly51.00-54.00 occas higher 200s 45.00-50.00 mostly 46.00-48.00 occas higher 230s35.00-40.00 mostly 36.00-39.00 occas higher 250s 31.00-35.00 mostly 33.00-34.00poorer quality and conditon all sizes lower 35-36 lb cartons MX Seeded Types300s 38.00-40.00 500s 32.00-34.00---MISC CITRUS:  MARKET ABOUT STEADY.  1/2 bushel cartons w/ stems/leaves CASatsuma irreg sz 23.00-25.00 mostly 24.00 one label 26.00 1/2 cartons CA Shprs1st Grade Blood Orange Moro 44s 12.50-13.50 48s 12.50-13.50 68s 12.50-13.507/10 bushel cartons CA Meyer Lemon 115s 19.00-20.00 140s 19.00-20.00 165s19.00-20.00 Sweet Lime col 33.00-35.00 mam 33.00-35.00 jbo offeringsinsufficient to quote. Shprs 1st Grade Pummelo 14s 19.00-21.00 Oro Blanco 27s17.25-18.25 10 lb cartons CA Kumquats 26.00-28.00 Meyer Lemon med 13.00-15.00mostly 13.00-14.00 few 18.00---ORANGES: OFFERINGS OF CARA CARA LIGHT. MARKET STEADY.  7/10 bushel cartonsCA Shprs 1st Grade Navel 48s 23.00-26.00 mostly 24.00-25.50 56s 23.00-26.00mostly 24.00-25.50 72s 26.00-29.00 mostly 27.00-28.00 88s 27.00-30.00 mostly28.00-29.00 113s 28.00-31.00 mostly 29.00-30.00 138s 27.00-30.00 mostly28.00-29.00 Cara Cara 56s 26.00-28.00 mostly 26.00-27.00 113s 24.50-25.50 138s24.50-25.50 Shprs Choice Navel 48s 19.00-23.00 mostly 20.00-21.00 occas lower56s 20.00-23.00 mostly 21.00-22.50 occas lower 72s 20.00-24.00 mostly22.00-23.50 occas lower 88s 24.00-27.00 mostly 25.00-26.50 113s 24.00-27.00mostly 25.00-26.50 one label higher 138s 26.00-29.00 mostly 27.00-28.00 TX U.S.Combination Marr 56s 25.00-27.00 mostly 25.00-26.00 occas lower 64s 25.00-27.00mostly 25.00-26.00 occas lower 72s 25.00-27.00 mostly 25.00-26.00 occas lower88s 25.00-27.00 occas lower 113s 25.00-27.00 occas lower---TANGELOS: OFFERINGS LIGHT. MARKET STEADY.  7/10 bushel cartons CA Shprs 1stGrade Minneola 64s 26.00-27.00 100s 24.00-25.00 125s 21.00-23.00 occas lowerShprs Choice Minneola 80s 20.00-21.00---TANGERINES: OFFERINGS VERY LIGHT. MARKET STEADY.  1/2 bushel cartons CAGolden Nugget col 22.00-25.00 one label 27.00 mam 28.00-30.00 occas lower lge23.00-25.00 med 19.00-21.00 w/ stems/leaves CA Golden Nugget irreg sz22.50-23.50 25 lb cartons CA Pixie jbo 40.00-42.00BERRIES---BLUEBERRIES: OFFERINGS CHILE LIGHT. MARKET MXB- 6 OZ CUPS WITH LIDS SLIGHTLYLOWER, OTHERS ABOUT STEADY.  flats 12 1-pt cups with lids MX Baja District lge38.00 (one label) flats 12 6-oz cups with lids CA San Diego County, Californiamed 30.00-33.00 mostly 31.00-32.00 CL BOAT med 12.00-15.00 mostly 13.00-14.00MX med 18.00-22.00 mostly 19.00-20.00 few high as 25.00 fr qual 14.00-16.00Baja District lge 32.00 (one label)---MISC BERRIES:  MARKET STEADY.  flats 12 6-oz cups with lids MX Blackberrieslge 15.00-18.00 mostly 16.00-17.00 occas higher/lower one label 24.00---RASPBERRIES: OFFERINGS VERY LIGHT. MARKET STEADY.  flats 12 6-oz cups withlids CA Oxnard District California Red lge 32.00-36.00 mostly 33.00-35.00 MXBaja District Red lge 35.00-38.00 mostly 36.00-37.00 few high as 40.00-42.00 frqual 28.00-30.00---STRAWBERRIES: OFFERINGS LIGHT. MARKET STEADY. Wide range in quality,condition and appearance. flats 12 1-pt containers with lids CA Oxnard DistrictCalifornia med-lge 20.00-22.00 poorer quality and condition lower flats 8 1-lbcontainers with lids CA Oxnard District California med-lge 10.00-14.00 mostly12.00-13.00 one label high as 22.00 Santa Maria District med-lge 11.00-14.00mostly 12.00 one label higher MX Baja District med 9.00-13.00 mostly10.00-11.00 flats 4 1-lb containers with lids CA Oxnard District CaliforniaWith Stems lge-exlge 22.00-24.00 mostly 23.00-24.00 Santa Maria District WithStems lge-exlge 20.00-22.00 occas higher/lower flats 4 2-lb containers withlids CA Santa Maria District med-lge 12.00 occas higher/lowerMELONS---CANTALOUPS: OFFERINGS LIGHT. MARKET STEADY.  1/2 cartons CR BOAT 9s12.00-15.00 mostly 13.00-14.00 12s 13.00-16.00 mostly 14.00 GU BOAT 9s12.00-14.00 mostly 12.00-13.00 12s 12.00-15.00 mostly 13.00-14.00 oversized 1/2cartons CR BOAT 9s (6 size) 13.00-16.00 mostly 14.00-15.00 occas higher GU BOAT9s (6 size) 13.00-16.00 mostly 14.00-15.00 occas higher---HONEYDEWS: OFFERINGS GUATEMALA VERY LIGHT. MARKET STEADY.  2/3 cartons GUBOAT 5s 13.00-16.00 mostly 14.00-15.00 6s 13.00-16.00 mostly 14.00-15.00 MX 5s12.00-15.00 mostly 13.00-14.00 6s 14.00-17.00 mostly 15.00-16.00 8s 13.00-16.00mostly 14.00-15.00 oversized 2/3 cartons GU BOAT 5s (4 size) 15.00-17.00 mostly16.00-16.50 6s (5 size) 16.50-17.50 MX 5s (4 size) 15.00-17.00 mostly15.50-16.50---WATERMELONS: OFFERINGS BINS LIGHT. MARKET STEADY. Wide range in quality andappearance. cartons MX Red Flesh Seedless Type 5s 23.00-26.00 mostly24.00-25.00 few 28.00 6s 21.00-24.00 mostly 22.00-23.00 occas higher flatcartons MX Red Flesh Seedless Miniature 6s 15.00-19.00 mostly 16.00-17.00 occaslower fr qual 8.00-11.00 8s 15.00-19.00 mostly 16.00-17.00 occas lower 9s15.00-18.00 mostly 16.00-17.00 occas lower 24 inch bins MX Red Flesh SeedlessType 45s 210.00-220.00 fr qual 185.00-190.00 60s 210.00-220.00 80s150.00-160.00NON-CITRUS FRUITS---APPLES:  MARKET WA CARTONS TRAYPACK GRANNY SMITH 113-125S LOWER, 64-88SSLIGHTLY LOWER, OTHERS ABOUT STEADY.  cartons tray pack CD CDExFcy Spartan 88s44.00-45.00 WA WAExFcy Red Delicious 56s 16.00-18.00 64s 16.00-18.00 72s18.00-20.00 fineappear 23.00-24.00 88s 18.00-20.00 100s fineappear 19.00-20.00113s 18.00-20.00 125s 18.00-20.00 138s 20.00-22.00 163s 18.00-20.00 GoldenDelicious 64s fineappear 40.00-42.00 72s fineappear 40.00-42.00 88s fineappear33.00-35.00 100s fineappear 30.00-32.00 125s fineappear 23.00-25.00 138sfineappear 22.00-24.00 Fuji 56s 36.00-38.00 64s 36.00-38.00 72s 28.00-30.00 88s26.00-28.00 100s 22.00-24.00 113s 22.00-24.00 125s 22.00-24.00 138s 20.00-22.00163s 23.00-25.00 Granny Smith 64s 28.00-30.00 occas higher/lower 72s28.00-30.00 88s 28.00-30.00 occas higher/lower 100s 25.00-27.00 occashigher/lower 113s 20.00-22.00 occas higher/lower 125s 20.00-22.00 occashigher/lower 138s 22.00-24.00 occas higher/lower 163s 22.00-24.00 occashigher/lower Gala 64s 26.00-28.00 72s 26.00-28.00 88s 26.00-28.00 100s22.00-24.00 113s 22.00-24.00 125s 22.00-24.00 138s 22.00-24.00 163s 20.00-22.00198S 20.00-22.00 Braeburn 64s fineappear 24.00 72s 23.00-24.00 Jonagold 64s24.00-26.00 Honeycrisp 72s 28.00-30.00 88s 28.00-30.00 Pink Lady/Cripps Pink100s 31.00-33.00 cartons 12 3-lb film bags WA WAExFcy Red Delicious 2 1/2" min15.00-16.00 Fuji 15.00-16.00 Granny Smith 2 1/2" min 15.50-16.50---AVOCADOS: OFFERINGS CALIFORNIA LIGHT.   cartons 2 layer CA Hass 32s fr qual37.00-39.00 occas lower 36s fr qual 37.00-39.00 occas lower 40s 42.00-45.00mostly 43.00-44.00 occas higher 48s 42.00-45.00 mostly 43.00-44.00 occas higherfr qual 37.00-39.00 occas lower 60s 37.00-40.00 mostly 38.00-39.00 MX Hass 32s43.00-46.00 mostly 44.00-45.00 36s 43.00-46.00 mostly 44.00-45.00 40s40.00-45.00 mostly 42.00-44.00 48s 41.00-44.00 mostly 43.00 60s 37.00-39.00mostly 37.00-38.00 70s 29.00-32.00 mostly 30.00-31.00 few high as 33.00 84s25.00-27.00 mostly 26.00-27.00---BANANAS:  MARKET STEADY.  40 lb cartons EC BOAT 15.00-17.00 mostly16.00-16.50 GU BOAT 14.00-17.00 mostly 15.00-16.50 MX 15.00-16.50 few secondlabels 14.00 Burro 14.00-16.50 mostly 15.00 40 lb cartons institutional pack ECBOAT petite 15.00-17.00 mostly 15.50-16.50 GU BOAT petite 15.00-17.00 mostly15.50-16.50 20 lb cartons CB BOAT Manzano 21.00-22.00 EC BOAT Red 12.00-13.50Manzano 17.00-18.00 15 lb cartons EC BOAT Baby 11.00-13.00 mostly 11.50-12.00---FRUITS OTHER: OFFERINGS LIGHT. MARKET CQ- 18 KG CONTAINERS WRAPPED APPLEPEAR YALI TYPE 64S SLIGHTLY HIGHER, OTHERS ABOUT STEADY.  11 lb cartons looseCA Dates Medjool lge 24.00-29.00 mostly 25.00-27.00 cartons 1 layer CL BOATApple Pears Hosui 12s 17.00-18.00 18s 17.00-18.00 flat cartons EC AIR Pepino15s 16.00-16.50 16s 16.00-16.50 20s 16.00-16.50 cartons 1 layer tray pack CACherimoya 8s 61.00-62.00 10s 61.00-62.00 12s 61.00-62.00 14s 61.00-62.00 16s61.00-62.00 NZ AIR Kiwano 12s 38.00-39.50 Passion Fruit 33s 52.00-54.00 39s52.00-54.00 34-36s 52.00-54.00 flats 1 layer MX Figs Black Mission 54s34.00-36.00 NZ AIR Feijoa 39s 38.00-38.50 30-32s 38.00-38.50 34-36s 38.00-38.50cartons 2 layer tray pack CA Quince 30s 70.00 (marked golden) CL BOAT Quince20s 30.00-32.00 occas lower 8 lb cartons TW AIR Carambola - Star Fruit 9s26.50-27.50 10s 26.50-27.50 10 lb cartons CA Cherimoya med-lge 52.00-52.50flats 12 8-oz containers with lids MX Figs Black Mission 43.00-45.00 18 kgcontainers wrapped CQ Apple Pears Yali 64s 22.00-23.00 13 lb cartons MX Guava14.00-16.00 occas higher/lower---GRAPES: OFFERINGS PERU LIGHT. MARKET STEADY.  18 lb containers bagged CLBOAT Thompson Seedless jbo 38.00-40.00 occas higher/lower White Seedless Typeexlge 33.00-35.00 Crimson Seedless exlge 24.00-26.00 Red Seedless jbo30.00-32.00 occas higher/lower Black Seedless exlge 32.00-34.00 occashigher/lower Red Globe jbo 22.00-24.00 occas higher/lower PE BOAT WhiteSeedless Type lge 22.00-24.00 occas higher/lower 19 lb containers bagged CLBOAT Flame Seedless lge 20.00-22.00 16 lb containers bagged CL BOAT MuscatSeedless med-lge 37.00-39.00---KIWIFRUIT: OFFERINGS LIGHT. MARKET CA BINS 45 SZ HAYWARD SLIGHTLY LOWER,OTHERS ABOUT STEADY.  flats 1 layer CA Hayward 27s 10.00-11.00 20 lb cartonsloose CA Hayward 27 sz 27.00-31.00 mostly 28.00-30.00 36 sz 25.00-27.00 bins CAHayward 45 sz 125.00 9 kg (19.8 lb) containers loose GR Hayward 25 sz26.00-28.00 30 sz 26.00-28.00 39 sz 23.00-24.00---MANGOES: OFFERINGS VERY LIGHT. MARKET STEADY.  flats 1 layer GU BOAT TommyAtkins 8s 6.00-7.00 mostly 6.00-6.50 occas higher 10s 6.00-7.00 mostly6.00-6.50 occas higher 12s 6.00-7.00 mostly 6.00-6.50 occas higher Ataulfo 12s5.00-6.00 14s 5.00-6.00 16s 5.00-5.50 18s 5.00-5.50 MX Tommy Atkins 6s8.00-9.00 mostly 8.00-8.50 7s 8.00-9.00 mostly 8.00-8.50 8s 8.00-9.00 mostly8.00-8.50 9s 8.00-9.00 mostly 8.00-8.50 10s 7.00-8.00 mostly 7.00-7.50 12s6.00-7.00 mostly 6.00-6.50 Ataulfo 12s 10.00 14s 8.00-9.00 mostly 8.00-8.50 onelabel higher 16s 7.00-8.00 one label higher 18s 6.00-7.00 one label higher 50lb cartons GU Green Cooking Type fr appear 20.00-25.00 occas higher---PAPAYA:  MARKET MX 30-LB CARTONS MARADOL TYPE FIRM, OTHERS STEADY.  10 lbcartons HI AIR Solo Type Yellow Flesh 8s 22.00-25.00 mostly 23.00-24.00 occaslower 9s 22.00-25.00 mostly 23.00-24.00 occas lower 10s 22.00-25.00 mostly23.00-24.00 occas lower 30 lb cartons MX Maradol Type 12s 26.00-29.00 mostly28.00 few high as 30.00 35 lb cartons MX Green Cooking Type 17.00-18.00 (approx20 count)---PEARS:  MARKET CL- 2/5 BUSHEL CARTONS WRAPPED FORELLE 55S SLIGHTLY LOWER,OTHERS ABOUT STEADY.  4/5 bushel cartons wrapped CL BOAT Bartlett 80s34.00-36.00 90s 32.00-34.00 120s 24.00-26.00 Bosc Golden 70s 40.00-42.00 80s38.00-40.00 90s 36.00-38.00 110s 31.00-33.00 Forelle 120s 42.00-44.00 WA U.S.One D'Anjou 80s 30.00-32.00 90s 30.00-32.00 110s 26.00-28.00 120s 36.00-38.00Bosc Golden 80s 36.00-38.00 90s 36.00-38.00 2/5 bushel cartons wrapped CL BOATForelle 55s 26.00-28.00 WA U.S. One Red D'Anjou 40s 16.00-18.00---PINEAPPLES:  MARKET STEADY.  cartons 1 layer CR BOAT golden ripe 5s10.00-13.00 mostly 11.00-12.00 occas higher 6s 10.00-13.00 mostly 11.00-12.00occas higher fr qual 6.00-7.00 7s 10.00-12.00 occas higher fr qual 6.00-7.00 SFAIR Baby Type 10s 26.00---PLANTAINS:  MARKET STEADY.  50 lb cartons CB BOAT 26.00-28.00 mostly27.00-28.00 GU BOAT 26.00-27.00 MX 24.00-26.00---PLUMS: OFFERINGS VERY LIGHT. MARKET STEADY.  cartons 2 layer tray pack CLBOAT Black Giant 32s 16.00-18.00 Marked Black Plum 30s 22.25-24.25 Marked RedPlum 30s 26.00-28.00 9 kg containers loose CL BOAT Marked Black Plum 60 sz18.00-20.00 Marked Red Plum 60 sz 18.00-20.00 cartons 2 layer tray pack CL BOATInterspecific Type Flavor Fall 40s 23.50-24.50ORGANICBERRIES---BLUEBERRIES: flats 12 1-pt cups with lids MX Baja District lge 38.00 (onelabel) flats 12 4.4-oz cups with lids MX med 23.00-24.00 flats 12 6-oz cupswith lids MX med 26.00-27.00---MISC BERRIES: flats 12 6-oz cups with lids MX Blackberries lge 22.00-24.00---STRAWBERRIES: flats 8 1-lb containers with lids CA Oxnard DistrictCalifornia med-lge fr qual 10.00-12.00NON-CITRUS FRUITS---APPLES: cartons tray pack WA WAExFcy Red Delicious 88s 24.00 Fuji 88s 28.00Granny Smith 100s 29.00 Gala 88s 42.00 cartons 12 3-lb film bags WA WAExFcy RedDelicious 2 1/2" min 32.00-32.50 Fuji 2 1/2" min 32.00-32.50 Granny Smith 21/2" min 32.00-32.50 Gala 2 1/2" min 32.00-32.50---BANANAS: 40 lb cartons EC BOAT 22.00-24.50 PE BOAT 22.00-24.50---KIWIFRUIT: 9 kg (19.8 lb) containers loose IT Hayward 20 sz 39.00 42 sz frqual 22.00