BC-Wheat KX
BC-Wheat KX

The Associated Press

CHICAGO




CHICAGO (AP) — Winter Wheat futures on the Chicago Board of Trade Fri:
OpenHighLowSettleChg.WHEAT5,000 bu minimum; cents per bushelMay494¼495½481½482¾—12½Jul514514½500¾502—12½Sep533533519½520½—13Dec559559545¾546¾—13Mar573¼573¼564564½—12¾May578580¼572¾573—13¾Jul585585576½576½—14½Sep588½588½584½584½—14½Dec601—12¼Mar606½—12¼May606½—12¼Jul599¾—12¼Est. sales 53,050.  Thu.'s sales 53,878Thu.'s open int 264,847