BC-Orange-juice
BC-Orange-juice

The Associated Press

NEW YORK




NEW YORK (AP) — Frozen concentrate orange juice trading on the IntercontinentalExchange (ICE) Friday:
OpenHighLowSettleChg.ORANGE JUICE15,000 lbs.; cents per lb.May142.05143.35141.60143.25+.10Jun143.05+.30Jul143.00143.65141.75143.05+.30Aug143.30+.20Sep142.55143.30142.35143.30+.20Nov143.80143.90143.05143.90+.35Jan144.20144.75144.00144.75+.45Feb145.60+.65Mar145.05145.60145.00145.60+.65May146.00146.45146.00146.45+.70Jul146.90+.70Sep147.20+.70Nov147.55+.70Jan148.10+.70Feb148.40+.70Mar148.40+.70May148.70+.70Jul149.05+.70Sep149.40+.70Nov149.75+.70Jan150.05+.70Feb150.70+.70Mar150.70+.70Est. sales 1,539.  Thu.'s sales 1,573Thu.'s open int 13,391