BC-USDA-Portland Grain
BC-USDA-Portland Grain

The Associated Press



JO—GR110Portland, OR    Mon Apr 23, 2018    USDA Market NewsPortland Daily Grain ReportBids as of 9:30 a.m. Pacific time; Subject to changeAll Bids in dollars per bushel.  Bids are limited and not fullyestablished in early trading.Bids for grains delivered to Portland, Oregon in dollars per bushel.In early trading May wheat futures trended mixed, 7.25 cents lower to3.75 cents per bushel higher than Friday?s noon closes.Bids for US 1 Soft White Wheat delivered to Portland in unit trains andbarges for April delivery for ordinary protein were not well tested inearly trading, but bids were indicated as steady to higher compared toFriday?s noon bids for the same delivery period.  Some exporters were notissuing bids for nearby delivery.  Bids for guaranteed maximum 10.5 percentprotein were well tested in early trading, but bids were indicated assteady to higher compared to Friday?s noon bids for the same deliveryperiod.  Some exporters were not issuing bids for nearby delivery.Bids for 11.5 percent protein US 1 Hard Red Winter Wheat for Aprildelivery were not well tested in early trading but bids were indicated ashigher compared to Friday?s bids for the same delivery period.  Someexporters were not issuing bids for nearby delivery.Bids for 14 percent protein US 1 Dark Northern Spring Wheat for Aprildelivery were not well tested in early trading but bids were indicated aslower compared to Friday?s noon bids for the same delivery period.  Someexporters are not issuing bids for nearby delivery.Bids for US 2 Yellow Corn delivered full coast in 110 car shuttle trainsduring April were not available in early trading as most exporterswere not issuing bids for nearby delivery.Bids for US 1 Yellow Soybeans delivered full coast in 110 car shuttletrains during April were not available in early trading as most exporterswere not issuing bids for nearby delivery.All wheat bids in dollars per bushelUS 1 Soft White Wheat - delivered by Unit Trains and BargesOrdinary proteinApr                                       5.6925-5.9000May                                       5.6925-5.9000Jun                                       5.7450-5.8700Jul                                       5.6950-5.8700Aug NC                                    5.5000-5.7500Guaranteed maximum 10.5 pct proteinApr                                       5.6925-5.9000May                                       5.6925-5.9000Jun                                       5.7450-5.8500Jul                                       5.6950-5.7500Aug NC                                    5.5000-5.7500—US 1 White Club Wheat - delivered by Unit Trains and BargesOrdinary proteinApr                                       5.6925-5.9000Guaranteed maximum 10.5 pct proteinApr                                       5.6925-5.9000—US 1 Hard Red Winter Wheat - (Exporter bids-falling numbers of 300 orbetter)Ordinary protein                            5.4650-5.715011 pct protein                              6.0650-6.215011.5 pct proteinApr                                       6.3150-6.4650May                                       6.3150-6.4650Jun                                       6.3550-6.5050Jul                                       6.2850-6.3550Aug NC                                    6.2300-6.330012 pct protein                              6.4150-6.615013 pct protein                              6.6150-6.9150—US 1 Dark Northern Spring Wheat (with a minimum of 300 falling numbers, a maximumof 0.5 part per million vomitoxin, and a maximum of one percent total damage)13 pct protein                              6.8775-7.127514 pct proteinApr                                       7.2775-7.5275May                                       7.2275-7.4275Jun                                       7.3950Jul                                       7.2950-7.3950Aug NC                                    7.3075-7.357515 pct protein                              7.5175-7.767516 pct protein                              7.7575-8.0075—US 2 Yellow CornShuttle trains-Delivered full coast Pacific Northwest-BNApr                                       NAMay                                       4.9850Jun                                       4.9925-5.0225Jul                                       4.9725-5.0125Aug                                       4.8975-5.0075Sep                                       NA—US 1 Yellow SoybeansShuttle trains-Delivered full coast Pacific Northwest-BNApr                                       NAMay                                       11.1125Jun                                       11.1800Jul                                       11.1800-11.2300Aug                                       NAOct                                       11.2050-11.2450—US 2 Heavy White Oats **                      3.4825** Not well tested.Exporter Bids Portland Rail/Barge             Mar 2018Averages in Dollars per bushelUS 1 Soft White by Unit Trains and Barges   5.5600US 1 Hard Red Winter (Ordinary protein)     5.5300US 1 Hard Red Winter (11.5% protein)        6.4700US 1 Dark Northern Spring (14% protein)     7.3300Source:    USDA Market News Service, Portland, ORNiki Davila 503-535-5001  Portland.LPGMN@ams.usda.gov24 Hour Market Report  503-535-5005www.ams.usda.gov/mnreports/jo—gr110.txtwww.ams.usda.gov/lpsmarketnewspage10:50P nd