Close
Close

The Associated Press

CHICAGO




CHICAGO (AP) — Futures trading on the Chicago Board of Trade Mon.:
OpenHighLowSettleChg.WHEAT5,000 bu minimum; cents per bushelMay464¼469458¾461½—1¾Jul478483¼472¼474½—2¾Sep496¼501½491493¼—2½Dec521525½515517¾—2¼Mar538¾543½534536¾—2May546550544¾545—2½Jul548554546546½—2½Sep557¼557¼555555—2¼Dec574¾574¾568569¾—2Mar578¾—2¼May578½—2¼Jul561¾—2¼Est. sales 167,284.  Fri.'s sales 154,951Fri.'s open int 479,295,  up 358CORN5,000 bu minimum; cents per bushelMay376½379¼376¼378½+2Jul385¼388385¼387½+2Sep393395½392¾395+2Dec402¼405402¼404¼+1¾Mar410¼412½410412+1¾May415½416¼414¾416+1½Jul419420½418¼419¾+1¼Sep407¾407¾406407+1Dec408¼410½408¼410+1½Mar417½418417½418+1¼May422¼+1¾Jul427427426¾426¾+1¾Sep419½+¼Dec415416¾415416¾+1Jul425+1Dec421¼+¾Est. sales 379,436.  Fri.'s sales 408,092Fri.'s open int 1,811,839OATS5,000 bu minimum; cents per bushelMay232¾235221¾226¾—5¾Jul235½236½220¾227¾—8¼Sep242½242½230234¾—8Dec251251240245¼—8¼Mar252¾252¾251¾251¾—8May255½—8Jul260½—8Sep261¾—8Dec261¾—8Mar261¾—8Jul260¼—8Sep260¼—8Est. sales 2,613.  Fri.'s sales 536Fri.'s open int 6,114SOYBEANS5,000 bu minimum; cents per bushelMay1027½1033¼1017¼1020¾—8Jul1038¾104510291032¼—8Aug1040¼1046¼10311034½—7½Sep1036¼10411027¾1030¾—6¾Nov10331039½1025¾1028¼—6¾Jan1038¼10441030¾1033¾—6Mar1028½1033¼10211025¼—3¾May1031¼10321020¼1024¼—3¼Jul10361036¾10251028½—4Aug1028½1028½1025¾1025¾—3½Sep1008¾—3½Nov998¼1003¾993¼997—1½Jan999¼—1¾Mar993¾—1½May994—2Jul1001—1¾Aug993½—1¾Sep989¾—1¾Nov981½982980980+2¾Jul982¾+2¾Nov982¾+2¾Est. sales 222,905.  Fri.'s sales 249,779Fri.'s open int 921,984SOYBEAN OIL60,000 lbs; cents per lbMay31.2631.4030.8931.04—.26Jul31.5231.6531.1531.30—.26Aug31.6131.7731.2931.43—.25Sep31.7531.9231.4631.59—.24Oct31.9532.0731.6431.74—.22Dec32.2532.4332.0032.10—.22Jan32.5632.6832.2532.36—.20Mar32.8032.9632.5732.67—.18May33.1733.2632.8832.99—.15Jul33.2333.2733.1533.25—.15Aug33.32—.15Sep33.2533.3933.2533.39—.15Oct33.2033.3533.2033.35—.17Dec33.5333.5333.5033.50—.15Jan33.63—.14Mar33.85—.14May33.90—.14Jul34.02—.13Aug34.01—.13Sep34.01—.13Oct34.01—.13Dec33.98—.13Jul33.98—.13Oct33.98—.13Dec33.98—.13Est. sales 196,331.  Fri.'s sales 174,661Fri.'s open int 507,056SOYBEAN MEAL100 tons; dollars per tonMay374.10376.70370.90371.80—2.30Jul379.10381.30375.30376.20—2.40Aug379.60381.00375.30376.10—2.40Sep378.70379.60374.80375.20—2.20Oct377.20377.60373.40373.80—2.10Dec374.50376.20371.80372.70—1.80Jan372.50373.40369.50370.10—1.80Mar363.40363.40360.00360.80—1.40May358.50358.50356.30357.00—.90Jul357.30357.30356.50356.90—.60Aug354.40—.80Sep350.70—.80Oct344.00—.70Dec344.20344.70343.00343.30—.60Jan344.00—.60Mar344.80—.60May344.80—.60Jul343.30—.60Aug343.30—.60Sep343.30—.60Oct343.30—.60Dec340.10—.60Jul340.10—.60Oct340.10—.60Dec350.20—.60Est. sales 104,805.  Fri.'s sales 155,705Fri.'s open int 516,211