BC-SC--Commodities, SC
BC-SC--Commodities, SC

The Associated Press



COLUMBIA, SC  Monday, April 23, 2018South Carolina State Farmers Market - Prices to GrowersProvided by: Specialty Crops Market NewsFederal State Market News Office Columbia, SCCA—FV001Columbia Farmers Market - Wholesale prices paid to Growers until 9:00a.m. for South Carolina grown produce unless otherwise stated.  Standardcartons/crates. Farmers' pack not necessarily USDA grades.  Pricessubject to change without notice.Recorder number: (803)737-5900 Office:(803)737-4497Internet http://www.ams.usda.gov/mnreports/CA—FV001.TXTSIZES: jbo=jumbo, xlge=extra large, lge=large, med=medium sml=smallVOLUME SYMBOLS: TFQ = Supplies insufficient to quote prices,VL=very light, F=few, L=light, M=moderate, H=heavy, VH=very heavyCOMMODITY         VOL   CONTAINERS         VARIETY                 PRICESBEETS:            VL    dz bnchs           Red type                 20.0025 lb sks          Red topped               12.00CILANTRO:         VL    ctns bnchd         30s                      12.00GREENS:           VL    dz bnchs           Collards/Mustard/Turnips 20.001.35 buctns bnchd  Kale 24s Green           12.001 1/9 buctns lse   Turnip Tops/Mustard      12.00Creasy type              12.00ONIONS,GREEN:     VL    crts bnchd         24s                  8.00-9.00ctns bnchd         48s                      14.00Sweet Type 24s           18.00ctns bnchd         Leeks 12s                20.00PARSLEY:          VL    ctns bnchd         Flat type 30s            15.00RUTABAGAS:        VL    dz bnchs                                    20.00SPINACH:          VL    1.35 bucrts        Savoy type               18.00STRAWBERRIES:     VL    8 1-lb flts        Med-Lge                  16.00TURNIPS:          VL    25 lb sks          Topped Lge               12.00*****OUT OF STATE PRODUCE SOLD UNDER SHEDS (Buying Wholesale)************APPLES:           VL    Buctns lse         Red/Golden/Fuji          20.00Granny Smith             20.00BANANAS:          VL    40 lb ctns         #1                       18.00BEANS:            VL    1 1/9 bucrts       Snap type FL             15.00KY type FL               28.00Half-Runners FL          35.00BROCCOLI:         VL    20 lb ctns         Crown Cut FL             22.00CABBAGE:          VL    50 lb ctns         Green type Med FL        14.00CANTALOUPS:       VL    1/2 ctns           GU 6s                    13.0024 inch bins       Athena 120s/150s        300.00CARROTS:          VL    50 lb sks          Jumbo MX                 21.00CORN,SWEET:       VL    4 dz crts          White/Yellow/Bi-Color    15.00CUCUMBERS:        VL    1 1/9 buctns       Long Greens Sel    15.00-16.001 1/9 bucrts       Pickles Sml-Med FL       35.00EGGPLANT:         VL    buctns             MX 24s                   16.00GRAPES:           VL    18 lb ctns bgd     White Seedless     15.00-20.00LETTUCE:          VL    ctns wrpd          Iceberg 24s MX           14.00MANGOES:          VL    1 layer ctns       Tommy Atkins 9s           6.00OKRA:             VL    1/2 buctns         Sml-Med FL               22.00ONIONS,DRY:       VL    50 lb sks          Yellow Jumbo             16.0025 lb sks          Red Jumbo                14.0016 3-lb sks        Yellow Med               17.0032 lb sks          Sets Yellow/Red/White    22.00ONIONS,GREEN:           Vidalia District of GeorgiaVL    ctns bnchd         24ct               20.00-22.00ONIONS,DRY:             50 lb sks          Jumbo              23.00-25.00Medium                   20.0025 lb sks          Jumbo                    13.0010 5-lb sks        Jumbo              25.00-28.00Medium             24.00-26.005 10-lb sks        Jumbo                    28.0016 3-lb sks        Medium             25.00-26.00PEANUTS,GREEN:    VL    bucrts             Red Skin FL              48.00PEARS:            VL    2 layer ctns       Asian type 32s CA        20.00PEPPERS,BELL:     VL    1 1/9 buctns       Green Xlge FL            15.00Green Choice FL          12.00Small MX                  8.00Red Choice FL      18.00-20.00Yellow Choice MX         20.00PEPPERS,OTHER:    VL    1/2 buctns         Jalapeno                 12.001 1/9 buctns       Poblano Lge MX           18.00PINEAPPLE:        VL    1 layer ctns       Golden Ripe MX 7s        12.00PLUMS:            VL    9 kg ctns lse      Red                20.00-25.00POTATOES:         VL    50 lb sks          Seed type Red/White      20.00Red US 2 Size A FL 15.00-16.00White US 2 sz A FL       15.00SQUASH:           VL    3/4 buctns         Medium-Large             12.001/2 buctns         Zucchini Small           15.00Straightneck Sml         18.00VL    buctns             Acorn/Butternut/Spaghetti20.00STRAWBERRIES:     VL    8 1-lb flts        CA Lge                   10.00SWEET POTATOES:   VL    40 lb ctns         Orange typeU.S. NO 1 MS             23.00U.S. NO 1 NC       16.00-18.00US #2 NC/MS        12.00-13.00Jumbo NC/MS              13.00Purple MS                25.00TOMATOES:         VL    25 lb ctns         Vine Ripes Turning Red5x6sz/Xlge/Jbo      8.00-11.006x6sz               7.00-10.00Red type All Sizes  7.00-10.00Green 5x6 sz             14.00Yellow 5x6 sz            18.00TOMATOES,GRAPE:   VL    12 1-pt cntrs      Red type FL               9.0020 lb ctns         Red type FL              13.00TOMATOES,PLUM:    VL    25 lb ctns         Roma Xlge FL        9.00-10.00WATERMELONS:      VL    per melon          Red Flesh Seeded15-19 lbs            2.50-3.0020-24 lbs            3.75-4.0025-30 lbs            4.75-6.00Red Flesh Seedless12-14 lbs            2.50-4.0015-20 lbs            4.00-5.0022-25 lbs            5.50-6.00Yellow Flesh Seedless12-14 lbs                 4.0024 inch bins       Red Flesh Seeded FL28/35/45                165.00Red Flesh Seedless FL36/45/60                220.00CITRUS:LEMONS:           VL    7/10 buctns        CA 115s/140s Standard    28.00ORANGES:          VL    7/10 buctns        Navel CA 56/72/88        27.00Remarks: These items also available Rice, Cheese, Eggs, Honey, SlicedMeats, Butter, Flowers, Jams, Ciders, Plants, Trees, etc.Web site www.ams.usda.gov/mnreports/CA—FV001.TXT10:44 ts