BC-Merc Table
BC-Merc Table

The Associated Press






BC-Merc Table,
CHICAGO (AP) — Futures trading on the Chicago Mercantile Exchange Mon:
OpenHighLowSettleChg.CATTLE40,000 lbs.; cents per lb.Apr119.82121.80119.62121.72+2.37Jun104.55105.47104.30104.87+1.15Aug104.30105.25104.12105.07+1.27Oct108.50109.27108.42109.10+.95Dec112.82113.67112.77113.57+.90Feb114.37115.35114.30115.15+.90Apr115.22116.02115.15116.02+.72Jun109.12109.85109.07109.75+.93Aug108.00108.60108.00108.60+1.13Est. sales 41,783.  Fri.'s sales 499,606Fri.'s open int 345,873FEEDER CATTLE50,000 lbs.; cents per lb.Apr139.25139.75138.82139.02+1.72May140.50141.25139.95140.60+1.28Aug145.30147.45145.17147.12+2.62Sep146.00147.95146.00147.67+2.10Oct146.90148.22146.67148.05+1.85Nov146.50147.72146.30147.65+1.85Jan142.75143.87142.57143.62+1.77Mar140.75+1.40Est. sales 15,954.  Fri.'s sales 18,380Fri.'s open int 48,591HOGS,LEAN40,000 lbs.; cents per lb.May69.4269.4267.7568.00—1.95Jun76.7577.3076.1076.37—1.18Jul79.2779.5578.5078.90—1.12Aug79.0579.4078.4278.75—.82Oct66.8767.2066.3566.82—.78Dec61.6762.0561.1561.45—.65Feb65.0765.5765.0765.50—.37Apr68.7269.0268.5568.92—.38May74.00—.10Jun77.72—.18Jul77.17—.18Aug76.77—.18Est. sales 36,408.  Fri.'s sales 32,338Fri.'s open int 239,571,  up 2,868PORK BELLIES40,000 lbs.; cents per lb.No open contracts.