BC-BOT Table,1st Ld
BC-BOT Table,1st Ld

The Associated Press

CHICAGO




CHICAGO (AP) — Noon trading on the Chicago Board of Trade Mon.:
OpenHighLowNoonChg.WHEAT5,000 bu minimum; cents per bushelMay464¼469458¾462¼—1Jul478483¼472¼475¼—2Sep496¼501½491494—1¾Dec521525½515518—2Mar538¾543½534537—1¾May546550545548+½Jul548554546547¼—1¾Sep557¼557¼555556¼—1Dec574¾574¾568569½—2¼Est. sales 138,399.  Fri.'s sales 154,951Fri.'s open int 479,295,  up 358CORN5,000 bu minimum; cents per bushelMay376½379¼376¼378+1½Jul385¼388385¼386¾+1¼Sep393395½392¾394½+1½Dec402¼405402¼403¾+1¼Mar410¼412½410411½+1¼May415½416¼414¾415¼+¾Jul419420½418¼419+½Sep407¾407¾406406¼+¼Dec408¼410½408¼409¼+¾Mar417½417½417½417½+¾Dec415415415415—¾Est. sales 247,792.  Fri.'s sales 408,092Fri.'s open int 1,811,839OATS5,000 bu minimum; cents per bushelMay232¾235221¾224¼—8¼Jul235½236½220¾225—11Sep242½242½230231¾—11Dec251251240240—13½Mar252¾252¾252¾252¾—7Est. sales 2,327.  Fri.'s sales 536Fri.'s open int 6,114SOYBEANS5,000 bu minimum; cents per bushelMay1027½1033¼1017¼1019¾—9Jul1038¾104510291031¼—9Aug1040¼1046¼10311033¼—8¾Sep1036¼10411027¾1030—7½Nov10331039½1025¾1028¾—6¼Jan1038¼10441030¾1033½—6¼Mar1028½1033¼10211023¾—5¼May1031¼10321020¼1021¾—5¾Jul10361036¾10251028—4½Aug1028½1028½1026¼1026¾—2½Nov998¼1003¾993¼996¼—2¼Nov981½982981½982+4¾Est. sales 153,771.  Fri.'s sales 249,779Fri.'s open int 921,984SOYBEAN OIL60,000 lbs; cents per lbMay31.2631.4030.8931.05—.25Jul31.5231.6531.1531.29—.27Aug31.6131.7731.2931.42—.26Sep31.7531.9231.4631.59—.24Oct31.9532.0731.6431.73—.23Dec32.2532.4332.0032.11—.21Jan32.5632.6832.2532.34—.22Mar32.8032.9632.5732.65—.20May33.1733.2632.8832.96—.18Jul33.2333.2333.1533.20—.20Sep33.2533.2533.2533.25—.29Oct33.2033.2033.2033.20—.32Est. sales 158,317.  Fri.'s sales 174,661Fri.'s open int 507,056SOYBEAN MEAL100 tons; dollars per tonMay374.10376.70370.90372.90—1.20Jul379.10381.30375.30377.10—1.50Aug379.60381.00375.30376.90—1.60Sep378.70379.60374.80376.10—1.30Oct377.20377.60373.40374.80—1.10Dec374.50376.20371.80373.50—1.00Jan372.50373.40369.50370.60—1.30Mar363.40363.40360.00361.00—1.20May358.50358.50356.30357.00—.90Jul357.30357.30356.50357.00—.50Est. sales 74,291.  Fri.'s sales 155,705Fri.'s open int 516,211