BC-Cotton
BC-Cotton

The Associated Press

NEW YORK




NEW YORK (AP) — Cotton No. 2 Futures on the IntercontinentalExchange (ICE) Monday:
OpenHighLowSettleChg.COTTON 250,000 lbs.; cents per lb.May85.7086.4482.9083.19—2.28Jul84.8985.3984.0484.12—.61Sep79.35—.08Oct81.4582.0081.1681.16—.51Nov79.35—.08Dec79.4579.9079.2579.35—.08Jan79.21—.03Mar79.3179.7479.1579.21—.03May79.0979.7579.0979.14+.05Jul78.7879.4978.7878.88+.17Sep73.82—.16Oct76.12+.20Nov73.82—.16Dec74.1074.2073.8273.82—.16Jan73.87—.16Mar73.87—.16May74.29—.16Jul74.23—.16Sep72.34—.16Oct73.59—.16Nov72.34—.16Dec72.34—.16Jan72.38—.16Mar72.38—.16Est. sales 36,724.  Fri.'s sales 45,658Fri.'s open int 262,581,  up 3,826