BC-USDA-Onion and Pots
BC-USDA-Onion and Pots

The Associated Press



IDAHO FALLS Shipping Point Prices as of 23-APR-2018Provided by:  Specialty Crops Market NewsFederal - State Market News Service, USDA.Phone:  (208) 525-0166     Fax:  (208) 525-5546Prices represent open (spot) market sales by first handlers on product ofgenerally good quality and condition unless otherwise stated and may includepromotional allowances or other incentives.  No consideration is given toafter-sale adjustments unless otherwise stated.  Brokerage fees paid by theshipper are included in the price reported. Delivered Sales, Shipping PointBasis excludes all charges for freight.IF—FV130The Following Terms when used by Market News will be interpreted as meaning:Occasional-1 to 5%, Few-6 to 10%, Some-11 to 25%, Many-26 to 50%,Mostly-51 to 90%, Generally-91 to 100%Moses Lake, WA Clear 35/70Pasco, WA Clear 31/71Mount Vernon, WA Clear 39/68Ontario, OR Clear 45/68Twin Falls, ID Clear 36/60 WindyIdaho Falls, ID Mostly Cloudy 39/51 WindyMonte Vista, CO Partly Cloudy 27/66Stevens Point, WI Clear 26/61Antigo, WI Clear 29/60Grand Forks, ND Partly Cloudy 35/63 Flood WarningImmokalee, FL Partly Cloudy 68/88Fort Myers, FL Partly Cloudy 71/88 WindyTampico, Mexico Partly Sunny 75/82McAllen, TX Partly Cloudy 70/88El Centro, CA Clear 64/99Vidalia, GA Overcast 55/77 WindyCENTRAL WISCONSINSales F.O.B. Shipping Point and/or Delivered Sales, Shipping Point Basis2017 Season---POTATOES: DEMAND FAIRLY LIGHT. MARKET ABOUT STEADY.Russet Norkotah U.S. Onebaled 5 10-lb film bags sz A 8.00-9.25 mostly 8.50-9.00 occas lowerbaled 10 5-lb film bags sz A 9.00-10.25 mostly 9.50-10.00 occas lower50 lb cartons40s 14.00-16.00 mostly 15.00-16.0050s 14.00-16.50 mostly 15.00-16.0060s 14.00-16.50 mostly 15.00-16.0070s 14.00-16.50 mostly 15.00-16.0080s 11.50-16.00 mostly 12.50-14.0090s 11.00-13.00 mostly 11.00-11.50100s 10.00-12.50 mostly 10.00-11.00COLUMBIA BASIN WASHINGTON & UMATILLA BASIN OREGONSales F.O.B. Shipping Point and/or Delivered Sales, Shipping Point Basis2017 Season---ONIONS DRY: DEMAND MODERATE. MARKET YELLOW AND RED MEDIUM STEADY, OTHERSHIGHER.Yellow Hybrid 50 lb sackscol 8.00-11.00 mostly 9.00jbo 6.00-8.00 mostly 7.00-7.50med 4.00-5.50 mostly 4.00-5.00Red Globe Type 25 lb sacksjbo 5.00-6.00 mostly 6.00med 5.00-6.00 mostly 6.00COLUMBIA BASIN WASHINGTON & UMATILLA BASIN OREGONSales F.O.B. Shipping Point and/or Delivered Sales, Shipping Point Basis2017 Season---POTATOES: DEMAND CARTON 50S-70S FAIRLY GOOD, OTHERS MODERATE. MARKET CARTON40S SLIGHTLY LOWER, US2 LOWER, OTHERS ABOUT STEADY.Russet Norkotah U.S. One 2" or 4-oz Minbaled 5 10-lb film bags non sz A 5.50-6.00 mostly 6.00 occas lowerbaled 10 5-lb film bags non sz A 6.50-7.00 mostly 7.00 occas lower50 lb cartons40s 9.00-10.00 mostly 9.00-9.50 occas higher & lower50s 11.50-13.50 mostly 12.50-13.00 few as low as 11.0060s 12.00-13.50 mostly 13.00-13.5070s 12.00-13.50 mostly 12.50-13.0080s 10.00-11.00 few high as 13.5090s 9.00-10.00 mostly 9.50-10.00100s 8.00-9.50 mostly 8.50-9.00 few high as 10.00U.S. Two 50 lb sacks10 oz min 5.00-6.00FLORIDASales F.O.B. Shipping Point and/or Delivered Sales, Shipping Point Basis2018 Season---POTATOES: SUPPLY YELLOW TYPE AND ROUND WHITE VERY LIGHT. DEMAND YELLOW TYPEAND ROUND WHITE EXCEEDS SUPPLY, ROUND RED MODERATE. MARKET ROUND WHITE HIGHER,ROUND RED LOWER, YELLOW TYPE  ABOUT STEADY.Round Red U.S. One50 lb cartonssz A 11.25-14.50 mostly 12.50-13.00sz B 19.25-22.50 mostly 19.50-22.50 occas lowerCreamers 3/4-1 5/8" 36.75-40.75 mostly 38.75-40.7550 lb sackssz A 9.50-12.75 mostly 10.75-11.50sz B 17.50-20.75 mostly 17.75-20.75 occas lowertote bags approx 2000 lbs per cwtsz A 15.00-22.50 mostly 18.00 few lowersz B 30.00-44.50 mostly 30.00-34.50 few lowerU.S. Two 50 lb sackssz A 6.50-10.75 mostly 8.75-9.75sz B 14.00-16.75 mostly 14.00-14.75Round White U.S. One50 lb cartonssz A 22.50-24.00sz B 12.00-18.50 mostly 16.5050 lb sackssz A 20.75-22.50sz B 10.25-16.75 mostly 14.75tote bags approx 2000 lbs per cwtsz A 36.50-40.50 mostly 38.00-40.00U.S. Two 50 lb sackssz A 10.75-18.50 mostly 10.75-12.75sz B 6.75-12.50 mostly 8.75-10.75Yellow Type U.S. One50 lb cartonssz A 22.50-26.00 mostly 22.50-24.00sz B 12.00-18.00 mostly 12.50Creamers 3/4-1 5/8" 45.75-50.75 mostly 50.50-50.7550 lb sackssz A 20.75-24.50 mostly 20.75-22.50sz B 10.25-16.50 mostly 10.75tote bags approx 2000 lbs per cwtsz A 34.00-42.00 mostly 38.50-40.00U.S. Two 50 lb sackssz A 10.00-12.75 mostly 10.75sz B 6.75-10.50 mostly 6.75-8.75IDAHO AND MALHEUR COUNTY, OREGONSales F.O.B. Shipping Point and/or Delivered Sales, Shipping Point Basis2017 Season---ONIONS DRY: DEMAND MODERATE. MARKET STEADY.Yellow Spanish Hybrid U.S. One 50 lb sacksSuper Col 10.00col 8.00-9.00 mostly 9.00jbo 6.50-7.50 mostly 7.00med 4.00-5.25 mostly 4.50-5.00Red Globe Type U.S. One 25 lb sacksjbo 6.50-7.50med 5.50-6.00 mostly 6.00IMPERIAL VALLEY CALIFORNIASales F.O.B. Shipping Point and/or Delivered Sales, Shipping Point Basis2018 Season---ONIONS DRY: DEMAND FAIRLY LIGHT. MARKET YELLOW MEDIUM SLIGHTLY HIGHER,YELLOW COLOSSAL, JUMBO SLIGHTLY LOWER, OTHERS ABOUT STEADY.Yellow Grano 50 lb sacksSuper Col 11.00-12.00col 9.00-11.00 mostly 9.00-10.00jbo 7.00-9.00 mostly 8.00-8.50med 6.00-7.00 occas higherRed Globe Type 25 lb sacksjbo 7.00-8.00med 7.00-8.00LOWER RIO GRANDE VALLEY, TEXASSales F.O.B. Shipping Point and/or Delivered Sales, Shipping Point Basis2018 Season---ONIONS DRY: DEMAND MODERATE. MARKET RED MEDIUM LOWER, OTHERS STEADY.Yellow Grano 50 lb sackscol 10.00-12.00 mostly 10.00jbo 8.00-10.00 mostly 9.00med 7.00-9.00 mostly 8.00 occas lowerGrano - Marked Sweet 40 lb cartonsjbo 16.00-17.00 mostly 16.00 occas lowerWhite 50 lb sacksjbo 10.00-12.00 mostly 10.00 occas lowermed 10.00-12.00 mostly 10.00 occas lowerRed Globe Type 25 lb sacksjbo 7.00-8.00 mostly 8.00med 7.00-8.00 mostly 8.00MEXICO CROSSINGS THROUGH SOUTH TEXASSales F.O.B. Shipping Point and/or Delivered Sales, Shipping Point Basis2018 Season---ONIONS DRY: DEMAND MODERATE. MARKET WHITE AND RED MEDIUM LOWER, OTHERSSTEADY.Yellow Grano 50 lb sackscol 8.00-10.00 mostly 9.00 occas lowerjbo 7.00-9.00 mostly 8.00med 5.00-7.00 mostly 5.00Grano - Marked Sweet 40 lb cartonsjbo 12.00-14.00 mostly 12.00White 50 lb sacksjbo 8.00 occas highermed 7.00-8.00 mostly 8.00 occas higherRed Globe Type 25 lb sacksjbo 6.00-8.00 mostly 7.00med 6.00-8.00 mostly 6.00MINNESOTA-NORTH DAKOTA (RED RIVER VALLEY)Sales F.O.B. Shipping Point and/or Delivered Sales, Shipping Point Basis2017 Season---POTATOES: DEMAND FAIRLY LIGHT. MARKET US ONE SZ B SLIGHTLY LOWER, OTHERS ABOUTSTEADY.Round Red U.S. Onebaled 10 5-lb film bags sz A 7.00-9.00 mostly 7.50-8.25 occas higher50 lb cartonssz A 7.00-9.00 mostly 7.50-8.25 occas highersz B 14.00-17.00 mostly 15.50-16.50 occas higher & lower50 lb sackssz A 5.50-7.50 mostly 6.00-6.75 occas highersz B 12.50-15.50 mostly 14.00-15.00 occas higher & lowertote bags approx 2000 lbs per cwtsz A 8.00-12.00 mostly 9.00-10.50 occas highersz B 22.00-28.00 mostly 25.00-27.00 occas higher & lowerU.S. Two 50 lb sackssz A 3.50-4.50 mostly 3.50-4.00 occas lowersz B 7.00-9.00 mostly 7.00-8.00NORTHWESTERN WASHINGTONSales F.O.B. Shipping Point and/or Delivered Sales, Shipping Point Basis2017 Season---POTATOES: DEMAND MODERATE. MARKET STEADY.Round Red U.S. One50 lb cartonssz A 10.00-16.00 mostly 12.00-15.00 fair appearance 8.00-12.00sz B 13.00-18.00 mostly 16.00-17.00Creamers 3/4-1 5/8" 34.00-36.00U.S. Two 50 lb sacks 5.00-6.00 mostly 6.00 occas lowerSAN LUIS VALLEY COLORADOSales F.O.B. Shipping Point and/or Delivered Sales, Shipping Point Basis2017 Season---POTATOES: DEMAND MODERATE. MARKET 40-90S AND BALED 5 10-LB FILM BAGS HIGHER,OTHERS STEADY.Russet Norkotah/Other Varieties U.S. Onebaled 5 10-lb film bags sz A 8.00-8.50 mostly 8.00baled 10 5-lb film bags sz A 8.50-9.50 mostly 9.0050 lb cartons40s 11.00-14.00 mostly 12.50-13.5050s 13.50-14.00 mostly 14.0060s 13.50-14.00 mostly 14.0070s 13.00-14.00 mostly 14.0080s 11.00-12.50 mostly 12.5090s 11.00-12.50 mostly 11.00-12.00100s 11.00-12.00 mostly 11.00U.S. Twobaled 5 10-lb film bags 6.00-7.00 mostly 6.50-7.00 occas lower50 lb sacks 10 oz min 7.00-9.00 occas lowerU.S. Coml bulk per cwt 9.00-11.00 mostly 10.50Round Red U.S. Onebaled 10 5-lb film bags sz A 13.00-15.00Yellow Type U.S. Onebaled 10 5-lb film bags sz A 10.00-12.00UPPER VALLEY, TWIN FALLS-BURLEY DISTRICT IDAHOSales F.O.B. Shipping Point and/or Delivered Sales, Shipping Point Basis2017 Season---POTATOES: DEMAND CARTON 40S, AND BALES MODERATE, OTHERS GOOD. MARKET CARTON60S, 80S AND 100S HIGHER, US TWO 10 OUNCE SLIGHTLY LOWER, OTHERS ABOUT STEADY.Russet Burbank U.S. One 2" or 4-oz Minbaled 5 10-lb mesh sacks non sz A 4.50-6.00 mostly 5.00baled 5 10-lb film bags non sz A 4.00-6.00 mostly 4.50baled 10 5-lb mesh sacks non sz A 5.50-7.00 mostly 6.00baled 10 5-lb film bags non sz A 5.00-6.25 mostly 5.5050 lb cartons40s 10.00-11.00 mostly 11.0050s 11.00-11.50 mostly 11.0060s 13.0070s 13.00-14.00 mostly 13.0080s 12.00-14.00 mostly 13.0090s 10.50-12.00 mostly 11.00100s 8.50-10.00 mostly 10.00U.S. Two 50 lb sacks6 oz min 6.00-6.5010 oz min 7.00-7.50 mostly 7.50VIDALIA DISTRICT GEORGIASales F.O.B. Shipping Point and/or Delivered Sales, Shipping Point Basis2018 Season---ONIONS DRY: DEMAND FAIRLY GOOD  AT LOWER PRICES. MARKET LOWER.Yellow Granex - Marked Sweet U.S. One 40 lb cartonsjbo 14.00-16.00 occas higher & lower