BC-USDA-Slghtr Catl
BC-USDA-Slghtr Catl

The Associated Press



SJ—LS110 St Joseph, MO    Mon  Apr  23,  2018    USDA-MO Dept of Ag Market NewsSt Joseph Stockyards - St Joseph, MOLivestock Weighted Average Report for 4/23/2018 AUCTION                         Receipts           Week Ago              Year Ago Total Receipts:                    490                   328                 0 Slaughter Cattle:                  410(84              267(81%)            0(0%) Replacement Cattle:                 80(16               61(19%)            0(0%)-------------------------------------------------------------------------------- ***CLOSE***  Compared to last week, slaughter cows sold 2.00 to 4.00 lower, while slaughter bulls sold 1.00 lower.  Today's run consisted of several totaldisbursement consignments.Slaughter Cows:Breaker 75-80% (Per Cwt) 1435-1900 lbs 50.00-60.00 Average Dressing.Boner 80-85% (Per Cwt) 795-1745 lbs 52.00-62.50 Average Dressing; High Dressing 1015-1505 lbs 62.50-68.00; Low Dressing 1135-1675 lbs 45.00-52.50.Lean 85-90% (Per Cwt) 1011-1550 lbs 45.00-55.00 Average Dressing; High Dressing 995-1165 lbs 56.50-61.00; Low Dressing 765-1485 lbs 30.00-44.00.Slaughter Bulls:  Yield Grade 1-2 1130-2385 lbs 75.00-86.00 Average Dressing; LowDressing 1260-2280 lbs 60.00-74.00.Replacement Cattle:Stock Cows:  Medium and Large 1 (Per Cwt / Actual Wt) 2-4 years old 803-1520 lbs88.00-106.00.  Medium and Large 1-2 2-8 years old 833-1330 lbs 65.00-81.00.Bred Cows:  Medium and Large 1 (Per Head / Actual Wt) 2-4 years old 1135-1160 lbs 4-9months bred 1125.00-1375.00; >5 years old 1065-1463 lbs 4-9 months bred 900.00-1175.00.Cow-Calf Pairs:  Medium and Large 1 (Per Family / Estimate Wt) 5-8 years old 1105-1526lb cow w/ 150-300 lbs calf 1260.00-1510.00.SLAUGHTER CATTLE COWS - Breaker 75-80%  (Per Cwt / Actual Wt) Head      Wt Range    Avg Wt     Price Range   Avg Price Dressing14      1435-1900     1717      50.00-60.00      54.32    AverageCOWS - Boner 80-85%  (Per Cwt / Actual Wt) Head      Wt Range    Avg Wt     Price Range   Avg Price Dressing129      795-1745     1352      52.00-62.50      57.20    Average18      1015-1505     1273      62.50-68.00      64.54       High23      1135-1675     1442      45.00-52.50      49.85        Low COWS - Lean 85-90%  (Per Cwt / Actual Wt) Head      Wt Range    Avg Wt     Price Range   Avg Price Dressing73      1011-1550     1239      45.00-55.00      50.65    Average8       995-1165     1113      56.50-61.00      58.13       High36       765-1485     1112      30.00-44.00      35.74        Low BULLS -  1-2 (Per Cwt / Actual Wt) Head      Wt Range    Avg Wt     Price Range   Avg Price Dressing25      1130-2385     1833      75.00-86.00      79.76    Average7      1260-2280     1698      60.00-74.00      67.68        LowREPLACEMENT CATTLESTOCK COWS - Medium and Large 1 (Per Cwt / Actual Wt)Age    Stage  Head     Wt Range     Avg Wt    Price Range    Avg Price2-4      O     30      803-1520      1070     88.00-106.00      98.16STOCK COWS - Medium and Large 1-2 (Per Cwt / Actual Wt)Age    Stage  Head     Wt Range     Avg Wt    Price Range    Avg Price2-8      O     16      833-1330      1053     65.00-81.00       72.82BRED COWS - Medium and Large 1 (Per Head / Actual Wt)Age    Stage  Head     Wt Range     Avg Wt    Price Range    Avg Price2-4    T2-3     6      1135-1160     1155   1125.00-1375.00   1334.08>5    T2-3    18      1065-1463     1291    900.00-1175.00    997.67COW-CALF PAIRS - Medium and Large 1 w/ 150-300 lbs calf (Per Family / Estimate Wt)Age    Stage  Head     Wt Range     Avg Wt    Price Range    Avg Price5-8      O      5      1105-1526     1426   1260.00-1510.00   1318.00Please Note:The above USDA LPGMN price report is reflective of the majority of classes and grades of livestock offered for sale.  There may be instances where some salesdo not fit within reporting guidelines and therefore will not be included in the report.  Prices are reported on an FOB basis, unless otherwise noted.Explanatory Notes:Stage (Cattle) - Represents pregnancy stage (O = open; T1 = 1st Trimester, 1to 3 months; T1-2 = 1st/2nd trimester, 1 to 6 months; T2 = 2nd Trimester, 4 to6 months; T2-3 = 2nd/3rd Trimester, 4 to 9 months; T3 = 3rd Trimester, 7 to 9months; T1-3 = all trimesters, 1 to 9 months; E = Exposed; B = Bred)Age - Numerical representation of age in years. Source:  USDA-MO Dept of Ag Market News ServiceLINDSAY BRUNET, Market Reporter, (816) 676-700024 Hour Market Report 1-573-522-9244www.ams.usda.gov/mnreports/SJ—LS110.txtwww.ams.usda.gov/market-news/livestock-poultry-grain