Open
Open

The Associated Press

CHICAGO




CHICAGO (AP) — Early trading on the Chicago Board of Trade Tue.:
OpenHighLowLastChg.WHEAT5,000 bu minimum; cents per bushelMay461¼462¼455½457—4½Jul474¾475467¾469¼—5¼Sep492¼493¼486¼487½—5¾Dec517¾517¾510½511½—6¼Mar534¾534¾529½530¼—6½May543543538¼540½—4½Jul546¼546½540¼541—5½Sep551¾551¾548548¾—6¼Dec566¼566¾563½563½—6¼Est. sales 56,423.  Mon.'s sales 167,284Mon.'s open int 479,360,  up 65CORN5,000 bu minimum; cents per bushelMay378½379377378¼—¼Jul387½388386387¼—¼Sep395395¼393½394½—½Dec404¼404½402¾403¾—½Mar411¾412¼410½411½—½May416416¼414¾416¼+¼Jul419¾420418½419¾Sep407407407407Dec409¼410¼409409¾—¼Mar417½418417½418Est. sales 83,822.  Mon.'s sales 379,436Mon.'s open int 1,810,024OATS5,000 bu minimum; cents per bushelMay226¼226¼215220½—6¼Jul228½231½221¼226½—1¼Sep234½234½230233—1¾Dec243¼244¾239¾244¾—½Est. sales 1,026.  Mon.'s sales 2,613Mon.'s open int 6,171,  up 57SOYBEANS5,000 bu minimum; cents per bushelMay1020¾1024¼1016¼1018—2¾Jul1032¼10361027¾1029½—2¾Aug1034½10381030¼1032—2½Sep1031½103410271029—1¾Nov10281031¼10251026½—1¾Jan1033½1036½1030½1032—1¾Mar1026¼102810231024½—¾May10261027½1022½1023¼—1Jul1030½10321027¼1028—½Nov996½999¾995½996½—½Est. sales 104,104.  Mon.'s sales 222,905Mon.'s open int 915,571SOYBEAN OIL60,000 lbs; cents per lbMay31.0731.1330.9531.01—.03Jul31.3431.3931.2231.28—.02Aug31.4331.5231.3431.42—.01Sep31.5931.6731.5131.59Oct31.7531.8331.6831.74Dec32.1332.2032.0232.10Jan32.3632.4432.3332.35—.01Mar32.6932.7632.6532.67May33.0133.0532.9532.97—.02Jul33.3133.3533.2833.35+.10Dec33.6133.6533.5833.65+.15Est. sales 39,088.  Mon.'s sales 196,331Mon.'s open int 502,431SOYBEAN MEAL100 tons; dollars per tonMay372.00373.00370.00370.00—1.80Jul376.30377.40374.30374.30—1.90Aug376.10377.50374.60375.10—1.00Sep375.20375.60373.40374.50—.70Oct373.90374.20372.00372.60—1.20Dec372.70373.60370.40371.50—1.20Jan370.50371.20368.20369.10—1.00Mar360.70360.80358.80359.90—.90May356.80356.90353.90356.30—.70Jul356.70356.70353.00355.60—1.30Dec342.60342.60341.90342.50—.80Est. sales 54,283.  Mon.'s sales 104,805Mon.'s open int 511,409