BC-Wheat KX
BC-Wheat KX

The Associated Press

CHICAGO




CHICAGO (AP) — Winter Wheat futures on the Chicago Board of Trade Tue:
OpenHighLowSettleChg.WHEAT5,000 bu minimum; cents per bushelMay483494477¼492½+9¼Jul502¼513½496½512+9¼Sep519531514½529½+9Dec545555¾539½554¼+8Mar562¾572¼556½570¾+7½May569¾579564½578½+7¾Jul570½580½566¼580½+7¾Sep582588¼581¾588¼+8Dec591¾603½591¾603½+7¾Mar609+7¾May609+7¾Jul602¼+7¾Est. sales 59,406.  Mon.'s sales 66,600Mon.'s open int 264,044,  up 284