BC-USDA-Iowa Elev Grain Prcs
BC-USDA-Iowa Elev Grain Prcs

The Associated Press



NW—GR110Des Moines, IA   Tue Apr 24, 2018    IA Dept of Ag-USDA Market NewsIA Dept. of Ag-USDA Market News Interior Iowa Daily Grain PricesClosing cash grain bids offered to producers as of 1:30 p.m.Dollars per bushel, delivered to Interior Iowa Country Elevators.US 2 Yellow Corn Prices were generally 2 to 3 cents higher for a state average of 3.43.US 1 Yellow Soybean Prices were mostly 1 cent higher for a state average of 9.49.Iowa Regions       #2 Yellow Corn          #1 Yellow SoybeansRange       Avg        Range         AvgNorthwest        3.35 ? 3.55   3.44       9.39 ? 9.53   9.44North Central    3.37 ? 3.48   3.41       9.41 ? 9.52   9.47Northeast        3.35 ? 3.55   3.43       9.36 ? 9.75   9.50Southwest        3.40 ? 3.50   3.44       9.42 ? 9.53   9.49South Central    3.38 ? 3.56   3.44       9.50 ? 9.58   9.53Southeast        3.34 ? 3.55   3.44       9.48 ? 9.70   9.58Corn basis to STATE AVERAGE PRICE for the CBOT MAY contract is -.38Soybean basis to STATE AVERAGE PRICE for the CBOT MAY contract is -.73This report was prepared by the Marketing Bureau, Iowa Department ofAgriculture and Land Stewardship.Source:  USDA Market News Des Moines, Iowa515-284-4460www.ams.usda.gov/mnreports/nw—gr110.txtIowa Dept. of Agriculture and Land Stewardship515-281-8604www.iowaagriculture.gov/agMarketing/dailyGrainPrices.asp16:01 ja