Open
Open

The Associated Press

CHICAGO




CHICAGO (AP) — Early trading on the Chicago Board of Trade Wed.:
OpenHighLowLastChg.WHEAT5,000 bu minimum; cents per bushelMay473479¼472¼478¾+6¼Jul485¼492¼484½491½+7¼Sep503509502508¾+7Dec525¼532¼525¼531¼+5¾Mar545½550544549+5May554½555¾553¼555¼+3Jul557562555½562+6¾Dec578½579¼576¾578½+2Est. sales 53,852.  Tue.'s sales 135,298Tue.'s open int 471,237CORN5,000 bu minimum; cents per bushelMay381386380½385½+4¼Jul390395389½394¾+4¾Sep397402396¾401¾+4½Dec406¼411¼406410¾+4¼Mar414419414418½+4¼May418¾423¼418½422½+4Jul422427422426½+4¼Sep409½411½409411½+2¾Dec412¼414½412414+2¼Mar422¼422½422¼422½+2¾Dec420420419¾420+2¾Jul430430430430+4½Est. sales 152,850.  Tue.'s sales 334,953Tue.'s open int 1,797,330OATS5,000 bu minimum; cents per bushelMay222226¾222226½+2¼Jul225¼229½225229+3¾Sep233235233235+2¾Dec244¼247½244¼247+3½Est. sales 293.  Tue.'s sales 1,791Tue.'s open int 6,177,  up 6SOYBEANS5,000 bu minimum; cents per bushelMay1022¼1033¼1020½1031½+9¼Jul1033½104510321043¼+9¼Aug10361046¾1034½1045¼+9¼Sep10331042¼1030¼1040¾+9Nov10291038¾1027¼1037¼+8½Jan1031½10431031½1041¼+7½Mar1020½10281020½1026½+4May1021102510191024+3¾Jul1025¼10291022¾1027½+2¾Aug101910211017¼1021+¾Nov993¼996991994+1¼Est. sales 112,625.  Tue.'s sales 267,011Tue.'s open int 906,320SOYBEAN OIL60,000 lbs; cents per lbMay31.0031.0730.7530.79—.22Jul31.2531.3531.0131.05—.22Aug31.3931.4531.1431.17—.22Sep31.5431.5831.3131.35—.19Oct31.6831.7231.4531.48—.20Dec32.0432.1031.8031.84—.20Jan32.3132.3632.0732.13—.17Mar32.6132.6132.3932.46—.16May32.9032.9032.7332.76—.18Jul33.2333.2333.0733.08—.14Dec33.4933.4933.3733.37—.12Est. sales 80,761.  Tue.'s sales 156,716Tue.'s open int 499,378SOYBEAN MEAL100 tons; dollars per tonMay372.20379.50371.70379.20+7.10Jul376.30383.50375.70383.20+6.90Aug377.70383.10376.40382.90+6.10Sep375.80381.80375.80381.60+5.30Oct375.70379.10375.70378.90+4.70Dec372.40377.30371.70376.80+4.40Jan369.90374.00368.90373.80+4.30Mar361.10362.70360.40362.50+3.20May356.40357.60355.10355.90+1.00Jul356.40356.40356.40356.40+1.60Oct344.10344.10344.10344.10+1.70Dec344.40344.40343.10343.90+2.20Est. sales 72,645.  Tue.'s sales 154,241Tue.'s open int 509,787