BC-USDA-Portland Grain
BC-USDA-Portland Grain

The Associated Press



JO—GR110Portland, OR    Wed Apr 25, 2018    USDA Market NewsPortland Daily Grain ReportBids as of 9:30 a.m. Pacific time; Subject to changeAll Bids in dollars per bushel.  Bids are limited and not fullyestablished in early trading.Bids for grains delivered to Portland, Oregon in dollars per bushel.In early trading May wheat futures trended 4.75 to 11 cents per bushelhigher than Tuesday?s noon closes.Bids for US 1 Soft White Wheat delivered to Portland in unit trains andbarges for April delivery for ordinary protein were not well tested inearly trading, but bids were indicated as steady to higher compared toTuesday?s noon bids for the same delivery period.  Some exporters were notissuing bids for nearby delivery.  Bids for guaranteed maximum 10.5 percentprotein were well tested in early trading, but bids were indicated assteady to higher compared to Tuesday?s noon bids for the same deliveryperiod.  Some exporters were not issuing bids for nearby delivery.Bids for 11.5 percent protein US 1 Hard Red Winter Wheat for Aprildelivery were not well tested in early trading but bids were indicated ashigher compared to Tuesday?s bids for the same delivery period.  Someexporters were not issuing bids for nearby delivery.Bids for 14 percent protein US 1 Dark Northern Spring Wheat for Aprildelivery were not well tested in early trading but bids were indicated ashigher compared to Tuesday?s noon bids for the same delivery period.  Someexporters are not issuing bids for nearby delivery.Bids for US 2 Yellow Corn delivered full coast in 110 car shuttle trainsduring April were not well tested in early trading, but bids were indicatedas mixed compared to Tuesday?s noon bids for the same delivery period.Some exporters were not issuing bids for nearby delivery.Bids for US 1 Yellow Soybeans delivered full coast in 110 car shuttletrains during April were not available in early trading as most exporterswere not issuing bids for nearby delivery.All wheat bids in dollars per bushelUS 1 Soft White Wheat - delivered by Unit Trains and BargesOrdinary proteinApr                                       5.7200-5.9275May                                       5.7200-5.9275Jun                                       5.7500-5.9550Jul                                       5.6500-5.9550Aug NC                                    5.5000-5.8725Guaranteed maximum 10.5 pct proteinApr                                       5.7200-5.9275May                                       5.7200-5.9275Jun                                       5.7500-5.9550Jul                                       5.6500-5.9550Aug NC                                    5.5000-5.8725—US 1 White Club Wheat - delivered by Unit Trains and BargesOrdinary proteinApr                                       5.7200-5.9275Guaranteed maximum 10.5 pct proteinApr                                       5.7200-5.9275—US 1 Hard Red Winter Wheat - (Exporter bids-falling numbers of 300 orbetter)Ordinary protein                            5.4350-5.885011 pct protein                              6.0350-6.435011.5 pct proteinApr                                       6.3350-6.6350May                                       6.3350-6.6350Jun                                       6.4350-6.7350Jul                                       6.3850-6.6850Aug NC                                    6.4150-6.515012 pct protein                              6.4850-6.735013 pct protein                              6.7850-6.9350—US 1 Dark Northern Spring Wheat (with a minimum of 300 falling numbers, a maximumof 0.5 part per million vomitoxin, and a maximum of one percent total damage)13 pct protein                              6.9250-7.075014 pct proteinApr                                       7.3250-7.7250May                                       7.3250-7.6250Jun                                       7.4500-7.5500Jul                                       7.4500Aug NC                                    7.2775-7.377515 pct protein                              7.5650-7.885016 pct protein                              7.8050-8.0650—US 2 Yellow CornShuttle trains-Delivered full coast Pacific Northwest-BNApr                                       5.0575-5.1075May                                       5.0075-5.0475Jun                                       5.0375-5.0475Jul                                       4.9975-5.0275Aug                                       5.0375Sep                                       NA—US 1 Yellow SoybeansShuttle trains-Delivered full coast Pacific Northwest-BNApr                                       NAMay                                       NAJun                                       NAJul                                       NAAug                                       NAOct                                       11.1575-11.2775—US 2 Heavy White Oats **                      3.4825** Not well tested.Exporter Bids Portland Rail/Barge             Mar 2018Averages in Dollars per bushelUS 1 Soft White by Unit Trains and Barges   5.5600US 1 Hard Red Winter (Ordinary protein)     5.5300US 1 Hard Red Winter (11.5% protein)        6.4700US 1 Dark Northern Spring (14% protein)     7.3300Source:    USDA Market News Service, Portland, ORNiki Davila 503-535-5001  Portland.LPGMN@ams.usda.gov24 Hour Market Report  503-535-5005www.ams.usda.gov/mnreports/jo—gr110.txtwww.ams.usda.gov/lpsmarketnewspage8:42 P nd