BC-BOT Table,1st Ld
BC-BOT Table,1st Ld

The Associated Press

CHICAGO




CHICAGO (AP) — Noon trading on the Chicago Board of Trade Wed.:
Open  High  Low  Noon    Chg.WHEAT                                   5,000 bu minimum; cents per bushel    May      473    484¾  472¼  484¾  +12¼Jul      485¼  497¾  484½  497½  +13¼Sep      503    514¾  502    514¾  +13  Dec      525¼  537¾  525¼  537¾  +12¼Mar      545½  556    544    556    +12  May      554½  562½  553¼  561¼   +9  Jul      557    567    555½  567    +11¾Sep      571¼  572¾  571¼  571½   +9¼Dec      578½  586¾  576¾  586¾  +10¼Mar      590½  594¾  590½  594¾   +9½Est. sales 110,452.  Tue.'s sales 140,758Tue.'s open int 471,237                CORN                                     5,000 bu minimum; cents per bushel    May      381    387    380½  386¼   +5  Jul      390    396¼  389½  395½   +5½Sep      397    403¼  396¾  402¾   +5½Dec      406¼  412¼  406    411¾   +5¼Mar      414    420    414    419½   +5¼May      418¾  424    418½  423½   +5  Jul      422    427¾  422    427¼   +5  Sep      409½  411¾  408¾  411½   +2¾Dec      412¼  414¾  412    414¼   +2½Mar      422¼  422½  422¼  422½   +2¾Jul      430¾  430¾  430¾  430¾   +2¼Dec      420    420    419¾  420     +2¾Jul      430    430    430    430     +4½Dec      421    421    421    421          Est. sales 332,946.  Tue.'s sales 379,384Tue.'s open int 1,797,330               OATS                                      5,000 bu minimum; cents per bushel    May      222    227    222    225¼   +1  Jul      225¼  229¾  225    227¾   +2½Sep      233    235¼  233    235¼   +3  Dec      244¼  247½  244¼  246¼   +2¾Est. sales 579.  Tue.'s sales 1,791     Tue.'s open int 6,177,  up 6           SOYBEANS                               5,000 bu minimum; cents per bushel    May     1022¼ 1033¼ 1020½ 1030     +7¾Jul     1033½ 1045   1032   1041¾   +7¾Aug     1036   1046¾ 1034½ 1043¾   +7¾Sep     1033   1042¼ 1030¼ 1039¼   +7½Nov     1029   1039¼ 1027¼ 1036¼   +7½Jan     1031½ 1043   1031½ 1039¼   +5½Mar     1020½ 1028   1020½ 1023¾   +1¼May     1021   1025   1019   1021     + ¾Jul     1025¼ 1029   1022¾ 1025     + ¼Aug     1019   1021   1017¼ 1021     + ¾Nov      993¼  996    991    993     + ¼Jul      992¼  992¼  992¼  992¼   —3¾Est. sales 194,099.  Tue.'s sales 299,861Tue.'s open int 906,318                SOYBEAN OIL                            60,000 lbs; cents per lb                 May      31.00  31.07  30.73  30.80   —.21Jul      31.25  31.35  30.99  31.07   —.20Aug      31.39  31.45  31.12  31.20   —.19Sep      31.54  31.58  31.28  31.38   —.16Oct      31.68  31.72  31.43  31.49   —.19Dec      32.04  32.10  31.79  31.85   —.19Jan      32.31  32.36  32.06  32.12   —.18Mar      32.61  32.61  32.37  32.43   —.19May      32.90  32.90  32.70  32.75   —.19Jul      33.23  33.23  33.03  33.05   —.17Dec      33.49  33.49  33.33  33.33   —.16Est. sales 141,438.  Tue.'s sales 162,491Tue.'s open int 499,378                SOYBEAN MEAL                         100 tons; dollars per ton                May     372.20 380.10 371.70 376.50  +4.40Jul     376.30 384.10 375.70 380.70  +4.40Aug     377.70 383.50 376.40 380.50  +3.70Sep     375.80 382.40 375.80 379.50  +3.20Oct     375.70 379.60 375.70 377.00  +2.80Dec     372.40 377.40 371.70 375.10  +2.70Jan     369.90 374.00 368.90 371.70  +2.20Mar     361.10 362.80 359.30 359.60   +.30May     356.40 357.60 354.50 355.70   +.80Jul     356.40 356.40 354.20 355.60   +.80Oct     344.10 344.10 344.10 344.10  +1.70Dec     344.40 344.60 341.50 341.50   —.20Est. sales 121,537.  Tue.'s sales 162,763Tue.'s open int 509,787