BC-US--Grain Prices, US
BC-US--Grain Prices, US

The Associated Press

CHICAGO




CHICAGO (AP) — Futures trading on the Chicago Board of Trade Wednesday.:
SettleWHEAT (5,000 bu ; cents per bushel)May             486 1-4Jul             499    Sep             515 1-4Dec             538 1-4Mar             556 1-4May             564 3-4Jul             568 1-4Sep             575 1-2Dec             589 3-4Mar             598 1-2May             598 1-4Jul             582 3-4CORN (5,000 bu ; cents per bushel)May             386 1-2Jul             395 3-4Sep             403    Dec             412 1-4Mar             420    May             424    Jul             428 1-4Sep             412    Dec             415 1-4Mar             423 1-4May             427 1-2Jul             431 3-4Sep             424 1-2Dec             420 1-4Jul             429 3-4Dec             425    OATS (5,000 bu ; cents per bushel)May             222 3-4Jul             228 3-4Sep             231    Dec             242 3-4Mar             250 3-4May             254 1-4Jul             259 1-4Sep             260 1-2Dec             260 1-2Mar             260 1-2Jul             259    Sep             259    SOYBEANS (5,000 bu ; cents per bushel)May            1027 1-2Jul            1039 1-4Aug            1041 1-2Sep            1037    Nov            1034 3-4Jan            1037 3-4Mar            1022 3-4May            1020    Jul            1024    Aug            1019 3-4Sep            1002 3-4Nov             991 1-2Jan             993 3-4Mar             992    May             992 1-4Jul             998    Aug             990 1-2Sep             986 3-4Nov             977 1-4Jul             980    Nov             980    SOYBEAN OIL (60,000 lbs; cents per lb)May             30.79Jul             31.06Aug             31.19Sep             31.34Oct             31.47Dec             31.83Jan             32.10Mar             32.43May             32.74Jul             33.03Aug             33.10Sep             33.17Oct             33.14Dec             33.29Jan             33.41Mar             33.64May             33.69Jul             33.81Aug             33.80Sep             33.80Oct             33.80Dec             33.77Jul             33.77Oct             33.77Dec             33.77SOYBEAN MEAL (100 tons; dollars per ton)May            376.20Jul            380.50Aug            380.10Sep            379.10Oct            376.80Dec            374.80Jan            371.70Mar            359.70May            354.60Jul            354.30Aug            351.80Sep            348.10Oct            342.00Dec            341.30Jan            341.90Mar            342.70May            342.70Jul            341.00Aug            341.00Sep            341.00Oct            341.00Dec            337.80Jul            337.80Oct            337.80Dec            347.90