Preclosing
Preclosing

The Associated Press

CHICAGO




CHICAGO (AP) — Futures trading on the Chicago Board of Trade Wed:
OpenHighLowLastChg.WHEAT5,000 bu minimum; cents per bushelMay473486¼472¼485¾+13¼Jul485¼499½484½498¾+14½Sep503516502515¾+14Dec525¼539½525¼539+13½Mar545½557½544557¼+13¼May554½565553¼565+12¾Jul557568¾555½568¾+13½Sep571¼575¼571¼575¼+13Dec578½589¾576¾589¾+13¼Mar590½597590½597+11¾Est. sales 124,288.  Tue.'s sales 140,758Tue.'s open int 471,237CORN5,000 bu minimum; cents per bushelMay381387380½386¾+5½Jul390396¼389½395¾+5¾Sep397403¼396¾402¾+5½Dec406¼412½406412+5½Mar414420¼414419¾+5½May418¾424418½423¾+5¼Jul422428422427¾+5½Sep409½412¼408¾412¼+3½Dec412¼415412414¾+3Mar422¼422½422¼422¼+2½Jul430¾430¾430¾430¾+2¼Dec420420419¾420+2¾Jul430430430430+4½Dec421421421421Est. sales 373,308.  Tue.'s sales 379,384Tue.'s open int 1,797,330OATS5,000 bu minimum; cents per bushelMay222227221¾221¾—2½Jul225¼229¾225227¾+2½Sep233235¼233235¼+3Dec244¼247½244¼245¼+1¾Est. sales 682.  Tue.'s sales 1,791Tue.'s open int 6,177,  up 6SOYBEANS5,000 bu minimum; cents per bushelMay1022¼1033¼1020½1028+5¾Jul1033½104510321039¾+5¾Aug10361046¾1034½1041¾+5¾Sep10331042¼1030¼1037¼+5½Nov10291039¼1027¼1034¾+6Jan1031½10431031½1037½+3¾Mar1020½10281020½1021¾—¾May1021102510191019¾—½Jul1025¼10291022¾1024—¾Aug101910211017¼1020—¼Nov993¼996991992—¾Jul992¼992¼992¼992¼—3¾Est. sales 210,347.  Tue.'s sales 299,861Tue.'s open int 906,318