BC-USDA-Natl Sheep
BC-USDA-Natl Sheep

The Associated Press



SA—LS850San Angelo, TX    Wed Apr 25, 2018    USDA Market NewsNational Sheep Summary for Wednesday, April 25, 2018Compared to last week at Sioux Falls, SD no comparison due to thelight receipts last week due to the snowstorm.Slaughter Lambs:   Choice and Prime 2-3 90-150 lbs:Sioux Falls:    shorn 127 lbs 176.00; shorn and wooled 140-155 lbs151.00-153.00.Virginia:       no test.Buffalo, MO:    125-130 lbs 147.50.Slaughter Lambs:  Choice and Prime 1-2:Sioux Falls:    no test.Virginia:       no test.Buffalo, MO:    60-80 lbs 200.00-225.00; 80-115 lbs 160.00-195.00.Slaughter Ewes:Sioux Falls:    Good 3-4 (very fleshy) 50.00-58.00; Good 2-3 (fleshy)50.00-63.00; Utility and Good 1-3 (medium flesh) 48.00-56.00; Utility 1-2 (thin) 45.00-56.00; Cull 1 no test.Virginia:       Good 2-4 no test.Buffalo, MO:    Utility and Good 1-3 60.00-80.00.Feeder Lambs:   Medium and Large 1-2:Sioux Falls:    37 lbs 270.00; 50-60 lbs 222.50-243.00; 60-70 lbs215.00-239.00; 70-80 lbs 220.00-227.50; 82 lbs 222.50;106 lbs 193.00.Virginia:       no test.Buffalo, MO:    20-30 lbs 235.00-240.00; 40-55 lbs 215.00-222.50.Replacement Ewes: Medium and Large 1-2:Sioux Falls:    baby tooth ewes and lambs 100.00 per head.Buffalo, MO:    hair ewes 90-135 lbs 107.50-150.00 cwt; hair ewes withlambs 145.00-152.50 per family.Sheep and lamb slaughter under federal inspection for the week to datetotaled 24,000 compared with 23,000 last week and 20,000 last year.Source:  USDA Market News Service, San Angelo, TXRebecca Sauder 325-653-1778www.ams.usda.gov/mnreports/SA—LS850.txtwww.ams.usda.gov/LSMarketNews1600  rs