BC-Merc Table
BC-Merc Table

The Associated Press






BC-Merc Table,
CHICAGO (AP) — Futures trading on the Chicago Mercantile Exchange Wed:
OpenHighLowSettleChg.CATTLE40,000 lbs.; cents per lb.Apr121.30122.05121.30121.92+.82Jun105.02105.80104.62105.57+.52Aug104.70105.42104.37105.27+.35Oct108.50109.25108.25109.12+.47Dec113.00113.72112.62113.55+.33Feb114.75115.45114.30115.25+.28Apr115.27116.25114.87115.97+.27Jun109.00109.60108.50109.37+.42Aug107.75108.40107.75108.30+.30Est. sales 44,808.  Tue.'s sales 60,028Tue.'s open int 346,558,  up 994FEEDER CATTLE50,000 lbs.; cents per lb.Apr139.20139.90139.20139.85+.75May139.90141.67139.70141.35+1.20Aug145.97147.77145.42147.42+.95Sep146.72148.47146.20148.17+1.02Oct147.15148.75146.60148.47+.82Nov146.60148.20146.37147.95+.68Jan142.55144.07142.42143.77+.55Mar140.45141.75140.22141.75+.35Est. sales 11,113.  Tue.'s sales 14,551Tue.'s open int 48,473,  up 149HOGS,LEAN40,000 lbs.; cents per lb.May67.0568.7066.7068.55+1.10Jun74.7275.6073.9575.35+.53Jul78.0078.6577.3578.42+.42Aug78.1778.8777.7278.62+.45Oct66.2766.8765.7766.55+.40Dec60.9261.0560.3060.70—.22Feb64.9064.9064.3764.62—.28Apr68.4068.4067.9568.15—.25May73.25—.25Jun77.15—.10Jul76.60—.10Aug76.20—.10Est. sales 42,712.  Tue.'s sales 48,137Tue.'s open int 245,235,  up 2,587PORK BELLIES40,000 lbs.; cents per lb.No open contracts.