BC-USDA-Fdr Catl
BC-USDA-Fdr Catl

The Associated Press



SJ—LS150 St Joseph, MO    Wed  Apr  25,  2018    USDA-MO Dept of Ag Market NewsSt Joseph Stockyards - St Joseph, MOLivestock Auction Report for 4/25/2018 AUCTION                          Receipts           Week Ago             Year Ago Total Receipts:                  2,600                 2,398              2,632 Feeder Cattle:                   2,600(100           2,398(100%)        2,632(100%)***MID-SESSION***  Compared to last week, feeder steers under 600 lbsare selling mostly 4.00 to 6.00 higher, 600-750 lb steers are selling2.00 to 10.00 lower, and 750-800 lb steers are selling 8,00 higher.Feeder heifers under 500 lbs are selling mostly steady to 3.00 higher,500-600 lb heifers are steady, 600-650 lb heifers are sharply higher, while 700-750 lb heifers are sharply lower.  Feeder cattle supply included 52 percent Steers, 43 percent Heifers, and  4 percent Bulls.Feeder cattle supply over 600 lbs was 51 percent.FEEDER CATTLEFeeder Steers(Per CWT):  Medium and Large 1 241 lbs 221.00; 300-400 lbs195.50-200.00; 400-500 lbs 180.50-199.00; 500-600 lbs 170.00-185.25, 574 lbsFleshy 168.50; 600-700 lbs 146.50-170.25, 625 lbs Fleshy 155.25; 700-800 lbs151.50-164.00, Fleshy 144.25-149.00; 800-900 lbs 132.00-149.00; 900-1000 lbs123.00-129.25; 1037 lbs 115.00. Medium and Large 1-2 400-500 lbs 175.00-183.00,444 lbs Thin Fleshed 187.75; 500-600 lbs 155.25-166.00, 545 lbs Thin Fleshed171.00; 600-700 lbs 144.00, 640 lbs Calves 145.00; 700-800 lbs 139.00-139.50.Medium and Large 2 449 lbs 147.00.Feeder Heifers(Per CWT):  Medium and Large 1 287 lbs 198.00; 300-400 lbs170.50-174.00; 400-500 lbs 154.00-169.50; 500-600 lbs 145.00-162.50; 600-700 lbs134.00-162.75; 700-800 lbs 125.50-137.50; 800-900 lbs 117.50-121.50. Medium andLarge 1-2 300-400 lbs 167.50-173.50; 400-500 lbs 148.50-159.50; 500-600 lbs135.00-142.50; 600-700 lbs 126.00-142.50; 715 lbs 121.00. Medium and Large 2 300-400 lbs 149.50-152.00; 400-500 lbs 120.00-137.50.Feeder Bulls(Per CWT):  Medium and Large 1 400-500 lbs 178.50-184.00; 500-600 lbs 154.25-159.50; 636 lbs 144.00, 661 lbs Calves 140.00, 693 lbs Fleshy118.00. Medium and Large 1-2 429 lbs 160.00; 593 lbs 140.50; 640 lbs 131.00.Please Note:The above USDA LPGMN price report is reflective of the majority of classes and grades of livestock offered for sale.  There may be instances where some salesdo not fit within reporting guidelines and therefore will not be included in the report.  Prices are reported on an FOB basis, unless otherwise noted. Source:  USDA-MO Dept of Ag Market News ServiceLINDSAY BRUNET, Market Reporter, (816) 676-700024 Hour Market Report 1-573-522-9244www.ams.usda.gov/mnreports/SJ—LS150.txtwww.ams.usda.gov/market-news/livestock-poultry-grain