BC-USDA-Iowa-Daily Hogs
BC-USDA-Iowa-Daily Hogs

The Associated Press



LM—HG206Des Moines, Iowa                Wed, Apr 25, 2018               USDA Market NewsIOWA/MINNESOTA DAILY DIRECT AFTERNOON HOG REPORT BASED ON STATE OF ORIGINPLANT DELIVERED PURCHASE DATA FOR Wednesday, April 25, 2018(Includes information from 1:30 PM to 1:30 PM.)CURRENT VOLUME BY PURCHASE TYPEBARROWS & GILTS LIVE AND CARCASS BASISEstimated     Actual     Actual     ActualToday      Today   Week Ago   Year AgoProducer SoldNegotiated                                5,233      5,233      5,572      7,279Other Market Formula (Futures/Options)   13,512     13,512     13,965      8,673Swine or Pork Market Formula             70,802     70,802     64,702     61,709Other Purchase Arrangement               29,397     29,397     25,730     26,878Negotiated Formula                          225        225        190          0Packer Sold (all purchase types)          5,273      5,273      5,116      9,586--------------------------------------------------------------------------------NEGOTIATED PURCHASE (Including Packer Sold)Barrows & Gilts (carcass basis): 5,157Compared to Prior Day's closing weighted average (LM—HG204), 0.19 higherBase Price Rng $56.00 - $59.00, Wtd Avg $58.58, 5 Day Rolling Avg $58.30--------------------------------------------------------------------------------NEGOTIATED FORMULA PURCHASE (Including Packer Sold)Barrows & Gilts (carcass basis): 0                     5 Day Rolling Avg $----------------------------------------------------------------------------------COMBINED NEGOTIATED & NEGOTIATED FORMULA PURCHASE (Including Packer Sold)Barrows & Gilts (carcass basis): 5,157*Price not reported due to confidentiality* 5 Day Rolling Avg $----------------------------------------------------------------------------------IOWA/MINNESOTA DAILY DIRECT NEGOTIATED HOG PURCHASE MATRIXREPRESENTING INDIVIDUAL PACKER CARCASS MERIT BUYING PROGRAMSbased on both Fat and Muscle Measurements for a 200 lb Carcass Basis*Price not reported due to confidentiality*--------------------------------------------------------------------------------CARCASS WEIGHT DIFFERENTIALS145#   -30.00-10.00          175#   -3.00  1.00          205#    0.00  3.00155#   -30.00 -5.90          185#   -0.25  2.00          215#   -0.25  3.00165#   -15.00 -3.54          195#    0.00  3.00          225#   -2.25  2.00--------------------------------------------------------------------------------MEASUREMENTS BASED ON SLAUGHTER DATA SUBMITTED*Price not reported due to confidentiality*--------------------------------------------------------------------------------SWINE OR PORK MARKET FORMULA PURCHASE (Including Packer Sold)Barrows & Gilts (carcass basis): 81,310Base Price Range $53.58 - $64.03, Weighted Average $59.25--------------------------------------------------------------------------------NEGOTIATED PURCHASE (Including Packer Sold)Barrows & Gilts (live basis, 240-320 lbs): 692Compared to Prior Day's closing weighted average (LM—HG204), no comparisonPrice Rng $42.00 - $46.25, Wtd Avg $44.14, 5 Day Rolling Avg $44.38--------------------------------------------------------------------------------NEGOTIATED FORMULA PURCHASE (Including Packer Sold)Barrows & Gilts (live basis, 240-320 lbs): 570*Price not reported due to confidentiality* 5 Day Rolling Avg $----------------------------------------------------------------------------------COMBINED NEGOTIATED & NEGOTIATED FORMULA PURCHASE (Including Packer Sold)Barrows & Gilts (live basis, 240-320 lbs): 1,262*Price not reported due to confidentiality* 5 Day Rolling Avg $----------------------------------------------------------------------------------BARROWS & GILTS PURCHASE BY STATE OF ORIGINIowa                 99,383               Minnesota             48,421--------------------------------------------------------------------------------*Price not reported due to confidentiality, for more information visit:www.ams.usda.gov/sites/default/files/media/ConfidentialityGuidelines.pdf*Base Price is the price from which no discounts are subtracted and no premiumsare added.Source:    USDA Livestock, Poultry & Grain Market News Division, Des Moines, IA515-284-4460      email:  desm.lpgmn@ams.usda.gov24 Hour recorded market information 515-284-4830www.ams.usda.gov/market-news/livestock-poultry-grain1500C.