BC-USDA-Opening Bids KY Grain Elevs
BC-USDA-Opening Bids KY Grain Elevs

The Associated Press



SV—GR110Frankfort, KY     Wed, Apr 25, 2018     USDA-KY Dept of Ag Market NewsKentucky Daily Grain Elevators Bids:Bids as of 4:00 est, cash prices by elevators/mills to producers:US NO 2 YELLOW CORNBids           Change          Basis           ChangePurchase        3.7450-3.8150      UP 5.25       -12K to -5K         UNCHGreen River         3.8450         UP 15.25          -2K            UP 10Pennyrile       3.8150-3.9650      UP 5.25        -5K to 10K         UNCHLouisville      3.7750-3.8350  UP 5.25-UP 11.25   -9K to -3K      UNCH-UP 6Bluegrass       3.5400-3.6650    UP 11-UP 1.5   -32.5K to -20K UP 5.75-DN 3.75US NO 2 WHITE CORNBids           ChangePennyrile             NA              NAUS NO 1 YELLOW SOYBEANSBids           Change          Basis           ChangePurchase           10.0750        UP 5-UNCH          -20K         UNCH-DN 5Green River        10.0750          UP 10            -20K            UP 5Pennyrile           9.7750           UP 5            -50K            UNCHLouisville      9.4750-9.8750        UP 5        -80K to -40K        UNCHBluegrass       9.7100-9.8250     UP 24-UP 5    -56.5K to -45K    UP 19-UNCHUS NO 2 SOFT RED WINTER WHEATBids           Change          Basis           ChangePurchase              NA              NA              NA              NAGreen River           NA              NA              NA              NAPennyrile       4.4625-4.6125      UP 13.75      -40K to -25K        UNCH (Milling Qlty)     4.8625         UP 13.75          OptK            UNCHLouisville      4.3025-4.8025      UP 13.75      -56K to -6K         UNCHBluegrass           4.7300          UP 23          -13.25K         UP 9.25US NO 2 MILO EXTRA HEAVYBids           Change          Basis           ChangePurchase              NA              NA              NA              NALouisville     NA              NA              NA              NAPennyrile      NA              NA              NA              NAUS NO 2 FEED BARLEYBids            ChangePennyrile      NA              NA------------------------------------------------------------------------------Opening Contract Prices for Fall (Jul Wheat) deliveryUS NO 2 YELLOW CORNBids           Change          Basis           ChangePurchase        3.9025-3.9225  UP 5.75-UP 2.75   -22Z to -20Z     UNCH-DN 3Green River         3.8925         UP 5.75           -23Z            UNCHPennyrile       3.8725-4.0225      UP 5.75       -25Z to -10Z        UNCHLouisville     NA              NA              NA              NABluegrass      3.8225          UP 5.75         -30Z            UNCHUS NO 2 WHITE CORNBids            ChangePennyrile      4.4200          UP 8US NO 1 YELLOW SOYBEANSBids           Change          Basis           ChangePurchase           10.0975           UP 6            -25X            UNCHGreen River        10.0275           UP 6            -32X            UNCHPennyrile       9.8475-9.9975        UP 6        -50X to -35X        UNCHLouisville     NA              NA              NA              NABluegrass      9.7975          UP 6            -55X            UNCHUS NO 2 SOFT RED WINTER WHEATBids           Change          Basis           ChangePurchase        4.8900-4.9900      UP 14.75      -10N to OptN        UNCHGreen River         4.8400         UP 14.75          -15N            UNCHPennyrile       4.7400-4.7900      UP 14.75      -25N to -20N        UNCH (Milling Qlty)     5.0400         UP 14.75           5N             UNCHLouisville     4.9800          UP 14.75        -1N             UNCHBluegrass      4.7400          UP 14.75        -25N            UNCHUS NO 2 MILO EXTRA HEAVYBids            Change          Basis           ChangePurchase       NA              NA              NA              NALouisville     4.2225          UP 5.75         10Z             UNCHPennyrile      NA              NA              NA              NAUS NO 2 FEED BARLEYBids            ChangePennyrile      NA              NAPurchase- Inland elevators west of Tennesse RiverGreen River- Inland elevators near the Green RiverPennyrile- South west KY East of Tennessee River, west of I-65Louisville-Elevators near the Louisville areaBluegrass- Central Kentucky/Lexington areaSource: USDA-KY Dept of Ag Market News Service, Frankfort, KYJodee Inman  502-782-4138??????? www.ams.usda.gov/mnreports/SV—GR110.txt??????? www.ams.usda.gov/LPSMarketNewsPage1543Ekdb